step;d2;d3;d1
0;0;0;0
1;0;0;0
2;0;0;0
3;0;0;0
4;0;0;0
5;0;0;0
6;0;0;0
7;0;0;0
8;0;0;0
9;0;0;0
10;0;0;0
11;0;0;0
12;0;0;0
13;0;0;0
14;0;0;0
15;0;0;0
16;0;0;0
17;0;0;0
18;0;0;0
19;0;0;0
20;0;0;0
21;0;0;0
22;0;0;0
23;0;0;0
24;0;0;0
25;0;0;0
26;0;0;0
27;0;0;0
28;0;0;0
29;0;0;0
30;0;0;0
31;0;0;0
32;0;0;0
33;0;0;0
34;0;0;0
35;0;0;0
36;0;0;0
37;0;0;0
38;0;0;0
39;0;0;0
40;0;0;0
41;0;0;0
42;0;0;0
43;0;0;0
44;0;0;0
45;0;0;0
46;0;0;0
47;0;0;0
48;0;0;0
49;0;0;0
50;0;0;0
51;0;0;0
52;0;0;0
53;0;0;0
54;0;0;0
55;0;0;0
56;0;0;0
57;0;0;0
58;0;0;0
59;0;0;0
60;0;0;0
61;0;0;0
62;0;0;0
63;0;0;0
64;0;0;0
65;0;0;0
66;0;0;0
67;0;0;0
68;0;0;0
69;0;0;0
70;0;0;0
71;0;0;0
72;0;0;0
73;1;0;0
74;1;1;2
75;2;1;1
76;1;1;0
77;1;0;1
78;0;0;0
79;0;1;0
80;1;0;0
81;0;0;1
82;1;1;1
83;1;0;1
84;0;0;0
85;1;0;0
86;0;0;0
87;0;0;2
88;0;0;1
89;1;0;2
90;0;1;2
91;1;0;1
92;0;0;0
93;0;0;0
94;0;0;0
95;0;0;0
96;1;0;1
97;0;0;0
98;0;0;0
99;0;0;0
100;0;1;1
101;0;0;2
102;1;1;1
103;0;2;1
104;1;2;0
105;0;2;0
106;0;2;1
107;2;2;2
108;2;2;2
109;2;2;2
110;3;2;1
111;2;2;0
112;2;1;4
113;1;1;3
114;2;0;2
115;4;0;1
116;3;1;0
117;3;0;1
118;3;0;1
119;3;0;0
120;3;0;0
121;5;1;1
122;8;2;1
123;8;3;0
124;8;3;1
125;11;4;1
126;12;4;0
127;11;5;0
128;11;5;0
129;11;6;0
130;12;7;0
131;12;7;2
132;11;7;2
133;11;7;1
134;13;6;0
135;13;7;1
136;13;8;0
137;14;7;0
138;13;7;0
139;14;7;0
140;14;6;1
141;13;6;1
142;12;5;2
143;13;4;1
144;12;5;0
145;12;4;1
146;11;5;0
147;11;4;0
148;10;4;1
149;10;4;1
150;9;6;0
151;9;5;1
152;8;5;0
153;8;5;0
154;8;5;0
155;8;6;3
156;8;6;2
157;9;6;3
158;8;6;2
159;9;6;1
160;9;6;0
161;8;6;2
162;10;6;1
163;9;7;2
164;10;8;1
165;10;8;0
166;9;9;0
167;9;8;0
168;8;9;0
169;8;9;1
170;8;8;0
171;8;8;0
172;7;9;0
173;7;9;0
174;7;8;1
175;7;9;0
176;7;9;0
177;6;9;0
178;6;8;0
179;7;8;2
180;7;7;1
181;6;7;0
182;6;6;0
183;6;7;1
184;6;6;1
185;7;6;1
186;7;6;0
187;8;5;1
188;8;5;0
189;8;5;2
190;7;5;2
191;7;5;2
192;7;6;1
193;8;6;1
194;8;6;0
195;8;7;1
196;9;6;1
197;9;7;0
198;9;6;2
199;11;6;1
200;10;6;0
201;10;6;2
202;9;7;1
203;9;7;0
204;10;7;0
205;12;7;1
206;12;8;0
207;12;7;0
208;11;8;0
209;11;7;0
210;10;8;2
211;11;8;1
212;10;8;0
213;12;7;0
214;12;7;2
215;12;7;1
216;11;8;1
217;12;8;0
218;11;8;0
219;11;8;0
220;10;9;0
221;10;9;0
222;10;10;0
223;10;10;0
224;10;11;0
225;10;10;0
226;10;10;1
227;9;11;1
228;9;10;3
229;8;10;4
230;9;9;3
231;8;10;2
232;8;11;1
233;9;10;1
234;9;11;1
235;9;11;0
236;10;11;1
237;10;12;2
238;10;12;2
239;9;12;2
240;9;12;1
241;9;12;0
242;9;11;0
243;9;12;0
244;10;12;1
245;9;13;1
246;9;13;2
247;8;13;1
248;8;13;2
249;8;12;1
250;8;13;1
251;7;12;0
252;6;12;0
253;6;11;1
254;5;11;1
255;5;10;0
256;6;10;1
257;5;11;2
258;5;11;1
259;4;12;0
260;4;12;0
261;3;13;0
262;3;13;3
263;2;14;2
264;3;14;1
265;2;14;1
266;3;14;0
267;3;15;0
268;3;15;0
269;3;15;0
270;3;15;2
271;3;16;2
272;2;17;2
273;3;18;1
274;3;17;0
275;3;18;2
276;4;17;2
277;4;18;1
278;5;18;1
279;4;19;0
280;4;18;2
281;3;18;1
282;5;17;0
283;4;18;2
284;6;18;2
285;5;19;2
286;6;18;2
287;6;18;2
288;7;17;1
289;7;18;1
290;7;18;0
291;6;18;2
292;7;18;1
293;8;18;1
294;9;18;1
295;8;18;0
296;8;17;0
297;7;18;0
298;7;18;0
299;6;19;0
300;7;18;1
301;7;19;0
302;7;20;0
303;7;19;0
304;7;20;0
305;8;20;1
306;7;20;1
307;7;20;1
308;6;21;1
309;6;21;0
310;6;21;2
311;7;22;2
312;7;22;1
313;8;23;0
314;8;24;0
315;8;24;1
316;8;23;0
317;8;24;1
318;8;24;2
319;9;23;1
320;9;23;0
321;9;22;0
322;9;22;1
323;9;22;0
324;8;23;0
325;9;23;1
326;8;23;3
327;8;23;2
328;7;23;2
329;7;22;1
330;7;22;0
331;9;22;0
332;9;22;0
333;9;21;0
334;9;22;0
335;9;22;1
336;8;23;0
337;8;23;1
338;9;23;1
339;9;23;0
340;9;24;0
341;11;23;0
342;10;24;0
343;11;23;2
344;11;23;1
345;13;22;1
346;12;23;0
347;14;23;3
348;13;24;3
349;13;23;4
350;12;23;4
351;13;22;4
352;13;23;3
353;13;23;4
354;13;24;4
355;13;23;4
356;13;23;4
357;13;23;4
358;12;23;3
359;13;23;2
360;12;24;2
361;13;24;2
362;12;24;3
363;12;23;2
364;13;24;1
365;13;23;0
366;12;23;0
367;12;24;0
368;11;23;0
369;11;22;1
370;12;23;1
371;12;24;1
372;12;24;0
373;13;24;1
374;13;24;0
375;12;25;0
376;12;25;1
377;11;26;0
378;12;25;1
379;12;25;0
380;12;24;2
381;13;24;2
382;14;24;1
383;13;25;0
384;14;25;1
385;14;25;1
386;15;24;2
387;16;24;1
388;16;23;1
389;15;24;1
390;16;23;0
391;15;24;1
392;17;25;0
393;17;25;0
394;16;26;0
395;18;26;1
396;17;26;2
397;17;25;1
398;18;26;1
399;18;26;0
400;19;26;0
401;19;26;1
402;20;25;2
403;19;25;1
404;19;25;1
405;19;25;1
406;19;26;0
407;19;25;0
408;18;25;0
409;20;25;0
410;19;25;0
411;19;24;0
412;20;25;2
413;21;26;1
414;20;26;1
415;21;26;0
416;22;27;0
417;22;27;0
418;22;27;2
419;22;27;1
420;22;29;2
421;22;30;1
422;23;30;1
423;23;30;0
424;22;30;1
425;22;29;3
426;22;30;2
427;21;31;2
428;21;31;1
429;20;32;0
430;22;31;2
431;23;32;2
432;24;32;2
433;23;32;1
434;23;31;0
435;23;32;0
436;24;31;1
437;23;31;0
438;23;30;0
439;23;31;0
440;24;30;0
441;24;31;0
442;24;30;1
443;23;30;1
444;23;30;1
445;24;31;2
446;24;31;2
447;24;32;2
448;23;32;1
449;23;33;1
450;23;32;1
451;23;32;2
452;24;33;1
453;24;33;0
454;23;33;1
455;23;33;1
456;23;34;0
457;24;33;0
458;24;33;0
459;25;34;0
460;24;34;1
461;25;34;1
462;25;33;1
463;25;34;0
464;26;33;2
465;25;33;2
466;26;32;1
467;25;33;0
468;26;33;0
469;26;34;0
470;26;34;0
471;25;35;0
472;26;34;2
473;25;34;4
474;25;35;3
475;26;35;2
476;27;36;2
477;26;37;1
478;27;36;1
479;26;36;0
480;26;35;1
481;25;36;1
482;25;35;0
483;25;36;0
484;25;37;0
485;25;37;1
486;24;37;0
487;24;37;0
488;24;39;0
489;24;38;1
490;24;38;1
491;25;37;0
492;26;37;0
493;25;38;0
494;25;38;0
495;24;38;0
496;25;37;0
497;25;37;3
498;25;37;2
499;25;38;1
500;25;37;0
501;25;38;2
502;25;38;1
503;26;37;1
504;26;37;0
505;26;36;0
506;25;36;0
507;25;36;1
508;25;36;0
509;24;36;1
510;24;35;0
511;23;35;0
512;23;34;0
513;22;35;0
514;24;35;0
515;23;35;0
516;24;36;1
517;24;35;1
518;23;36;0
519;23;35;0
520;23;35;0
521;23;35;0
522;22;35;1
523;23;36;0
524;24;37;0
525;27;37;0
526;27;38;1
527;27;38;0
528;28;39;0
529;28;39;2
530;27;40;1
531;27;39;1
532;27;40;1
533;27;40;0
534;27;41;0
535;29;41;0
536;28;42;1
537;28;42;0
538;29;43;0
539;32;42;1
540;32;43;1
541;32;44;0
542;32;43;0
543;31;44;1
544;31;44;2
545;30;45;1
546;31;44;1
547;30;44;0
548;30;45;0
549;30;45;2
550;29;45;1
551;29;45;0
552;29;46;1
553;29;45;0
554;29;46;1
555;29;46;0
556;30;47;0
557;29;47;0
558;28;48;0
559;30;48;0
560;30;49;0
561;30;49;0
562;29;50;1
563;29;50;1
564;29;51;0
565;31;51;1
566;31;52;0
567;31;51;1
568;30;52;0
569;30;51;0
570;29;51;0
571;29;50;1
572;30;50;0
573;29;51;1
574;29;50;1
575;28;50;0
576;29;49;1
577;29;49;1
578;29;48;1
579;28;49;0
580;28;49;1
581;28;48;2
582;28;49;2
583;28;50;1
584;28;49;1
585;27;50;0
586;28;50;3
587;30;49;3
588;29;49;3
589;30;48;2
590;31;48;1
591;31;48;0
592;30;49;0
593;30;48;0
594;29;49;0
595;30;48;1
596;29;49;0
597;29;49;0
598;28;50;0
599;30;49;0
600;29;50;0
601;30;51;0
602;30;50;0
603;29;50;0
604;29;49;1
605;28;49;2
606;28;48;2
607;27;48;2
608;29;49;2
609;29;49;1
610;28;50;0
611;29;50;1
612;29;51;0
613;29;51;0
614;28;52;0
615;28;52;0
616;29;52;1
617;29;52;0
618;29;53;1
619;30;52;0
620;29;52;2
621;30;51;3
622;31;51;3
623;30;51;2
624;31;51;1
625;31;52;3
626;31;51;3
627;31;52;3
628;32;52;4
629;32;52;3
630;32;52;5
631;32;51;5
632;33;51;4
633;33;51;5
634;32;51;4
635;32;50;4
636;33;51;4
637;33;50;3
638;33;50;2
639;34;49;1
640;34;49;1
641;33;50;0
642;33;50;0
643;34;50;0
644;35;49;0
645;35;50;0
646;36;49;0
647;35;49;0
648;35;49;0
649;35;50;1
650;36;50;0
651;37;50;1
652;36;51;0
653;36;52;0
654;35;52;0
655;36;51;0
656;36;51;0
657;37;51;1
658;36;51;2
659;36;51;2
660;35;52;1
661;35;52;0
662;34;52;1
663;34;52;0
664;33;52;0
665;33;52;0
666;32;52;1
667;32;52;3
668;32;53;2
669;32;54;2
670;32;53;2
671;31;53;1
672;30;54;1
673;31;53;0
674;30;53;2
675;30;53;1
676;30;53;1
677;29;54;0
678;29;54;1
679;28;55;0
680;28;55;1
681;27;56;0
682;27;55;1
683;27;55;0
684;27;54;0
685;26;54;0
686;27;54;1
687;26;55;0
688;28;55;0
689;28;54;1
690;28;54;1
691;28;54;0
692;28;54;0
693;28;55;0
694;28;56;2
695;28;57;2
696;28;57;1
697;28;58;0
698;29;58;0
699;28;58;1
700;28;57;1
701;28;57;1
702;30;56;0
703;29;57;0
704;29;57;1
705;29;58;0
706;30;58;0
707;30;58;0
708;30;58;0
709;29;59;1
710;30;59;0
711;29;59;0
712;30;59;0
713;30;59;0
714;31;59;0
715;30;60;1
716;30;60;0
717;29;60;0
718;30;60;2
719;29;60;1
720;29;60;0
721;29;61;0
722;28;62;0
723;28;63;1
724;30;63;1
725;30;63;0
726;29;63;1
727;29;62;1
728;28;62;0
729;28;61;0
730;27;61;0
731;27;60;0
732;28;61;1
733;28;61;1
734;28;61;0
735;29;61;1
736;29;60;0
737;31;61;1
738;31;61;1
739;30;62;1
740;31;61;1
741;30;61;0
742;31;60;0
743;30;60;0
744;30;60;1
745;29;60;1
746;30;59;1
747;29;59;0
748;32;59;0
749;34;58;0
750;33;58;1
751;33;57;0
752;32;57;2
753;33;57;1
754;34;57;0
755;34;57;0
756;34;57;1
757;34;56;0
758;35;56;2
759;35;56;2
760;35;56;2
761;35;56;1
762;35;55;1
763;34;55;1
764;35;55;1
765;34;56;1
766;34;56;1
767;34;56;0
768;34;55;1
769;33;56;1
770;33;56;1
771;32;57;0
772;34;58;0
773;34;57;0
774;33;58;1
775;33;58;1
776;33;58;1
777;33;57;1
778;32;58;0
779;32;58;1
780;31;59;0
781;31;59;0
782;30;60;1
783;30;60;0
784;29;60;0
785;29;59;0
786;28;60;0
787;28;59;1
788;27;59;1
789;27;58;0
790;28;58;2
791;27;57;1
792;26;57;1
793;26;57;0
794;25;58;0
795;25;58;0
796;25;58;0
797;25;58;0
798;24;58;0
799;25;57;1
800;25;58;0
801;25;58;1
802;24;59;0
803;24;59;0
804;23;60;2
805;23;60;2
806;22;61;1
807;22;60;0
808;22;60;1
809;22;59;1
810;21;59;1
811;21;58;1
812;20;58;1
813;21;58;1
814;20;58;0
815;21;57;0
816;20;57;1
817;20;56;0
818;19;56;0
819;20;56;1
820;19;56;0
821;19;55;0
822;21;55;0
823;21;54;0
824;21;55;1
825;21;55;0
826;20;56;1
827;22;56;2
828;22;57;2
829;22;57;3
830;21;57;2
831;23;57;2
832;23;58;3
833;22;59;2
834;23;59;2
835;24;59;1
836;24;58;1
837;23;59;0
838;25;59;0
839;24;60;0
840;26;59;0
841;26;59;0
842;25;59;0
843;27;58;2
844;27;58;1
845;27;57;0
846;26;57;0
847;26;56;0
848;26;56;1
849;26;57;0
850;28;57;1
851;27;57;2
852;29;56;1
853;28;56;3
854;29;56;3
855;28;57;4
856;28;57;4
857;28;56;6
858;28;57;5
859;28;58;4
860;30;59;3
861;29;59;2
862;30;58;1
863;30;59;1
864;30;58;0
865;30;58;1
866;31;58;1
867;30;59;2
868;30;58;1
869;30;59;0
870;30;59;0
871;30;60;1
872;29;60;2
873;29;59;1
874;29;59;0
875;29;58;2
876;30;59;1
877;31;59;1
878;30;59;0
879;30;58;1
880;29;58;1
881;29;57;1
882;28;57;2
883;28;56;1
884;27;56;1
885;27;55;1
886;26;55;1
887;26;55;0
888;28;54;0
889;28;54;1
890;29;53;1
891;29;53;4
892;30;52;3
893;30;52;3
894;29;52;5
895;29;52;4
896;28;53;5
897;29;53;5
898;28;54;5
899;28;53;5
900;28;54;4
901;28;53;4
902;28;54;5
903;27;54;5
904;27;54;4
905;30;54;3
906;30;53;2
907;29;53;1
908;30;52;2
909;30;52;1
910;30;52;1
911;32;51;1
912;32;52;2
913;33;51;1
914;34;51;1
915;34;51;1
916;34;51;0
917;35;51;0
918;34;53;0
919;36;52;0
920;35;52;0
921;36;52;0
922;35;53;0
923;35;53;0
924;34;54;0
925;35;54;0
926;35;54;1
927;35;54;1
928;34;54;0
929;34;53;0
930;33;54;0
931;34;53;2
932;34;53;3
933;34;53;2
934;33;54;3
935;33;54;2
936;32;55;3
937;32;55;2
938;31;56;1
939;32;57;1
940;32;56;1
941;32;56;1
942;32;55;0
943;31;55;0
944;32;54;0
945;31;55;0
946;33;54;1
947;32;55;2
948;34;55;1
949;33;56;0
950;34;56;0
951;34;57;0
952;34;57;0
953;34;58;0
954;34;58;3
955;34;59;3
956;35;60;3
957;35;61;2
958;36;61;1
959;35;61;0
960;35;60;1
961;34;60;1
962;34;59;0
963;33;59;0
964;34;59;2
965;34;59;1
966;33;59;0
967;33;60;1
968;36;60;0
969;35;60;1
970;36;60;2
971;35;60;2
972;36;60;1
973;35;60;1
974;35;59;1
975;34;60;1
976;34;60;1
977;34;60;1
978;34;60;1
979;34;61;0
980;35;61;0
981;35;62;0
982;35;61;0
983;34;62;0
984;34;61;0
985;35;61;0
986;34;61;0
987;34;60;1
988;33;60;0
989;35;59;0
990;35;60;0
991;35;59;0
992;34;59;0
993;34;58;1
994;33;58;0
995;34;57;0
996;33;58;1
997;33;58;2
998;32;59;3
999;32;59;5
1000;32;60;4
1001;33;61;5
1002;32;61;4
1003;34;60;4
1004;34;60;3
1005;34;59;2
1006;34;60;1
1007;35;59;0
1008;35;59;0
1009;37;59;0
1010;36;59;0
1011;36;59;0
1012;35;59;0
1013;35;58;0
1014;34;58;0
1015;34;57;0
1016;33;59;0
1017;34;59;0
1018;34;59;0
1019;33;59;0
1020;33;59;0
1021;32;58;0
1022;32;57;0
1023;31;57;1
1024;32;57;1
1025;33;57;0
1026;33;57;0
1027;32;58;0
1028;32;58;0
1029;33;59;0
1030;33;59;0
1031;32;60;0
1032;33;60;1
1033;33;61;0
1034;35;61;0
1035;34;62;0
1036;34;61;0
1037;33;62;0
1038;33;62;0
1039;32;63;0
1040;32;63;1
1041;31;64;2
1042;32;63;1
1043;32;63;1
1044;33;63;1
1045;32;64;1
1046;32;63;0
1047;32;64;1
1048;31;64;1
1049;31;63;0
1050;31;63;1
1051;30;63;0
1052;32;62;1
1053;31;63;2
1054;31;62;2
1055;30;62;1
1056;31;62;1
1057;30;62;1
1058;30;62;0
1059;30;63;0
1060;30;62;0
1061;29;62;1
1062;30;61;1
1063;31;62;2
1064;30;62;2
1065;30;61;2
1066;31;62;1
1067;30;63;1
1068;30;63;0
1069;29;64;1
1070;29;64;0
1071;28;65;0
1072;29;65;0
1073;28;66;1
1074;28;65;1
1075;29;66;0
1076;28;65;1
1077;27;65;1
1078;27;64;2
1079;26;65;1
1080;26;65;0
1081;25;65;0
1082;25;65;1
1083;24;65;2
1084;24;64;2
1085;23;64;1
1086;24;63;0
1087;24;63;1
1088;23;62;1
1089;22;62;1
1090;23;62;2
1091;22;63;1
1092;23;64;2
1093;23;64;1
1094;22;63;1
1095;21;63;3
1096;21;62;6
1097;20;63;5
1098;20;63;5
1099;20;64;4
1100;19;64;5
1101;19;64;4
1102;18;65;4
1103;19;65;3
1104;18;65;2
1105;18;65;1
1106;17;66;1
1107;17;65;0
1108;16;66;0
1109;16;65;0
1110;16;65;3
1111;16;65;2
1112;16;66;1
1113;15;66;0
1114;16;66;1
1115;16;66;0
1116;16;65;0
1117;15;65;1
1118;15;65;0
1119;14;65;0
1120;14;65;0
1121;13;65;0
1122;13;65;0
1123;12;65;0
1124;12;65;0
1125;13;64;1
1126;12;65;0
1127;13;65;0
1128;12;66;0
1129;13;66;0
1130;12;67;1
1131;13;67;0
1132;12;67;0
1133;13;67;0
1134;13;68;0
1135;14;69;1
1136;16;68;1
1137;16;67;1
1138;17;67;0
1139;18;67;0
1140;17;67;0
1141;17;66;0
1142;17;66;0
1143;16;66;1
1144;16;65;0
1145;15;65;1
1146;16;64;1
1147;15;64;1
1148;15;64;2
1149;15;64;1
1150;15;63;1
1151;14;63;0
1152;14;62;1
1153;14;63;0
1154;14;62;0
1155;14;62;1
1156;14;61;0
1157;14;62;1
1158;14;63;0
1159;15;63;0
1160;15;64;0
1161;15;64;0
1162;15;65;0
1163;15;65;1
1164;16;65;2
1165;16;64;2
1166;17;64;1
1167;16;65;0
1168;16;64;1
1169;16;64;0
1170;17;63;1
1171;16;64;0
1172;16;63;1
1173;16;63;1
1174;15;64;0
1175;15;64;0
1176;14;65;0
1177;15;64;1
1178;14;65;1
1179;14;64;2
1180;13;65;3
1181;14;65;3
1182;13;66;2
1183;14;65;1
1184;13;65;1
1185;13;64;0
1186;12;64;0
1187;12;63;0
1188;12;64;0
1189;12;65;1
1190;12;65;2
1191;12;66;4
1192;12;65;4
1193;11;65;4
1194;12;65;3
1195;12;65;4
1196;12;66;3
1197;13;66;3
1198;12;66;2
1199;12;66;1
1200;13;67;0
1201;13;66;0
1202;13;66;0
1203;13;65;0
1204;13;65;2
1205;13;64;2
1206;13;64;1
1207;13;63;0
1208;12;63;1
1209;12;62;1
1210;11;63;1
1211;11;63;0
1212;11;64;0
1213;13;63;1
1214;12;63;0
1215;12;63;1
1216;14;64;1
1217;14;65;0
1218;15;64;0
1219;15;64;2
1220;14;65;2
1221;14;64;4
1222;13;65;4
1223;13;64;5
1224;14;64;4
1225;14;64;4
1226;16;63;4
1227;15;64;4
1228;16;64;3
1229;15;65;3
1230;15;64;2
1231;14;65;2
1232;14;65;2
1233;14;66;1
1234;15;66;1
1235;15;67;0
1236;15;66;1
1237;17;66;0
1238;17;66;0
1239;17;65;4
1240;16;65;5
1241;17;64;4
1242;16;65;4
1243;16;65;4
1244;16;64;3
1245;15;65;2
1246;16;65;2
1247;16;66;2
1248;15;67;1
1249;15;67;1
1250;15;68;0
1251;15;67;0
1252;16;67;1
1253;16;67;1
1254;15;68;2
1255;15;68;2
1256;14;68;1
1257;15;69;0
1258;15;69;0
1259;16;69;0
1260;17;69;1
1261;18;69;1
1262;18;70;0
1263;18;70;1
1264;19;69;1
1265;19;70;0
1266;19;70;0
1267;18;70;0
1268;18;70;0
1269;19;71;2
1270;19;70;1
1271;18;70;2
1272;18;70;1
1273;17;70;0
1274;17;71;1
1275;16;72;0
1276;19;71;0
1277;18;72;0
1278;18;72;1
1279;18;72;0
1280;19;72;0
1281;18;73;0
1282;19;74;1
1283;18;74;1
1284;19;75;0
1285;19;75;0
1286;18;76;0
1287;18;75;0
1288;17;75;0
1289;18;74;1
1290;18;74;0
1291;19;73;0
1292;18;74;0
1293;18;74;0
1294;17;75;1
1295;17;74;1
1296;16;74;1
1297;17;73;0
1298;16;73;0
1299;18;72;1
1300;17;73;1
1301;18;73;3
1302;18;74;2
1303;20;73;1
1304;19;73;1
1305;19;72;2
1306;19;72;2
1307;19;73;3
1308;18;72;3
1309;19;71;3
1310;19;71;2
1311;20;70;2
1312;19;71;1
1313;19;70;0
1314;20;70;0
1315;20;70;1
1316;20;69;2
1317;20;70;1
1318;21;70;1
1319;20;70;1
1320;20;71;1
1321;22;70;0
1322;23;71;0
1323;23;71;1
1324;23;72;0
1325;23;72;0
1326;23;72;2
1327;24;71;1
1328;23;72;1
1329;23;72;1
1330;23;73;1
1331;23;72;1
1332;23;72;0
1333;24;71;1
1334;23;71;0
1335;23;71;1
1336;23;72;1
1337;23;71;0
1338;23;71;0
1339;25;70;0
1340;24;71;1
1341;24;71;2
1342;23;71;1
1343;23;72;0
1344;22;73;0
1345;22;73;1
1346;21;74;2
1347;22;74;2
1348;21;75;2
1349;21;75;2
1350;20;76;4
1351;22;77;5
1352;22;77;4
1353;22;78;4
1354;23;78;3
1355;22;78;3
1356;23;78;3
1357;22;78;2
1358;22;77;1
1359;22;78;1
1360;22;78;1
1361;22;78;1
1362;22;77;0
1363;22;77;0
1364;22;76;0
1365;22;77;3
1366;21;78;2
1367;21;78;2
1368;21;78;1
1369;21;77;0
1370;21;77;3
1371;20;77;3
1372;20;76;4
1373;19;76;3
1374;19;75;3
1375;18;75;4
1376;18;74;3
1377;18;75;3
1378;19;74;2
1379;19;74;2
1380;19;74;2
1381;19;75;3
1382;19;75;2
1383;20;75;1
1384;21;75;0
1385;20;76;0
1386;20;75;2
1387;19;76;1
1388;20;76;0
1389;19;77;1
1390;20;76;0
1391;20;76;1
1392;20;75;0
1393;20;75;1
1394;20;74;0
1395;19;74;0
1396;19;75;1
1397;19;74;3
1398;19;74;2
1399;19;74;2
1400;20;73;2
1401;20;73;1
1402;21;73;0
1403;22;73;0
1404;22;73;0
1405;22;74;1
1406;22;74;0
1407;22;73;1
1408;21;74;0
1409;21;73;1
1410;20;73;0
1411;20;73;1
1412;23;72;1
1413;23;72;0
1414;23;72;0
1415;23;73;0
1416;24;72;2
1417;23;72;1
1418;25;71;0
1419;24;72;0
1420;24;71;2
1421;23;71;1
1422;25;71;0
1423;24;71;0
1424;24;71;1
1425;23;71;1
1426;25;72;0
1427;25;72;2
1428;24;72;1
1429;24;71;2
1430;23;72;1
1431;25;72;2
1432;25;71;2
1433;24;72;2
1434;24;72;2
1435;23;73;3
1436;23;74;3
1437;23;74;3
1438;22;74;2
1439;22;74;1
1440;22;75;0
1441;22;75;0
1442;22;76;0
1443;22;76;1
1444;22;76;0
1445;23;76;1
1446;24;75;0
1447;24;76;0
1448;24;76;1
1449;25;76;0
1450;25;75;0
1451;24;76;1
1452;24;75;0
1453;23;75;2
1454;23;74;1
1455;22;75;0
1456;22;75;1
1457;22;74;0
1458;21;74;0
1459;22;74;1
1460;24;75;0
1461;25;75;0
1462;25;76;2
1463;24;76;1
1464;25;76;1
1465;25;77;0
1466;25;77;0
1467;26;77;0
1468;27;76;1
1469;26;76;0
1470;27;76;1
1471;26;76;2
1472;26;75;3
1473;25;75;3
1474;25;74;2
1475;24;75;1
1476;24;75;0
1477;24;76;0
1478;26;75;1
1479;25;77;2
1480;25;77;1
1481;24;78;0
1482;24;78;1
1483;23;78;2
1484;23;77;1
1485;23;77;0
1486;25;77;0
1487;24;77;1
1488;26;77;0
1489;26;76;1
1490;25;76;1
1491;26;75;1
1492;25;75;2
1493;25;74;2
1494;24;74;3
1495;24;73;2
1496;23;73;2
1497;23;72;1
1498;23;72;0
1499;24;71;0
1500;23;71;0
1501;26;70;0
1502;25;71;1
1503;25;70;1
1504;24;71;0
1505;24;71;1
1506;24;72;1
1507;23;73;1
1508;23;72;0
1509;23;72;1
1510;23;72;1
1511;23;72;1
1512;24;71;2
1513;25;71;1
1514;25;71;0
1515;25;70;0
1516;24;70;0
1517;25;69;0
1518;24;69;0
1519;25;69;0
1520;25;69;1
1521;24;69;1
1522;24;68;0
1523;24;68;1
1524;24;67;1
1525;25;68;1
1526;25;69;2
1527;25;69;1
1528;27;70;0
1529;27;70;0
1530;27;71;0
1531;27;71;1
1532;28;72;1
1533;28;72;0
1534;28;72;0
1535;29;72;0
1536;28;73;1
1537;29;72;1
1538;29;72;0
1539;30;71;0
1540;29;72;0
1541;30;72;2
1542;29;73;1
1543;32;73;0
1544;32;72;2
1545;32;73;2
1546;33;72;1
1547;33;72;2
1548;34;71;3
1549;34;72;2
1550;34;72;3
1551;34;72;3
1552;34;72;2
1553;33;72;3
1554;34;71;2
1555;34;72;1
1556;34;72;1
1557;33;73;1
1558;34;74;2
1559;34;74;3
1560;33;75;5
1561;35;74;5
1562;34;74;5
1563;34;73;5
1564;34;74;6
1565;33;75;5
1566;34;75;5
1567;33;76;5
1568;36;75;4
1569;35;76;3
1570;35;76;3
1571;35;76;3
1572;36;76;2
1573;36;76;3
1574;36;75;2
1575;36;75;1
1576;37;75;0
1577;37;74;0
1578;36;74;0
1579;36;74;0
1580;36;73;0
1581;35;73;0
1582;36;73;0
1583;35;74;1
1584;35;73;0
1585;34;74;0
1586;36;74;1
1587;35;75;0
1588;36;75;0
1589;36;74;0
1590;37;74;0
1591;36;74;0
1592;38;73;0
1593;39;73;0
1594;40;73;0
1595;39;74;1
1596;39;73;1
1597;40;73;1
1598;42;73;0
1599;42;74;0
1600;42;74;1
1601;43;75;0
1602;43;75;1
1603;42;76;0
1604;42;75;1
1605;41;76;1
1606;41;75;0
1607;41;75;0
1608;41;74;2
1609;42;74;2
1610;42;74;2
1611;41;74;1
1612;41;73;0
1613;40;73;0
1614;41;73;1
1615;40;73;0
1616;41;72;0
1617;42;72;0
1618;44;71;0
1619;43;72;1
1620;43;71;1
1621;42;72;0
1622;42;73;0
1623;41;73;0
1624;42;73;0
1625;41;74;0
1626;42;73;0
1627;42;73;2
1628;42;73;2
1629;41;73;3
1630;41;72;2
1631;40;72;2
1632;40;72;2
1633;41;72;2
1634;40;72;2
1635;40;71;1
1636;39;72;0
1637;40;71;0
1638;39;71;1
1639;40;70;2
1640;40;71;2
1641;41;71;1
1642;42;72;0
1643;42;72;0
1644;42;72;0
1645;42;73;1
1646;41;73;0
1647;41;72;0
1648;42;72;0
1649;42;71;2
1650;41;71;2
1651;41;70;1
1652;41;71;0
1653;42;70;0
1654;41;70;0
1655;41;70;1
1656;41;70;0
1657;41;69;0
1658;41;69;0
1659;41;68;2
1660;41;68;1
1661;42;67;1
1662;42;67;0
1663;43;67;1
1664;42;67;0
1665;44;66;0
1666;44;67;1
1667;43;67;0
1668;43;67;0
1669;42;68;3
1670;43;68;3
1671;43;69;2
1672;43;69;2
1673;42;69;2
1674;42;68;2
1675;41;68;2
1676;41;68;2
1677;40;68;1
1678;40;69;0
1679;40;69;1
1680;41;69;0
1681;44;69;0
1682;43;69;1
1683;44;69;0
1684;45;70;0
1685;47;69;0
1686;46;70;0
1687;46;70;2
1688;45;70;2
1689;46;69;2
1690;45;70;3
1691;46;69;2
1692;45;70;3
1693;47;70;3
1694;47;70;3
1695;47;69;2
1696;46;70;1
1697;46;70;1
1698;46;69;0
1699;45;69;0
1700;47;68;0
1701;46;69;1
1702;48;68;1
1703;47;68;1
1704;48;69;0
1705;48;69;0
1706;47;69;1
1707;47;68;0
1708;47;68;1
1709;49;67;0
1710;48;67;0
1711;48;67;0
1712;48;67;0
1713;47;68;0
1714;47;67;0
1715;47;67;1
1716;48;67;2
1717;47;67;2
1718;47;66;2
1719;46;66;1
1720;46;65;2
1721;45;65;1
1722;46;64;1
1723;47;65;1
1724;47;65;2
1725;48;65;1
1726;48;65;2
1727;48;64;2
1728;48;64;2
1729;48;64;2
1730;48;64;1
1731;48;64;0
1732;49;63;1
1733;49;64;1
1734;49;64;1
1735;49;65;1
1736;49;65;0
1737;49;65;1
1738;49;65;1
1739;48;66;1
1740;48;65;0
1741;47;66;1
1742;47;66;0
1743;46;66;0
1744;46;65;3
1745;45;67;3
1746;46;67;3
1747;45;68;3
1748;46;68;3
1749;45;69;3
1750;48;69;3
1751;47;70;2
1752;47;70;2
1753;46;71;2
1754;46;71;1
1755;46;72;2
1756;47;72;1
1757;46;73;1
1758;46;73;3
1759;46;74;4
1760;46;73;3
1761;46;74;2
1762;46;74;3
1763;46;75;2
1764;47;76;1
1765;46;76;1
1766;46;76;2
1767;45;77;3
1768;46;77;3
1769;46;78;4
1770;47;78;4
1771;46;78;3
1772;47;78;2
1773;47;79;1
1774;48;79;0
1775;47;80;1
1776;47;80;0
1777;47;81;0
1778;47;80;0
1779;46;80;0
1780;47;81;1
1781;47;81;0
1782;49;81;0
1783;48;81;0
1784;49;81;0
1785;49;80;0
1786;50;80;0
1787;50;80;0
1788;52;81;0
1789;52;81;0
1790;52;82;1
1791;53;82;0
1792;52;83;0
1793;54;83;0
1794;55;83;1
1795;55;83;0
1796;55;84;0
1797;57;85;3
1798;56;86;2
1799;57;86;3
1800;56;87;2
1801;57;88;1
1802;57;87;2
1803;56;87;1
1804;56;87;3
1805;55;88;2
1806;56;88;1
1807;55;88;0
1808;55;88;0
1809;55;89;1
1810;56;88;2
1811;55;88;1
1812;56;87;1
1813;56;87;2
1814;56;86;1
1815;56;87;0
1816;56;87;0
1817;57;87;1
1818;57;87;4
1819;56;87;4
1820;56;86;5
1821;56;86;5
1822;55;86;5
1823;56;87;4
1824;55;87;5
1825;58;87;5
1826;58;88;4
1827;59;88;4
1828;58;88;3
1829;60;87;3
1830;59;87;3
1831;59;87;2
1832;61;87;2
1833;61;86;1
1834;62;87;1
1835;62;86;1
1836;63;87;1
1837;63;88;2
1838;63;88;2
1839;63;88;3
1840;62;88;2
1841;63;88;1
1842;63;88;1
1843;64;87;0
1844;63;87;0
1845;63;86;0
1846;63;87;1
1847;63;87;0
1848;62;87;2
1849;62;87;1
1850;63;88;0
1851;63;88;0
1852;62;89;0
1853;63;88;0
1854;63;88;0
1855;63;87;0
1856;62;87;1
1857;64;86;1
1858;63;86;2
1859;64;85;4
1860;63;85;3
1861;63;84;3
1862;62;86;2
1863;62;86;2
1864;62;86;2
1865;62;85;1
1866;61;86;0
1867;62;85;1
1868;62;86;1
1869;62;88;1
1870;62;87;0
1871;62;87;1
1872;63;86;1
1873;62;87;1
1874;63;86;0
1875;62;87;0
1876;63;86;1
1877;62;87;0
1878;62;87;1
1879;61;88;0
1880;62;88;0
1881;64;88;0
1882;64;89;1
1883;65;89;0
1884;67;88;0
1885;67;88;1
1886;67;88;0
1887;66;89;2
1888;66;88;1
1889;65;89;0
1890;65;89;1
1891;64;89;0
1892;64;88;0
1893;63;88;0
1894;64;88;0
1895;63;89;0
1896;64;89;0
1897;63;90;0
1898;64;89;1
1899;65;89;1
1900;64;89;2
1901;64;89;3
1902;65;88;2
1903;64;89;2
1904;65;89;1
1905;64;90;0
1906;66;89;1
1907;67;89;0
1908;67;88;0
1909;67;88;0
1910;68;87;0
1911;67;88;0
1912;67;89;2
1913;68;89;1
1914;68;89;1
1915;68;88;2
1916;67;88;2
1917;67;87;1
1918;68;88;0
1919;68;87;0
1920;68;88;1
1921;68;88;0
1922;68;88;1
1923;68;88;0
1924;68;89;0
1925;70;89;0
1926;70;90;1
1927;71;90;0
1928;71;90;0
1929;71;89;0
1930;71;90;1
1931;73;89;0
1932;73;89;0
1933;73;89;0
1934;72;89;0
1935;72;89;0
1936;73;89;0
1937;73;88;0
1938;72;88;0
1939;72;87;0
1940;72;87;0
1941;73;86;0
1942;72;86;0
1943;73;85;0
1944;72;87;1
1945;73;86;1
1946;72;86;2
1947;72;86;1
1948;71;87;0
1949;72;86;1
1950;71;87;1
1951;71;86;1
1952;70;87;2
1953;70;87;1
1954;69;87;2
1955;70;87;4
1956;69;88;6
1957;70;87;5
1958;71;87;4
1959;71;87;3
1960;70;87;2
1961;70;87;2
1962;69;87;1
1963;69;87;2
1964;68;88;2
1965;69;88;1
1966;69;89;2
1967;70;90;1
1968;71;90;0
1969;71;91;0
1970;73;91;0
1971;73;92;0
1972;73;92;0
1973;72;93;0
1974;72;93;0
1975;71;93;2
1976;72;93;2
1977;71;93;2
1978;71;92;0
1979;71;92;1
1980;73;93;2
1981;73;93;1
1982;72;94;0
1983;72;93;1
1984;71;93;0
1985;72;92;0
1986;72;92;1
1987;74;92;1
1988;73;92;0
1989;73;91;0
1990;72;92;1
1991;73;92;0
1992;72;93;1
1993;72;93;2
1994;73;94;1
1995;74;94;0
1996;75;94;0
1997;75;94;0
1998;74;95;3
1999;75;94;2
2000;74;94;1
2001;75;94;1
2002;74;94;0
2003;74;94;1
2004;73;95;0
2005;74;95;0
2006;73;96;0
2007;74;96;0
2008;73;97;1
2009;73;97;1
2010;72;98;1
2011;74;99;0
2012;74;98;2
2013;75;99;1
2014;75;100;0
2015;76;99;1
2016;76;99;0
2017;77;98;1
2018;76;99;0
2019;77;98;0
2020;76;99;0
2021;76;98;1
2022;75;98;0
2023;76;97;0
2024;76;97;0
2025;76;96;0
2026;76;97;0
2027;76;96;0
2028;76;97;1
2029;77;96;0
2030;77;96;0
2031;78;95;0
2032;78;96;1
2033;77;96;1
2034;79;96;0
2035;79;97;0
2036;79;97;2
2037;79;97;1
2038;79;96;0
2039;80;96;0
2040;80;95;0
2041;80;95;4
2042;80;94;3
2043;79;94;2
2044;79;94;1
2045;79;94;1
2046;80;94;1
2047;79;94;1
2048;79;94;0
2049;79;94;1
2050;81;94;1
2051;83;94;0
2052;82;94;0
2053;83;94;0
2054;82;95;0
2055;82;94;1
2056;82;94;1
2057;82;93;1
2058;83;94;0
2059;82;95;1
2060;82;95;2
2061;83;95;2
2062;84;94;1
2063;83;94;1
2064;83;94;0
2065;82;94;1
2066;82;93;2
2067;81;93;1
2068;81;92;0
2069;80;92;1
2070;81;91;0
2071;80;92;0
2072;80;91;0
2073;80;92;0
2074;82;92;1
2075;81;93;2
2076;81;93;1
2077;80;94;0
2078;82;94;0
2079;82;94;1
2080;82;93;0
2081;81;94;0
2082;82;93;0
2083;81;94;0
2084;81;93;1
2085;82;94;0
2086;82;93;0
2087;82;93;0
2088;83;92;0
2089;82;92;0
2090;82;91;1
2091;83;92;1
2092;83;92;1
2093;84;92;0
2094;83;92;0
2095;83;91;0
2096;82;93;0
2097;82;94;0
2098;84;95;1
2099;87;95;1
2100;86;95;0
2101;86;95;1
2102;86;96;1
2103;88;96;0
2104;88;95;0
2105;88;95;0
2106;87;96;1
2107;88;95;0
2108;87;95;0
2109;89;94;0
2110;89;94;1
2111;89;93;0
2112;89;93;0
2113;89;94;1
2114;91;94;0
2115;91;95;0
2116;91;94;0
2117;91;95;0
2118;91;95;1
2119;91;95;1
2120;93;95;0
2121;92;94;0
2122;91;94;1
2123;91;93;0
2124;91;93;1
2125;91;94;1
2126;90;94;1
2127;91;94;1
2128;92;94;0
2129;93;95;0
2130;92;95;0
2131;92;95;2
2132;92;95;2
2133;93;94;1
2134;95;94;0
2135;97;94;0
2136;96;95;0
2137;98;95;0
2138;97;96;0
2139;97;95;1
2140;97;96;0
2141;98;95;1
2142;97;95;2
2143;97;94;1
2144;96;94;1
2145;97;93;0
2146;96;93;0
2147;97;93;0
2148;97;93;0
2149;98;92;0
2150;98;92;2
2151;98;91;2
2152;97;91;2
2153;97;91;3
2154;96;92;4
2155;97;93;4
2156;97;93;3
2157;97;94;3
2158;97;94;3
2159;96;94;3
2160;96;93;2
2161;96;93;2
2162;96;94;1
2163;96;93;1
2164;95;94;1
2165;95;94;0
2166;94;95;0
2167;94;95;0
2168;94;96;1
2169;94;96;0
2170;93;97;0
2171;94;96;1
2172;94;96;0
2173;94;96;0
2174;94;95;1
2175;94;95;0
2176;95;95;1
2177;95;95;0
2178;96;95;1
2179;95;96;0
2180;95;96;0
2181;94;96;0
2182;94;96;0
2183;93;96;0
2184;93;96;0
2185;92;97;0
2186;95;96;1
2187;95;97;0
2188;96;96;0
2189;95;96;1
2190;96;95;0
2191;96;95;1
2192;96;94;0
2193;95;94;1
2194;95;93;1
2195;95;94;0
2196;95;94;1
2197;96;93;1
2198;96;94;2
2199;96;93;1
2200;97;94;0
2201;98;94;1
2202;97;95;2
2203;98;95;3
2204;97;96;4
2205;99;95;3
2206;98;96;2
2207;99;96;1
2208;98;96;0
2209;99;96;0
2210;98;97;0
2211;98;97;1
2212;97;98;1
2213;98;98;1
2214;97;98;0
2215;97;99;1
2216;97;99;0
2217;96;99;1
2218;96;99;2
2219;95;100;1
2220;96;100;1
2221;95;101;1
2222;96;102;1
2223;97;102;0
2224;97;102;0
2225;97;102;0
2226;97;103;0
2227;98;104;1
2228;97;104;0
2229;97;104;1
2230;97;105;0
2231;98;105;0
2232;97;106;2
2233;98;107;2
2234;98;106;1
2235;98;106;2
2236;100;105;2
2237;99;105;1
2238;101;104;0
2239;101;104;1
2240;101;103;0
2241;100;103;0
2242;100;102;0
2243;99;103;0
2244;99;102;1
2245;99;102;0
2246;99;102;0
2247;99;103;1
2248;101;102;0
2249;100;103;0
2250;101;104;0
2251;100;104;1
2252;100;103;0
2253;100;104;0
2254;101;103;0
2255;100;103;0
2256;100;103;1
2257;99;104;1
2258;101;103;0
2259;100;104;0
2260;101;103;1
2261;100;104;0
2262;100;103;1
2263;101;103;0
2264;101;104;1
2265;101;105;1
2266;100;105;0
2267;100;104;0
2268;99;105;0
2269;99;105;1
2270;99;105;0
2271;99;105;0
2272;98;105;0
2273;98;104;0
2274;97;104;0
2275;98;104;0
2276;97;105;1
2277;99;105;1
2278;100;105;0
2279;99;106;0
2280;100;106;0
2281;99;106;0
2282;99;105;0
2283;101;106;0
2284;102;105;0
2285;101;106;0
2286;101;105;2
2287;100;105;2
2288;100;105;1
2289;100;106;1
2290;100;106;0
2291;100;107;0
2292;99;108;2
2293;99;108;1
2294;98;108;0
2295;99;108;1
2296;98;109;0
2297;99;108;2
2298;98;109;1
2299;98;109;0
2300;99;109;0
2301;98;110;2
2302;98;109;2
2303;98;109;5
2304;97;109;4
2305;97;109;3
2306;97;110;3
2307;97;109;2
2308;98;109;1
2309;98;108;1
2310;98;108;0
2311;99;107;0
2312;98;107;0
2313;98;106;0
2314;98;107;0
2315;98;107;0
2316;99;106;0
2317;98;106;1
2318;98;105;0
2319;98;106;0
2320;98;106;1
2321;98;106;0
2322;99;106;2
2323;98;107;1
2324;98;107;3
2325;97;107;3
2326;97;106;2
2327;96;107;3
2328;96;106;2
2329;95;106;2
2330;95;105;1
2331;94;105;0
2332;94;105;0
2333;94;104;0
2334;93;105;0
2335;96;105;1
2336;96;106;0
2337;97;106;0
2338;97;107;0
2339;97;107;0
2340;97;107;1
2341;98;107;0
2342;98;107;0
2343;98;107;2
2344;97;107;2
2345;97;106;2
2346;96;107;2
2347;96;106;1
2348;95;106;1
2349;96;106;1
2350;95;107;1
2351;95;106;0
2352;94;106;1
2353;95;105;0
2354;94;105;0
2355;94;104;0
2356;95;104;1
2357;95;104;1
2358;95;103;1
2359;96;104;0
2360;97;104;0
2361;97;104;0
2362;97;105;1
2363;98;104;0
2364;98;105;1
2365;98;105;1
2366;97;105;0
2367;97;105;0
2368;98;106;0
2369;99;105;0
2370;99;105;0
2371;99;104;0
2372;98;104;1
2373;98;104;2
2374;98;104;1
2375;99;103;0
2376;98;103;0
2377;99;102;2
2378;98;103;2
2379;98;102;2
2380;97;102;3
2381;97;101;4
2382;96;101;4
2383;96;100;4
2384;95;100;5
2385;95;99;5
2386;95;99;4
2387;95;98;3
2388;97;99;3
2389;97;99;2
2390;98;100;2
2391;98;100;1
2392;97;101;1
2393;97;101;0
2394;97;101;0
2395;98;101;0
2396;99;102;1
2397;101;102;0
2398;100;102;0
2399;100;102;0
2400;99;103;1
2401;99;102;2
2402;98;103;2
2403;99;103;2
2404;99;102;1
2405;99;102;0
2406;99;101;0
2407;100;101;0
2408;100;100;1
2409;101;100;0
2410;102;100;0
2411;102;99;0
2412;101;100;1
2413;102;99;0
2414;103;100;0
2415;103;100;0
2416;102;101;0
2417;104;101;0
2418;104;101;0
2419;103;101;0
2420;103;101;1
2421;104;100;1
2422;103;100;0
2423;103;99;1
2424;102;99;0
2425;104;98;0
2426;103;99;0
2427;103;98;0
2428;102;99;0
2429;103;99;0
2430;103;99;0
2431;104;98;0
2432;103;99;0
2433;103;99;1
2434;104;98;1
2435;104;99;1
2436;104;100;1
2437;104;100;0
2438;103;101;2
2439;103;100;2
2440;106;101;1
2441;105;101;1
2442;108;101;0
2443;109;100;1
2444;108;100;0
2445;110;99;0
2446;109;99;0
2447;110;98;1
2448;110;98;1
2449;111;97;2
2450;111;97;2
2451;111;97;2
2452;112;96;1
2453;111;97;2
2454;112;96;2
2455;112;96;1
2456;112;96;0
2457;112;96;0
2458;112;95;1
2459;113;96;0
2460;114;96;0
2461;113;96;0
2462;113;95;1
2463;112;96;0
2464;113;96;1
2465;113;97;0
2466;114;97;0
2467;115;96;0
2468;115;96;0
2469;114;97;0
2470;114;97;1
2471;113;97;1
2472;113;96;0
2473;112;96;0
2474;112;96;0
2475;111;97;1
2476;111;96;2
2477;111;97;1
2478;111;97;2
2479;110;98;1
2480;110;97;2
2481;110;98;2
2482;110;97;3
2483;109;98;2
2484;111;97;1
2485;110;97;2
2486;110;97;1
2487;110;98;1
2488;110;97;2
2489;109;98;1
2490;110;98;2
2491;109;98;2
2492;112;98;1
2493;111;98;1
2494;113;98;1
2495;112;99;0
2496;112;99;0
2497;112;99;0
2498;113;98;1
2499;112;98;0
2500;113;98;0
2501;114;97;1
2502;113;98;0
2503;113;97;0
2504;114;98;0
2505;114;97;0
2506;114;98;0
2507;115;98;0
2508;115;99;0
2509;115;99;2
2510;114;99;2
2511;115;98;2
2512;114;98;1
2513;115;97;3
2514;114;98;2
2515;115;97;1
2516;114;98;0
2517;115;97;1
2518;117;97;0
2519;116;98;1
2520;116;97;2
2521;115;98;2
2522;115;97;1
2523;116;97;2
2524;116;98;1
2525;116;98;1
2526;115;99;1
2527;116;98;1
2528;115;98;0
2529;115;97;2
2530;115;97;2
2531;115;96;1
2532;117;97;0
2533;117;96;1
2534;116;96;1
2535;117;96;0
2536;117;96;0
2537;118;96;1
2538;117;96;1
2539;117;95;1
2540;117;95;0
2541;118;94;0
2542;117;95;0
2543;119;94;0
2544;118;95;0
2545;118;95;0
2546;117;96;0
2547;119;96;0
2548;119;96;1
2549;119;96;1
2550;120;97;0
2551;123;96;0
2552;122;96;0
2553;122;96;0
2554;121;97;0
2555;122;97;0
2556;121;98;3
2557;122;98;3
2558;123;99;2
2559;123;98;1
2560;122;98;0
2561;122;97;0
2562;121;97;0
2563;121;97;0
2564;120;97;3
2565;120;97;2
2566;120;97;1
2567;120;97;1
2568;120;98;1
2569;119;99;0
2570;120;99;0
2571;121;100;1
2572;122;99;0
2573;124;100;0
2574;125;100;2
2575;125;100;2
2576;125;100;2
2577;125;100;1
2578;124;100;1
2579;124;99;0
2580;123;100;0
2581;123;100;0
2582;123;100;0
2583;125;100;0
2584;124;101;0
2585;125;101;0
2586;125;101;0
2587;125;101;0
2588;126;101;1
2589;126;101;0
2590;127;101;1
2591;128;100;0
2592;127;100;2
2593;127;100;2
2594;126;101;2
2595;126;100;3
2596;125;100;2
2597;125;100;1
2598;124;101;1
2599;124;101;0
2600;124;101;2
2601;124;101;1
2602;123;102;0
2603;123;102;1
2604;122;102;0
2605;122;101;0
2606;123;102;0
2607;122;103;1
2608;123;102;1
2609;122;102;0
2610;123;101;0
2611;122;101;1
2612;122;100;1
2613;122;101;1
2614;122;100;1
2615;122;100;0
2616;121;100;0
2617;120;99;0
2618;120;99;1
2619;119;99;1
2620;121;99;1
2621;121;99;0
2622;121;99;1
2623;121;99;0
2624;120;100;0
2625;120;100;2
2626;119;100;1
2627;119;100;0
2628;118;101;1
2629;119;100;0
2630;118;100;1
2631;118;99;1
2632;118;100;2
2633;117;100;2
2634;118;99;2
2635;117;99;1
2636;117;99;1
2637;116;99;0
2638;117;98;0
2639;116;99;0
2640;116;98;0
2641;117;98;1
2642;117;99;0
2643;117;100;1
2644;116;99;0
2645;116;98;0
2646;115;99;0
2647;115;98;0
2648;115;98;1
2649;115;97;1
2650;115;98;0
2651;116;98;0
2652;116;99;0
2653;117;99;1
2654;117;100;0
2655;116;101;2
2656;116;101;1
2657;115;102;1
2658;116;103;2
2659;117;102;1
2660;116;102;0
2661;116;102;0
2662;115;102;0
2663;116;101;0
2664;115;101;0
2665;116;102;0
2666;116;102;3
2667;116;102;3
2668;115;102;2
2669;115;101;1
2670;114;101;0
2671;115;101;0
2672;115;102;0
2673;115;102;2
2674;114;103;1
2675;115;103;0
2676;114;104;0
2677;118;104;0
2678;117;104;1
2679;117;104;2
2680;116;104;1
2681;116;104;0
2682;115;104;0
2683;116;103;0
2684;117;103;0
2685;117;102;0
2686;116;102;0
2687;116;102;0
2688;116;103;1
2689;117;102;0
2690;116;102;0
2691;116;101;1
2692;115;101;0
2693;117;100;0
2694;117;100;1
2695;117;101;1
2696;117;101;0
2697;118;100;0
2698;119;101;0
2699;118;102;1
2700;118;102;1
2701;117;102;0
2702;118;101;0
2703;118;102;0
2704;118;101;1
2705;117;102;0
2706;117;101;1
2707;117;101;1
2708;117;101;0
2709;117;102;2
2710;118;103;2
2711;119;102;1
2712;119;102;1
2713;119;102;0
2714;118;102;1
2715;118;103;0
2716;117;102;0
2717;117;102;2
2718;116;103;1
2719;116;102;0
2720;115;103;0
2721;117;103;0
2722;117;104;0
2723;117;104;0
2724;116;105;0
2725;118;104;0
2726;117;104;0
2727;117;103;2
2728;116;103;1
2729;116;102;1
2730;115;102;1
2731;117;101;1
2732;116;101;0
2733;117;101;0
2734;117;101;0
2735;117;101;0
2736;116;101;0
2737;116;101;0
2738;116;101;1
2739;116;100;0
2740;115;101;1
2741;115;101;0
2742;114;102;0
2743;114;102;0
2744;114;103;1
2745;113;104;2
2746;113;104;2
2747;112;104;2
2748;112;103;2
2749;113;104;2
2750;113;104;1
2751;115;104;2
2752;114;104;2
2753;115;103;2
2754;114;104;2
2755;115;103;1
2756;114;103;0
2757;114;103;0
2758;113;103;0
2759;113;103;0
2760;112;103;0
2761;112;103;0
2762;112;104;1
2763;114;103;0
2764;113;103;2
2765;113;103;1
2766;112;104;1
2767;112;103;1
2768;111;103;0
2769;111;103;2
2770;112;103;2
2771;112;102;2
2772;111;102;1
2773;112;102;1
2774;111;103;2
2775;111;103;1
2776;110;104;0
2777;110;104;0
2778;109;105;0
2779;111;105;1
2780;113;106;0
2781;113;107;0
2782;114;107;0
2783;113;108;0
2784;113;108;0
2785;113;109;1
2786;114;109;0
2787;113;110;0
2788;115;110;1
2789;115;110;0
2790;116;110;1
2791;117;109;1
2792;119;109;0
2793;120;109;0
2794;120;109;0
2795;121;110;2
2796;121;110;1
2797;121;111;1
2798;122;111;0
2799;123;111;0
2800;124;111;0
2801;123;111;0
2802;123;111;0
2803;122;111;0
2804;122;110;0
2805;123;110;0
2806;123;109;0
2807;122;109;1
2808;123;109;0
2809;122;109;1
2810;124;108;0
2811;123;108;2
2812;124;109;1
2813;123;110;0
2814;125;110;0
2815;124;110;0
2816;124;109;1
2817;123;110;0
2818;125;109;1
2819;124;109;0
2820;124;108;1
2821;123;108;0
2822;124;108;0
2823;124;108;1
2824;123;108;3
2825;125;107;2
2826;125;108;2
2827;125;107;1
2828;125;108;0
2829;125;108;0
2830;125;109;0
2831;125;109;1
2832;125;109;0
2833;125;109;0
2834;125;109;1
2835;126;108;0
2836;125;108;2
2837;125;107;1
2838;125;108;0
2839;125;107;1
2840;124;107;1
2841;124;106;0
2842;123;106;0
2843;124;105;0
2844;123;105;0
2845;124;104;0
2846;125;104;1
2847;125;103;0
2848;124;104;2
2849;124;103;2
2850;124;104;2
2851;124;103;2
2852;124;103;1
2853;124;102;0
2854;123;102;1
2855;123;101;0
2856;124;101;0
2857;125;102;0
2858;125;101;0
2859;124;101;0
2860;124;100;1
2861;123;101;0
2862;123;100;1
2863;123;100;1
2864;123;100;1
2865;122;101;0
2866;123;100;1
2867;122;100;2
2868;123;99;2
2869;123;99;2
2870;123;98;2
2871;123;99;1
2872;124;99;1
2873;123;100;1
2874;125;100;2
2875;124;101;2
2876;124;100;1
2877;124;100;0
2878;124;102;1
2879;124;101;0
2880;123;102;1
2881;123;102;0
2882;123;103;1
2883;125;104;1
2884;124;104;3
2885;125;103;2
2886;126;103;2
2887;126;102;1
2888;125;102;1
2889;125;101;1
2890;126;101;1
2891;127;101;2
2892;129;101;2
2893;129;102;1
2894;130;102;1
2895;129;102;0
2896;129;103;0
2897;129;102;1
2898;128;102;1
2899;128;101;0
2900;127;101;0
2901;127;100;0
2902;128;100;1
2903;127;99;1
2904;127;100;0
2905;127;100;1
2906;126;101;0
2907;127;100;1
2908;126;100;0
2909;126;99;1
2910;125;100;1
2911;125;100;1
2912;125;100;2
2913;124;101;2
2914;125;101;1
2915;125;101;1
2916;124;102;0
2917;124;103;1
2918;124;103;0
2919;123;103;1
2920;123;103;1
2921;123;103;1
2922;123;102;0
2923;123;102;2
2924;124;101;2
2925;124;101;3
2926;124;101;2
2927;125;102;1
2928;126;101;1
2929;127;102;0
2930;127;102;0
2931;126;102;0
2932;126;101;0
2933;125;101;0
2934;125;102;2
2935;125;103;1
2936;125;102;1
2937;124;102;2
2938;125;101;1
2939;124;102;0
2940;124;102;0
2941;123;102;0
2942;125;101;0
2943;125;101;0
2944;125;101;1
2945;125;102;0
2946;125;101;1
2947;125;101;1
2948;125;100;0
2949;124;101;2
2950;125;102;2
2951;125;101;1
2952;124;102;0
2953;124;102;0
2954;123;102;0
2955;123;101;0
2956;124;101;0
2957;123;101;0
2958;124;100;0
2959;123;100;1
2960;124;99;0
2961;124;99;0
2962;124;100;1
2963;126;99;0
2964;126;99;0
2965;128;99;0
2966;128;100;1
2967;128;99;0
2968;127;99;1
2969;127;98;0
2970;127;98;0
2971;127;98;0
2972;127;97;0
2973;127;98;0
2974;127;98;0
2975;127;97;1
2976;127;97;1
2977;127;96;0
2978;128;96;0
2979;127;96;0
2980;127;95;1
2981;127;96;1
2982;127;96;0
2983;126;97;0
2984;127;97;0
2985;126;97;1
2986;126;96;0
2987;126;97;0
2988;127;96;1
2989;126;96;1
2990;126;96;1
2991;126;96;0
2992;126;95;1
2993;126;95;0
2994;126;94;1
2995;125;95;2
2996;125;95;2
2997;124;96;1
2998;125;96;0
2999;125;96;0
3000;125;95;0
3001;124;95;1
3002;125;94;1
3003;125;95;0
3004;124;95;0
3005;124;95;0
3006;124;96;0
3007;125;95;1
3008;124;95;1
3009;124;94;1
3010;125;95;0
3011;125;95;1
3012;125;95;1
3013;126;95;0
3014;127;95;0
3015;128;95;0
3016;127;95;1
3017;127;95;2
3018;126;95;1
3019;126;94;0
3020;125;95;1
3021;125;95;0
3022;124;96;1
3023;124;96;0
3024;123;97;0
3025;125;98;1
3026;125;98;2
3027;125;99;1
3028;125;98;1
3029;124;99;1
3030;124;98;0
3031;123;99;3
3032;123;99;3
3033;122;99;4
3034;123;98;3
3035;122;98;3
3036;122;97;3
3037;122;97;3
3038;122;97;3
3039;122;97;4
3040;121;97;3
3041;121;97;3
3042;122;97;4
3043;122;96;4
3044;121;96;4
3045;121;95;3
3046;122;95;3
3047;122;94;3
3048;121;95;4
3049;123;94;4
3050;123;95;5
3051;123;94;5
3052;122;95;5
3053;124;95;4
3054;123;95;5
3055;123;94;5
3056;124;94;4
3057;124;95;3
3058;124;94;2
3059;123;94;1
3060;123;94;1
3061;122;95;2
3062;123;94;1
3063;124;94;1
3064;124;95;0
3065;126;95;0
3066;126;96;0
3067;126;96;0
3068;125;97;1
3069;125;96;0
3070;125;96;1
3071;126;96;2
3072;125;96;1
3073;126;95;0
3074;125;95;0
3075;125;94;0
3076;125;94;0
3077;125;93;2
3078;124;93;1
3079;124;93;1
3080;123;93;0
3081;123;92;0
3082;122;92;1
3083;123;91;0
3084;122;91;0
3085;123;90;2
3086;123;91;1
3087;123;90;1
3088;123;91;1
3089;124;91;0
3090;124;90;3
3091;123;91;2
3092;123;91;2
3093;122;91;2
3094;122;91;1
3095;122;91;1
3096;122;90;1
3097;123;91;0
3098;123;91;1
3099;123;91;0
3100;123;92;1
3101;123;91;0
3102;122;92;0
3103;123;92;0
3104;122;92;0
3105;122;92;0
3106;122;92;0
3107;123;92;1
3108;124;91;0
3109;123;91;1
3110;125;91;0
3111;126;92;1
3112;126;92;0
3113;125;92;0
3114;125;92;1
3115;125;91;1
3116;125;91;0
3117;125;90;0
3118;125;90;0
3119;125;90;0
3120;125;89;0
3121;125;89;2
3122;127;88;1
3123;127;89;0
3124;127;89;0
3125;126;90;0
3126;126;91;0
3127;127;91;1
3128;126;92;1
3129;126;92;1
3130;127;93;0
3131;127;94;0
3132;127;95;2
3133;127;94;1
3134;126;94;0
3135;126;94;0
3136;126;95;0
3137;126;95;0
3138;126;95;1
3139;126;95;0
3140;126;95;0
3141;127;94;1
3142;126;95;0
3143;128;95;1
3144;129;96;0
3145;129;96;0
3146;131;95;0
3147;131;95;1
3148;131;95;1
3149;131;94;0
3150;131;94;2
3151;131;93;1
3152;131;94;0
3153;133;94;0
3154;132;94;0
3155;134;93;1
3156;133;93;0
3157;133;92;0
3158;132;92;0
3159;132;92;0
3160;131;93;0
3161;131;93;0
3162;131;94;0
3163;132;95;2
3164;132;95;2
3165;131;95;3
3166;132;95;2
3167;131;96;1
3168;134;96;0
3169;135;97;0
3170;134;97;1
3171;133;98;0
3172;133;98;0
3173;133;99;0
3174;135;99;0
3175;135;99;0
3176;136;100;0
3177;136;100;1
3178;135;101;0
3179;135;100;1
3180;135;100;0
3181;135;99;0
3182;135;99;0
3183;134;100;1
3184;135;100;1
3185;135;101;1
3186;136;101;0
3187;135;102;0
3188;137;103;1
3189;137;103;0
3190;137;103;2
3191;138;103;1
3192;139;103;0
3193;139;104;1
3194;139;104;0
3195;138;105;1
3196;138;106;0
3197;139;106;3
3198;140;107;2
3199;140;108;2
3200;141;107;2
3201;140;108;1
3202;140;107;1
3203;140;108;2
3204;140;107;1
3205;139;107;0
3206;139;107;0
3207;139;107;1
3208;139;107;1
3209;139;108;2
3210;138;109;3
3211;138;109;3
3212;138;109;2
3213;138;109;1
3214;137;110;0
3215;138;109;0
3216;137;110;0
3217;137;111;0
3218;138;111;1
3219;137;112;1
3220;138;112;0
3221;137;113;0
3222;137;114;0
3223;138;114;0
3224;137;114;0
3225;139;114;1
3226;138;115;2
3227;139;115;1
3228;138;116;1
3229;138;115;0
3230;137;116;1
3231;137;117;2
3232;138;117;2
3233;138;118;2
3234;139;118;1
3235;139;118;1
3236;139;117;1
3237;138;117;0
3238;138;116;0
3239;137;116;1
3240;137;116;0
3241;136;116;2
3242;137;115;2
3243;136;116;2
3244;136;115;3
3245;135;116;4
3246;135;116;4
3247;135;116;4
3248;134;117;4
3249;134;117;3
3250;135;118;2
3251;136;119;2
3252;135;119;1
3253;135;118;1
3254;134;119;1
3255;134;119;0
3256;134;118;0
3257;133;118;1
3258;133;118;0
3259;132;117;0
3260;133;116;0
3261;133;116;1
3262;132;117;0
3263;133;117;0
3264;132;117;2
3265;132;117;3
3266;131;118;4
3267;132;118;3
3268;132;118;2
3269;131;119;2
3270;133;118;2
3271;133;118;1
3272;133;118;0
3273;132;118;0
3274;133;117;0
3275;132;117;0
3276;132;116;0
3277;131;116;1
3278;131;115;0
3279;130;115;0
3280;130;115;0
3281;130;116;0
3282;130;115;1
3283;129;116;0
3284;130;115;1
3285;129;115;1
3286;129;114;0
3287;128;114;0
3288;129;114;0
3289;128;115;1
3290;128;115;1
3291;127;115;0
3292;128;114;0
3293;127;115;1
3294;127;115;1
3295;126;116;1
3296;127;116;1
3297;127;117;0
3298;127;116;1
3299;126;117;1
3300;126;117;0
3301;126;118;1
3302;126;117;1
3303;125;118;0
3304;125;117;0
3305;124;118;1
3306;125;118;0
3307;124;118;1
3308;124;117;1
3309;124;117;0
3310;125;117;1
3311;125;116;2
3312;125;116;2
3313;126;116;1
3314;126;115;2
3315;125;115;5
3316;125;114;4
3317;124;115;5
3318;125;116;4
3319;124;116;3
3320;124;115;2
3321;123;116;2
3322;123;116;1
3323;123;117;0
3324;123;116;0
3325;123;116;1
3326;122;116;1
3327;124;116;0
3328;124;115;0
3329;125;115;0
3330;125;116;0
3331;125;115;0
3332;125;115;1
3333;125;116;1
3334;125;115;0
3335;125;116;1
3336;125;116;2
3337;125;117;1
3338;126;117;1
3339;125;118;1
3340;125;118;1
3341;124;119;0
3342;124;118;0
3343;123;119;0
3344;126;119;0
3345;126;120;2
3346;128;119;1
3347;127;120;1
3348;128;119;1
3349;127;120;1
3350;127;119;0
3351;126;119;2
3352;126;118;3
3353;126;119;3
3354;127;119;2
3355;126;119;3
3356;126;118;3
3357;125;118;2
3358;127;118;1
3359;127;118;0
3360;128;117;0
3361;127;117;2
3362;127;116;3
3363;126;117;2
3364;126;116;2
3365;125;117;4
3366;125;117;5
3367;126;116;6
3368;127;117;7
3369;126;117;6
3370;127;118;6
3371;127;117;5
3372;126;118;4
3373;126;118;4
3374;126;119;3
3375;126;118;4
3376;126;118;4
3377;127;118;3
3378;127;118;3
3379;128;117;2
3380;128;117;2
3381;128;117;1
3382;128;116;0
3383;128;116;0
3384;128;115;0
3385;127;116;1
3386;128;115;0
3387;127;115;0
3388;127;115;0
3389;127;114;2
3390;128;114;1
3391;129;115;1
3392;129;115;0
3393;128;115;0
3394;128;117;0
3395;128;116;1
3396;127;116;0
3397;127;115;2
3398;126;115;1
3399;126;115;0
3400;127;114;0
3401;127;114;0
3402;127;114;0
3403;126;114;0
3404;126;114;1
3405;125;115;1
3406;125;115;0
3407;124;116;0
3408;124;116;0
3409;125;117;0
3410;126;117;1
3411;126;116;1
3412;127;117;2
3413;128;116;1
3414;127;117;1
3415;127;117;1
3416;127;118;0
3417;128;117;1
3418;130;117;1
3419;130;116;1
3420;132;116;1
3421;131;116;2
3422;132;115;1
3423;131;115;2
3424;132;115;1
3425;132;115;1
3426;133;116;2
3427;133;116;1
3428;132;117;0
3429;132;117;1
3430;132;117;1
3431;133;117;1
3432;133;117;0
3433;134;116;0
3434;133;116;1
3435;133;115;1
3436;132;116;0
3437;133;116;0
3438;132;116;0
3439;132;115;0
3440;131;115;1
3441;131;114;1
3442;130;115;2
3443;130;115;1
3444;129;116;1
3445;129;116;0
3446;130;116;0
3447;130;115;2
3448;130;116;2
3449;131;116;2
3450;130;116;1
3451;130;116;0
3452;129;116;0
3453;131;116;0
3454;130;117;2
3455;130;117;2
3456;129;118;1
3457;132;117;1
3458;131;117;0
3459;131;116;0
3460;131;116;0
3461;131;115;0
3462;131;115;0
3463;131;115;0
3464;131;114;1
3465;131;115;0
3466;131;114;0
3467;130;114;0
3468;130;114;2
3469;131;114;1
3470;131;114;1
3471;132;113;0
3472;131;113;0
3473;132;112;0
3474;131;112;0
3475;132;112;0
3476;131;112;0
3477;131;111;1
3478;130;112;0
3479;131;112;0
3480;130;113;0
3481;130;113;0
3482;129;114;1
3483;129;113;0
3484;130;115;1
3485;131;116;0
3486;131;116;0
3487;131;116;1
3488;130;117;0
3489;130;117;0
3490;129;117;0
3491;129;117;0
3492;128;117;0
3493;129;116;0
3494;130;116;1
3495;130;117;1
3496;132;117;0
3497;132;118;1
3498;132;118;0
3499;132;118;0
3500;132;119;0
3501;132;118;0
3502;133;118;1
3503;133;118;0
3504;133;117;0
3505;132;118;0
3506;132;118;1
3507;133;118;2
3508;132;118;1
3509;133;118;1
3510;133;119;0
3511;134;118;1
3512;136;118;0
3513;137;117;1
3514;136;117;0
3515;139;117;0
3516;138;117;0
3517;139;117;0
3518;139;118;0
3519;140;117;2
3520;141;117;1
3521;140;117;1
3522;140;116;2
3523;142;116;2
3524;143;115;2
3525;142;115;2
3526;143;115;3
3527;143;115;3
3528;144;115;2
3529;144;115;2
3530;144;115;1
3531;144;115;0
3532;143;115;1
3533;144;114;1
3534;144;115;0
3535;145;114;1
3536;145;115;1
3537;146;114;1
3538;145;115;2
3539;146;115;2
3540;145;116;2
3541;148;115;1
3542;149;116;0
3543;150;116;1
3544;149;117;1
3545;149;117;0
3546;149;116;1
3547;149;116;0
3548;149;116;3
3549;148;116;3
3550;148;115;4
3551;149;115;4
3552;149;116;3
3553;149;116;3
3554;148;116;3
3555;148;117;3
3556;147;116;1
3557;147;115;0
3558;146;116;0
3559;146;115;0
3560;145;115;1
3561;145;115;1
3562;144;116;0
3563;146;116;0
3564;146;116;1
3565;146;116;3
3566;145;117;2
3567;145;117;2
3568;145;118;2
3569;145;118;2
3570;146;118;1
3571;145;119;0
3572;146;119;0
3573;145;120;0
3574;145;120;1
3575;145;120;0
3576;145;119;1
3577;144;119;0
3578;145;118;1
3579;144;118;0
3580;145;117;1
3581;145;118;0
3582;146;117;1
3583;145;117;0
3584;146;116;2
3585;146;116;2
3586;146;117;1
3587;147;118;0
3588;147;118;0
3589;146;118;1
3590;146;118;0
3591;146;119;0
3592;148;119;0
3593;148;120;0
3594;149;121;0
3595;149;121;0
3596;149;122;0
3597;149;121;1
3598;148;121;1
3599;149;120;0
3600;149;121;1
3601;152;121;0
3602;152;121;0
3603;153;121;0
3604;152;121;0
3605;153;120;1
3606;153;120;0
3607;153;119;1
3608;154;120;1
3609;154;121;1
3610;155;120;1
3611;155;121;0
3612;157;122;0
3613;157;121;0
3614;158;121;1
3615;157;121;1
3616;158;120;0
3617;157;120;2
3618;161;120;1
3619;161;119;1
3620;162;119;0
3621;164;118;1
3622;163;119;0
3623;164;118;0
3624;163;118;0
3625;163;119;0
3626;162;120;0
3627;162;120;0
3628;161;121;0
3629;162;122;0
3630;162;122;2
3631;164;123;1
3632;164;123;3
3633;164;124;3
3634;163;125;3
3635;163;125;2
3636;162;125;2
3637;162;124;2
3638;161;125;1
3639;162;125;0
3640;161;125;0
3641;162;124;0
3642;161;125;0
3643;161;124;0
3644;161;124;1
3645;162;124;0
3646;161;125;2
3647;161;126;1
3648;161;125;1
3649;160;125;1
3650;161;125;1
3651;160;126;0
3652;160;125;0
3653;159;125;0
3654;159;125;1
3655;158;126;0
3656;158;126;1
3657;158;125;1
3658;159;124;0
3659;159;125;0
3660;159;124;1
3661;160;124;2
3662;160;123;1
3663;159;123;0
3664;160;123;0
3665;159;124;1
3666;159;124;0
3667;159;124;1
3668;159;124;2
3669;158;124;1
3670;158;123;1
3671;157;123;0
3672;157;123;2
3673;156;123;2
3674;158;122;2
3675;157;122;1
3676;157;122;1
3677;157;122;0
3678;159;122;1
3679;158;123;0
3680;158;122;0
3681;158;122;0
3682;157;122;0
3683;157;122;0
3684;156;123;0
3685;156;123;1
3686;156;123;0
3687;155;124;0
3688;156;124;1
3689;156;125;1
3690;156;124;1
3691;155;124;2
3692;156;125;1
3693;157;125;3
3694;156;125;2
3695;157;124;1
3696;156;125;0
3697;158;124;0
3698;157;124;0
3699;157;123;0
3700;157;123;0
3701;159;122;0
3702;158;122;1
3703;158;121;0
3704;157;121;1
3705;158;121;1
3706;157;122;0
3707;157;122;0
3708;156;123;0
3709;156;123;0
3710;156;123;0
3711;156;123;0
3712;155;123;0
3713;156;123;0
3714;155;124;0
3715;156;124;2
3716;155;125;2
3717;156;124;2
3718;155;125;4
3719;155;124;4
3720;155;124;3
3721;156;124;2
3722;156;125;1
3723;156;125;1
3724;155;126;0
3725;155;126;1
3726;154;126;0
3727;155;125;0
3728;156;125;0
3729;156;125;1
3730;158;125;1
3731;157;125;1
3732;157;124;0
3733;156;124;1
3734;156;124;0
3735;155;125;0
3736;155;125;1
3737;154;125;1
3738;154;124;0
3739;153;125;0
3740;153;125;0
3741;153;125;0
3742;152;125;1
3743;152;124;1
3744;151;125;0
3745;151;125;0
3746;150;125;0
3747;150;124;1
3748;149;124;1
3749;150;123;0
3750;149;123;0
3751;149;122;0
3752;149;123;1
3753;150;123;2
3754;150;124;1
3755;149;124;0
3756;149;125;0
3757;149;126;0
3758;149;127;1
3759;150;127;2
3760;149;127;2
3761;150;128;1
3762;150;128;1
3763;149;128;3
3764;149;127;3
3765;151;127;4
3766;151;126;3
3767;151;127;2
3768;151;127;1
3769;151;128;0
3770;150;129;2
3771;151;128;3
3772;151;128;4
3773;151;128;3
3774;150;128;2
3775;151;127;1
3776;150;127;0
3777;150;127;2
3778;149;127;1
3779;149;126;1
3780;150;126;2
3781;151;125;1
3782;152;126;1
3783;153;125;0
3784;153;126;2
3785;153;126;4
3786;154;127;3
3787;154;127;5
3788;154;126;4
3789;153;126;3
3790;154;125;2
3791;154;126;2
3792;154;126;1
3793;154;126;0
3794;155;126;0
3795;154;127;0
3796;154;127;1
3797;154;128;1
3798;154;127;0
3799;153;127;0
3800;153;127;0
3801;153;128;0
3802;153;127;0
3803;153;128;1
3804;153;127;0
3805;152;127;1
3806;153;126;2
3807;153;126;1
3808;154;125;1
3809;155;126;0
3810;155;125;0
3811;154;125;1
3812;154;124;0
3813;153;125;0
3814;153;125;0
3815;152;126;0
3816;152;125;0
3817;151;125;0
3818;151;124;1
3819;151;124;1
3820;151;123;2
3821;150;124;1
3822;150;123;0
3823;149;123;1
3824;149;122;2
3825;150;123;1
3826;151;123;0
3827;151;123;1
3828;151;122;0
3829;151;123;1
3830;151;122;1
3831;150;122;0
3832;150;122;1
3833;150;122;0
3834;151;123;0
3835;152;123;0
3836;151;124;0
3837;153;123;1
3838;152;123;0
3839;154;124;2
3840;155;123;1
3841;155;123;3
3842;156;122;2
3843;155;123;4
3844;155;122;3
3845;154;123;3
3846;154;122;2
3847;155;123;1
3848;155;123;1
3849;155;123;0
3850;155;122;0
3851;154;122;0
3852;154;121;0
3853;154;121;0
3854;154;120;0
3855;154;120;1
3856;153;121;0
3857;153;120;0
3858;152;121;0
3859;152;120;0
3860;151;120;0
3861;151;120;1
3862;153;119;1
3863;153;120;0
3864;154;119;0
3865;153;119;0
3866;154;118;1
3867;153;118;0
3868;153;117;0
3869;152;118;0
3870;152;118;1
3871;152;119;2
3872;152;118;1
3873;153;118;1
3874;153;117;0
3875;152;118;0
3876;152;117;1
3877;152;118;2
3878;151;119;2
3879;152;120;3
3880;153;119;2
3881;152;120;1
3882;153;119;0
3883;153;119;0
3884;153;119;0
3885;154;119;0
3886;154;118;1
3887;153;119;1
3888;153;119;1
3889;152;120;0
3890;152;120;0
3891;152;120;1
3892;152;120;0
3893;152;120;0
3894;152;119;1
3895;151;120;0
3896;152;119;1
3897;151;119;0
3898;151;118;1
3899;151;118;2
3900;150;118;2
3901;150;117;2
3902;150;118;2
3903;150;118;1
3904;150;118;0
3905;150;117;0
3906;150;118;1
3907;151;117;1
3908;150;117;2
3909;151;116;2
3910;151;116;2
3911;152;115;2
3912;153;115;2
3913;152;116;1
3914;152;115;1
3915;153;116;1
3916;152;116;1
3917;152;115;1
3918;151;116;0
3919;151;115;1
3920;150;115;0
3921;150;114;2
3922;149;115;1
3923;150;115;0
3924;150;116;0
3925;150;115;0
3926;151;116;0
3927;151;117;0
3928;150;117;0
3929;149;118;1
3930;149;117;0
3931;149;119;0
3932;149;118;0
3933;149;118;1
3934;148;119;1
3935;148;119;0
3936;148;119;0
3937;148;118;0
3938;149;118;0
3939;149;119;0
3940;149;119;0
3941;149;120;0
3942;149;120;0
3943;148;121;0
3944;150;120;0
3945;150;121;0
3946;149;122;0
3947;149;122;1
3948;150;121;0
3949;149;122;2
3950;149;122;2
3951;148;123;1
3952;149;123;1
3953;148;123;0
3954;149;124;1
3955;150;124;1
3956;150;125;1
3957;150;125;2
3958;150;126;1
3959;152;125;0
3960;151;126;0
3961;151;126;1
3962;151;127;0
3963;151;127;2
3964;153;126;2
3965;152;126;1
3966;152;125;2
3967;153;126;1
3968;152;127;1
3969;152;127;0
3970;151;128;0
3971;151;128;0
3972;151;129;0
3973;151;129;0
3974;151;130;0
3975;152;130;0
3976;151;130;0
3977;151;130;1
3978;150;131;0
3979;151;132;2
3980;151;131;3
3981;150;132;3
3982;150;132;4
3983;150;133;4
3984;152;133;3
3985;153;134;2
3986;153;135;2
3987;153;135;1
3988;153;135;0
3989;152;135;0
3990;153;135;0
3991;152;136;0
3992;152;136;0
3993;153;136;0
3994;154;135;0
3995;153;135;1
3996;153;134;0
3997;152;135;0
3998;152;134;1
3999;152;134;2
4000;152;134;1
4001;151;134;3
4002;152;134;2
4003;152;135;3
4004;151;136;2
4005;152;135;2
4006;152;135;1
4007;152;135;1
4008;152;136;0
4009;152;136;2
4010;152;136;1
4011;152;136;0
4012;151;136;1
4013;151;136;1
4014;151;136;1
4015;152;135;0
4016;151;136;0
4017;152;135;0
4018;151;135;0
4019;152;135;0
4020;151;135;1
4021;152;134;1
4022;152;134;0
4023;155;133;0
4024;154;134;0
4025;154;134;0
4026;155;134;2
4027;154;134;2
4028;154;133;3
4029;153;133;4
4030;153;133;3
4031;153;133;2
4032;153;133;1
4033;153;134;0
4034;152;134;1
4035;152;134;0
4036;151;134;1
4037;152;133;1
4038;151;133;0
4039;151;133;1
4040;151;133;1
4041;150;133;0
4042;151;133;1
4043;152;134;0
4044;153;133;0
4045;152;133;0
4046;153;132;0
4047;154;133;0
4048;154;132;0
4049;154;133;0
4050;154;132;0
4051;154;133;0
4052;154;133;0
4053;153;134;0
4054;153;134;2
4055;152;135;2
4056;152;135;1
4057;151;135;4
4058;151;134;3
4059;152;135;2
4060;152;134;3
4061;152;134;2
4062;152;133;2
4063;152;133;1
4064;153;132;1
4065;152;133;2
4066;153;133;2
4067;152;132;1
4068;152;132;1
4069;153;133;0
4070;154;134;0
4071;154;133;0
4072;154;133;2
4073;154;132;1
4074;154;132;1
4075;154;131;2
4076;154;132;1
4077;155;133;1
4078;155;134;0
4079;155;134;0
4080;154;134;1
4081;154;134;1
4082;154;134;0
4083;154;134;1
4084;155;135;2
4085;155;135;1
4086;156;135;0
4087;156;136;0
4088;158;136;2
4089;157;136;1
4090;158;135;1
4091;157;135;0
4092;158;134;1
4093;157;135;0
4094;158;135;1
4095;157;135;1
4096;158;135;0
4097;158;136;1
4098;158;136;1
4099;158;137;0
4100;159;137;0
4101;158;137;0
4102;159;136;1
4103;159;136;0
4104;159;135;1
4105;160;135;1
4106;159;135;0
4107;160;134;1
4108;160;135;2
4109;159;135;3
4110;161;134;3
4111;161;135;3
4112;163;135;2
4113;163;134;2
4114;163;135;1
4115;164;135;1
4116;164;136;1
4117;165;137;0
4118;166;137;2
4119;165;138;2
4120;166;138;1
4121;166;138;1
4122;166;138;0
4123;165;138;0
4124;165;138;1
4125;165;139;0
4126;165;138;0
4127;166;139;1
4128;166;139;1
4129;166;139;0
4130;167;138;0
4131;167;138;0
4132;167;137;1
4133;166;138;0
4134;167;137;0
4135;167;138;0
4136;168;138;0
4137;168;138;1
4138;168;138;0
4139;168;139;0
4140;168;139;0
4141;169;140;1
4142;169;140;1
4143;168;140;0
4144;168;139;1
4145;168;139;1
4146;170;138;1
4147;169;138;1
4148;169;137;2
4149;168;138;2
4150;168;138;1
4151;168;138;0
4152;168;137;0
4153;167;137;2
4154;167;137;1
4155;166;137;1
4156;166;137;1
4157;165;137;1
4158;165;137;0
4159;164;137;0
4160;164;137;0
4161;164;137;0
4162;164;136;1
4163;163;137;1
4164;165;137;0
4165;165;137;0
4166;164;138;2
4167;164;138;2
4168;164;139;2
4169;164;139;3
4170;164;140;2
4171;164;140;1
4172;165;140;1
4173;166;140;0
4174;166;140;1
4175;166;139;1
4176;165;139;1
4177;167;138;1
4178;166;138;0
4179;167;138;1
4180;167;138;0
4181;166;139;1
4182;166;139;1
4183;166;140;2
4184;166;140;1
4185;165;141;0
4186;165;141;2
4187;165;141;2
4188;165;141;1
4189;165;141;1
4190;166;140;2
4191;165;141;1
4192;166;140;1
4193;166;141;0
4194;166;141;0
4195;165;142;0
4196;165;142;0
4197;165;143;1
4198;166;143;0
4199;165;142;0
4200;165;142;0
4201;165;142;1
4202;166;143;2
4203;166;143;2
4204;166;143;1
4205;166;143;0
4206;166;143;0
4207;165;143;1
4208;166;142;0
4209;165;143;0
4210;165;142;1
4211;165;142;0
4212;164;143;0
4213;164;143;0
4214;163;144;1
4215;164;145;1
4216;164;145;1
4217;163;146;0
4218;163;146;1
4219;164;147;0
4220;166;147;2
4221;165;147;1
4222;166;147;1
4223;165;148;0
4224;165;147;1
4225;164;147;0
4226;165;147;0
4227;164;147;0
4228;167;146;1
4229;167;146;0
4230;167;145;0
4231;167;145;0
4232;169;145;1
4233;168;146;0
4234;168;146;0
4235;167;146;0
4236;169;147;0
4237;168;148;1
4238;168;148;0
4239;168;149;1
4240;170;148;0
4241;169;149;0
4242;172;148;0
4243;171;148;1
4244;171;147;0
4245;171;147;1
4246;171;146;0
4247;171;147;0
4248;171;147;0
4249;170;147;0
4250;170;147;0
4251;169;148;0
4252;169;148;0
4253;168;149;0
4254;168;150;3
4255;168;150;2
4256;167;151;2
4257;167;151;2
4258;167;152;2
4259;170;152;2
4260;169;152;2
4261;169;152;2
4262;168;153;1
4263;168;153;0
4264;167;154;0
4265;167;154;1
4266;166;154;0
4267;166;153;1
4268;166;153;0
4269;168;152;2
4270;167;152;2
4271;167;153;1
4272;167;152;0
4273;167;151;2
4274;166;152;1
4275;168;152;0
4276;168;151;0
4277;167;151;2
4278;167;151;2
4279;167;151;1
4280;166;152;1
4281;167;151;0
4282;166;151;0
4283;166;151;0
4284;167;151;2
4285;167;151;1
4286;168;150;0
4287;168;151;1
4288;169;151;0
4289;169;152;0
4290;171;152;1
4291;171;152;0
4292;171;152;0
4293;171;152;0
4294;172;151;1
4295;171;152;0
4296;171;151;0
4297;172;151;0
4298;172;151;2
4299;172;150;1
4300;171;150;0
4301;171;150;0
4302;172;150;0
4303;172;150;1
4304;171;151;0
4305;171;151;0
4306;170;152;0
4307;170;152;2
4308;170;153;1
4309;170;154;0
4310;170;154;1
4311;169;154;0
4312;171;154;1
4313;170;154;0
4314;171;154;0
4315;171;155;0
4316;172;155;3
4317;173;154;2
4318;172;154;2
4319;174;153;1
4320;174;154;0
4321;174;155;1
4322;174;155;1
4323;173;155;0
4324;174;155;0
4325;174;156;0
4326;174;156;0
4327;174;155;0
4328;173;157;0
4329;174;157;0
4330;173;159;1
4331;173;158;0
4332;172;158;1
4333;173;158;0
4334;173;159;1
4335;173;158;1
4336;172;159;0
4337;173;159;0
4338;173;160;0
4339;174;160;0
4340;173;161;1
4341;174;161;0
4342;174;162;0
4343;174;162;1
4344;173;163;0
4345;174;163;2
4346;174;162;1
4347;174;162;0
4348;174;162;0
4349;174;162;0
4350;174;162;0
4351;175;161;0
4352;175;161;0
4353;175;160;0
4354;175;161;0
4355;176;160;1
4356;175;161;1
4357;176;160;0
4358;175;161;0
4359;177;162;1
4360;177;161;0
4361;176;162;0
4362;176;162;0
4363;176;161;1
4364;175;161;1
4365;175;162;1
4366;176;161;1
4367;175;161;0
4368;176;160;0
4369;176;160;0
4370;176;159;0
4371;176;159;2
4372;176;158;2
4373;175;159;2
4374;175;158;2
4375;175;158;1
4376;175;158;0
4377;174;158;0
4378;174;158;0
4379;175;157;0
4380;174;157;0
4381;175;156;1
4382;175;156;1
4383;176;156;0
4384;175;156;1
4385;176;156;1
4386;175;156;0
4387;175;155;1
4388;174;155;0
4389;175;155;1
4390;177;156;0
4391;177;156;1
4392;176;157;0
4393;176;157;1
4394;175;157;1
4395;175;156;1
4396;175;156;1
4397;176;157;1
4398;176;157;0
4399;176;157;0
4400;176;157;0
4401;176;158;1
4402;176;157;0
4403;175;159;1
4404;175;159;1
4405;174;159;1
4406;174;158;1
4407;173;160;0
4408;174;159;0
4409;173;160;0
4410;174;160;0
4411;173;161;0
4412;174;162;2
4413;174;162;1
4414;173;162;0
4415;174;162;0
4416;173;163;2
4417;174;163;1
4418;173;164;1
4419;173;164;0
4420;174;164;2
4421;174;164;1
4422;173;165;1
4423;173;165;1
4424;173;165;0
4425;174;164;0
4426;174;164;1
4427;176;163;4
4428;177;163;3
4429;180;163;2
4430;180;163;2
4431;180;164;1
4432;179;164;2
4433;180;163;2
4434;179;164;1
4435;181;164;0
4436;180;164;0
4437;181;165;0
4438;181;165;0
4439;181;165;0
4440;183;165;0
4441;184;166;1
4442;184;165;1
4443;184;165;1
4444;184;164;2
4445;184;165;2
4446;184;164;2
4447;185;164;1
4448;185;164;0
4449;186;164;1
4450;186;163;0
4451;185;164;1
4452;185;163;0
4453;186;164;0
4454;185;165;0
4455;186;164;0
4456;186;165;0
4457;186;165;1
4458;186;164;1
4459;185;164;3
4460;185;165;3
4461;185;164;2
4462;185;164;2
4463;186;163;3
4464;185;163;2
4465;185;162;1
4466;184;163;1
4467;185;163;2
4468;184;164;2
4469;185;163;1
4470;184;164;0
4471;184;164;0
4472;183;165;0
4473;184;165;0
4474;184;165;0
4475;183;166;1
4476;183;165;0
4477;182;165;0
4478;182;164;0
4479;182;164;1
4480;183;163;0
4481;183;164;0
4482;183;164;0
4483;182;164;0
4484;183;163;0
4485;183;163;0
4486;183;163;0
4487;182;163;0
4488;182;163;1
4489;181;163;0
4490;185;162;1
4491;185;162;0
4492;186;163;0
4493;186;163;0
4494;186;162;0
4495;185;163;0
4496;186;162;0
4497;185;163;1
4498;186;162;0
4499;186;162;1
4500;186;161;1
4501;185;162;0
4502;185;161;1
4503;185;161;1
4504;185;161;0
4505;185;161;0
4506;185;160;2
4507;184;160;2
4508;185;159;1
4509;184;160;1
4510;185;161;1
4511;184;162;0
4512;185;162;0
4513;185;163;1
4514;185;164;0
4515;186;164;0
4516;185;164;0
4517;185;163;0
4518;185;164;0
4519;184;165;0
4520;184;165;0
4521;185;165;0
4522;184;165;0
4523;184;164;0
4524;183;166;1
4525;183;166;1
4526;183;165;0
4527;182;166;0
4528;183;165;2
4529;182;165;1
4530;184;164;1
4531;184;164;1
4532;185;163;1
4533;184;164;0
4534;184;164;0
4535;185;165;1
4536;185;165;0
4537;184;166;0
4538;184;165;1
4539;183;166;0
4540;184;165;0
4541;183;165;1
4542;183;165;1
4543;182;166;0
4544;182;165;0
4545;181;166;0
4546;181;165;0
4547;182;166;1
4548;182;165;1
4549;182;165;2
4550;182;164;1
4551;182;164;1
4552;181;164;0
4553;181;165;2
4554;181;165;2
4555;181;165;2
4556;182;165;1
4557;181;166;2
4558;182;166;1
4559;181;166;1
4560;182;165;0
4561;182;166;0
4562;182;166;0
4563;181;167;0
4564;182;166;1
4565;181;166;3
4566;181;165;2
4567;181;165;1
4568;181;166;0
4569;181;166;0
4570;180;167;1
4571;180;166;0
4572;180;167;0
4573;179;167;2
4574;179;166;2
4575;179;166;1
4576;179;167;1
4577;180;167;2
4578;179;168;1
4579;179;168;0
4580;180;168;0
4581;180;168;0
4582;181;167;0
4583;180;168;0
4584;181;167;1
4585;181;167;0
4586;183;166;1
4587;182;166;0
4588;183;165;1
4589;183;166;0
4590;184;165;1
4591;184;165;0
4592;184;164;1
4593;183;164;0
4594;183;164;1
4595;183;165;1
4596;183;165;0
4597;183;166;1
4598;183;166;1
4599;182;167;1
4600;183;168;0
4601;183;169;2
4602;184;169;4
4603;183;170;3
4604;183;170;2
4605;184;169;1
4606;185;170;2
4607;185;170;1
4608;185;171;0
4609;185;172;0
4610;186;171;1
4611;185;171;0
4612;185;170;1
4613;185;170;0
4614;186;171;1
4615;186;171;0
4616;186;172;0
4617;186;172;2
4618;186;173;2
4619;186;172;3
4620;185;172;1
4621;187;171;2
4622;186;172;1
4623;186;172;3
4624;186;172;2
4625;186;172;3
4626;185;173;2
4627;185;172;3
4628;186;172;2
4629;185;173;2
4630;186;173;1
4631;185;173;1
4632;185;172;0
4633;184;172;3
4634;184;172;3
4635;183;173;3
4636;183;173;2
4637;183;173;2
4638;185;172;1
4639;184;173;0
4640;184;173;0
4641;184;174;0
4642;184;174;0
4643;185;174;1
4644;184;174;0
4645;184;174;1
4646;185;173;1
4647;185;173;3
4648;184;173;3
4649;185;172;2
4650;185;172;1
4651;185;173;2
4652;186;172;3
4653;185;173;3
4654;185;173;2
4655;184;173;1
4656;186;172;0
4657;187;172;0
4658;186;172;0
4659;186;172;0
4660;186;172;0
4661;188;171;0
4662;187;171;0
4663;187;171;0
4664;187;171;1
4665;186;173;1
4666;187;173;0
4667;186;174;2
4668;186;174;1
4669;187;174;1
4670;186;175;1
4671;187;175;1
4672;186;175;2
4673;187;176;2
4674;187;175;1
4675;186;175;1
4676;186;175;0
4677;187;176;1
4678;187;175;0
4679;187;176;1
4680;188;176;0
4681;187;177;2
4682;187;176;1
4683;186;177;0
4684;186;177;0
4685;186;178;0
4686;186;178;0
4687;187;177;0
4688;187;177;0
4689;188;177;1
4690;187;178;1
4691;188;177;1
4692;188;177;0
4693;189;176;0
4694;189;176;0
4695;188;177;0
4696;189;177;0
4697;188;178;0
4698;189;178;1
4699;188;178;0
4700;188;177;1
4701;187;178;0
4702;188;178;1
4703;187;179;0
4704;187;178;1
4705;187;178;0
4706;187;178;2
4707;188;178;1
4708;189;177;0
4709;189;177;0
4710;189;176;0
4711;188;176;1
4712;188;175;1
4713;187;176;1
4714;188;176;0
4715;187;176;0
4716;187;175;0
4717;187;175;1
4718;188;174;1
4719;187;174;0
4720;189;173;0
4721;188;174;1
4722;190;174;1
4723;190;173;0
4724;189;173;0
4725;189;172;0
4726;189;172;1
4727;189;171;0
4728;190;171;0
4729;190;170;1
4730;190;171;0
4731;189;171;1
4732;190;170;1
4733;190;170;0
4734;190;170;1
4735;189;171;0
4736;189;170;2
4737;189;171;1
4738;189;171;1
4739;190;172;0
4740;191;172;0
4741;190;173;1
4742;190;173;1
4743;190;173;0
4744;191;173;2
4745;190;174;1
4746;190;174;0
4747;190;175;2
4748;190;174;1
4749;190;174;0
4750;191;175;0
4751;191;176;1
4752;191;175;0
4753;193;176;0
4754;192;176;1
4755;193;176;1
4756;192;177;0
4757;193;177;0
4758;192;178;0
4759;193;177;1
4760;194;177;0
4761;194;176;0
4762;195;176;1
4763;197;175;1
4764;196;176;1
4765;196;175;0
4766;196;176;0
4767;197;176;0
4768;199;177;1
4769;199;177;0
4770;199;178;1
4771;200;178;0
4772;199;178;0
4773;199;178;0
4774;198;179;0
4775;198;179;2
4776;197;180;4
4777;198;179;3
4778;197;179;2
4779;198;179;1
4780;197;178;0
4781;197;177;0
4782;196;177;1
4783;197;176;2
4784;196;176;1
4785;197;176;0
4786;196;176;1
4787;196;176;0
4788;196;177;2
4789;197;177;1
4790;196;177;0
4791;196;177;1
4792;196;177;1
4793;197;177;1
4794;196;178;0
4795;196;177;1
4796;195;177;0
4797;196;177;2
4798;195;178;1
4799;195;178;0
4800;198;178;1
4801;197;178;0
4802;196;179;3
4803;197;180;2
4804;199;181;2
4805;199;181;1
4806;199;182;0
4807;199;181;0
4808;198;181;1
4809;198;181;0
4810;198;181;0
4811;199;181;1
4812;201;181;0
4813;201;181;1
4814;202;180;0
4815;202;180;0
4816;201;180;0
4817;201;179;0
4818;202;179;1
4819;201;179;0
4820;200;180;0
4821;200;179;0
4822;199;179;0
4823;199;179;0
4824;198;179;0
4825;199;178;1
4826;201;178;0
4827;200;178;0
4828;200;178;1
4829;200;179;1
4830;200;178;0
4831;199;178;0
4832;199;178;0
4833;198;178;1
4834;200;177;0
4835;199;177;0
4836;199;177;0
4837;199;178;1
4838;198;178;0
4839;197;179;0
4840;198;178;0
4841;198;178;1
4842;199;177;0
4843;198;177;1
4844;199;176;1
4845;199;176;0
4846;199;175;0
4847;199;175;0
4848;199;175;0
4849;199;174;0
4850;198;174;0
4851;199;173;1
4852;199;174;0
4853;199;174;0
4854;199;175;0
4855;200;174;1
4856;199;174;2
4857;199;174;1
4858;200;174;0
4859;201;175;0
4860;202;176;1
4861;202;176;0
4862;202;176;1
4863;203;176;1
4864;203;177;1
4865;203;176;0
4866;202;176;0
4867;202;175;0
4868;202;175;0
4869;203;174;0
4870;203;174;0
4871;204;173;1
4872;203;174;0
4873;203;175;1
4874;203;174;0
4875;202;174;1
4876;203;174;0
4877;202;174;0
4878;203;175;1
4879;203;175;1
4880;203;176;0
4881;204;176;0
4882;204;177;1
4883;203;178;2
4884;204;177;3
4885;203;178;2
4886;204;178;2
4887;204;179;1
4888;205;179;1
4889;205;180;0
4890;205;180;2
4891;205;181;1
4892;206;180;1
4893;206;182;1
4894;206;182;0
4895;206;183;0
4896;206;183;1
4897;207;184;1
4898;207;184;0
4899;208;184;0
4900;207;184;1
4901;207;183;2
4902;207;184;1
4903;207;183;0
4904;206;183;0
4905;206;182;1
4906;206;182;1
4907;206;182;0
4908;206;182;1
4909;206;182;0
4910;206;181;0
4911;206;181;0
4912;206;180;0
4913;205;180;0
4914;206;179;1
4915;205;179;0
4916;205;178;2
4917;204;178;1
4918;204;178;1
4919;203;179;0
4920;203;178;2
4921;203;178;1
4922;203;177;0
4923;203;177;1
4924;204;177;1
4925;203;177;0
4926;203;177;1
4927;203;177;0
4928;204;177;1
4929;206;177;0
4930;209;177;1
4931;210;178;0
4932;210;179;1
4933;210;178;0
4934;209;178;0
4935;211;178;1
4936;211;179;0
4937;212;179;1
4938;211;179;0
4939;211;178;1
4940;211;178;1
4941;211;178;2
4942;212;178;2
4943;211;178;2
4944;211;178;1
4945;210;178;1
4946;210;178;0
4947;209;179;0
4948;209;179;0
4949;208;179;0
4950;208;178;1
4951;207;179;0
4952;207;178;0
4953;207;178;0
4954;207;178;2
4955;207;178;2
4956;207;178;1
4957;207;177;0
4958;206;178;0
4959;206;178;1
4960;206;178;1
4961;207;177;1
4962;206;178;1
4963;206;178;0
4964;205;178;1
4965;205;177;0
4966;204;178;2
4967;204;177;1
4968;203;178;0
4969;204;177;2
4970;205;177;1
4971;207;176;0
4972;207;177;1
4973;208;176;1
4974;207;177;0
4975;208;176;1
4976;208;177;0
4977;208;177;0
4978;208;177;1
4979;208;176;0
4980;208;176;3
4981;208;176;2
4982;208;175;1
4983;207;175;0
4984;208;175;1
4985;208;175;0
4986;208;174;0
4987;207;174;1
4988;207;174;0
4989;206;175;1
4990;206;175;0
4991;205;176;0
4992;205;176;0
4993;205;177;0
4994;205;176;0
4995;205;177;0
4996;205;178;0
4997;206;178;0
4998;205;178;0
4999;206;177;0
