step;d2;d3;d1
0;0;0;0
1;0;0;0
2;0;0;0
3;0;0;0
4;0;0;0
5;0;0;0
6;0;0;0
7;0;0;0
8;0;0;0
9;0;0;0
10;0;0;0
11;0;0;0
12;0;0;0
13;0;0;0
14;0;0;0
15;0;0;0
16;0;0;0
17;0;0;0
18;0;0;0
19;0;0;0
20;0;0;0
21;0;0;0
22;0;0;0
23;0;0;0
24;0;0;0
25;0;0;0
26;0;0;0
27;0;0;0
28;0;0;0
29;0;0;0
30;0;0;0
31;0;0;0
32;0;0;0
33;0;0;0
34;0;0;0
35;0;0;0
36;0;0;0
37;0;0;0
38;0;0;0
39;0;0;0
40;0;0;0
41;0;0;0
42;0;0;0
43;0;0;0
44;0;0;0
45;0;0;0
46;0;0;0
47;0;0;0
48;0;0;0
49;0;0;0
50;0;0;0
51;0;0;0
52;0;0;0
53;0;0;0
54;0;0;0
55;0;0;0
56;0;0;0
57;0;0;0
58;0;0;0
59;0;0;0
60;0;0;0
61;0;0;0
62;0;0;0
63;0;0;0
64;0;0;0
65;0;0;0
66;0;0;0
67;0;0;0
68;0;0;0
69;0;0;0
70;0;0;0
71;0;0;0
72;0;1;0
73;0;1;0
74;1;1;0
75;1;0;1
76;2;0;0
77;3;0;1
78;3;0;0
79;3;1;1
80;4;0;0
81;5;0;1
82;4;0;3
83;5;1;2
84;4;2;1
85;4;1;0
86;4;1;0
87;4;2;2
88;3;3;1
89;2;3;0
90;2;4;1
91;2;5;2
92;2;5;2
93;2;5;2
94;3;6;1
95;3;5;0
96;4;6;0
97;4;7;0
98;5;6;1
99;5;6;2
100;5;6;1
101;6;5;3
102;6;6;5
103;5;6;6
104;6;6;5
105;6;6;4
106;6;6;3
107;6;7;4
108;6;8;4
109;7;8;3
110;9;7;3
111;9;6;2
112;12;5;3
113;12;4;2
114;12;4;2
115;12;4;3
116;13;3;2
117;13;3;2
118;13;2;2
119;13;3;1
120;12;4;1
121;16;3;0
122;16;4;1
123;16;5;0
124;16;5;0
125;16;6;1
126;16;6;0
127;15;6;1
128;15;6;0
129;16;6;0
130;16;7;0
131;16;7;0
132;17;7;0
133;17;7;0
134;17;8;0
135;18;9;1
136;18;9;0
137;18;8;0
138;18;7;1
139;18;8;0
140;17;8;0
141;17;8;0
142;15;8;2
143;15;7;3
144;16;7;3
145;16;6;2
146;15;7;1
147;15;6;0
148;16;5;0
149;17;6;1
150;16;8;0
151;18;7;2
152;18;7;3
153;21;8;2
154;21;8;1
155;22;8;0
156;22;7;1
157;22;6;3
158;22;6;2
159;23;6;1
160;23;5;0
161;23;6;1
162;24;5;1
163;23;5;2
164;23;6;1
165;23;7;0
166;23;7;1
167;22;7;0
168;23;7;1
169;23;8;1
170;23;8;0
171;24;9;0
172;23;9;0
173;23;9;1
174;24;8;1
175;23;8;1
176;24;8;1
177;24;7;0
178;24;6;1
179;27;5;1
180;28;6;0
181;29;6;1
182;28;7;0
183;28;7;0
184;28;8;1
185;28;7;1
186;29;8;0
187;30;8;0
188;30;9;0
189;30;9;0
190;30;9;0
191;30;9;0
192;31;8;0
193;32;8;1
194;32;7;0
195;34;7;0
196;35;7;2
197;35;7;1
198;36;6;1
199;37;6;1
200;37;5;0
201;37;5;0
202;37;6;0
203;36;7;1
204;35;7;2
205;34;7;2
206;33;7;2
207;34;7;3
208;33;7;2
209;33;6;1
210;32;7;0
211;31;7;1
212;31;6;0
213;31;6;0
214;32;5;0
215;32;5;0
216;32;4;0
217;31;5;1
218;31;4;1
219;31;4;1
220;31;3;0
221;30;3;0
222;29;4;0
223;28;4;0
224;28;5;2
225;28;5;1
226;29;5;1
227;30;4;1
228;29;4;3
229;30;3;2
230;31;2;1
231;33;2;0
232;33;3;0
233;36;3;0
234;35;4;1
235;35;4;0
236;36;4;1
237;35;4;3
238;36;3;2
239;36;2;1
240;37;4;0
241;37;4;0
242;37;4;0
243;38;4;2
244;37;5;4
245;37;5;4
246;38;5;4
247;38;4;3
248;39;4;2
249;38;4;1
250;39;5;3
251;37;6;2
252;37;6;2
253;38;5;2
254;38;6;2
255;37;6;1
256;38;6;1
257;37;6;1
258;38;5;1
259;38;5;0
260;38;5;0
261;37;5;0
262;37;5;2
263;36;6;3
264;35;7;3
265;36;6;2
266;35;7;1
267;35;7;0
268;36;7;0
269;38;6;0
270;38;6;1
271;38;6;0
272;39;7;0
273;39;8;1
274;38;8;1
275;38;8;3
276;39;7;3
277;39;6;3
278;39;7;3
279;38;8;2
280;38;8;1
281;37;8;0
282;38;8;0
283;39;8;1
284;39;9;1
285;38;10;0
286;39;9;1
287;39;8;1
288;39;9;0
289;39;9;1
290;38;10;1
291;39;8;1
292;38;8;0
293;38;7;0
294;38;6;0
295;37;6;0
296;38;5;0
297;38;4;1
298;38;4;1
299;38;4;0
300;37;4;1
301;37;5;0
302;37;4;2
303;38;4;1
304;40;3;0
305;39;3;1
306;38;3;0
307;40;3;0
308;39;3;0
309;39;3;2
310;39;2;3
311;39;1;4
312;39;0;3
313;39;0;3
314;39;1;2
315;40;1;1
316;39;1;0
317;39;1;0
318;40;0;1
319;40;0;2
320;41;0;1
321;40;1;1
322;39;1;2
323;38;2;1
324;39;2;1
325;39;2;1
326;40;2;3
327;40;1;2
328;40;2;1
329;40;2;0
330;40;3;1
331;40;3;1
332;40;4;0
333;40;4;0
334;39;4;0
335;39;3;0
336;38;3;0
337;38;2;0
338;38;2;0
339;37;3;0
340;38;3;0
341;37;4;1
342;36;5;0
343;36;5;0
344;36;4;0
345;36;3;1
346;36;3;0
347;37;3;2
348;38;3;2
349;37;3;3
350;39;2;2
351;41;2;1
352;42;1;0
353;41;1;2
354;40;1;3
355;42;0;3
356;42;0;4
357;42;1;4
358;42;2;4
359;45;3;3
360;46;2;3
361;46;2;3
362;45;3;4
363;44;3;3
364;44;3;2
365;44;3;1
366;43;3;0
367;44;3;0
368;42;3;0
369;41;3;0
370;41;4;1
371;41;5;1
372;41;4;0
373;41;5;2
374;40;5;1
375;40;5;0
376;41;6;1
377;41;7;0
378;43;7;0
379;42;8;0
380;42;8;0
381;42;8;1
382;43;7;0
383;42;8;0
384;42;8;1
385;43;9;0
386;44;8;0
387;43;8;1
388;42;8;1
389;41;8;1
390;41;7;1
391;40;7;0
392;40;7;0
393;39;8;0
394;40;8;0
395;40;8;3
396;40;9;2
397;39;9;1
398;39;9;2
399;41;8;1
400;42;7;0
401;41;7;2
402;44;6;2
403;43;7;1
404;43;6;1
405;44;5;1
406;44;5;1
407;43;5;1
408;43;5;1
409;45;5;0
410;46;5;1
411;46;4;0
412;46;4;1
413;46;3;1
414;44;3;0
415;44;3;1
416;45;3;1
417;44;4;0
418;45;3;0
419;44;3;0
420;43;4;0
421;43;4;0
422;41;4;1
423;41;4;1
424;40;4;0
425;40;4;0
426;40;4;0
427;40;4;0
428;39;5;0
429;38;5;0
430;38;4;2
431;38;3;3
432;37;3;2
433;36;3;1
434;36;2;0
435;36;3;0
436;37;3;0
437;37;2;0
438;37;1;0
439;37;0;0
440;36;0;0
441;36;0;2
442;37;0;2
443;37;0;2
444;37;0;2
445;37;1;2
446;37;1;2
447;38;2;1
448;38;1;0
449;37;1;1
450;37;2;1
451;38;1;1
452;38;2;1
453;39;1;0
454;39;0;1
455;38;0;0
456;38;1;0
457;39;0;0
458;39;0;0
459;39;0;0
460;38;1;1
461;39;1;0
462;42;0;0
463;42;0;0
464;42;0;1
465;42;0;0
466;44;0;0
467;43;1;1
468;44;1;1
469;44;1;2
470;45;1;3
471;46;0;2
472;48;0;1
473;49;0;0
474;49;1;1
475;48;2;1
476;48;2;1
477;48;2;0
478;47;2;1
479;47;1;0
480;46;1;0
481;45;1;0
482;44;1;0
483;46;1;0
484;45;2;2
485;47;1;1
486;47;0;0
487;47;1;0
488;48;0;0
489;49;1;1
490;50;0;1
491;50;0;0
492;50;0;2
493;50;1;2
494;50;2;2
495;48;2;1
496;48;1;2
497;50;0;1
498;49;0;0
499;49;1;1
500;48;1;0
501;49;2;2
502;50;1;2
503;49;2;3
504;50;1;2
505;49;2;1
506;48;2;0
507;48;2;1
508;47;2;0
509;47;3;1
510;47;4;0
511;47;3;0
512;47;3;0
513;46;3;1
514;45;4;1
515;45;4;0
516;47;4;1
517;47;3;1
518;47;4;0
519;46;4;0
520;46;4;1
521;46;4;1
522;47;4;2
523;49;5;1
524;51;5;1
525;52;4;1
526;51;4;1
527;52;3;1
528;52;4;0
529;50;4;2
530;50;3;1
531;51;2;0
532;52;2;0
533;52;0;1
534;51;0;1
535;51;1;1
536;51;1;1
537;51;0;1
538;51;1;3
539;52;2;3
540;52;2;2
541;52;2;1
542;51;2;0
543;50;3;2
544;51;3;2
545;50;4;2
546;50;4;2
547;49;4;1
548;51;5;0
549;51;6;0
550;50;6;1
551;50;6;1
552;50;7;1
553;50;6;1
554;50;7;0
555;50;8;1
556;51;9;1
557;50;9;1
558;50;9;0
559;51;9;1
560;52;9;0
561;51;10;0
562;51;10;1
563;51;10;0
564;52;10;1
565;53;9;1
566;52;9;1
567;51;9;0
568;51;9;1
569;51;10;0
570;51;9;0
571;50;10;0
572;50;11;1
573;50;11;1
574;50;11;1
575;49;12;0
576;51;11;0
577;51;11;0
578;50;12;2
579;51;11;1
580;52;12;2
581;52;11;3
582;52;12;2
583;51;12;2
584;51;12;1
585;51;12;0
586;52;13;3
587;52;13;4
588;53;13;4
589;53;14;6
590;52;14;6
591;51;15;6
592;51;15;6
593;51;16;5
594;50;17;4
595;53;17;3
596;53;17;3
597;53;17;3
598;52;18;3
599;53;18;2
600;53;18;1
601;53;19;0
602;53;20;1
603;55;20;0
604;55;21;0
605;56;21;1
606;58;21;0
607;57;21;2
608;58;22;1
609;57;23;0
610;57;23;0
611;57;23;1
612;58;22;1
613;58;22;0
614;59;22;1
615;59;22;0
616;60;21;2
617;59;22;1
618;59;21;0
619;59;21;0
620;59;20;1
621;59;20;1
622;59;20;0
623;60;19;0
624;59;19;0
625;60;18;0
626;60;17;1
627;61;17;1
628;62;17;0
629;62;16;0
630;63;15;2
631;62;16;2
632;63;15;1
633;63;14;0
634;63;14;1
635;63;13;2
636;63;13;1
637;62;14;0
638;62;14;1
639;63;13;0
640;63;13;1
641;63;12;0
642;63;13;0
643;64;13;0
644;63;14;0
645;63;14;0
646;64;13;0
647;64;13;0
648;64;13;0
649;64;12;1
650;64;12;1
651;65;12;0
652;65;12;0
653;65;12;1
654;64;12;0
655;64;11;0
656;63;11;1
657;63;11;1
658;63;12;0
659;62;13;3
660;61;13;2
661;63;13;1
662;64;14;0
663;63;15;2
664;62;16;3
665;62;15;2
666;62;15;2
667;61;16;1
668;62;15;0
669;63;16;2
670;65;16;2
671;66;15;1
672;65;15;1
673;66;14;0
674;66;14;1
675;66;15;0
676;67;15;0
677;67;16;0
678;67;16;1
679;66;16;1
680;66;16;1
681;65;16;2
682;66;15;1
683;68;15;1
684;70;14;1
685;69;14;1
686;70;13;2
687;70;13;1
688;71;13;0
689;71;13;1
690;71;13;1
691;70;14;0
692;74;14;0
693;74;15;0
694;74;14;0
695;75;14;0
696;75;13;2
697;75;13;1
698;75;13;0
699;76;12;0
700;75;13;0
701;74;14;1
702;73;15;1
703;74;15;0
704;74;15;0
705;75;15;0
706;75;15;1
707;76;15;2
708;76;15;1
709;76;16;0
710;76;17;0
711;76;17;0
712;76;17;0
713;76;16;1
714;75;16;1
715;74;17;1
716;74;16;0
717;75;15;0
718;77;15;1
719;76;15;0
720;76;15;0
721;77;16;1
722;77;15;0
723;77;16;0
724;80;16;0
725;80;16;0
726;81;15;2
727;81;14;1
728;80;14;1
729;80;14;0
730;81;13;0
731;81;12;0
732;83;11;1
733;82;11;0
734;82;11;1
735;82;11;0
736;82;10;0
737;84;11;0
738;84;10;1
739;83;10;0
740;83;10;0
741;83;10;0
742;83;9;0
743;82;10;1
744;81;11;0
745;81;10;0
746;80;10;0
747;80;9;0
748;81;9;0
749;81;9;1
750;81;9;0
751;82;9;0
752;82;8;0
753;81;8;0
754;82;9;0
755;82;9;0
756;82;10;0
757;81;11;0
758;80;12;0
759;80;13;0
760;80;13;0
761;80;14;0
762;82;14;0
763;81;14;1
764;82;14;0
765;81;14;0
766;81;13;0
767;81;12;2
768;80;12;3
769;79;12;3
770;78;12;3
771;78;11;2
772;79;11;2
773;79;11;2
774;80;11;2
775;80;10;1
776;79;10;0
777;78;10;0
778;77;11;1
779;79;11;1
780;79;12;1
781;79;12;0
782;79;11;0
783;79;11;2
784;78;11;1
785;78;10;0
786;78;9;1
787;77;9;1
788;78;9;3
789;78;8;2
790;80;9;2
791;79;10;1
792;78;11;1
793;78;11;0
794;78;11;0
795;78;12;1
796;78;13;0
797;78;13;1
798;78;13;1
799;79;13;0
800;80;12;1
801;80;11;0
802;80;11;0
803;80;10;0
804;79;10;2
805;78;11;2
806;77;12;1
807;77;13;0
808;77;13;1
809;77;13;0
810;77;12;1
811;79;12;1
812;78;13;1
813;78;13;2
814;77;14;1
815;79;14;0
816;78;15;1
817;79;14;0
818;80;13;0
819;81;13;1
820;80;13;0
821;79;14;1
822;79;14;1
823;80;13;0
824;80;12;0
825;80;12;0
826;80;11;0
827;80;12;2
828;81;13;1
829;81;13;0
830;80;14;1
831;81;14;1
832;81;14;1
833;82;13;0
834;83;12;2
835;83;12;2
836;82;13;2
837;81;14;1
838;82;15;0
839;81;16;1
840;80;17;0
841;80;17;1
842;79;18;0
843;80;19;1
844;80;19;1
845;80;20;1
846;79;21;1
847;80;21;1
848;81;21;0
849;80;21;1
850;80;21;2
851;81;21;1
852;83;20;0
853;83;21;1
854;83;21;1
855;83;20;1
856;83;20;1
857;83;20;1
858;84;20;1
859;83;21;0
860;83;22;1
861;83;21;0
862;83;20;1
863;83;20;0
864;83;20;0
865;84;19;0
866;84;18;0
867;85;17;0
868;85;17;1
869;86;17;0
870;85;18;0
871;85;19;1
872;86;19;1
873;86;20;1
874;85;20;0
875;85;19;1
876;86;19;1
877;86;19;1
878;85;20;0
879;84;21;0
880;83;22;1
881;83;22;0
882;84;22;0
883;83;22;0
884;83;22;0
885;83;22;1
886;82;23;0
887;83;24;1
888;83;25;0
889;83;25;0
890;82;26;0
891;81;27;1
892;81;27;0
893;81;28;1
894;82;28;1
895;82;28;0
896;81;29;0
897;82;29;0
898;81;30;1
899;80;31;1
900;81;31;1
901;81;31;2
902;81;32;2
903;80;32;1
904;80;33;0
905;82;33;1
906;81;34;0
907;80;35;0
908;80;36;1
909;81;36;0
910;81;37;0
911;81;37;1
912;80;37;0
913;80;36;0
914;79;36;0
915;80;37;0
916;80;37;0
917;79;37;0
918;79;36;0
919;80;35;0
920;79;35;0
921;80;35;2
922;80;35;1
923;80;34;0
924;80;33;0
925;80;33;0
926;80;32;0
927;79;33;1
928;80;33;0
929;79;33;0
930;79;33;0
931;79;34;0
932;79;34;0
933;78;35;0
934;77;35;1
935;78;34;0
936;77;34;3
937;78;33;3
938;77;33;2
939;78;33;3
940;78;33;3
941;78;33;5
942;77;33;4
943;77;32;3
944;77;32;4
945;76;32;3
946;76;32;4
947;75;33;5
948;74;33;4
949;74;33;3
950;73;33;3
951;74;33;3
952;75;32;2
953;76;32;1
954;75;33;2
955;75;34;1
956;75;33;3
957;75;33;2
958;75;32;1
959;75;31;1
960;76;31;0
961;77;31;0
962;78;30;0
963;78;29;0
964;78;29;0
965;78;29;0
966;79;28;1
967;80;29;1
968;81;29;0
969;82;29;0
970;83;29;1
971;82;30;1
972;83;30;0
973;83;29;0
974;84;29;1
975;84;29;0
976;84;28;1
977;84;28;1
978;84;28;1
979;85;28;0
980;85;28;0
981;86;28;1
982;85;29;0
983;86;28;1
984;87;27;0
985;88;27;1
986;87;27;1
987;87;28;1
988;89;28;0
989;90;27;0
990;91;27;0
991;91;27;1
992;91;26;0
993;91;26;0
994;90;26;0
995;89;27;0
996;89;28;2
997;88;29;3
998;88;29;4
999;88;30;4
1000;89;31;3
1001;90;32;5
1002;90;32;4
1003;90;33;5
1004;91;33;5
1005;91;33;5
1006;91;33;5
1007;91;34;5
1008;92;33;4
1009;92;33;4
1010;93;33;4
1011;93;33;5
1012;94;32;5
1013;94;31;4
1014;94;30;5
1015;94;30;4
1016;94;30;3
1017;94;31;2
1018;94;31;2
1019;94;32;1
1020;94;33;0
1021;93;32;0
1022;93;31;0
1023;93;31;1
1024;93;32;0
1025;94;32;0
1026;93;33;0
1027;93;32;2
1028;92;32;1
1029;92;33;1
1030;93;32;0
1031;93;32;2
1032;94;32;3
1033;95;32;3
1034;94;33;4
1035;93;33;3
1036;93;32;2
1037;95;31;1
1038;95;30;1
1039;94;30;0
1040;94;30;1
1041;94;31;0
1042;93;32;0
1043;93;32;0
1044;94;32;0
1045;94;31;0
1046;93;32;0
1047;93;33;0
1048;93;32;0
1049;95;32;0
1050;95;33;1
1051;94;34;0
1052;94;33;2
1053;94;32;2
1054;94;31;2
1055;94;30;1
1056;95;29;1
1057;94;29;0
1058;93;30;1
1059;94;31;1
1060;94;29;1
1061;95;29;0
1062;94;29;0
1063;94;30;0
1064;94;29;0
1065;94;28;1
1066;94;29;0
1067;93;29;1
1068;93;29;0
1069;96;29;0
1070;96;29;0
1071;97;28;2
1072;98;28;2
1073;99;27;2
1074;98;28;3
1075;99;29;2
1076;98;28;2
1077;99;27;2
1078;98;27;2
1079;98;26;1
1080;97;26;0
1081;96;26;0
1082;96;26;0
1083;97;26;0
1084;96;26;0
1085;96;26;0
1086;95;27;1
1087;95;27;0
1088;96;25;0
1089;95;25;0
1090;96;24;2
1091;95;24;1
1092;94;24;2
1093;94;24;1
1094;93;23;1
1095;92;23;1
1096;92;23;3
1097;92;22;4
1098;92;21;4
1099;93;21;3
1100;95;20;3
1101;95;20;2
1102;95;20;1
1103;95;20;0
1104;95;19;0
1105;94;19;0
1106;94;18;0
1107;93;18;0
1108;92;19;1
1109;92;19;0
1110;94;19;0
1111;94;19;0
1112;94;20;0
1113;94;19;1
1114;96;19;0
1115;95;19;0
1116;95;18;0
1117;96;17;1
1118;95;17;2
1119;94;17;1
1120;94;16;1
1121;95;15;2
1122;95;15;1
1123;95;15;0
1124;95;16;0
1125;95;15;1
1126;96;15;0
1127;96;16;1
1128;95;17;0
1129;96;17;0
1130;95;18;1
1131;94;18;0
1132;95;17;0
1133;94;18;0
1134;94;17;0
1135;95;17;0
1136;95;16;0
1137;96;15;1
1138;96;16;1
1139;96;16;1
1140;97;16;0
1141;98;15;0
1142;99;15;0
1143;101;15;1
1144;100;16;0
1145;100;16;1
1146;101;15;1
1147;100;16;0
1148;103;16;1
1149;103;16;2
1150;103;16;1
1151;102;17;1
1152;104;16;1
1153;104;17;1
1154;103;18;1
1155;104;18;0
1156;103;19;1
1157;103;19;0
1158;103;20;1
1159;103;19;0
1160;104;19;1
1161;103;19;1
1162;102;19;0
1163;101;19;0
1164;102;18;2
1165;102;18;1
1166;103;18;1
1167;102;18;0
1168;102;18;0
1169;102;19;1
1170;102;18;0
1171;103;18;0
1172;102;19;2
1173;102;19;2
1174;102;19;1
1175;103;19;0
1176;102;19;0
1177;103;18;1
1178;104;17;0
1179;104;16;2
1180;104;15;3
1181;106;14;3
1182;107;13;3
1183;107;13;3
1184;106;14;2
1185;106;13;1
1186;105;13;0
1187;104;14;0
1188;104;13;1
1189;104;13;0
1190;105;12;1
1191;105;13;2
1192;104;14;2
1193;104;14;1
1194;104;15;0
1195;104;15;1
1196;103;15;1
1197;104;15;0
1198;104;14;0
1199;103;14;0
1200;106;14;0
1201;106;14;0
1202;105;15;0
1203;104;15;0
1204;104;15;1
1205;105;16;1
1206;107;16;0
1207;106;16;0
1208;107;16;1
1209;106;16;0
1210;105;17;1
1211;105;16;1
1212;105;17;0
1213;105;16;3
1214;105;15;2
1215;104;15;2
1216;104;15;1
1217;103;15;1
1218;103;15;0
1219;103;16;2
1220;103;17;1
1221;103;16;3
1222;103;17;2
1223;103;18;2
1224;103;19;2
1225;103;20;2
1226;103;19;3
1227;104;19;2
1228;105;18;2
1229;105;18;1
1230;106;19;0
1231;107;18;1
1232;106;18;1
1233;107;18;0
1234;108;17;1
1235;108;16;1
1236;108;17;0
1237;109;18;2
1238;109;18;1
1239;112;18;0
1240;112;18;1
1241;113;18;0
1242;114;18;0
1243;115;19;1
1244;114;20;0
1245;116;21;0
1246;118;21;0
1247;119;22;1
1248;119;23;1
1249;120;22;0
1250;119;22;0
1251;119;22;0
1252;120;22;1
1253;119;23;0
1254;118;24;0
1255;118;24;2
1256;119;23;1
1257;119;24;0
1258;118;24;0
1259;117;25;1
1260;119;25;0
1261;120;25;0
1262;120;26;0
1263;121;27;0
1264;121;26;0
1265;120;26;0
1266;119;27;0
1267;120;26;0
1268;119;26;0
1269;120;25;1
1270;119;26;0
1271;120;25;2
1272;119;25;3
1273;118;25;2
1274;118;24;1
1275;117;24;0
1276;118;24;0
1277;117;25;0
1278;116;25;1
1279;115;25;0
1280;116;25;1
1281;115;25;0
1282;115;25;2
1283;113;25;2
1284;113;26;1
1285;112;27;0
1286;111;28;0
1287;111;29;0
1288;111;29;0
1289;111;30;0
1290;111;29;0
1291;111;28;1
1292;110;29;1
1293;110;30;0
1294;109;31;0
1295;109;32;1
1296;109;32;0
1297;110;32;1
1298;109;33;0
1299;109;34;0
1300;109;33;0
1301;109;32;3
1302;109;33;2
1303;111;32;1
1304;110;33;0
1305;110;33;0
1306;110;34;1
1307;113;35;0
1308;113;33;1
1309;113;32;1
1310;112;33;1
1311;111;33;0
1312;111;32;0
1313;111;32;0
1314;110;32;0
1315;110;32;1
1316;110;31;0
1317;109;32;0
1318;109;33;0
1319;109;33;1
1320;109;34;1
1321;108;34;1
1322;107;34;1
1323;108;33;0
1324;109;33;0
1325;109;32;0
1326;109;32;0
1327;110;32;0
1328;110;32;0
1329;110;31;0
1330;111;32;0
1331;112;32;1
1332;112;32;0
1333;112;32;3
1334;114;32;2
1335;114;33;1
1336;116;33;0
1337;116;32;1
1338;116;32;1
1339;116;32;1
1340;116;32;0
1341;115;33;0
1342;116;32;0
1343;116;32;0
1344;115;33;2
1345;114;33;1
1346;113;33;1
1347;113;33;2
1348;113;33;1
1349;112;33;1
1350;113;33;1
1351;115;33;2
1352;114;34;1
1353;115;35;1
1354;114;36;0
1355;113;37;0
1356;114;36;1
1357;113;36;0
1358;113;36;2
1359;113;36;2
1360;115;36;1
1361;115;36;3
1362;114;36;3
1363;114;36;4
1364;114;37;3
1365;115;38;4
1366;115;38;3
1367;117;37;2
1368;117;37;1
1369;116;38;0
1370;117;39;1
1371;117;39;1
1372;119;38;0
1373;118;39;0
1374;118;39;1
1375;118;39;2
1376;118;39;1
1377;117;39;2
1378;117;38;2
1379;118;39;1
1380;119;38;0
1381;120;38;1
1382;120;38;0
1383;120;38;0
1384;120;38;1
1385;120;39;0
1386;122;40;0
1387;122;40;0
1388;122;41;0
1389;123;40;0
1390;123;39;0
1391;123;40;0
1392;122;40;0
1393;123;40;1
1394;123;40;0
1395;123;40;0
1396;123;41;0
1397;125;41;1
1398;125;42;0
1399;126;42;0
1400;126;41;1
1401;126;42;0
1402;128;41;0
1403;129;41;2
1404;130;41;2
1405;131;41;4
1406;132;41;3
1407;132;41;4
1408;131;41;4
1409;130;42;3
1410;130;41;3
1411;130;41;3
1412;131;40;4
1413;131;40;3
1414;130;41;2
1415;130;42;1
1416;131;42;0
1417;131;41;0
1418;132;41;1
1419;131;41;0
1420;130;41;1
1421;130;40;0
1422;130;40;1
1423;130;39;0
1424;129;40;1
1425;128;41;0
1426;129;42;1
1427;130;42;1
1428;130;41;0
1429;131;40;1
1430;130;40;0
1431;131;40;2
1432;132;39;1
1433;131;39;2
1434;131;38;1
1435;130;38;2
1436;131;38;2
1437;131;37;4
1438;130;37;3
1439;130;37;2
1440;130;36;3
1441;131;37;2
1442;131;36;4
1443;131;35;6
1444;130;35;6
1445;131;36;6
1446;131;36;5
1447;133;35;4
1448;134;34;3
1449;135;34;2
1450;135;34;2
1451;134;34;2
1452;135;33;2
1453;135;33;2
1454;135;32;1
1455;136;31;1
1456;137;31;0
1457;136;31;0
1458;136;31;0
1459;137;32;0
1460;137;32;1
1461;136;32;0
1462;136;33;2
1463;137;33;1
1464;136;33;1
1465;138;33;0
1466;137;33;0
1467;136;33;0
1468;137;32;0
1469;137;31;0
1470;136;31;0
1471;136;30;1
1472;137;30;2
1473;137;30;2
1474;136;31;1
1475;137;31;0
1476;137;30;0
1477;138;30;0
1478;138;30;0
1479;140;31;0
1480;139;32;0
1481;138;33;1
1482;140;33;0
1483;140;32;0
1484;140;31;0
1485;141;31;0
1486;141;31;1
1487;140;31;0
1488;140;31;2
1489;140;30;2
1490;141;30;2
1491;142;30;2
1492;142;29;1
1493;143;29;2
1494;144;28;1
1495;143;28;0
1496;143;29;0
1497;143;29;0
1498;145;29;0
1499;144;30;1
1500;144;31;0
1501;143;32;2
1502;143;32;2
1503;144;32;2
1504;144;33;1
1505;143;34;0
1506;143;35;1
1507;143;35;0
1508;142;36;0
1509;143;35;0
1510;143;36;0
1511;143;35;0
1512;142;36;1
1513;143;36;1
1514;143;37;0
1515;142;38;0
1516;143;39;1
1517;142;40;1
1518;141;41;0
1519;141;42;1
1520;141;42;1
1521;140;43;0
1522;141;43;0
1523;143;42;1
1524;143;41;1
1525;144;41;2
1526;146;40;1
1527;146;39;0
1528;146;39;1
1529;146;38;0
1530;145;38;1
1531;145;39;0
1532;145;40;0
1533;144;40;0
1534;143;41;0
1535;144;41;0
1536;143;41;1
1537;142;42;1
1538;141;42;0
1539;140;42;0
1540;140;41;0
1541;141;41;1
1542;141;40;0
1543;141;41;1
1544;141;40;1
1545;140;40;1
1546;141;39;0
1547;141;39;2
1548;140;40;2
1549;141;40;1
1550;142;40;1
1551;143;39;0
1552;142;39;0
1553;142;38;1
1554;142;37;0
1555;142;37;0
1556;142;36;0
1557;141;36;0
1558;143;36;1
1559;144;35;1
1560;147;34;0
1561;148;33;3
1562;148;33;2
1563;147;33;1
1564;149;34;0
1565;148;34;0
1566;147;35;0
1567;146;35;1
1568;145;36;2
1569;145;36;2
1570;145;36;2
1571;145;37;1
1572;144;37;0
1573;145;38;1
1574;146;37;0
1575;145;37;4
1576;146;37;3
1577;145;38;2
1578;145;37;1
1579;145;37;0
1580;144;38;0
1581;144;39;0
1582;144;39;1
1583;145;38;0
1584;144;38;0
1585;143;38;1
1586;144;38;1
1587;144;38;0
1588;145;39;1
1589;145;38;2
1590;146;38;1
1591;145;39;0
1592;145;39;0
1593;147;38;1
1594;147;38;0
1595;147;37;0
1596;148;37;1
1597;149;36;1
1598;149;36;1
1599;149;35;1
1600;149;34;0
1601;149;35;1
1602;149;35;0
1603;148;35;0
1604;147;35;0
1605;147;36;0
1606;148;35;1
1607;148;34;0
1608;148;34;1
1609;149;34;0
1610;149;34;1
1611;148;34;1
1612;147;34;0
1613;147;34;0
1614;148;34;2
1615;148;33;1
1616;148;34;1
1617;148;34;1
1618;148;34;0
1619;148;35;0
1620;149;35;0
1621;149;36;0
1622;149;38;0
1623;149;38;0
1624;150;37;0
1625;150;37;0
1626;150;37;2
1627;149;38;2
1628;149;38;1
1629;151;39;0
1630;151;39;0
1631;153;39;0
1632;153;39;1
1633;154;39;0
1634;156;38;1
1635;156;39;0
1636;155;40;0
1637;154;40;0
1638;153;41;0
1639;155;40;0
1640;155;41;1
1641;157;42;0
1642;158;43;1
1643;158;43;0
1644;158;43;0
1645;158;43;1
1646;158;43;0
1647;157;44;1
1648;157;43;0
1649;157;42;1
1650;156;43;0
1651;156;42;1
1652;156;41;1
1653;157;40;0
1654;157;40;2
1655;157;40;2
1656;158;39;1
1657;157;39;0
1658;158;40;0
1659;157;40;0
1660;157;41;0
1661;157;41;0
1662;157;40;1
1663;157;40;0
1664;157;39;0
1665;156;40;0
1666;156;40;1
1667;156;39;1
1668;155;39;1
1669;156;39;1
1670;156;39;2
1671;155;39;1
1672;156;38;3
1673;156;37;3
1674;156;37;3
1675;156;36;3
1676;155;36;2
1677;155;36;1
1678;155;37;0
1679;156;36;1
1680;157;35;0
1681;157;35;3
1682;157;35;2
1683;158;35;1
1684;158;36;1
1685;159;35;0
1686;160;34;0
1687;160;34;0
1688;161;33;1
1689;162;33;1
1690;163;33;1
1691;162;33;1
1692;163;33;1
1693;163;33;1
1694;163;32;1
1695;162;32;0
1696;161;32;0
1697;161;32;3
1698;161;32;2
1699;160;32;1
1700;162;32;0
1701;161;33;1
1702;163;32;1
1703;162;32;1
1704;162;33;1
1705;162;34;0
1706;163;34;1
1707;163;34;0
1708;162;35;1
1709;165;35;0
1710;164;36;0
1711;164;37;0
1712;164;37;0
1713;163;38;0
1714;163;38;0
1715;162;39;1
1716;162;39;1
1717;161;39;2
1718;162;38;3
1719;163;37;2
1720;162;37;2
1721;163;36;1
1722;163;36;1
1723;164;37;1
1724;164;38;0
1725;163;39;0
1726;163;40;0
1727;163;39;0
1728;163;40;0
1729;163;40;0
1730;163;39;0
1731;164;38;0
1732;164;38;1
1733;165;38;0
1734;164;39;0
1735;164;39;2
1736;164;38;1
1737;165;37;0
1738;164;38;1
1739;164;38;0
1740;163;38;0
1741;162;39;1
1742;162;38;0
1743;162;38;0
1744;162;37;3
1745;163;37;2
1746;163;36;3
1747;163;36;2
1748;163;36;2
1749;163;36;2
1750;164;35;3
1751;163;35;2
1752;163;34;1
1753;163;33;1
1754;162;33;0
1755;164;32;1
1756;164;33;0
1757;163;33;2
1758;164;32;2
1759;166;32;3
1760;168;32;2
1761;167;33;1
1762;167;34;1
1763;166;35;2
1764;167;35;1
1765;167;33;0
1766;168;34;0
1767;168;33;1
1768;168;32;0
1769;169;32;0
1770;169;31;1
1771;168;31;2
1772;168;30;1
1773;169;30;0
1774;172;31;0
1775;171;32;1
1776;171;31;0
1777;171;31;2
1778;171;31;1
1779;171;31;0
1780;172;33;1
1781;172;32;1
1782;171;33;2
1783;171;33;2
1784;171;34;2
1785;171;33;2
1786;170;34;3
1787;170;34;2
1788;169;35;3
1789;169;35;2
1790;171;34;3
1791;172;33;2
1792;173;32;2
1793;174;32;2
1794;174;33;3
1795;174;33;2
1796;174;33;1
1797;173;34;3
1798;172;34;2
1799;171;35;2
1800;171;34;1
1801;171;35;2
1802;171;34;2
1803;170;34;1
1804;170;35;2
1805;169;36;1
1806;168;37;2
1807;167;37;1
1808;166;37;0
1809;166;37;0
1810;166;36;1
1811;165;37;0
1812;165;38;1
1813;165;38;1
1814;164;39;0
1815;164;40;0
1816;164;40;1
1817;164;41;2
1818;165;42;1
1819;164;43;0
1820;163;44;0
1821;164;45;1
1822;163;45;0
1823;164;45;0
1824;162;45;0
1825;162;46;0
1826;162;45;0
1827;161;45;0
1828;160;46;0
1829;160;47;0
1830;160;48;1
1831;161;48;0
1832;161;47;0
1833;160;47;0
1834;160;48;2
1835;161;47;1
1836;161;48;0
1837;161;49;0
1838;162;50;1
1839;162;50;1
1840;161;51;0
1841;161;51;2
1842;162;51;1
1843;162;51;0
1844;162;50;0
1845;163;50;1
1846;163;50;2
1847;162;51;1
1848;161;52;2
1849;161;52;1
1850;161;52;2
1851;161;51;3
1852;161;50;2
1853;162;49;2
1854;161;50;1
1855;161;50;1
1856;161;50;0
1857;161;49;3
1858;161;49;4
1859;164;48;5
1860;163;48;5
1861;162;48;5
1862;162;49;5
1863;161;49;4
1864;162;48;4
1865;162;48;3
1866;163;49;2
1867;163;48;1
1868;163;48;1
1869;164;50;0
1870;163;50;0
1871;164;50;0
1872;163;50;0
1873;163;49;1
1874;163;48;0
1875;162;48;0
1876;164;47;0
1877;163;47;0
1878;163;47;0
1879;163;47;2
1880;163;47;2
1881;162;48;3
1882;162;48;3
1883;163;47;3
1884;165;46;2
1885;164;46;3
1886;164;46;2
1887;165;45;3
1888;165;45;2
1889;165;44;1
1890;167;45;0
1891;167;44;1
1892;166;45;0
1893;166;45;1
1894;167;44;0
1895;167;44;0
1896;167;44;1
1897;167;44;0
1898;166;45;2
1899;167;45;1
1900;166;44;1
1901;165;44;3
1902;164;44;2
1903;164;45;1
1904;163;46;0
1905;163;46;0
1906;162;47;1
1907;162;48;1
1908;162;48;0
1909;162;47;1
1910;162;47;0
1911;163;46;0
1912;163;46;0
1913;164;47;0
1914;164;47;1
1915;165;47;1
1916;165;47;0
1917;164;47;0
1918;164;47;1
1919;164;46;0
1920;163;47;0
1921;163;47;0
1922;164;46;0
1923;164;45;0
1924;164;45;0
1925;164;45;0
1926;164;46;0
1927;163;46;1
1928;163;46;0
1929;163;45;1
1930;162;45;2
1931;161;45;2
1932;160;45;2
1933;159;46;1
1934;159;47;0
1935;158;47;1
1936;157;47;1
1937;157;47;0
1938;158;47;0
1939;158;46;0
1940;158;45;1
1941;157;46;3
1942;156;46;2
1943;156;45;1
1944;156;45;0
1945;157;44;1
1946;157;44;3
1947;156;44;2
1948;156;43;1
1949;156;44;1
1950;156;45;0
1951;157;45;0
1952;157;45;1
1953;157;45;0
1954;157;44;2
1955;157;45;1
1956;157;44;1
1957;156;44;0
1958;156;44;1
1959;155;44;0
1960;155;43;1
1961;154;43;0
1962;153;43;0
1963;153;43;3
1964;153;43;2
1965;153;42;1
1966;155;41;1
1967;155;42;0
1968;154;42;1
1969;153;43;1
1970;154;44;1
1971;153;44;1
1972;153;44;0
1973;153;43;2
1974;153;42;1
1975;153;42;0
1976;153;43;1
1977;152;43;1
1978;151;43;0
1979;152;42;0
1980;153;43;0
1981;153;42;0
1982;152;42;0
1983;153;41;0
1984;152;41;0
1985;151;42;0
1986;151;42;0
1987;152;42;0
1988;152;41;1
1989;152;41;2
1990;152;41;1
1991;151;41;0
1992;150;41;1
1993;150;41;1
1994;150;40;1
1995;149;40;1
1996;149;39;0
1997;149;38;0
1998;148;38;0
1999;147;38;0
2000;147;38;0
2001;146;38;0
2002;145;38;0
2003;144;39;1
2004;143;40;0
2005;143;41;1
2006;142;42;0
2007;144;42;1
2008;143;43;0
2009;144;43;0
2010;145;42;0
2011;145;42;0
2012;146;41;1
2013;146;40;1
2014;147;40;0
2015;146;41;1
2016;146;42;0
2017;147;42;0
2018;147;41;0
2019;147;40;1
2020;147;39;0
2021;147;40;0
2022;147;40;0
2023;148;40;1
2024;147;41;0
2025;147;40;2
2026;147;40;2
2027;146;41;1
2028;145;41;1
2029;146;40;0
2030;147;39;0
2031;147;39;1
2032;148;39;1
2033;150;40;0
2034;151;39;2
2035;151;38;1
2036;152;38;1
2037;152;38;2
2038;151;38;1
2039;151;38;1
2040;151;38;0
2041;152;37;0
2042;152;37;0
2043;152;38;0
2044;151;39;0
2045;151;38;1
2046;151;39;1
2047;151;40;0
2048;150;40;0
2049;149;40;1
2050;149;40;3
2051;151;41;2
2052;151;41;1
2053;150;41;2
2054;150;41;4
2055;149;42;3
2056;149;42;2
2057;149;41;1
2058;150;41;1
2059;150;40;1
2060;151;40;2
2061;152;40;2
2062;152;39;1
2063;153;38;1
2064;152;38;0
2065;152;37;0
2066;151;37;0
2067;150;37;1
2068;149;38;0
2069;148;39;0
2070;148;38;0
2071;148;39;0
2072;148;39;0
2073;147;39;1
2074;149;39;2
2075;151;40;1
2076;152;39;0
2077;151;39;2
2078;152;39;1
2079;153;39;1
2080;152;39;2
2081;151;39;2
2082;151;39;2
2083;151;40;1
2084;151;41;0
2085;151;41;1
2086;151;41;0
2087;152;41;0
2088;152;41;0
2089;152;40;0
2090;152;39;2
2091;153;39;4
2092;153;38;5
2093;154;38;4
2094;153;38;4
2095;154;37;3
2096;153;39;3
2097;153;40;3
2098;154;40;3
2099;156;40;2
2100;157;40;2
2101;158;40;2
2102;159;39;2
2103;159;40;1
2104;159;40;0
2105;159;40;0
2106;159;39;1
2107;159;38;1
2108;158;38;2
2109;157;39;2
2110;158;39;1
2111;157;40;0
2112;157;41;0
2113;157;42;1
2114;158;42;0
2115;157;43;0
2116;157;42;0
2117;157;41;1
2118;159;41;0
2119;159;41;1
2120;161;42;0
2121;159;43;0
2122;160;43;0
2123;160;42;1
2124;160;42;0
2125;160;42;0
2126;161;40;0
2127;160;40;0
2128;160;41;0
2129;160;41;0
2130;159;40;0
2131;160;40;1
2132;159;41;1
2133;158;42;1
2134;158;41;2
2135;158;41;1
2136;157;42;0
2137;157;42;1
2138;156;43;0
2139;157;42;1
2140;156;42;1
2141;156;41;0
2142;155;41;1
2143;155;40;0
2144;154;40;1
2145;154;39;0
2146;154;39;0
2147;154;39;0
2148;154;38;1
2149;154;37;0
2150;153;37;2
2151;153;37;1
2152;152;37;1
2153;152;38;0
2154;151;39;0
2155;151;40;0
2156;150;41;0
2157;149;41;1
2158;149;41;0
2159;149;41;0
2160;148;42;0
2161;148;42;0
2162;148;42;0
2163;147;42;1
2164;148;41;2
2165;148;41;1
2166;149;41;0
2167;149;41;0
2168;150;40;1
2169;149;41;0
2170;148;41;1
2171;148;41;1
2172;148;41;0
2173;148;40;0
2174;151;40;0
2175;151;41;1
2176;151;41;0
2177;150;42;0
2178;151;41;0
2179;150;42;0
2180;149;42;1
2181;148;42;0
2182;147;43;0
2183;147;43;1
2184;146;43;1
2185;145;44;0
2186;144;44;0
2187;144;44;1
2188;144;44;2
2189;143;44;2
2190;142;46;1
2191;142;45;0
2192;142;44;0
2193;142;45;0
2194;144;45;1
2195;145;45;1
2196;145;46;1
2197;145;47;0
2198;144;48;1
2199;144;47;0
2200;144;47;0
2201;145;47;1
2202;144;47;0
2203;143;47;0
2204;143;46;1
2205;143;45;2
2206;142;45;2
2207;141;46;3
2208;140;46;2
2209;139;46;1
2210;138;46;0
2211;138;45;0
2212;139;45;0
2213;139;45;0
2214;138;45;2
2215;138;45;2
2216;137;46;1
2217;137;45;1
2218;137;45;1
2219;138;45;0
2220;138;45;0
2221;139;45;1
2222;139;46;0
2223;139;46;0
2224;140;45;1
2225;141;45;0
2226;142;45;0
2227;143;46;1
2228;143;45;0
2229;143;45;0
2230;143;45;1
2231;142;46;1
2232;141;47;1
2233;141;48;1
2234;140;49;1
2235;142;48;1
2236;143;47;2
2237;144;47;1
2238;143;47;2
2239;143;47;2
2240;143;47;1
2241;142;47;0
2242;142;46;0
2243;142;46;0
2244;141;47;1
2245;141;48;0
2246;141;49;2
2247;142;50;1
2248;142;50;1
2249;141;50;1
2250;141;50;0
2251;140;50;2
2252;140;50;1
2253;139;51;1
2254;138;52;1
2255;138;51;0
2256;139;52;0
2257;139;52;0
2258;138;53;0
2259;138;53;0
2260;138;53;0
2261;137;54;1
2262;136;54;2
2263;135;54;2
2264;135;55;1
2265;135;55;0
2266;134;55;1
2267;134;55;1
2268;134;55;0
2269;134;55;0
2270;135;54;0
2271;136;55;0
2272;136;55;0
2273;135;56;1
2274;136;55;0
2275;137;54;0
2276;137;53;3
2277;138;54;3
2278;139;55;2
2279;138;56;2
2280;141;57;1
2281;141;57;1
2282;141;57;0
2283;142;57;1
2284;141;57;2
2285;143;57;1
2286;143;57;0
2287;142;57;1
2288;142;56;0
2289;142;56;2
2290;141;56;2
2291;141;57;2
2292;140;58;1
2293;140;57;2
2294;139;57;1
2295;139;57;1
2296;139;57;2
2297;139;56;3
2298;138;57;2
2299;138;58;1
2300;138;58;0
2301;138;58;1
2302;137;59;0
2303;137;59;0
2304;137;58;0
2305;137;59;0
2306;138;60;0
2307;138;60;0
2308;138;60;1
2309;138;60;0
2310;138;61;0
2311;139;61;0
2312;139;60;0
2313;138;61;0
2314;139;61;0
2315;139;61;1
2316;141;61;1
2317;140;62;0
2318;140;62;0
2319;139;62;1
2320;138;62;1
2321;138;63;0
2322;140;64;1
2323;139;64;0
2324;138;65;0
2325;139;65;1
2326;139;65;0
2327;139;65;2
2328;139;64;2
2329;138;64;2
2330;137;64;1
2331;137;63;0
2332;137;63;1
2333;137;62;0
2334;137;61;0
2335;140;60;1
2336;141;59;0
2337;140;59;0
2338;141;58;1
2339;141;57;1
2340;143;57;1
2341;142;57;2
2342;141;57;2
2343;140;57;2
2344;140;57;1
2345;140;57;1
2346;139;58;1
2347;138;59;0
2348;138;60;1
2349;139;60;1
2350;139;60;1
2351;139;60;0
2352;138;61;1
2353;137;61;0
2354;137;61;0
2355;136;62;1
2356;137;62;0
2357;137;61;3
2358;136;61;3
2359;135;61;2
2360;136;61;1
2361;135;61;1
2362;135;61;1
2363;135;60;1
2364;134;60;0
2365;133;60;0
2366;132;60;0
2367;131;61;0
2368;132;60;0
2369;132;59;1
2370;132;58;1
2371;131;59;0
2372;131;58;0
2373;131;57;1
2374;130;57;1
2375;130;58;0
2376;129;59;0
2377;129;60;1
2378;128;61;0
2379;128;61;0
2380;129;61;0
2381;131;61;0
2382;132;61;1
2383;131;61;0
2384;131;62;0
2385;131;61;1
2386;131;60;0
2387;130;60;0
2388;130;61;1
2389;129;62;0
2390;129;62;1
2391;130;62;1
2392;130;62;3
2393;130;62;2
2394;129;62;2
2395;130;61;2
2396;130;61;4
2397;131;61;3
2398;132;61;2
2399;132;61;1
2400;133;61;0
2401;133;62;0
2402;134;62;1
2403;135;63;2
2404;135;63;1
2405;134;64;1
2406;133;64;0
2407;134;64;2
2408;136;63;1
2409;135;64;2
2410;135;65;3
2411;135;65;3
2412;136;65;4
2413;136;65;4
2414;137;66;4
2415;137;66;4
2416;136;67;4
2417;136;68;4
2418;137;69;3
2419;137;69;2
2420;138;70;1
2421;138;70;1
2422;138;70;0
2423;137;70;0
2424;136;70;0
2425;138;69;1
2426;138;68;2
2427;138;67;2
2428;137;68;2
2429;137;68;2
2430;138;68;2
2431;138;68;2
2432;137;69;1
2433;137;70;0
2434;137;70;1
2435;137;71;1
2436;137;72;1
2437;137;72;0
2438;139;72;0
2439;139;71;0
2440;139;72;2
2441;139;73;2
2442;139;74;2
2443;139;75;1
2444;140;75;0
2445;141;74;0
2446;140;74;0
2447;141;74;0
2448;141;74;0
2449;141;74;0
2450;142;73;0
2451;142;74;1
2452;142;73;0
2453;144;72;0
2454;144;72;2
2455;144;71;2
2456;144;71;1
2457;145;71;1
2458;145;72;1
2459;144;73;1
2460;144;73;3
2461;144;74;3
2462;144;75;3
2463;143;76;2
2464;143;76;1
2465;142;76;0
2466;142;77;1
2467;144;75;1
2468;143;76;1
2469;142;77;1
2470;142;77;2
2471;142;76;1
2472;144;75;0
2473;144;74;0
2474;143;75;2
2475;142;76;1
2476;142;76;1
2477;141;76;1
2478;140;76;1
2479;139;76;0
2480;139;77;0
2481;140;76;1
2482;141;75;0
2483;141;75;0
2484;142;76;1
2485;142;76;0
2486;141;77;0
2487;140;77;0
2488;140;76;1
2489;140;76;0
2490;141;76;2
2491;142;76;1
2492;145;76;1
2493;145;75;1
2494;145;76;1
2495;144;77;0
2496;143;77;1
2497;143;77;0
2498;144;77;1
2499;144;77;0
2500;144;77;1
2501;146;76;1
2502;146;75;1
2503;147;75;1
2504;146;77;2
2505;147;76;2
2506;150;76;1
2507;150;76;0
2508;149;77;0
2509;148;78;0
2510;147;79;1
2511;149;79;0
2512;148;80;0
2513;149;80;2
2514;149;80;1
2515;149;80;1
2516;148;81;0
2517;148;80;1
2518;148;81;1
2519;149;81;1
2520;148;82;1
2521;147;83;3
2522;146;84;2
2523;148;84;1
2524;149;85;0
2525;148;86;0
2526;147;87;0
2527;148;86;2
2528;148;86;1
2529;148;86;0
2530;148;86;0
2531;149;86;0
2532;150;86;2
2533;149;86;2
2534;148;86;2
2535;150;86;1
2536;151;85;0
2537;150;86;1
2538;150;86;0
2539;150;85;1
2540;150;84;0
2541;150;84;0
2542;149;84;0
2543;150;84;0
2544;149;85;0
2545;149;84;0
2546;148;84;0
2547;148;85;2
2548;148;86;1
2549;148;86;0
2550;148;86;1
2551;149;85;1
2552;148;85;0
2553;148;85;0
2554;148;84;0
2555;148;83;0
2556;149;83;0
2557;150;82;1
2558;150;83;0
2559;150;82;0
2560;150;81;0
2561;150;80;0
2562;149;80;0
2563;149;80;0
2564;148;80;1
2565;147;81;0
2566;147;82;0
2567;147;81;0
2568;147;81;0
2569;146;81;0
2570;146;81;0
2571;147;82;1
2572;146;82;1
2573;146;82;3
2574;148;83;3
2575;147;83;4
2576;149;82;4
2577;149;81;3
2578;150;81;3
2579;150;80;2
2580;150;80;1
2581;150;80;0
2582;149;80;0
2583;150;81;1
2584;150;82;0
2585;149;83;0
2586;149;83;0
2587;149;82;0
2588;151;83;0
2589;150;83;0
2590;150;83;2
2591;150;82;1
2592;149;82;0
2593;149;83;0
2594;150;82;0
2595;149;82;0
2596;150;81;0
2597;150;81;0
2598;150;81;0
2599;150;81;1
2600;150;82;1
2601;149;83;1
2602;148;83;0
2603;147;83;0
2604;146;84;0
2605;145;84;1
2606;145;85;1
2607;146;84;0
2608;147;84;1
2609;147;83;0
2610;147;82;1
2611;147;81;0
2612;148;81;0
2613;147;82;2
2614;148;82;1
2615;149;83;0
2616;150;82;0
2617;151;81;0
2618;150;81;0
2619;149;82;0
2620;150;82;1
2621;150;82;1
2622;151;82;1
2623;151;82;0
2624;150;83;0
2625;152;83;0
2626;151;83;1
2627;151;83;0
2628;150;84;1
2629;150;84;0
2630;149;85;2
2631;148;86;2
2632;148;87;2
2633;147;88;2
2634;147;89;2
2635;147;90;2
2636;147;91;1
2637;147;91;0
2638;147;90;2
2639;147;91;1
2640;146;91;0
2641;146;92;2
2642;146;93;1
2643;146;93;0
2644;144;93;0
2645;144;92;1
2646;144;91;2
2647;143;91;3
2648;143;92;3
2649;143;92;2
2650;142;92;1
2651;142;91;2
2652;142;91;1
2653;142;91;0
2654;142;92;0
2655;145;91;0
2656;145;91;0
2657;145;90;0
2658;146;91;2
2659;146;91;1
2660;146;91;0
2661;145;92;0
2662;145;92;1
2663;144;92;0
2664;144;92;0
2665;144;93;0
2666;146;94;0
2667;147;94;0
2668;147;94;0
2669;147;95;0
2670;146;96;0
2671;146;96;1
2672;146;96;0
2673;145;96;2
2674;144;96;1
2675;146;97;0
2676;146;97;0
2677;147;97;1
2678;148;96;1
2679;149;95;2
2680;149;94;1
2681;148;94;0
2682;148;94;0
2683;148;94;0
2684;147;94;1
2685;146;94;0
2686;146;94;0
2687;147;95;0
2688;148;95;2
2689;147;95;2
2690;147;95;1
2691;147;95;0
2692;146;95;0
2693;146;94;0
2694;146;95;0
2695;145;97;0
2696;145;96;0
2697;144;97;1
2698;144;98;0
2699;145;98;0
2700;144;99;1
2701;144;99;0
2702;144;99;0
2703;145;98;0
2704;144;99;1
2705;144;99;0
2706;143;100;0
2707;144;100;1
2708;144;99;0
2709;145;99;0
2710;144;99;1
2711;143;99;1
2712;142;99;2
2713;142;98;1
2714;142;98;2
2715;142;98;1
2716;141;98;1
2717;142;97;2
2718;141;97;2
2719;141;97;2
2720;142;96;1
2721;142;96;0
2722;141;97;1
2723;141;98;2
2724;141;97;1
2725;141;98;1
2726;140;98;0
2727;139;98;1
2728;138;98;0
2729;138;97;0
2730;138;97;0
2731;138;97;3
2732;137;97;2
2733;137;97;2
2734;137;96;2
2735;138;95;1
2736;138;95;1
2737;137;95;1
2738;137;95;1
2739;136;95;0
2740;137;94;1
2741;138;93;0
2742;137;93;0
2743;136;94;0
2744;137;95;0
2745;136;96;1
2746;137;96;1
2747;136;96;1
2748;135;96;2
2749;135;97;3
2750;134;97;2
2751;135;97;4
2752;135;96;4
2753;135;96;4
2754;134;96;3
2755;134;96;4
2756;133;96;3
2757;133;96;2
2758;133;96;1
2759;133;96;0
2760;132;96;0
2761;131;97;1
2762;131;98;1
2763;130;99;1
2764;129;99;1
2765;129;99;0
2766;130;99;0
2767;130;99;1
2768;129;100;2
2769;128;100;1
2770;128;99;0
2771;128;98;1
2772;128;97;0
2773;128;97;2
2774;128;96;2
2775;128;95;1
2776;128;94;2
2777;128;95;1
2778;128;94;0
2779;128;94;1
2780;128;94;3
2781;128;95;2
2782;129;94;2
2783;130;93;1
2784;130;94;2
2785;131;94;3
2786;130;94;2
2787;130;93;1
2788;130;93;0
2789;130;93;0
2790;131;94;1
2791;132;94;1
2792;133;94;1
2793;132;95;0
2794;132;95;0
2795;131;96;0
2796;131;96;0
2797;131;97;0
2798;130;97;0
2799;131;96;0
2800;131;96;0
2801;131;96;2
2802;130;97;1
2803;129;98;0
2804;129;98;0
2805;130;98;0
2806;129;98;0
2807;129;98;3
2808;130;98;3
2809;129;99;5
2810;130;99;5
2811;129;99;5
2812;128;99;4
2813;127;100;3
2814;127;100;3
2815;128;99;2
2816;127;99;1
2817;126;101;0
2818;125;102;1
2819;124;102;0
2820;124;102;0
2821;125;101;0
2822;125;102;0
2823;125;103;1
2824;125;104;2
2825;125;104;2
2826;124;104;2
2827;123;104;1
2828;123;104;1
2829;124;104;0
2830;123;105;0
2831;123;104;0
2832;123;105;1
2833;123;105;1
2834;123;105;1
2835;122;105;0
2836;121;105;2
2837;122;104;1
2838;123;103;0
2839;125;102;0
2840;127;102;0
2841;128;102;0
2842;128;101;1
2843;127;101;0
2844;127;101;0
2845;126;101;0
2846;127;100;1
2847;127;99;0
2848;128;99;2
2849;127;99;1
2850;129;99;0
2851;128;99;1
2852;128;99;2
2853;128;99;1
2854;128;99;1
2855;127;99;0
2856;127;99;1
2857;129;99;0
2858;129;99;1
2859;128;100;0
2860;129;101;0
2861;129;101;1
2862;128;102;0
2863;128;102;1
2864;127;103;1
2865;127;103;0
2866;129;102;0
2867;129;101;0
2868;129;101;0
2869;128;101;1
2870;128;100;0
2871;127;101;0
2872;126;101;1
2873;125;101;0
2874;126;100;2
2875;128;100;2
2876;128;99;2
2877;129;98;1
2878;129;99;1
2879;128;99;0
2880;128;100;0
2881;128;99;1
2882;128;99;1
2883;129;100;2
2884;131;99;2
2885;132;99;1
2886;132;100;1
2887;133;99;0
2888;133;99;0
2889;134;98;1
2890;134;98;1
2891;134;97;4
2892;135;96;3
2893;135;95;2
2894;135;96;1
2895;136;95;0
2896;136;95;1
2897;135;95;1
2898;136;94;0
2899;136;94;1
2900;135;94;1
2901;134;96;0
2902;134;96;0
2903;133;95;0
2904;132;96;1
2905;132;96;0
2906;131;96;1
2907;131;96;1
2908;131;96;0
2909;130;97;2
2910;129;97;2
2911;129;96;1
2912;131;96;1
2913;131;96;2
2914;132;96;1
2915;132;97;0
2916;133;97;0
2917;133;98;2
2918;133;98;1
2919;134;97;2
2920;134;97;2
2921;133;98;2
2922;133;97;1
2923;132;97;1
2924;133;96;1
2925;133;96;2
2926;134;95;1
2927;135;96;0
2928;135;97;1
2929;136;98;0
2930;137;97;1
2931;136;97;0
2932;135;97;0
2933;134;97;0
2934;135;97;0
2935;136;97;0
2936;135;98;0
2937;135;98;2
2938;135;98;1
2939;135;97;1
2940;134;97;2
2941;135;97;1
2942;136;96;3
2943;136;96;2
2944;135;96;1
2945;135;96;0
2946;135;96;0
2947;136;95;1
2948;135;96;0
2949;134;96;1
2950;136;96;0
2951;135;96;1
2952;134;96;1
2953;133;97;0
2954;132;97;0
2955;131;97;0
2956;131;97;2
2957;130;97;1
2958;131;96;0
2959;132;95;0
2960;132;95;0
2961;132;96;0
2962;132;95;1
2963;133;95;1
2964;133;95;0
2965;133;95;1
2966;135;95;0
2967;134;95;0
2968;134;94;0
2969;133;94;0
2970;133;94;0
2971;134;95;0
2972;135;94;0
2973;136;94;0
2974;137;95;0
2975;137;95;0
2976;139;95;0
2977;139;95;0
2978;140;96;0
2979;140;95;0
2980;139;95;2
2981;139;95;4
2982;139;95;3
2983;140;95;3
2984;141;94;4
2985;142;93;3
2986;142;93;3
2987;141;93;3
2988;142;93;2
2989;142;92;1
2990;142;92;0
2991;141;92;0
2992;140;93;1
2993;140;93;1
2994;139;93;0
2995;140;93;0
2996;140;94;0
2997;139;95;1
2998;138;96;1
2999;139;95;2
3000;139;95;1
3001;138;96;1
3002;138;96;2
3003;139;97;1
3004;139;97;1
3005;139;96;0
3006;140;95;2
3007;141;94;2
3008;140;94;1
3009;141;94;0
3010;141;95;0
3011;141;95;0
3012;142;96;1
3013;142;95;1
3014;142;95;0
3015;141;96;0
3016;141;96;0
3017;142;96;1
3018;143;96;1
3019;142;96;1
3020;142;95;2
3021;143;95;1
3022;143;94;0
3023;143;93;1
3024;143;93;0
3025;143;93;1
3026;143;93;1
3027;142;93;1
3028;142;94;1
3029;143;94;0
3030;142;94;0
3031;141;94;2
3032;142;93;1
3033;141;94;1
3034;141;94;1
3035;141;96;0
3036;140;97;0
3037;140;96;0
3038;141;97;0
3039;141;97;1
3040;141;96;0
3041;142;96;0
3042;144;97;0
3043;143;97;0
3044;145;97;2
3045;145;98;1
3046;145;97;1
3047;145;98;0
3048;145;98;1
3049;145;97;0
3050;145;97;1
3051;144;98;0
3052;144;98;0
3053;143;98;1
3054;143;98;1
3055;143;98;0
3056;142;99;0
3057;142;100;0
3058;142;99;1
3059;142;98;0
3060;143;98;0
3061;143;99;2
3062;143;99;2
3063;145;99;2
3064;146;99;1
3065;148;98;2
3066;148;99;1
3067;148;98;0
3068;149;97;0
3069;148;97;0
3070;147;97;0
3071;147;97;1
3072;147;96;0
3073;146;96;0
3074;146;97;1
3075;146;96;0
3076;146;96;0
3077;145;95;1
3078;145;94;0
3079;144;94;3
3080;143;94;2
3081;142;94;1
3082;144;94;0
3083;144;94;0
3084;143;94;0
3085;142;94;2
3086;143;94;1
3087;143;94;2
3088;143;94;3
3089;143;95;2
3090;143;95;3
3091;144;95;2
3092;144;95;3
3093;145;95;2
3094;145;94;1
3095;144;94;2
3096;144;94;1
3097;144;94;1
3098;144;94;0
3099;144;93;1
3100;144;93;2
3101;144;93;1
3102;146;93;0
3103;147;93;1
3104;147;92;0
3105;147;92;0
3106;147;92;0
3107;148;93;0
3108;148;94;0
3109;148;93;0
3110;147;93;1
3111;147;92;0
3112;146;93;1
3113;147;92;2
3114;148;93;2
3115;150;93;2
3116;151;92;2
3117;151;93;2
3118;151;93;1
3119;150;94;1
3120;149;95;0
3121;148;96;0
3122;148;97;0
3123;148;97;0
3124;147;97;2
3125;148;96;2
3126;148;97;2
3127;147;97;2
3128;148;96;1
3129;147;96;0
3130;148;97;1
3131;148;97;0
3132;149;97;0
3133;149;96;0
3134;149;96;0
3135;149;97;0
3136;149;98;0
3137;148;98;1
3138;149;97;2
3139;149;98;1
3140;150;98;1
3141;150;98;0
3142;149;98;1
3143;150;97;0
3144;149;97;1
3145;149;97;0
3146;151;97;2
3147;151;97;3
3148;153;97;1
3149;152;97;0
3150;153;98;0
3151;152;98;0
3152;151;98;0
3153;151;98;0
3154;149;99;0
3155;149;99;0
3156;149;99;0
3157;149;100;0
3158;149;101;0
3159;151;101;0
3160;151;101;0
3161;151;101;0
3162;151;101;0
3163;151;101;0
3164;151;101;1
3165;152;101;0
3166;152;101;0
3167;151;102;0
3168;151;102;3
3169;152;103;2
3170;153;103;1
3171;152;104;1
3172;153;104;0
3173;154;105;0
3174;155;104;1
3175;154;105;0
3176;154;105;3
3177;155;105;2
3178;156;105;1
3179;157;104;1
3180;157;104;1
3181;157;103;0
3182;158;103;0
3183;158;103;0
3184;158;103;2
3185;157;103;2
3186;158;103;2
3187;157;104;1
3188;159;104;1
3189;159;103;0
3190;159;103;1
3191;159;104;1
3192;160;105;0
3193;160;106;0
3194;159;107;0
3195;161;108;0
3196;162;109;0
3197;162;109;2
3198;163;110;1
3199;164;111;0
3200;165;110;1
3201;165;110;0
3202;164;110;1
3203;164;110;2
3204;163;111;1
3205;162;111;0
3206;162;110;0
3207;161;110;0
3208;160;111;0
3209;161;111;0
3210;160;112;1
3211;161;112;1
3212;162;111;0
3213;163;111;0
3214;163;110;0
3215;164;110;0
3216;164;110;0
3217;165;110;0
3218;166;110;2
3219;166;110;2
3220;167;109;1
3221;168;108;1
3222;168;108;0
3223;169;107;2
3224;169;106;2
3225;170;105;2
3226;170;106;2
3227;171;106;2
3228;171;105;3
3229;170;105;2
3230;170;104;2
3231;170;104;2
3232;170;103;2
3233;171;102;1
3234;170;102;0
3235;170;102;0
3236;169;102;2
3237;169;102;1
3238;168;103;0
3239;168;103;0
3240;169;102;0
3241;168;103;2
3242;168;102;1
3243;169;101;2
3244;168;101;2
3245;167;102;1
3246;168;102;0
3247;167;102;0
3248;168;103;0
3249;167;103;0
3250;167;103;0
3251;168;103;1
3252;169;102;1
3253;169;102;1
3254;170;101;2
3255;170;102;1
3256;170;102;3
3257;170;101;3
3258;170;101;3
3259;169;100;2
3260;170;100;1
3261;171;101;1
3262;171;101;0
3263;170;101;0
3264;170;102;0
3265;171;101;0
3266;170;102;1
3267;172;103;1
3268;172;103;0
3269;171;103;0
3270;171;103;1
3271;171;103;0
3272;172;102;1
3273;172;101;1
3274;173;100;1
3275;173;101;0
3276;172;102;0
3277;173;102;0
3278;173;102;1
3279;173;102;1
3280;174;102;1
3281;174;101;1
3282;174;100;0
3283;174;100;0
3284;176;99;0
3285;176;100;0
3286;175;100;0
3287;174;100;1
3288;174;100;3
3289;175;100;4
3290;176;99;4
3291;177;99;3
3292;176;100;4
3293;176;100;4
3294;175;100;4
3295;175;100;3
3296;176;101;2
3297;176;102;1
3298;175;102;1
3299;175;101;2
3300;175;100;2
3301;176;100;2
3302;176;101;2
3303;176;101;1
3304;175;102;1
3305;176;103;1
3306;177;103;2
3307;176;104;2
3308;176;104;2
3309;176;104;1
3310;177;104;2
3311;177;104;2
3312;177;103;3
3313;178;103;2
3314;177;104;1
3315;178;103;2
3316;178;103;1
3317;177;104;2
3318;179;103;1
3319;178;103;1
3320;177;104;0
3321;177;104;0
3322;177;104;0
3323;178;103;1
3324;180;102;1
3325;181;102;0
3326;180;102;0
3327;181;102;1
3328;181;102;0
3329;181;103;0
3330;181;104;0
3331;180;103;1
3332;180;103;1
3333;181;103;1
3334;181;102;0
3335;182;101;0
3336;182;101;0
3337;182;100;0
3338;182;99;2
3339;182;98;1
3340;182;98;1
3341;182;97;1
3342;182;97;1
3343;182;97;0
3344;183;97;1
3345;184;97;1
3346;184;98;2
3347;184;98;2
3348;183;98;2
3349;182;99;1
3350;181;99;0
3351;181;98;0
3352;180;98;0
3353;181;98;1
3354;181;99;0
3355;181;100;0
3356;181;100;0
3357;180;100;0
3358;180;99;1
3359;181;98;1
3360;181;97;0
3361;180;98;1
3362;181;98;1
3363;181;98;0
3364;180;99;1
3365;180;99;1
3366;180;99;1
3367;180;99;0
3368;181;99;1
3369;181;98;0
3370;181;98;2
3371;181;98;2
3372;181;98;1
3373;181;99;0
3374;180;99;2
3375;179;100;2
3376;179;100;1
3377;179;100;0
3378;178;100;0
3379;177;100;1
3380;177;101;0
3381;178;100;0
3382;177;101;0
3383;177;101;0
3384;177;100;0
3385;177;101;1
3386;176;101;1
3387;176;100;0
3388;176;100;0
3389;177;100;0
3390;179;99;0
3391;180;100;1
3392;180;99;2
3393;180;98;2
3394;180;98;1
3395;181;98;1
3396;182;97;1
3397;182;96;1
3398;181;96;0
3399;183;96;0
3400;184;96;1
3401;184;97;1
3402;183;96;2
3403;182;96;3
3404;181;96;2
3405;180;96;2
3406;179;97;2
3407;178;97;1
3408;177;98;0
3409;177;97;0
3410;178;97;2
3411;177;97;2
3412;178;97;3
3413;179;96;2
3414;178;97;2
3415;177;97;2
3416;177;96;1
3417;179;95;0
3418;179;94;1
3419;178;94;0
3420;179;94;1
3421;181;93;1
3422;181;93;0
3423;182;92;0
3424;183;92;2
3425;183;93;1
3426;184;94;1
3427;184;95;0
3428;184;95;0
3429;184;95;0
3430;186;95;0
3431;185;96;0
3432;185;95;0
3433;185;94;0
3434;184;94;0
3435;184;93;1
3436;183;94;0
3437;184;93;0
3438;184;94;0
3439;185;93;1
3440;184;93;0
3441;184;92;1
3442;184;93;1
3443;184;93;0
3444;183;94;0
3445;182;95;0
3446;183;95;1
3447;182;96;2
3448;182;96;1
3449;183;95;1
3450;182;95;0
3451;182;95;0
3452;181;95;2
3453;180;95;2
3454;180;94;3
3455;180;94;2
3456;179;94;1
3457;179;94;1
3458;178;94;0
3459;179;93;0
3460;179;92;1
3461;180;92;1
3462;180;93;0
3463;180;94;1
3464;181;95;0
3465;182;94;1
3466;183;94;0
3467;184;94;0
3468;186;93;1
3469;186;94;0
3470;185;95;2
3471;185;95;2
3472;184;95;1
3473;183;95;0
3474;182;95;0
3475;182;95;0
3476;182;95;2
3477;181;96;2
3478;182;96;1
3479;183;95;0
3480;182;96;0
3481;181;96;0
3482;182;96;0
3483;182;95;0
3484;184;95;0
3485;184;95;0
3486;183;94;1
3487;184;93;0
3488;185;92;0
3489;185;91;0
3490;185;90;0
3491;184;91;1
3492;184;90;0
3493;184;91;0
3494;185;91;1
3495;185;91;2
3496;185;92;2
3497;184;93;4
3498;184;92;4
3499;184;92;4
3500;185;93;3
3501;186;94;2
3502;188;95;2
3503;188;95;1
3504;188;95;2
3505;187;95;2
3506;189;95;2
3507;191;95;3
3508;190;95;2
3509;189;95;2
3510;188;95;1
3511;188;95;1
3512;188;95;1
3513;188;95;1
3514;187;96;0
3515;187;96;0
3516;186;96;0
3517;187;95;0
3518;187;94;0
3519;189;93;0
3520;190;93;1
3521;189;93;0
3522;191;92;0
3523;192;91;2
3524;193;90;2
3525;194;90;1
3526;194;91;2
3527;194;92;1
3528;194;93;0
3529;194;93;1
3530;193;94;0
3531;192;95;0
3532;193;95;0
3533;194;95;1
3534;193;95;0
3535;194;95;0
3536;193;95;1
3537;192;95;1
3538;192;95;1
3539;192;95;0
3540;191;95;0
3541;191;94;0
3542;190;94;0
3543;191;94;0
3544;190;94;0
3545;190;94;0
3546;190;93;0
3547;190;94;0
3548;191;93;1
3549;192;92;0
3550;192;92;0
3551;192;92;0
3552;193;92;0
3553;193;93;0
3554;192;93;2
3555;192;94;2
3556;194;93;0
3557;194;92;0
3558;194;92;2
3559;195;92;1
3560;196;92;1
3561;195;92;2
3562;195;91;1
3563;196;91;0
3564;195;91;0
3565;197;91;0
3566;200;91;0
3567;200;91;0
3568;202;90;0
3569;202;90;1
3570;204;90;0
3571;204;90;1
3572;205;90;0
3573;205;90;0
3574;205;89;0
3575;205;89;1
3576;205;88;0
3577;204;89;0
3578;205;89;0
3579;204;90;0
3580;203;91;1
3581;203;92;0
3582;204;91;0
3583;204;90;0
3584;205;90;3
3585;205;90;2
3586;205;91;1
3587;205;92;2
3588;205;91;1
3589;205;91;1
3590;204;92;0
3591;206;92;0
3592;206;91;0
3593;208;90;1
3594;210;90;0
3595;210;89;0
3596;211;88;1
3597;211;87;2
3598;211;87;2
3599;212;87;3
3600;214;86;2
3601;213;87;2
3602;213;87;1
3603;213;87;0
3604;213;87;0
3605;214;86;0
3606;215;86;1
3607;215;87;0
3608;216;88;1
3609;217;87;1
3610;218;86;0
3611;219;87;0
3612;221;87;0
3613;221;86;0
3614;222;86;0
3615;222;86;0
3616;222;86;0
3617;221;87;1
3618;222;87;1
3619;222;86;0
3620;222;85;0
3621;221;85;1
3622;220;85;0
3623;220;85;0
3624;219;85;0
3625;220;87;1
3626;219;88;1
3627;220;88;0
3628;219;89;1
3629;221;90;0
3630;222;90;1
3631;222;91;1
3632;221;91;0
3633;221;92;0
3634;221;92;0
3635;220;92;0
3636;221;91;0
3637;221;90;0
3638;221;89;1
3639;221;90;1
3640;221;90;1
3641;223;90;0
3642;223;90;0
3643;223;89;0
3644;223;90;0
3645;223;90;1
3646;224;90;1
3647;224;91;0
3648;223;92;0
3649;222;92;1
3650;221;93;1
3651;223;93;0
3652;222;94;0
3653;221;94;0
3654;221;95;1
3655;221;96;0
3656;222;96;2
3657;220;96;3
3658;221;95;2
3659;222;95;2
3660;222;95;1
3661;221;95;4
3662;221;95;4
3663;221;95;6
3664;221;95;6
3665;222;94;5
3666;222;94;5
3667;222;94;5
3668;221;95;4
3669;220;95;3
3670;220;94;3
3671;220;93;2
3672;220;93;1
3673;220;92;1
3674;222;93;1
3675;221;93;0
3676;221;94;0
3677;221;94;1
3678;221;94;2
3679;221;94;1
3680;221;93;0
3681;221;93;0
3682;221;92;1
3683;221;93;0
3684;221;93;0
3685;222;92;2
3686;224;92;1
3687;223;93;1
3688;222;93;3
3689;222;93;2
3690;222;92;2
3691;221;92;2
3692;222;93;1
3693;221;93;1
3694;221;93;0
3695;221;93;0
3696;221;93;0
3697;221;92;0
3698;222;91;0
3699;222;91;1
3700;221;91;2
3701;221;90;1
3702;220;90;1
3703;219;90;0
3704;219;89;0
3705;220;88;1
3706;220;88;0
3707;220;87;2
3708;219;87;2
3709;219;86;1
3710;219;86;0
3711;218;86;0
3712;217;86;1
3713;216;87;0
3714;215;87;0
3715;215;86;1
3716;215;85;1
3717;215;85;2
3718;214;85;3
3719;213;86;3
3720;213;87;2
3721;213;86;2
3722;214;87;1
3723;214;86;1
3724;214;87;1
3725;213;88;1
3726;213;87;0
3727;214;87;1
3728;214;87;2
3729;213;87;1
3730;215;87;0
3731;214;87;1
3732;215;86;0
3733;215;85;2
3734;215;85;3
3735;216;86;3
3736;217;86;2
3737;217;87;3
3738;217;86;3
3739;218;86;4
3740;217;86;3
3741;217;86;2
3742;217;86;1
3743;217;86;1
3744;217;86;0
3745;216;86;0
3746;215;86;0
3747;216;86;1
3748;216;86;1
3749;216;86;0
3750;216;86;0
3751;216;85;0
3752;217;85;0
3753;218;86;0
3754;218;86;0
3755;218;85;0
3756;218;85;1
3757;218;85;1
3758;219;84;0
3759;219;83;1
3760;219;82;2
3761;221;82;1
3762;221;81;1
3763;220;81;0
3764;220;80;0
3765;221;79;2
3766;220;79;1
3767;220;79;0
3768;219;79;0
3769;219;80;0
3770;220;80;1
3771;219;80;2
3772;219;80;2
3773;219;81;3
3774;219;80;2
3775;219;80;3
3776;219;80;2
3777;219;80;3
3778;218;81;2
3779;217;81;2
3780;216;81;2
3781;216;80;1
3782;217;80;0
3783;216;80;0
3784;217;81;1
3785;217;81;1
3786;218;82;0
3787;219;82;1
3788;218;83;1
3789;218;82;0
3790;218;82;1
3791;217;83;0
3792;216;83;0
3793;215;83;1
3794;216;82;1
3795;215;83;0
3796;214;83;1
3797;215;83;1
3798;214;84;0
3799;213;84;1
3800;213;83;0
3801;213;83;0
3802;213;83;0
3803;213;84;1
3804;213;85;0
3805;212;85;0
3806;212;85;2
3807;211;86;1
3808;210;86;2
3809;209;87;1
3810;208;88;0
3811;208;88;1
3812;207;89;0
3813;207;89;0
3814;207;88;1
3815;207;88;0
3816;208;88;1
3817;209;88;0
3818;208;88;1
3819;209;89;0
3820;209;89;1
3821;209;88;0
3822;209;88;0
3823;209;88;0
3824;208;89;1
3825;208;89;1
3826;209;89;0
3827;211;88;0
3828;211;87;0
3829;211;88;1
3830;211;89;1
3831;211;88;2
3832;211;88;2
3833;211;89;1
3834;211;89;2
3835;212;90;1
3836;212;91;2
3837;211;92;2
3838;211;91;1
3839;212;91;0
3840;212;91;0
3841;213;90;0
3842;212;90;0
3843;211;91;1
3844;211;90;0
3845;210;90;0
3846;210;90;0
3847;211;90;1
3848;210;91;0
3849;210;91;0
3850;209;91;0
3851;209;90;1
3852;210;89;1
3853;211;88;1
3854;211;87;0
3855;212;88;0
3856;212;88;0
3857;212;87;0
3858;211;88;0
3859;212;89;1
3860;212;89;0
3861;213;90;2
3862;212;90;1
3863;212;89;0
3864;212;90;1
3865;213;90;0
3866;212;91;1
3867;211;92;0
3868;211;92;0
3869;211;91;0
3870;210;92;0
3871;209;92;2
3872;209;92;1
3873;209;93;1
3874;208;93;0
3875;207;94;0
3876;208;93;1
3877;210;94;1
3878;209;95;1
3879;209;96;1
3880;208;96;0
3881;207;98;0
3882;208;97;0
3883;209;98;0
3884;208;99;0
3885;209;100;0
3886;210;100;1
3887;209;101;0
3888;210;101;0
3889;210;101;0
3890;209;102;0
3891;210;101;1
3892;210;101;0
3893;211;101;2
3894;210;102;1
3895;209;102;0
3896;209;102;0
3897;209;101;0
3898;208;101;0
3899;209;102;1
3900;210;101;0
3901;210;101;0
3902;210;102;2
3903;209;103;1
3904;210;103;1
3905;211;103;0
3906;210;104;0
3907;211;104;2
3908;211;103;2
3909;211;103;3
3910;211;103;2
3911;210;104;2
3912;210;105;2
3913;210;105;2
3914;209;106;1
3915;210;107;1
3916;209;108;1
3917;208;108;2
3918;208;108;1
3919;208;108;3
3920;208;107;2
3921;208;107;2
3922;208;107;1
3923;208;108;0
3924;209;107;2
3925;208;107;1
3926;209;108;1
3927;210;109;0
3928;209;109;1
3929;210;108;1
3930;209;108;0
3931;209;107;0
3932;208;107;0
3933;208;107;1
3934;208;106;0
3935;208;106;0
3936;208;107;1
3937;207;107;1
3938;209;107;0
3939;209;106;0
3940;208;107;1
3941;207;107;1
3942;209;107;0
3943;208;107;0
3944;210;106;1
3945;210;107;1
3946;210;107;0
3947;212;107;0
3948;212;107;0
3949;211;108;0
3950;212;109;2
3951;211;110;1
3952;211;110;0
3953;210;111;0
3954;211;112;1
3955;212;111;1
3956;213;110;1
3957;212;111;3
3958;213;110;2
3959;214;109;1
3960;213;110;2
3961;212;110;2
3962;211;110;1
3963;213;110;0
3964;212;111;0
3965;211;112;0
3966;211;112;1
3967;211;112;1
3968;210;112;1
3969;213;111;0
3970;214;112;0
3971;213;113;1
3972;213;113;0
3973;214;113;0
3974;214;112;0
3975;213;112;0
3976;212;112;1
3977;213;112;1
3978;213;112;0
3979;213;113;1
3980;212;114;2
3981;212;114;3
3982;211;115;2
3983;212;115;1
3984;212;116;0
3985;213;117;0
3986;213;118;0
3987;213;117;0
3988;213;118;0
3989;213;117;0
3990;213;117;0
3991;212;118;0
3992;212;117;0
3993;211;117;1
3994;210;118;1
3995;210;117;0
3996;211;117;1
3997;211;116;2
3998;211;116;2
3999;212;116;2
4000;211;116;1
4001;212;115;1
4002;212;115;1
4003;213;116;1
4004;213;115;0
4005;214;114;0
4006;213;115;0
4007;213;114;1
4008;213;113;0
4009;212;113;1
4010;211;114;0
4011;211;114;0
4012;212;114;1
4013;212;114;0
4014;211;115;0
4015;213;115;0
4016;214;115;0
4017;214;115;0
4018;213;115;1
4019;214;114;0
4020;214;113;1
4021;214;112;0
4022;214;111;0
4023;216;110;0
4024;217;110;0
4025;217;111;0
4026;217;112;0
4027;216;112;0
4028;217;111;0
4029;217;111;0
4030;216;112;1
4031;216;113;0
4032;216;113;0
4033;216;113;0
4034;216;112;0
4035;217;112;0
4036;217;112;0
4037;217;111;0
4038;217;111;0
4039;219;112;0
4040;219;112;0
4041;218;113;0
4042;220;112;1
4043;221;112;1
4044;221;112;2
4045;221;112;1
4046;221;112;1
4047;221;113;0
4048;220;113;1
4049;221;113;0
4050;220;114;0
4051;221;113;1
4052;221;112;0
4053;222;112;1
4054;224;112;3
4055;223;113;2
4056;223;113;1
4057;223;112;2
4058;223;112;1
4059;222;112;2
4060;221;112;3
4061;221;113;3
4062;221;112;2
4063;221;111;1
4064;223;111;0
4065;223;111;0
4066;224;111;0
4067;224;109;0
4068;224;110;0
4069;225;111;0
4070;226;111;0
4071;226;110;0
4072;226;111;1
4073;225;112;0
4074;225;113;1
4075;225;112;2
4076;224;112;2
4077;224;113;2
4078;224;112;3
4079;223;112;3
4080;222;113;2
4081;223;113;2
4082;224;113;2
4083;224;113;1
4084;224;113;0
4085;224;112;0
4086;224;111;1
4087;225;111;0
4088;227;111;0
4089;226;111;0
4090;225;111;0
4091;225;110;0
4092;225;110;0
4093;226;109;0
4094;225;110;0
4095;224;111;0
4096;224;110;1
4097;224;110;0
4098;224;110;0
4099;224;110;1
4100;224;111;1
4101;224;111;0
4102;226;110;0
4103;226;111;0
4104;225;111;0
4105;225;112;0
4106;224;113;0
4107;223;114;1
4108;224;114;1
4109;223;115;3
4110;223;116;4
4111;222;117;5
4112;222;117;4
4113;223;117;3
4114;222;117;2
4115;222;117;2
4116;222;118;1
4117;222;119;0
4118;221;120;0
4119;221;120;0
4120;221;119;0
4121;221;119;0
4122;221;119;0
4123;220;120;0
4124;220;121;1
4125;220;122;0
4126;220;122;0
4127;220;123;0
4128;220;123;0
4129;219;124;1
4130;219;124;0
4131;220;124;0
4132;219;124;2
4133;219;125;1
4134;221;124;0
4135;222;124;1
4136;221;125;0
4137;221;125;1
4138;221;125;0
4139;221;124;0
4140;221;124;0
4141;222;124;1
4142;223;125;0
4143;223;126;1
4144;222;127;0
4145;222;127;2
4146;221;128;2
4147;220;128;1
4148;220;128;0
4149;222;127;1
4150;222;127;0
4151;222;128;0
4152;223;127;0
4153;223;126;2
4154;222;127;1
4155;222;128;0
4156;221;129;1
4157;220;130;2
4158;219;131;1
4159;220;131;1
4160;220;131;0
4161;220;132;0
4162;220;132;0
4163;219;132;0
4164;219;133;0
4165;218;134;0
4166;219;134;1
4167;219;134;0
4168;218;135;2
4169;217;136;2
4170;217;137;1
4171;217;137;0
4172;217;136;0
4173;218;136;2
4174;219;136;1
4175;218;137;1
4176;217;137;1
4177;218;138;1
4178;217;138;1
4179;218;138;0
4180;217;138;0
4181;218;137;0
4182;218;136;0
4183;218;136;0
4184;218;136;1
4185;218;137;1
4186;219;138;0
4187;218;139;1
4188;217;140;0
4189;217;140;0
4190;218;140;0
4191;218;139;0
4192;218;139;1
4193;218;138;0
4194;218;138;0
4195;218;137;0
4196;218;137;1
4197;219;137;1
4198;219;137;1
4199;218;137;0
4200;220;137;0
4201;219;137;0
4202;218;137;3
4203;217;137;3
4204;217;136;2
4205;217;137;1
4206;216;138;1
4207;216;139;0
4208;215;140;0
4209;216;139;0
4210;217;138;1
4211;218;138;0
4212;217;139;0
4213;218;139;0
4214;218;138;0
4215;218;138;0
4216;218;137;0
4217;218;136;0
4218;218;136;0
4219;218;137;0
4220;218;136;1
4221;218;135;0
4222;217;136;0
4223;217;136;0
4224;218;135;0
4225;218;134;0
4226;217;135;0
4227;216;136;0
4228;216;136;2
4229;216;136;1
4230;217;135;0
4231;217;135;0
4232;217;135;0
4233;216;135;0
4234;217;135;0
4235;217;135;0
4236;216;137;0
4237;216;137;1
4238;215;137;0
4239;215;136;2
4240;216;135;1
4241;216;134;0
4242;216;133;0
4243;216;132;1
4244;216;131;1
4245;217;131;0
4246;216;131;0
4247;215;132;2
4248;215;131;2
4249;214;131;1
4250;214;132;1
4251;214;132;0
4252;214;132;1
4253;214;131;0
4254;216;132;0
4255;216;131;0
4256;216;131;0
4257;216;131;1
4258;216;131;1
4259;216;131;2
4260;216;131;1
4261;216;130;2
4262;215;130;1
4263;215;130;0
4264;215;130;0
4265;215;129;1
4266;215;129;0
4267;214;129;1
4268;214;129;0
4269;215;129;0
4270;215;130;0
4271;216;130;1
4272;215;130;0
4273;215;129;0
4274;214;129;0
4275;214;130;1
4276;213;131;1
4277;213;132;1
4278;212;133;1
4279;212;134;2
4280;213;135;1
4281;214;135;0
4282;214;135;1
4283;213;135;1
4284;215;135;2
4285;215;134;2
4286;214;134;2
4287;214;134;2
4288;213;134;3
4289;212;134;3
4290;214;133;2
4291;215;133;1
4292;214;133;1
4293;213;133;1
4294;213;134;1
4295;212;135;0
4296;212;134;1
4297;212;135;0
4298;213;135;0
4299;213;134;0
4300;212;134;1
4301;212;134;0
4302;211;134;0
4303;210;134;0
4304;210;134;2
4305;209;134;1
4306;209;133;1
4307;209;133;0
4308;209;132;1
4309;209;132;0
4310;210;132;1
4311;211;132;0
4312;211;132;1
4313;211;132;0
4314;210;133;0
4315;210;132;0
4316;211;133;1
4317;210;133;0
4318;210;133;0
4319;211;132;2
4320;211;133;1
4321;212;133;1
4322;211;133;1
4323;211;133;0
4324;211;133;2
4325;211;133;2
4326;210;133;1
4327;211;132;0
4328;212;132;0
4329;213;131;0
4330;213;132;1
4331;213;132;0
4332;214;131;0
4333;213;131;1
4334;213;130;3
4335;213;130;2
4336;213;131;1
4337;213;131;0
4338;213;130;1
4339;212;130;0
4340;213;131;0
4341;212;131;1
4342;211;131;3
4343;212;131;3
4344;213;130;2
4345;214;131;3
4346;216;129;2
4347;216;129;2
4348;217;128;2
4349;217;127;1
4350;216;127;0
4351;216;127;0
4352;217;126;0
4353;217;126;0
4354;219;126;0
4355;219;125;0
4356;219;125;0
4357;220;124;0
4358;220;124;1
4359;222;124;0
4360;223;124;1
4361;223;123;0
4362;224;124;1
4363;223;124;1
4364;223;123;0
4365;223;124;0
4366;223;124;1
4367;222;124;1
4368;221;124;0
4369;220;125;0
4370;219;125;0
4371;220;125;0
4372;219;126;0
4373;219;127;0
4374;220;126;0
4375;220;125;0
4376;220;125;1
4377;219;126;1
4378;220;127;0
4379;220;127;1
4380;220;126;0
4381;220;125;0
4382;223;125;0
4383;222;126;1
4384;221;126;1
4385;221;126;1
4386;221;126;0
4387;221;126;1
4388;221;125;1
4389;220;125;1
4390;220;124;1
4391;219;124;1
4392;218;125;0
4393;218;125;2
4394;220;124;1
4395;220;123;1
4396;219;123;1
4397;220;124;1
4398;219;125;0
4399;220;124;0
4400;221;124;0
4401;220;125;2
4402;219;125;1
4403;219;127;0
4404;220;127;0
4405;220;126;0
4406;220;126;0
4407;220;127;0
4408;221;127;0
4409;221;127;0
4410;220;128;0
4411;220;128;0
4412;221;129;2
4413;220;129;1
4414;219;129;0
4415;218;129;0
4416;218;129;2
4417;218;130;1
4418;218;131;1
4419;218;130;0
4420;220;129;2
4421;219;130;1
4422;218;131;0
4423;217;131;0
4424;217;131;1
4425;216;131;1
4426;215;132;0
4427;215;132;1
4428;215;133;0
4429;215;133;2
4430;215;132;2
4431;215;133;1
4432;214;134;1
4433;214;134;0
4434;213;135;0
4435;213;135;1
4436;214;134;0
4437;214;135;0
4438;214;136;0
4439;214;136;2
4440;214;136;1
4441;213;137;1
4442;213;136;1
4443;213;137;0
4444;212;137;1
4445;211;137;0
4446;210;138;0
4447;211;138;1
4448;212;139;0
4449;212;138;0
4450;211;139;0
4451;211;138;0
4452;211;138;0
4453;211;138;1
4454;211;137;0
4455;211;137;0
4456;211;138;0
4457;211;138;0
4458;212;137;0
4459;213;137;1
4460;213;138;0
4461;213;138;0
4462;213;138;1
4463;215;137;0
4464;215;136;0
4465;214;137;0
4466;215;137;0
4467;214;138;0
4468;213;138;0
4469;213;137;0
4470;212;138;0
4471;212;137;1
4472;211;138;0
4473;211;137;1
4474;211;137;1
4475;211;137;3
4476;211;137;2
4477;212;137;2
4478;213;136;2
4479;213;135;1
4480;213;134;1
4481;212;135;0
4482;212;136;0
4483;212;137;0
4484;213;136;0
4485;213;135;1
4486;213;135;2
4487;212;135;1
4488;212;135;0
4489;212;134;0
4490;214;133;0
4491;214;132;1
4492;214;131;1
4493;213;131;0
4494;213;130;0
4495;213;130;0
4496;213;130;0
4497;213;131;1
4498;213;131;0
4499;213;131;1
4500;213;130;0
4501;213;129;0
4502;214;128;1
4503;216;127;1
4504;216;126;0
4505;215;127;0
4506;215;127;1
4507;216;127;0
4508;215;127;0
4509;215;126;1
4510;215;126;0
4511;216;127;0
4512;215;128;0
4513;215;127;2
4514;215;128;1
4515;216;128;0
4516;216;128;1
4517;217;127;0
4518;219;128;1
4519;218;129;1
4520;217;130;1
4521;217;130;0
4522;216;131;0
4523;217;130;1
4524;217;129;0
4525;217;129;1
4526;217;128;1
4527;216;129;0
4528;216;129;3
4529;215;130;2
4530;216;132;2
4531;217;131;3
4532;218;130;4
4533;217;131;5
4534;216;132;4
4535;216;133;3
4536;216;134;2
4537;216;133;1
4538;218;132;1
4539;217;133;0
4540;218;133;0
4541;218;134;0
4542;218;134;0
4543;218;134;0
4544;218;133;0
4545;219;132;0
4546;219;132;0
4547;222;132;0
4548;221;132;0
4549;222;131;1
4550;221;131;0
4551;222;131;1
4552;221;130;1
4553;222;130;1
4554;222;130;1
4555;223;130;0
4556;222;131;1
4557;221;132;2
4558;220;133;1
4559;220;133;0
4560;220;132;0
4561;219;132;0
4562;218;133;0
4563;218;132;0
4564;219;131;0
4565;219;131;0
4566;218;132;0
4567;218;133;0
4568;218;133;0
4569;218;133;0
4570;218;133;0
4571;218;132;0
4572;218;133;0
4573;218;132;0
4574;217;131;0
4575;217;130;0
4576;217;130;1
4577;217;130;1
4578;216;130;0
4579;217;131;1
4580;218;132;0
4581;218;132;1
4582;218;132;0
4583;217;132;1
4584;217;131;0
4585;216;132;0
4586;216;132;0
4587;215;133;0
4588;218;132;0
4589;218;131;1
4590;219;131;1
4591;219;131;1
4592;219;130;0
4593;219;130;0
4594;218;130;0
4595;218;131;1
4596;219;130;0
4597;219;130;2
4598;219;130;2
4599;220;130;1
4600;220;130;1
4601;220;130;0
4602;219;131;2
4603;218;132;1
4604;218;132;1
4605;219;131;0
4606;218;132;0
4607;219;132;0
4608;219;132;2
4609;219;133;1
4610;220;132;1
4611;220;132;0
4612;221;131;0
4613;221;131;1
4614;224;131;0
4615;223;132;0
4616;222;133;0
4617;221;134;1
4618;221;135;0
4619;222;135;0
4620;222;135;1
4621;222;135;0
4622;221;135;1
4623;222;135;0
4624;222;136;0
4625;222;136;0
4626;221;136;1
4627;220;136;0
4628;220;136;1
4629;220;135;3
4630;220;135;2
4631;221;134;2
4632;221;134;1
4633;222;134;1
4634;221;135;1
4635;222;134;0
4636;223;133;0
4637;222;133;0
4638;223;132;1
4639;223;132;0
4640;222;133;0
4641;221;134;0
4642;220;135;0
4643;220;135;2
4644;220;134;2
4645;221;134;3
4646;221;135;3
4647;222;135;5
4648;221;135;6
4649;221;135;6
4650;220;136;7
4651;220;137;6
4652;219;137;9
4653;219;136;8
4654;218;136;8
4655;217;137;8
4656;218;137;8
4657;218;137;8
4658;218;136;7
4659;219;136;6
4660;219;135;5
4661;220;134;6
4662;219;134;6
4663;219;135;5
4664;219;136;4
4665;219;136;3
4666;219;136;2
4667;218;136;2
4668;218;137;1
4669;217;138;2
4670;217;139;1
4671;218;138;0
4672;218;138;0
4673;218;139;1
4674;217;139;1
4675;216;140;2
4676;216;140;1
4677;216;140;3
4678;216;140;3
4679;218;140;2
4680;217;140;1
4681;216;141;1
4682;215;142;1
4683;216;141;0
4684;216;141;1
4685;217;141;0
4686;216;141;3
4687;215;142;2
4688;215;142;1
4689;215;143;2
4690;215;143;2
4691;216;143;2
4692;218;143;1
4693;219;143;0
4694;219;144;0
4695;219;144;0
4696;221;144;1
4697;221;144;1
4698;220;145;2
4699;219;146;1
4700;222;147;1
4701;222;148;0
4702;224;147;1
4703;223;148;0
4704;222;149;1
4705;222;149;1
4706;223;148;1
4707;222;148;1
4708;223;147;1
4709;224;146;0
4710;224;145;1
4711;224;145;1
4712;225;144;0
4713;226;145;0
4714;226;146;0
4715;226;147;0
4716;226;146;0
4717;226;145;1
4718;227;144;0
4719;226;145;0
4720;227;145;1
4721;226;145;1
4722;228;145;0
4723;228;145;1
4724;228;145;1
4725;227;146;0
4726;227;147;2
4727;226;148;1
4728;226;149;0
4729;227;150;0
4730;227;150;0
4731;226;151;0
4732;227;151;0
4733;227;150;1
4734;227;151;0
4735;226;152;1
4736;226;153;2
4737;226;154;1
4738;226;154;1
4739;227;153;1
4740;226;154;1
4741;225;154;1
4742;226;154;0
4743;226;153;2
4744;225;154;2
4745;225;154;1
4746;225;154;0
4747;225;154;1
4748;225;153;1
4749;225;154;0
4750;227;154;0
4751;228;154;1
4752;227;154;0
4753;228;154;1
4754;227;154;0
4755;227;153;2
4756;227;152;1
4757;228;151;1
4758;229;151;1
4759;228;151;1
4760;227;151;1
4761;226;152;0
4762;227;151;1
4763;226;151;1
4764;227;150;0
4765;226;150;0
4766;225;151;0
4767;225;151;0
4768;225;152;1
4769;224;152;0
4770;224;151;0
4771;224;150;1
4772;226;150;0
4773;226;149;1
4774;226;149;0
4775;227;149;0
4776;227;149;0
4777;227;149;1
4778;227;148;0
4779;228;148;1
4780;227;148;1
4781;228;147;1
4782;229;146;0
4783;229;146;1
4784;229;146;1
4785;228;147;1
4786;228;146;2
4787;228;145;2
4788;229;144;2
4789;228;144;2
4790;227;144;3
4791;226;145;3
4792;228;144;2
4793;230;145;1
4794;231;144;1
4795;231;144;2
4796;230;144;1
4797;232;143;1
4798;232;142;0
4799;231;142;1
4800;232;142;2
4801;232;141;2
4802;232;141;2
4803;232;141;1
4804;233;140;1
4805;233;141;0
4806;233;142;0
4807;232;142;0
4808;232;142;0
4809;231;143;1
4810;232;142;1
4811;233;142;0
4812;233;143;0
4813;233;143;1
4814;232;144;0
4815;232;144;1
4816;232;145;1
4817;231;146;0
4818;232;146;0
4819;231;146;0
4820;231;146;0
4821;231;146;1
4822;231;146;0
4823;231;145;1
4824;230;145;2
4825;230;146;1
4826;230;147;0
4827;230;147;0
4828;229;148;0
4829;230;147;0
4830;229;147;1
4831;228;147;1
4832;228;146;1
4833;228;145;0
4834;229;145;2
4835;228;146;1
4836;228;147;1
4837;228;147;0
4838;226;147;1
4839;225;147;0
4840;226;146;0
4841;226;146;1
4842;226;145;0
4843;225;145;0
4844;227;145;0
4845;226;146;1
4846;225;147;1
4847;226;147;1
4848;227;147;1
4849;227;147;0
4850;226;147;0
4851;226;146;2
4852;226;146;3
4853;225;147;2
4854;225;147;1
4855;225;146;0
4856;226;147;0
4857;226;148;0
4858;226;147;1
4859;225;148;0
4860;224;148;2
4861;225;148;1
4862;225;148;1
4863;224;149;0
4864;225;148;0
4865;225;147;0
4866;225;147;2
4867;225;148;1
4868;225;149;0
4869;224;150;1
4870;225;150;1
4871;224;150;1
4872;225;150;0
4873;225;152;1
4874;224;152;1
4875;223;152;2
4876;223;151;3
4877;222;152;3
4878;223;152;3
4879;223;152;3
4880;223;152;3
4881;223;152;3
4882;223;152;4
4883;223;152;4
4884;223;152;3
4885;223;152;2
4886;225;151;1
4887;224;151;1
4888;224;151;1
4889;225;151;0
4890;225;151;0
4891;224;151;2
4892;224;150;3
4893;224;149;3
4894;224;149;2
4895;223;149;1
4896;222;150;1
4897;222;151;0
4898;222;152;0
4899;223;153;0
4900;223;154;1
4901;222;154;1
4902;221;155;0
4903;221;154;1
4904;221;155;0
4905;220;155;1
4906;220;155;2
4907;219;155;1
4908;219;155;1
4909;220;155;0
4910;221;155;0
4911;222;156;0
4912;222;155;0
4913;221;155;2
4914;221;156;3
4915;222;155;2
4916;221;155;1
4917;221;155;0
4918;221;154;0
4919;221;154;0
4920;220;154;0
4921;220;153;1
4922;220;153;0
4923;221;152;0
4924;222;152;1
4925;222;152;1
4926;222;153;1
4927;222;153;0
4928;222;153;0
4929;222;153;0
4930;222;152;2
4931;222;152;1
4932;222;152;0
4933;222;152;1
4934;221;152;0
4935;221;151;1
4936;221;152;0
4937;221;153;1
4938;221;153;0
4939;221;152;0
4940;221;152;0
4941;221;152;0
4942;221;153;1
4943;220;153;1
4944;219;153;0
4945;218;153;0
4946;217;154;0
4947;217;154;0
4948;217;155;0
4949;217;156;2
4950;217;156;2
4951;219;156;1
4952;219;156;1
4953;218;157;2
4954;217;158;1
4955;219;158;2
4956;220;157;1
4957;219;158;1
4958;219;158;2
4959;218;159;3
4960;221;159;3
4961;222;159;2
4962;223;159;1
4963;222;160;1
4964;223;160;0
4965;223;160;1
4966;223;160;2
4967;223;160;1
4968;223;161;0
4969;223;161;1
4970;224;160;1
4971;223;160;1
4972;222;161;0
4973;222;160;0
4974;222;160;0
4975;222;160;2
4976;221;161;1
4977;220;162;0
4978;219;162;1
4979;220;161;1
4980;222;162;1
4981;222;163;0
4982;223;164;0
4983;222;165;0
4984;223;165;0
4985;223;166;1
4986;224;166;0
4987;224;165;0
4988;224;164;0
4989;226;164;1
4990;225;165;0
4991;225;164;1
4992;224;165;0
4993;224;165;1
4994;223;165;1
4995;223;165;0
4996;224;166;0
4997;224;166;2
4998;224;164;1
4999;223;164;0
