T1;360;3600;0.1;0.1;141;0.0282
T2;360;3600;0.1;0.1;295;0.059
T1;900;3600;0.1;0.25;255;0.051
T2;900;3600;0.1;0.25;827;0.1654
T1;1800;3600;0.1;0.5;301;0.0602
T2;1800;3600;0.1;0.5;1868;0.3736
T1;2700;3600;0.1;0.75;357;0.0714
T2;2700;3600;0.1;0.75;2934;0.5868
T1;3600;3600;0.1;1;428;0.0856
T2;3600;3600;0.1;1;3883;0.7766
T1;4500;3600;0.1;1.25;430;0.086
T2;4500;3600;0.1;1.25;3946;0.7892
T1;5400;3600;0.1;1.5;480;0.096
T2;5400;3600;0.1;1.5;3894;0.7788
T1;6300;3600;0.1;1.75;453;0.0906
T2;6300;3600;0.1;1.75;3921;0.7842
T1;7200;3600;0.1;2;435;0.087
T2;7200;3600;0.1;2;3924;0.7848
T1;9000;3600;0.1;2.5;436;0.0872
T2;9000;3600;0.1;2.5;3931;0.7862
T1;10800;3600;0.1;3;466;0.0932
T2;10800;3600;0.1;3;3876;0.7752
T1;12600;3600;0.1;3.5;408;0.0816
T2;12600;3600;0.1;3.5;3966;0.7932
T1;14400;3600;0.1;4;450;0.09
T2;14400;3600;0.1;4;3945;0.789
T1;16200;3600;0.1;4.5;422;0.0844
T2;16200;3600;0.1;4.5;3917;0.7834
T1;18000;3600;0.1;5;431;0.0862
T2;18000;3600;0.1;5;3958;0.7916
T1;360;3600;0.25;0.1;184;0.0368
T2;360;3600;0.25;0.1;252;0.0504
T1;900;3600;0.25;0.25;390;0.078
T2;900;3600;0.25;0.25;692;0.1384
T1;1800;3600;0.25;0.5;648;0.1296
T2;1800;3600;0.25;0.5;1525;0.305
T1;2700;3600;0.25;0.75;857;0.1714
T2;2700;3600;0.25;0.75;2439;0.4878
T1;3600;3600;0.25;1;1064;0.2128
T2;3600;3600;0.25;1;3229;0.6458
T1;4500;3600;0.25;1.25;1090;0.218
T2;4500;3600;0.25;1.25;3283;0.6566
T1;5400;3600;0.25;1.5;1057;0.2114
T2;5400;3600;0.25;1.5;3333;0.6666
T1;6300;3600;0.25;1.75;1079;0.2158
T2;6300;3600;0.25;1.75;3306;0.6612
T1;7200;3600;0.25;2;1068;0.2136
T2;7200;3600;0.25;2;3295;0.659
T1;9000;3600;0.25;2.5;1098;0.2196
T2;9000;3600;0.25;2.5;3269;0.6538
T1;10800;3600;0.25;3;1075;0.215
T2;10800;3600;0.25;3;3273;0.6546
T1;12600;3600;0.25;3.5;1122;0.2244
T2;12600;3600;0.25;3.5;3252;0.6504
T1;14400;3600;0.25;4;1133;0.2266
T2;14400;3600;0.25;4;3263;0.6526
T1;16200;3600;0.25;4.5;1103;0.2206
T2;16200;3600;0.25;4.5;3236;0.6472
T1;18000;3600;0.25;5;1102;0.2204
T2;18000;3600;0.25;5;3286;0.6572
T1;360;3600;0.5;0.1;208;0.0416
T2;360;3600;0.5;0.1;227;0.0454
T1;900;3600;0.5;0.25;561;0.1122
T2;900;3600;0.5;0.25;520;0.104
T1;1800;3600;0.5;0.5;1092;0.2184
T2;1800;3600;0.5;0.5;1084;0.2168
T1;2700;3600;0.5;0.75;1642;0.3284
T2;2700;3600;0.5;0.75;1644;0.3288
T1;3600;3600;0.5;1;2160;0.432
T2;3600;3600;0.5;1;2137;0.4274
T1;4500;3600;0.5;1.25;2156;0.4312
T2;4500;3600;0.5;1.25;2216;0.4432
T1;5400;3600;0.5;1.5;2123;0.4246
T2;5400;3600;0.5;1.5;2267;0.4534
T1;6300;3600;0.5;1.75;2223;0.4446
T2;6300;3600;0.5;1.75;2157;0.4314
T1;7200;3600;0.5;2;2194;0.4388
T2;7200;3600;0.5;2;2171;0.4342
T1;9000;3600;0.5;2.5;2135;0.427
T2;9000;3600;0.5;2.5;2232;0.4464
T1;10800;3600;0.5;3;2145;0.429
T2;10800;3600;0.5;3;2202;0.4404
T1;12600;3600;0.5;3.5;2219;0.4438
T2;12600;3600;0.5;3.5;2152;0.4304
T1;14400;3600;0.5;4;2184;0.4368
T2;14400;3600;0.5;4;2211;0.4422
T1;16200;3600;0.5;4.5;2214;0.4428
T2;16200;3600;0.5;4.5;2126;0.4252
T1;18000;3600;0.5;5;2200;0.44
T2;18000;3600;0.5;5;2190;0.438
