step;d2;d3;d1
0;0;0;0
1;0;0;0
2;0;0;0
3;0;0;0
4;0;0;0
5;0;0;0
6;0;0;0
7;0;0;0
8;0;0;0
9;0;0;0
10;0;0;0
11;0;0;0
12;0;0;0
13;0;0;0
14;0;0;0
15;0;0;0
16;0;0;0
17;0;0;0
18;0;0;0
19;0;0;0
20;0;0;0
21;0;0;0
22;0;0;0
23;0;0;0
24;0;0;0
25;0;0;0
26;0;0;0
27;0;0;0
28;0;0;0
29;0;0;0
30;0;0;0
31;0;0;0
32;0;0;0
33;0;0;0
34;0;0;0
35;0;0;0
36;0;0;0
37;0;0;0
38;0;0;0
39;0;0;0
40;0;0;0
41;0;0;0
42;0;0;0
43;0;0;0
44;0;0;0
45;0;0;0
46;0;0;0
47;0;0;0
48;0;0;0
49;0;0;0
50;0;0;0
51;0;0;0
52;0;0;0
53;0;0;0
54;0;0;0
55;0;0;0
56;0;0;0
57;0;0;0
58;0;0;0
59;0;0;0
60;0;0;0
61;0;0;0
62;0;0;0
63;0;0;0
64;0;0;0
65;0;0;0
66;0;0;0
67;0;0;0
68;0;0;0
69;0;0;0
70;0;0;0
71;0;0;0
72;0;1;0
73;1;0;0
74;0;1;0
75;1;1;1
76;0;0;2
77;1;1;1
78;0;1;1
79;1;1;1
80;0;1;2
81;1;1;1
82;0;1;1
83;0;1;1
84;1;1;0
85;0;1;0
86;0;1;1
87;0;1;0
88;1;1;1
89;1;2;1
90;0;2;2
91;1;1;1
92;0;1;2
93;0;1;1
94;1;1;0
95;0;1;1
96;0;1;0
97;1;1;1
98;0;1;2
99;2;0;1
100;0;1;1
101;0;1;1
102;1;1;2
103;1;2;1
104;0;2;2
105;1;1;2
106;0;2;2
107;0;2;2
108;1;2;1
109;1;2;2
110;1;2;1
111;1;2;2
112;1;2;2
113;2;2;3
114;2;3;3
115;1;4;3
116;1;4;3
117;1;5;3
118;0;5;3
119;1;4;4
120;1;5;3
121;0;5;4
122;1;5;4
123;0;6;4
124;1;6;4
125;1;5;3
126;0;6;4
127;0;5;5
128;2;4;4
129;1;5;3
130;0;5;4
131;0;4;4
132;1;4;3
133;0;4;3
134;0;4;3
135;1;3;3
136;1;3;2
137;0;3;2
138;1;4;3
139;0;5;2
140;0;4;3
141;1;4;3
142;0;4;3
143;1;4;3
144;0;4;3
145;1;3;3
146;0;4;3
147;0;3;3
148;1;3;3
149;0;3;3
150;1;3;2
151;1;4;3
152;0;4;4
153;1;3;4
154;0;4;4
155;0;3;4
156;1;4;4
157;1;4;4
158;1;4;4
159;0;5;4
160;1;5;5
161;2;6;4
162;1;6;5
163;1;7;5
164;1;6;6
165;1;7;5
166;0;7;6
167;0;6;6
168;1;5;6
169;1;5;6
170;1;6;6
171;0;7;6
172;0;6;6
173;1;6;5
174;0;5;6
175;0;5;5
176;1;5;6
177;1;5;5
178;0;6;5
179;1;5;6
180;0;5;5
181;1;5;6
182;1;6;6
183;1;6;6
184;0;6;7
185;0;6;6
186;1;5;6
187;0;5;5
188;0;4;7
189;1;4;6
190;0;4;6
191;1;4;5
192;1;5;5
193;1;5;6
194;2;5;5
195;0;6;7
196;1;5;7
197;1;6;7
198;0;6;8
199;0;5;8
200;1;5;7
201;1;5;7
202;1;5;7
203;0;5;8
204;0;5;7
205;0;3;7
206;2;3;6
207;0;3;6
208;0;3;7
209;1;3;8
210;0;3;8
211;1;2;9
212;1;3;8
213;0;3;8
214;1;2;9
215;1;3;9
216;1;2;9
217;0;3;9
218;1;1;9
219;0;2;9
220;1;1;9
221;0;2;9
222;0;1;9
223;0;1;8
224;1;1;8
225;1;2;8
226;0;2;9
227;1;1;9
228;0;2;9
229;1;1;9
230;1;2;9
231;1;1;9
232;1;1;9
233;1;2;9
234;0;1;10
235;0;1;9
236;1;1;9
237;1;1;9
238;1;2;8
239;1;1;9
240;1;1;8
241;0;1;9
242;1;1;8
243;1;0;9
244;0;0;9
245;0;1;8
246;1;1;7
247;0;2;7
248;1;1;8
249;0;2;8
250;1;2;8
251;0;1;8
252;1;1;8
253;0;1;8
254;1;1;8
255;0;1;9
256;1;2;9
257;0;2;9
258;0;3;9
259;1;1;10
260;1;1;10
261;1;1;9
262;0;1;10
263;0;1;9
264;1;1;8
265;0;1;8
266;0;1;7
267;1;1;8
268;0;1;9
269;1;2;9
270;0;2;9
271;0;1;10
272;0;1;10
273;0;2;10
274;2;0;10
275;1;1;9
276;2;1;9
277;1;2;11
278;1;1;11
279;1;2;11
280;1;2;11
281;0;2;12
282;1;3;12
283;1;2;13
284;1;3;12
285;0;3;12
286;1;4;11
287;0;4;12
288;1;4;12
289;0;3;12
290;0;3;12
291;1;2;12
292;1;3;11
293;0;2;12
294;0;1;13
295;1;1;12
296;0;1;13
297;1;1;12
298;0;1;12
299;1;1;12
300;0;1;12
301;1;1;13
302;0;2;13
303;0;1;13
304;1;1;13
305;1;2;13
306;1;2;14
307;1;3;13
308;0;3;14
309;1;2;14
310;0;3;14
311;1;4;14
312;0;4;15
313;0;4;15
314;0;5;14
315;1;4;15
316;2;5;14
317;0;5;14
318;1;5;15
319;0;5;14
320;1;4;15
321;0;5;15
322;0;5;15
323;1;3;15
324;0;5;14
325;0;5;15
326;1;5;15
327;0;5;15
328;0;5;14
329;1;4;14
330;1;4;14
331;0;4;14
332;1;3;15
333;1;4;15
334;0;5;15
335;1;4;16
336;2;5;16
337;1;6;15
338;0;6;16
339;0;5;16
340;1;5;17
341;1;6;16
342;0;6;17
343;1;4;17
344;0;5;17
345;1;4;17
346;0;5;17
347;1;5;17
348;0;5;18
349;1;5;17
350;0;5;18
351;1;4;18
352;0;5;18
353;0;4;18
354;1;4;18
355;1;4;18
356;1;4;19
357;0;5;18
358;1;4;19
359;0;5;18
360;1;4;19
361;1;4;18
362;0;4;19
363;1;3;19
364;0;3;18
365;1;3;19
366;0;4;19
367;1;3;19
368;0;4;19
369;1;3;19
370;0;4;19
371;1;4;19
372;0;4;20
373;1;5;19
374;0;6;19
375;0;4;20
376;1;4;19
377;1;5;20
378;0;5;21
379;1;4;21
380;0;5;21
381;0;4;21
382;1;4;21
383;1;4;21
384;1;5;21
385;1;5;21
386;0;5;22
387;1;5;21
388;0;6;21
389;1;4;22
390;1;5;22
391;0;5;22
392;1;5;22
393;1;5;22
394;1;5;22
395;1;5;22
396;1;5;22
397;0;4;22
398;1;3;21
399;0;2;21
400;1;4;21
401;0;4;22
402;0;3;22
403;1;3;22
404;0;4;22
405;1;4;22
406;0;5;22
407;0;5;23
408;1;5;23
409;1;5;23
410;2;5;23
411;0;6;24
412;1;5;24
413;0;6;24
414;1;6;24
415;1;5;24
416;1;5;24
417;1;5;24
418;0;6;25
419;1;7;24
420;0;6;24
421;0;6;25
422;0;6;24
423;1;5;25
424;1;6;24
425;1;6;25
426;0;7;25
427;1;6;26
428;0;7;25
429;1;6;25
430;0;7;25
431;1;6;25
432;0;7;24
433;0;6;25
434;1;6;25
435;1;6;25
436;1;6;25
437;1;6;25
438;1;6;24
439;1;6;25
440;1;5;25
441;0;5;25
442;1;5;25
443;0;6;25
444;1;5;26
445;1;6;25
446;0;7;25
447;1;7;26
448;0;7;27
449;1;8;26
450;0;7;27
451;1;8;26
452;0;8;26
453;0;7;27
454;1;7;26
455;0;6;26
456;1;7;26
457;0;7;26
458;1;6;26
459;0;6;26
460;1;7;26
461;0;8;27
462;1;8;27
463;1;8;27
464;1;9;27
465;0;8;28
466;0;8;27
467;0;7;27
468;1;7;26
469;0;8;27
470;0;7;27
471;1;7;27
472;1;7;27
473;1;7;26
474;1;7;27
475;1;7;26
476;1;6;27
477;1;6;26
478;0;5;27
479;1;5;26
480;0;5;27
481;1;5;26
482;0;5;27
483;0;5;27
484;1;5;27
485;1;5;27
486;1;5;27
487;1;5;27
488;1;5;27
489;0;5;27
490;1;5;27
491;1;5;27
492;1;5;28
493;1;6;27
494;0;6;27
495;1;5;28
496;0;6;27
497;1;6;28
498;0;6;29
499;1;6;28
500;0;6;28
501;1;5;28
502;0;5;29
503;1;5;28
504;0;5;28
505;0;4;28
506;1;5;28
507;0;5;29
508;0;6;28
509;1;4;28
510;0;5;27
511;0;3;27
512;1;3;27
513;0;3;28
514;1;3;27
515;0;3;28
516;1;3;27
517;0;3;27
518;1;3;28
519;0;4;27
520;0;3;28
521;1;3;27
522;0;3;27
523;0;3;26
524;1;2;27
525;0;2;27
526;0;2;27
527;1;2;26
528;0;2;26
529;0;1;26
530;1;0;25
531;0;1;24
532;0;1;24
533;0;0;23
534;1;1;22
535;1;2;23
536;0;1;24
537;1;2;23
538;0;2;24
539;0;1;24
540;1;1;23
541;0;1;23
542;0;2;22
543;0;1;23
544;1;1;22
545;0;1;23
546;1;1;22
547;0;2;22
548;0;1;23
549;0;1;22
550;1;1;22
551;0;1;22
552;1;1;21
553;1;1;21
554;1;1;22
555;0;2;22
556;1;1;23
557;0;2;22
558;0;1;22
559;1;1;22
560;0;2;22
561;1;1;23
562;1;2;22
563;0;2;23
564;0;1;23
565;1;1;22
566;0;0;22
567;1;0;22
568;0;1;23
569;1;1;22
570;0;0;23
571;0;1;22
572;1;0;21
573;0;1;20
574;0;1;20
575;1;1;19
576;0;2;20
577;0;1;20
578;1;1;20
579;1;0;20
580;0;1;20
581;1;1;19
582;1;2;20
583;2;3;20
584;0;2;21
585;1;0;21
586;0;1;21
587;0;1;20
588;1;1;19
589;0;2;20
590;1;0;20
591;0;1;20
592;1;1;19
593;0;1;19
594;0;1;20
595;0;1;19
596;1;1;19
597;1;2;19
598;0;2;20
599;1;1;20
600;0;2;20
601;1;1;20
602;0;2;20
603;0;1;20
604;1;1;20
605;1;2;20
606;0;2;21
607;1;2;20
608;0;3;21
609;1;2;21
610;0;3;21
611;1;3;21
612;1;3;21
613;1;3;21
614;1;3;21
615;0;3;21
616;1;3;20
617;0;3;21
618;1;2;20
619;0;2;21
620;1;3;20
621;0;3;21
622;1;1;21
623;0;2;20
624;0;1;21
625;0;1;20
626;1;1;21
627;0;2;20
628;1;1;21
629;0;2;20
630;1;1;21
631;1;2;20
632;1;2;21
633;1;2;20
634;1;2;21
635;1;1;21
636;1;2;20
637;0;3;20
638;1;2;21
639;1;2;20
640;0;3;20
641;0;1;21
642;1;1;20
643;0;1;21
644;0;1;20
645;1;1;19
646;0;2;19
647;0;1;20
648;0;0;19
649;1;1;20
650;1;2;20
651;0;2;20
652;1;2;21
653;0;3;20
654;1;2;21
655;0;3;21
656;1;2;21
657;0;3;20
658;0;1;21
659;1;1;20
660;0;2;20
661;1;1;20
662;0;0;21
663;1;1;21
664;1;1;21
665;1;2;21
666;0;2;22
667;0;2;21
668;1;1;22
669;1;2;22
670;1;3;21
671;0;4;22
672;1;3;22
673;0;4;22
674;0;3;22
675;1;3;22
676;1;3;22
677;1;2;23
678;2;2;22
679;0;4;22
680;0;2;23
681;1;1;22
682;0;1;22
683;0;2;22
684;0;2;22
685;1;2;22
686;0;2;22
687;1;2;22
688;0;2;22
689;1;3;21
690;0;2;22
691;0;3;21
692;1;2;22
693;2;3;21
694;0;5;22
695;1;4;22
696;1;5;21
697;0;5;22
698;1;5;21
699;0;6;22
700;1;5;22
701;0;6;22
702;0;5;22
703;0;5;21
704;1;4;21
705;0;5;21
706;1;4;21
707;0;5;21
708;1;4;21
709;0;5;22
710;1;5;21
711;0;5;21
712;1;5;21
713;0;5;21
714;0;5;21
715;1;4;21
716;0;5;21
717;0;4;21
718;1;3;21
719;1;4;21
720;0;3;21
721;1;4;21
722;0;4;22
723;0;3;22
724;1;4;21
725;0;5;22
726;0;4;22
727;1;3;21
728;1;3;22
729;2;3;21
730;1;4;21
731;1;5;22
732;1;4;23
733;1;5;22
734;0;5;24
735;1;4;24
736;0;5;25
737;1;5;24
738;0;5;25
739;0;5;24
740;1;4;24
741;1;5;24
742;0;5;25
743;1;4;25
744;0;5;25
745;1;4;25
746;0;5;25
747;1;4;25
748;0;5;25
749;1;4;25
750;0;5;25
751;1;4;25
752;1;4;25
753;0;4;25
754;1;4;25
755;0;4;25
756;1;4;24
757;0;4;24
758;0;4;24
759;1;3;25
760;0;4;24
761;1;4;24
762;1;3;24
763;1;3;24
764;1;3;23
765;1;4;24
766;0;4;24
767;1;4;24
768;0;4;25
769;1;4;24
770;0;5;25
771;1;4;25
772;0;5;25
773;0;4;25
774;1;4;24
775;0;5;25
776;1;4;25
777;1;5;25
778;0;5;25
779;0;4;25
780;1;4;25
781;1;5;25
782;0;5;25
783;0;4;26
784;0;4;25
785;1;3;25
786;0;4;25
787;1;2;25
788;0;3;25
789;1;2;25
790;0;3;25
791;1;2;25
792;0;2;24
793;1;1;25
794;0;2;25
795;1;1;25
796;0;2;25
797;0;2;25
798;1;2;24
799;0;2;25
800;0;2;24
801;1;1;24
802;1;2;24
803;0;2;24
804;1;1;25
805;0;2;24
806;0;1;24
807;0;1;24
808;1;1;24
809;1;1;24
810;1;1;23
811;1;0;24
812;0;1;23
813;0;1;23
814;1;1;23
815;0;1;23
816;1;1;23
817;1;1;23
818;1;1;22
819;0;1;23
820;0;0;22
821;1;1;22
822;1;1;22
823;1;2;22
824;0;3;22
825;1;2;23
826;0;3;22
827;1;2;22
828;0;3;22
829;1;2;22
830;0;3;21
831;1;3;22
832;1;3;22
833;0;3;22
834;1;2;22
835;0;2;22
836;1;2;21
837;0;2;21
838;1;1;20
839;1;1;22
840;1;1;22
841;1;1;22
842;1;1;22
843;1;0;22
844;0;1;22
845;1;1;21
846;0;1;22
847;1;1;21
848;0;1;21
849;0;1;21
850;1;0;21
851;0;1;21
852;0;1;21
853;1;1;20
854;0;1;21
855;1;1;20
856;0;1;21
857;1;1;20
858;0;1;20
859;1;1;20
860;0;1;21
861;1;1;20
862;0;1;20
863;1;1;20
864;0;1;20
865;1;1;20
866;0;2;21
867;1;1;21
868;0;2;22
869;0;1;21
870;0;1;20
871;0;1;19
872;1;1;19
873;1;1;19
874;1;1;19
875;0;1;19
876;1;1;18
877;1;1;19
878;1;1;18
879;0;1;19
880;1;1;18
881;0;1;18
882;1;1;18
883;0;1;19
884;0;2;18
885;1;3;18
886;0;3;18
887;0;3;18
888;1;2;18
889;0;3;18
890;0;2;18
891;1;2;17
892;0;3;18
893;1;1;18
894;0;2;17
895;0;1;17
896;0;1;18
897;1;1;17
898;0;0;18
899;1;1;17
900;0;2;17
901;0;1;18
902;1;1;17
903;1;1;18
904;1;1;18
905;1;0;18
906;0;1;18
907;1;2;17
908;0;2;18
909;0;2;17
910;1;1;17
911;1;2;17
912;0;3;17
913;0;4;18
914;0;3;18
915;0;3;18
916;1;4;17
917;0;3;18
918;1;3;17
919;0;4;17
920;0;2;18
921;1;2;17
922;0;2;18
923;0;2;18
924;1;2;17
925;0;2;17
926;1;1;17
927;0;1;17
928;1;1;17
929;0;1;18
930;1;1;17
931;0;2;17
932;0;1;18
933;1;1;18
934;1;1;18
935;1;1;18
936;0;2;18
937;0;1;18
938;1;0;18
939;1;1;17
940;0;2;17
941;0;1;18
942;0;0;18
943;2;1;17
944;0;2;17
945;0;1;18
946;1;1;17
947;0;1;17
948;1;0;17
949;0;1;17
950;1;0;16
951;0;1;16
952;1;0;16
953;0;1;15
954;0;2;14
955;0;1;14
956;1;2;14
957;0;2;14
958;0;2;14
959;1;1;15
960;1;1;14
961;0;1;15
962;1;1;14
963;0;2;15
964;0;2;15
965;1;2;15
966;1;2;15
967;0;2;16
968;1;3;15
969;0;3;16
970;1;2;16
971;0;3;16
972;0;4;16
973;1;2;16
974;0;3;16
975;0;2;16
976;1;1;15
977;0;3;16
978;1;3;16
979;1;4;15
980;1;4;16
981;1;5;16
982;1;5;16
983;0;5;17
984;1;5;16
985;0;4;17
986;1;5;16
987;0;6;16
988;1;4;17
989;0;5;16
990;1;5;17
991;1;6;17
992;1;7;17
993;0;5;17
994;0;4;17
995;0;3;17
996;1;4;16
997;0;4;17
998;1;5;16
999;0;5;17
1000;0;4;17
1001;0;4;16
1002;1;3;16
1003;0;4;16
1004;1;3;17
1005;0;4;16
1006;1;3;16
1007;1;4;17
1008;1;4;17
1009;0;5;17
1010;1;4;17
1011;0;5;16
1012;0;4;17
1013;1;4;16
1014;0;4;17
1015;0;4;16
1016;1;2;16
1017;1;2;16
1018;0;2;16
1019;0;1;17
1020;1;2;16
1021;1;1;17
1022;1;1;17
1023;0;1;17
1024;1;1;17
1025;1;1;17
1026;1;1;16
1027;1;1;17
1028;1;1;18
1029;1;2;17
1030;0;2;17
1031;1;1;18
1032;0;2;17
1033;0;1;18
1034;1;1;17
1035;0;1;18
1036;0;1;17
1037;1;1;16
1038;1;1;17
1039;1;1;17
1040;1;1;17
1041;1;0;18
1042;0;2;18
1043;1;2;18
1044;1;2;18
1045;1;2;18
1046;1;2;18
1047;1;2;17
1048;1;3;18
1049;0;3;19
1050;1;3;18
1051;0;3;19
1052;0;2;18
1053;1;1;19
1054;2;3;18
1055;1;3;19
1056;0;3;19
1057;1;4;19
1058;1;5;19
1059;1;4;20
1060;0;5;19
1061;1;4;19
1062;0;5;18
1063;0;4;19
1064;1;3;18
1065;0;3;19
1066;1;3;18
1067;0;3;19
1068;0;3;18
1069;1;2;19
1070;1;3;18
1071;0;2;19
1072;1;1;19
1073;0;2;19
1074;0;1;19
1075;1;1;18
1076;1;0;19
1077;0;1;19
1078;0;0;18
1079;1;1;17
1080;0;1;17
1081;1;1;17
1082;0;2;18
1083;0;1;18
1084;1;1;18
1085;1;1;18
1086;1;1;17
1087;0;0;18
1088;1;1;17
1089;0;1;17
1090;1;1;17
1091;0;1;18
1092;1;1;17
1093;0;2;17
1094;1;1;18
1095;0;2;18
1096;0;1;18
1097;1;1;18
1098;1;1;18
1099;1;1;18
1100;1;1;18
1101;1;0;18
1102;0;1;17
1103;0;1;16
1104;1;1;15
1105;0;2;16
1106;1;1;16
1107;0;2;16
1108;1;1;16
1109;1;1;15
1110;0;1;16
1111;1;1;15
1112;0;2;16
1113;1;2;16
1114;0;2;16
1115;1;2;16
1116;0;1;17
1117;0;1;16
1118;1;1;15
1119;1;1;16
1120;1;1;15
1121;0;2;16
1122;1;1;17
1123;1;1;16
1124;0;1;16
1125;1;1;16
1126;0;1;17
1127;1;1;16
1128;0;1;16
1129;1;1;16
1130;0;2;17
1131;1;1;17
1132;1;1;16
1133;1;1;17
1134;1;1;17
1135;0;0;17
1136;1;1;16
1137;0;1;17
1138;1;1;16
1139;0;1;17
1140;1;1;17
1141;0;2;17
1142;1;1;17
1143;0;2;16
1144;0;1;16
1145;1;1;16
1146;0;1;17
1147;1;1;16
1148;0;1;16
1149;0;1;16
1150;0;1;16
1151;1;1;15
1152;1;1;16
1153;2;1;15
1154;0;2;16
1155;1;1;16
1156;0;2;16
1157;1;1;16
1158;0;2;16
1159;0;2;16
1160;1;1;16
1161;1;2;16
1162;0;1;17
1163;1;1;16
1164;0;0;17
1165;0;1;16
1166;1;1;15
1167;0;1;16
1168;0;2;15
1169;1;2;15
1170;2;2;15
1171;1;3;15
1172;1;4;16
1173;1;4;17
1174;2;4;16
1175;0;4;16
1176;0;4;17
1177;0;3;16
1178;0;1;16
1179;0;2;15
1180;1;2;16
1181;0;3;15
1182;0;2;15
1183;1;1;14
1184;0;1;15
1185;0;1;14
1186;1;1;13
1187;0;2;14
1188;1;2;14
1189;0;3;13
1190;1;2;14
1191;0;3;14
1192;1;3;14
1193;0;4;15
1194;0;3;15
1195;1;3;15
1196;1;3;15
1197;1;3;15
1198;0;3;15
1199;1;2;15
1200;0;3;15
1201;0;2;15
1202;1;2;15
1203;1;2;15
1204;1;2;15
1205;1;2;15
1206;1;2;14
1207;0;2;15
1208;1;2;14
1209;0;2;15
1210;1;1;14
1211;0;1;15
1212;0;1;14
1213;1;1;14
1214;0;2;14
1215;0;1;14
1216;1;0;14
1217;1;1;13
1218;0;1;14
1219;1;1;13
1220;1;2;14
1221;1;1;14
1222;1;2;13
1223;0;2;14
1224;0;3;13
1225;1;2;14
1226;1;2;13
1227;0;1;14
1228;1;1;13
1229;0;1;14
1230;0;0;13
1231;1;1;13
1232;1;1;13
1233;1;1;12
1234;0;2;13
1235;0;1;12
1236;1;1;12
1237;1;1;12
1238;1;2;12
1239;1;2;12
1240;0;2;12
1241;1;2;12
1242;0;2;13
1243;0;2;12
1244;1;1;13
1245;1;2;12
1246;0;2;12
1247;0;1;12
1248;1;0;13
1249;0;1;12
1250;1;1;12
1251;0;0;13
1252;0;1;12
1253;1;1;11
1254;0;0;11
1255;0;1;10
1256;1;1;11
1257;0;1;10
1258;1;1;10
1259;0;1;11
1260;1;1;10
1261;0;1;11
1262;0;1;10
1263;0;0;10
1264;1;1;10
1265;1;1;10
1266;1;0;10
1267;0;1;9
1268;1;1;8
1269;0;1;9
1270;0;1;8
1271;1;1;7
1272;1;0;8
1273;0;1;8
1274;1;1;7
1275;0;2;7
1276;1;1;8
1277;1;2;8
1278;0;2;8
1279;0;1;7
1280;1;1;7
1281;1;1;7
1282;1;1;6
1283;0;1;6
1284;0;1;6
1285;0;1;5
1286;1;1;5
1287;1;1;5
1288;1;2;4
1289;2;2;5
1290;0;3;5
1291;0;3;6
1292;1;2;6
1293;1;3;6
1294;0;3;6
1295;0;3;7
1296;0;2;7
1297;1;2;7
1298;2;3;7
1299;0;4;8
1300;1;3;8
1301;0;3;8
1302;1;2;8
1303;0;3;7
1304;0;2;8
1305;0;1;7
1306;1;1;6
1307;1;0;7
1308;0;1;8
1309;1;0;8
1310;0;1;8
1311;0;2;8
1312;1;2;7
1313;0;2;8
1314;1;2;7
1315;0;2;8
1316;1;2;7
1317;0;1;7
1318;0;1;7
1319;1;2;6
1320;0;3;7
1321;1;1;7
1322;0;1;7
1323;0;1;6
1324;1;1;6
1325;0;1;6
1326;1;1;6
1327;1;1;6
1328;1;1;6
1329;1;0;6
1330;0;1;6
1331;0;1;6
1332;0;1;5
1333;0;1;4
1334;0;1;3
1335;0;1;2
1336;1;1;2
1337;1;2;2
1338;0;2;2
1339;1;1;3
1340;0;2;3
1341;1;1;3
1342;0;2;2
1343;1;1;3
1344;0;2;3
1345;1;1;3
1346;1;2;2
1347;1;3;3
1348;0;3;3
1349;0;4;3
1350;1;2;3
1351;0;3;2
1352;0;2;3
1353;1;2;3
1354;1;2;3
1355;1;2;4
1356;2;2;3
1357;0;2;4
1358;1;2;4
1359;0;2;5
1360;1;2;4
1361;0;2;5
1362;1;2;4
1363;0;3;5
1364;0;3;5
1365;1;3;5
1366;0;3;5
1367;1;3;5
1368;1;3;5
1369;1;3;5
1370;0;3;5
1371;1;3;4
1372;1;3;5
1373;1;3;6
1374;1;4;5
1375;0;4;6
1376;1;3;6
1377;0;4;6
1378;0;3;6
1379;1;2;6
1380;0;1;6
1381;1;0;7
1382;1;1;6
1383;0;0;7
1384;0;1;7
1385;1;1;6
1386;0;1;7
1387;1;1;6
1388;0;1;7
1389;1;1;6
1390;0;1;7
1391;1;2;6
1392;1;2;7
1393;1;2;7
1394;1;2;6
1395;0;2;6
1396;0;1;5
1397;0;1;5
1398;1;1;4
1399;0;1;5
1400;1;1;5
1401;0;1;6
1402;1;1;5
1403;0;2;6
1404;1;2;6
1405;0;2;7
1406;0;3;6
1407;0;2;6
1408;1;2;5
1409;1;3;5
1410;0;3;6
1411;1;3;6
1412;1;4;6
1413;1;4;7
1414;0;4;8
1415;1;4;7
1416;1;4;8
1417;1;3;8
1418;1;3;8
1419;1;3;8
1420;1;2;7
1421;0;2;7
1422;0;3;7
1423;1;2;8
1424;1;2;7
1425;0;2;8
1426;0;0;8
1427;1;1;8
1428;0;1;8
1429;1;0;8
1430;0;2;8
1431;1;1;8
1432;0;2;8
1433;0;2;8
1434;1;1;8
1435;0;2;8
1436;1;2;8
1437;1;2;8
1438;0;2;8
1439;1;2;8
1440;1;2;8
1441;0;2;8
1442;0;2;9
1443;1;0;9
1444;0;1;8
1445;1;1;8
1446;0;1;9
1447;1;1;8
1448;0;1;8
1449;0;1;8
1450;1;0;7
1451;1;1;7
1452;0;1;7
1453;0;1;7
1454;1;0;7
1455;0;1;7
1456;1;1;7
1457;0;1;7
1458;1;1;7
1459;0;2;7
1460;0;0;7
1461;1;1;6
1462;0;1;6
1463;1;1;6
1464;0;1;6
1465;0;1;6
1466;1;1;5
1467;0;1;6
1468;1;1;5
1469;0;1;5
1470;1;1;5
1471;0;1;6
1472;1;2;6
1473;1;3;6
1474;1;3;6
1475;0;3;6
1476;1;3;6
1477;0;3;6
1478;0;3;5
1479;0;2;6
1480;1;2;6
1481;0;2;6
1482;1;2;6
1483;1;2;6
1484;1;2;6
1485;1;3;6
1486;0;3;7
1487;1;3;6
1488;0;3;7
1489;1;2;6
1490;0;2;7
1491;0;2;6
1492;1;1;7
1493;0;2;6
1494;1;0;6
1495;0;1;6
1496;0;1;5
1497;1;1;5
1498;1;1;5
1499;1;1;4
1500;1;1;5
1501;1;1;6
1502;2;2;6
1503;1;3;6
1504;1;3;6
1505;0;2;7
1506;0;2;6
1507;1;1;7
1508;0;2;6
1509;1;1;7
1510;2;2;6
1511;0;3;7
1512;1;2;7
1513;0;3;7
1514;0;2;7
1515;1;2;7
1516;1;3;7
1517;0;3;7
1518;0;3;7
1519;1;3;7
1520;0;3;8
1521;1;3;7
1522;0;3;7
1523;0;4;7
1524;0;2;8
1525;1;2;7
1526;1;2;7
1527;2;2;7
1528;0;3;8
1529;1;1;8
1530;0;2;8
1531;0;1;8
1532;0;0;7
1533;1;1;6
1534;0;1;6
1535;1;1;6
1536;0;1;7
1537;0;0;7
1538;1;1;7
1539;0;2;7
1540;1;1;6
1541;1;1;7
1542;1;1;6
1543;1;0;7
1544;0;1;6
1545;0;1;6
1546;1;1;5
1547;0;1;5
1548;1;1;5
1549;0;1;5
1550;0;0;4
1551;1;1;4
1552;0;2;4
1553;0;1;4
1554;0;1;4
1555;1;1;4
1556;1;1;4
1557;1;1;3
1558;0;1;4
1559;1;2;4
1560;1;2;4
1561;0;1;5
1562;1;2;4
1563;0;2;4
1564;1;2;4
1565;0;2;5
1566;0;2;4
1567;1;1;5
1568;0;2;4
1569;1;1;4
1570;0;2;5
1571;0;2;4
1572;1;1;5
1573;1;1;4
1574;1;1;5
1575;0;1;5
1576;1;1;4
1577;0;1;5
1578;1;0;4
1579;0;1;3
1580;1;1;4
1581;1;1;5
1582;1;1;4
1583;0;1;4
1584;1;1;4
1585;0;1;5
1586;1;2;4
1587;0;3;5
1588;0;2;5
1589;1;1;5
1590;1;2;5
1591;0;2;5
1592;1;2;5
1593;0;2;5
1594;0;2;4
1595;1;1;5
1596;0;2;4
1597;1;2;5
1598;1;2;4
1599;0;2;5
1600;1;2;5
1601;1;2;5
1602;1;2;5
1603;0;2;5
1604;1;2;4
1605;1;2;5
1606;1;2;4
1607;0;2;5
1608;1;2;4
1609;2;2;4
1610;0;2;5
1611;1;1;6
1612;0;2;6
1613;1;1;6
1614;0;2;5
1615;0;1;6
1616;0;1;5
1617;1;1;4
1618;0;1;4
1619;0;1;4
1620;0;1;4
1621;0;1;3
1622;2;1;2
1623;2;2;3
1624;1;2;3
1625;1;2;4
1626;1;2;4
1627;0;2;4
1628;1;2;4
1629;0;1;4
1630;1;0;3
1631;0;0;4
1632;0;0;3
1633;1;1;2
1634;1;1;3
1635;1;1;3
1636;0;1;3
1637;1;1;3
1638;1;2;3
1639;0;2;4
1640;1;2;3
1641;0;1;4
1642;0;1;3
1643;1;1;3
1644;0;1;3
1645;1;1;2
1646;0;1;3
1647;1;1;2
1648;0;1;2
1649;0;1;2
1650;1;1;2
1651;1;2;2
1652;0;2;3
1653;1;0;3
1654;0;0;2
1655;1;1;3
1656;0;2;4
1657;0;1;4
1658;1;1;4
1659;0;1;4
1660;1;1;3
1661;0;2;3
1662;0;2;4
1663;1;2;3
1664;0;2;4
1665;1;2;4
1666;0;3;4
1667;1;2;4
1668;0;3;4
1669;1;2;4
1670;0;2;4
1671;1;1;4
1672;1;2;4
1673;1;2;4
1674;0;3;5
1675;1;2;5
1676;1;3;5
1677;0;4;5
1678;1;3;6
1679;1;3;5
1680;0;3;5
1681;0;2;6
1682;0;2;5
1683;1;1;6
1684;2;2;5
1685;1;3;5
1686;1;3;6
1687;0;3;7
1688;1;4;6
1689;0;4;6
1690;1;3;7
1691;0;4;8
1692;1;4;7
1693;0;4;7
1694;0;4;6
1695;1;3;7
1696;0;4;6
1697;1;3;7
1698;1;4;7
1699;1;4;7
1700;1;4;7
1701;0;3;7
1702;1;3;6
1703;1;4;7
1704;1;4;7
1705;0;4;7
1706;1;4;6
1707;0;3;7
1708;1;4;7
1709;0;4;8
1710;1;4;7
1711;0;4;7
1712;1;3;7
1713;0;3;7
1714;1;3;7
1715;0;3;8
1716;1;4;7
1717;0;4;8
1718;1;3;8
1719;0;4;7
1720;0;3;8
1721;1;3;8
1722;1;4;8
1723;0;4;8
1724;1;5;8
1725;1;4;8
1726;1;4;8
1727;1;4;8
1728;1;5;8
1729;1;6;7
1730;1;5;8
1731;1;5;8
1732;1;5;8
1733;1;5;7
1734;1;5;8
1735;1;5;8
1736;1;5;8
1737;1;5;9
1738;0;6;9
1739;1;6;9
1740;1;6;9
1741;1;6;10
1742;1;7;9
1743;0;7;10
1744;0;6;10
1745;1;5;9
1746;0;5;10
1747;1;5;10
1748;1;5;10
1749;1;6;10
1750;0;5;10
1751;1;5;9
1752;0;5;10
1753;1;5;10
1754;1;5;10
1755;1;5;10
1756;1;5;10
1757;1;5;9
1758;1;5;10
1759;1;5;11
1760;0;6;10
1761;1;5;10
1762;0;6;10
1763;1;5;10
1764;0;6;10
1765;1;5;11
1766;1;6;10
1767;0;5;10
1768;1;4;11
1769;0;5;11
1770;0;4;10
1771;1;3;11
1772;0;4;11
1773;1;3;11
1774;0;5;11
1775;1;4;11
1776;0;5;11
1777;1;4;11
1778;0;5;11
1779;1;5;11
1780;0;4;12
1781;0;5;11
1782;1;3;11
1783;0;5;11
1784;1;5;12
1785;0;6;11
1786;1;5;11
1787;2;6;10
1788;1;7;12
1789;0;6;12
1790;1;5;12
1791;0;5;12
1792;1;6;12
1793;0;5;12
1794;0;4;13
1795;1;4;12
1796;0;4;13
1797;1;3;14
1798;0;4;13
1799;1;3;13
1800;0;4;12
1801;0;3;13
1802;0;4;12
1803;2;3;12
1804;1;5;12
1805;2;4;12
1806;0;4;12
1807;0;4;13
1808;0;5;12
1809;1;5;14
1810;1;4;13
1811;1;6;14
1812;0;7;14
1813;1;6;14
1814;1;6;14
1815;1;5;14
1816;1;5;14
1817;1;5;14
1818;1;4;14
1819;1;4;13
1820;0;4;14
1821;1;4;13
1822;0;4;14
1823;1;4;13
1824;0;4;14
1825;0;4;13
1826;1;3;13
1827;1;4;13
1828;0;4;14
1829;0;3;14
1830;1;3;14
1831;0;4;14
1832;0;3;14
1833;1;2;14
1834;0;2;14
1835;1;1;14
1836;1;1;14
1837;1;0;13
1838;0;0;13
1839;0;1;13
1840;1;1;12
1841;1;1;12
1842;1;2;12
1843;1;2;12
1844;0;2;12
1845;0;2;12
1846;1;1;13
1847;1;2;13
1848;1;2;12
1849;0;2;13
1850;0;3;12
1851;1;2;12
1852;0;2;13
1853;1;2;12
1854;0;3;12
1855;1;2;13
1856;0;3;13
1857;1;2;13
1858;0;3;12
1859;0;4;13
1860;1;3;13
1861;1;4;13
1862;0;5;13
1863;0;4;14
1864;1;4;14
1865;0;4;14
1866;1;4;13
1867;0;4;14
1868;1;4;14
1869;0;5;14
1870;1;4;14
1871;0;5;14
1872;1;4;14
1873;0;5;14
1874;1;4;14
1875;0;4;14
1876;1;3;14
1877;0;3;14
1878;1;2;14
1879;0;3;15
1880;0;3;14
1881;1;1;15
1882;1;2;14
1883;0;2;15
1884;1;1;15
1885;0;2;15
1886;1;1;15
1887;0;1;14
1888;1;1;14
1889;0;1;14
1890;0;1;14
1891;1;1;14
1892;1;1;14
1893;1;1;13
1894;1;1;14
1895;1;1;13
1896;1;1;14
1897;1;1;14
1898;1;2;14
1899;0;2;15
1900;0;2;15
1901;1;2;15
1902;1;2;15
1903;1;1;14
1904;0;1;15
1905;1;1;14
1906;0;1;14
1907;0;1;13
1908;0;1;13
1909;1;1;12
1910;0;1;12
1911;0;1;13
1912;0;2;12
1913;1;1;12
1914;0;3;12
1915;1;2;12
1916;0;3;11
1917;0;3;12
1918;0;3;11
1919;0;2;11
1920;1;3;11
1921;1;3;11
1922;1;3;11
1923;0;4;11
1924;1;3;12
1925;2;3;11
1926;0;4;12
1927;1;3;12
1928;0;3;12
1929;0;3;12
1930;1;2;11
1931;0;2;12
1932;1;2;12
1933;0;3;13
1934;0;3;12
1935;1;2;12
1936;0;3;12
1937;1;1;12
1938;0;2;11
1939;0;0;12
1940;1;1;11
1941;1;1;12
1942;1;1;12
1943;1;2;12
1944;1;2;12
1945;1;3;12
1946;0;3;12
1947;1;2;13
1948;0;3;13
1949;1;2;13
1950;0;3;12
1951;0;1;13
1952;1;1;12
1953;0;1;12
1954;0;1;11
1955;0;0;11
1956;1;1;11
1957;1;2;11
1958;1;2;11
1959;1;2;11
1960;1;2;10
1961;1;2;11
1962;1;3;11
1963;0;3;11
1964;1;3;11
1965;0;3;12
1966;1;3;12
1967;0;3;12
1968;1;3;11
1969;0;4;12
1970;1;3;12
1971;0;4;11
1972;1;4;12
1973;1;4;12
1974;1;3;12
1975;1;3;12
1976;0;3;12
1977;1;3;12
1978;0;3;12
1979;1;3;11
1980;1;4;12
1981;0;4;13
1982;0;3;12
1983;1;2;13
1984;0;3;12
1985;0;2;12
1986;1;2;11
1987;0;3;12
1988;0;2;12
1989;1;2;11
1990;0;3;11
1991;0;1;12
1992;1;2;11
1993;0;2;12
1994;1;2;13
1995;1;3;12
1996;1;3;13
1997;1;2;13
1998;1;2;12
1999;0;3;13
2000;0;2;14
2001;0;2;13
2002;2;1;13
2003;1;2;13
2004;1;1;13
2005;0;1;14
2006;1;1;13
2007;0;1;13
2008;0;2;13
2009;1;1;13
2010;1;1;13
2011;0;0;14
2012;1;1;13
2013;0;2;14
2014;1;1;14
2015;0;2;14
2016;1;1;14
2017;0;2;15
2018;1;2;14
2019;0;2;14
2020;1;2;15
2021;0;3;14
2022;0;2;15
2023;0;2;14
2024;1;1;15
2025;2;2;14
2026;0;3;15
2027;0;2;15
2028;1;2;14
2029;0;2;15
2030;0;1;15
2031;1;1;15
2032;1;2;15
2033;0;2;15
2034;0;1;16
2035;1;1;15
2036;1;1;16
2037;1;2;15
2038;1;2;16
2039;0;2;16
2040;0;2;16
2041;1;1;16
2042;0;2;16
2043;0;2;16
2044;1;1;17
2045;1;2;16
2046;0;1;17
2047;0;1;16
2048;1;1;16
2049;0;1;16
2050;0;1;15
2051;0;1;15
2052;1;1;15
2053;1;2;14
2054;1;2;15
2055;0;2;16
2056;0;2;15
2057;1;1;15
2058;1;2;15
2059;0;2;15
2060;0;1;15
2061;1;1;15
2062;0;1;16
2063;0;1;15
2064;1;1;14
2065;1;1;15
2066;1;1;15
2067;1;2;15
2068;1;2;16
2069;1;3;15
2070;1;3;16
2071;1;3;16
2072;1;3;16
2073;1;3;16
2074;1;3;16
2075;1;3;16
2076;1;3;16
2077;0;3;16
2078;1;4;16
2079;1;5;16
2080;1;4;16
2081;1;5;16
2082;0;5;16
2083;0;4;17
2084;1;3;17
2085;1;3;17
2086;1;4;16
2087;1;4;17
2088;1;3;17
2089;1;3;17
2090;1;3;16
2091;1;2;17
2092;1;2;17
2093;2;3;17
2094;0;4;18
2095;0;3;18
2096;1;3;18
2097;1;2;18
2098;1;2;17
2099;1;2;18
2100;1;2;18
2101;0;1;18
2102;1;2;17
2103;0;2;18
2104;1;0;18
2105;0;1;18
2106;1;1;17
2107;0;1;18
2108;0;1;17
2109;1;1;17
2110;0;1;17
2111;1;1;17
2112;1;1;17
2113;1;1;16
2114;1;1;17
2115;1;1;16
2116;1;1;17
2117;1;1;17
2118;1;2;17
2119;0;2;17
2120;1;1;18
2121;0;2;17
2122;1;1;18
2123;0;2;18
2124;1;0;18
2125;0;1;17
2126;0;1;17
2127;1;1;16
2128;0;1;17
2129;0;0;16
2130;1;1;15
2131;0;1;15
2132;1;1;15
2133;0;1;15
2134;1;1;15
2135;0;0;16
2136;1;1;15
2137;0;0;16
2138;0;1;15
2139;1;1;14
2140;0;1;15
2141;0;1;14
2142;1;0;14
2143;0;1;13
2144;1;1;12
2145;1;1;13
2146;1;2;12
2147;0;1;13
2148;1;1;12
2149;0;1;12
2150;1;1;13
2151;0;1;12
2152;0;1;12
2153;1;1;12
2154;0;1;13
2155;1;1;12
2156;0;2;12
2157;0;1;13
2158;1;1;12
2159;0;1;13
2160;0;1;12
2161;1;1;11
2162;1;1;12
2163;1;1;11
2164;1;1;12
2165;1;1;12
2166;1;1;12
2167;1;0;12
2168;1;1;11
2169;0;1;12
2170;1;1;11
2171;0;2;11
2172;0;2;11
2173;1;1;12
2174;0;2;11
2175;0;1;11
2176;0;2;12
2177;1;1;12
2178;1;1;12
2179;1;2;11
2180;0;2;12
2181;1;1;12
2182;0;2;11
2183;0;0;12
2184;0;1;11
2185;1;1;10
2186;0;1;11
2187;1;0;11
2188;1;1;11
2189;1;2;10
2190;0;1;11
2191;1;1;10
2192;0;1;11
2193;0;2;10
2194;1;0;9
2195;2;0;10
2196;0;1;10
2197;0;0;9
2198;1;1;9
2199;0;1;10
2200;0;1;9
2201;1;1;9
2202;1;1;9
2203;1;1;9
2204;1;1;9
2205;1;1;9
2206;1;2;9
2207;0;2;9
2208;0;2;10
2209;0;1;10
2210;1;1;9
2211;1;1;10
2212;1;1;9
2213;1;1;10
2214;1;2;9
2215;1;2;10
2216;1;2;10
2217;1;2;9
2218;0;2;10
2219;0;2;9
2220;1;0;9
2221;0;1;8
2222;0;1;8
2223;1;1;8
2224;1;1;8
2225;1;1;8
2226;1;0;8
2227;0;0;8
2228;1;1;7
2229;0;1;7
2230;1;0;8
2231;0;1;8
2232;0;2;7
2233;0;1;7
2234;1;2;7
2235;1;1;7
2236;0;2;7
2237;0;1;7
2238;0;1;6
2239;1;1;6
2240;1;1;6
2241;1;1;5
2242;1;1;6
2243;1;1;6
2244;1;1;6
2245;1;1;5
2246;0;2;6
2247;1;2;6
2248;0;3;6
2249;0;2;7
2250;1;2;7
2251;0;3;7
2252;1;2;7
2253;0;3;6
2254;1;3;7
2255;0;3;7
2256;1;2;7
2257;0;3;7
2258;1;4;7
2259;0;4;8
2260;1;3;8
2261;0;4;8
2262;0;3;8
2263;1;4;8
2264;1;4;8
2265;1;4;7
2266;0;3;7
2267;0;3;6
2268;0;3;7
2269;1;3;7
2270;0;2;8
2271;0;2;7
2272;1;1;8
2273;1;2;7
2274;1;2;8
2275;2;2;8
2276;1;3;8
2277;1;3;8
2278;0;3;9
2279;1;3;8
2280;0;3;8
2281;0;3;8
2282;1;2;9
2283;0;3;8
2284;1;2;8
2285;0;3;8
2286;0;3;8
2287;1;2;7
2288;0;2;7
2289;0;3;8
2290;0;2;8
2291;1;2;7
2292;0;3;7
2293;1;2;7
2294;1;3;6
2295;1;3;7
2296;0;3;8
2297;0;3;8
2298;1;2;8
2299;0;3;8
2300;0;3;8
2301;1;3;8
2302;0;3;9
2303;0;3;8
2304;1;2;8
2305;1;3;8
2306;0;4;9
2307;0;5;9
2308;1;5;10
2309;0;5;9
2310;1;4;10
2311;2;5;9
2312;0;6;10
2313;1;5;10
2314;0;6;10
2315;1;6;10
2316;0;6;11
2317;1;6;10
2318;0;6;11
2319;1;6;10
2320;0;6;10
2321;0;6;10
2322;1;4;11
2323;0;5;10
2324;1;4;10
2325;0;5;9
2326;0;3;10
2327;1;2;9
2328;0;2;10
2329;1;3;9
2330;0;3;10
2331;1;2;10
2332;0;3;9
2333;0;3;10
2334;0;3;9
2335;1;2;10
2336;1;3;9
2337;0;3;9
2338;1;2;10
2339;0;3;9
2340;1;2;10
2341;0;3;9
2342;0;3;10
2343;1;2;10
2344;0;3;10
2345;1;2;10
2346;0;3;10
2347;0;1;10
2348;1;1;10
2349;0;1;10
2350;1;2;9
2351;0;1;10
2352;1;0;9
2353;0;1;9
2354;0;1;8
2355;1;1;8
2356;1;2;8
2357;0;1;9
2358;1;1;8
2359;0;0;9
2360;1;1;8
2361;0;1;8
2362;0;1;7
2363;0;1;6
2364;0;1;6
2365;1;1;5
2366;0;2;6
2367;0;2;6
2368;1;2;7
2369;1;3;6
2370;1;3;6
2371;0;3;7
2372;1;3;6
2373;0;4;7
2374;1;3;7
2375;1;4;8
2376;0;5;7
2377;1;4;8
2378;1;5;7
2379;0;5;8
2380;0;4;8
2381;1;4;7
2382;0;4;7
2383;1;4;7
2384;0;4;7
2385;1;4;7
2386;1;5;8
2387;1;5;8
2388;0;4;8
2389;0;3;8
2390;1;3;8
2391;0;4;7
2392;0;3;8
2393;1;4;7
2394;1;4;8
2395;1;4;8
2396;1;4;8
2397;1;5;8
2398;2;6;8
2399;1;6;9
2400;1;6;9
2401;1;6;9
2402;1;6;9
2403;1;5;10
2404;1;6;9
2405;0;6;10
2406;0;6;10
2407;1;6;9
2408;0;6;9
2409;0;7;8
2410;0;6;9
2411;0;6;8
2412;1;5;9
2413;0;6;8
2414;1;5;9
2415;1;6;8
2416;1;6;9
2417;1;6;9
2418;1;6;8
2419;0;6;9
2420;1;6;8
2421;1;6;9
2422;1;6;9
2423;1;5;9
2424;1;5;9
2425;1;5;9
2426;1;6;9
2427;0;6;10
2428;0;4;10
2429;1;4;10
2430;1;3;10
2431;1;3;10
2432;1;3;10
2433;1;3;10
2434;0;3;10
2435;1;3;9
2436;0;2;9
2437;1;3;10
2438;0;4;10
2439;1;2;10
2440;0;3;10
2441;0;2;10
2442;0;2;9
2443;1;1;10
2444;1;2;9
2445;0;2;9
2446;1;2;10
2447;1;3;10
2448;1;3;10
2449;1;3;9
2450;0;4;10
2451;0;3;10
2452;1;3;9
2453;0;3;9
2454;0;3;9
2455;1;2;9
2456;0;3;9
2457;0;3;9
2458;1;3;9
2459;0;4;10
2460;1;4;10
2461;0;4;10
2462;0;4;9
2463;1;3;10
2464;1;4;10
2465;1;4;9
2466;0;4;10
2467;1;4;9
2468;0;4;10
2469;0;4;9
2470;0;3;9
2471;0;2;9
2472;1;2;9
2473;0;3;9
2474;1;2;9
2475;1;2;9
2476;0;2;10
2477;0;2;10
2478;1;3;10
2479;1;3;10
2480;1;3;11
2481;1;4;10
2482;0;4;10
2483;1;2;11
2484;0;3;11
2485;1;2;11
2486;1;3;10
2487;0;4;11
2488;1;3;12
2489;1;5;11
2490;0;5;11
2491;1;5;12
2492;0;5;11
2493;1;5;12
2494;0;6;12
2495;1;5;12
2496;0;6;12
2497;1;5;12
2498;0;6;12
2499;0;5;12
2500;1;6;12
2501;1;6;12
2502;1;7;13
2503;0;6;13
2504;1;6;13
2505;1;7;13
2506;1;7;13
2507;1;6;13
2508;1;6;14
2509;0;7;13
2510;1;5;14
2511;0;6;13
2512;1;5;14
2513;1;6;13
2514;0;6;14
2515;0;5;14
2516;1;5;14
2517;0;5;14
2518;1;4;14
2519;0;4;14
2520;1;4;15
2521;0;5;14
2522;1;4;15
2523;1;6;14
2524;0;6;14
2525;1;5;15
2526;0;6;15
2527;1;5;15
2528;0;6;14
2529;1;5;15
2530;0;6;14
2531;1;5;15
2532;1;5;15
2533;0;5;15
2534;0;5;14
2535;1;4;15
2536;1;5;14
2537;1;4;14
2538;0;4;15
2539;1;4;14
2540;0;4;15
2541;1;4;15
2542;1;4;15
2543;1;4;15
2544;0;5;15
2545;1;3;15
2546;0;4;15
2547;0;3;15
2548;1;3;15
2549;0;3;15
2550;1;3;14
2551;0;3;15
2552;1;3;14
2553;0;3;14
2554;0;3;14
2555;1;2;14
2556;0;3;14
2557;1;2;14
2558;0;3;14
2559;0;2;14
2560;1;2;14
2561;0;2;14
2562;1;2;13
2563;0;3;13
2564;0;3;14
2565;0;3;13
2566;1;3;13
2567;0;3;14
2568;1;3;13
2569;0;3;13
2570;0;2;13
2571;1;1;13
2572;0;1;13
2573;1;1;12
2574;0;1;13
2575;1;1;13
2576;0;2;13
2577;0;1;13
2578;1;1;12
2579;0;1;13
2580;0;0;12
2581;1;0;12
2582;1;2;11
2583;0;2;11
2584;1;2;12
2585;0;3;12
2586;1;2;12
2587;0;2;12
2588;0;1;12
2589;1;0;11
2590;0;0;12
2591;0;1;11
2592;1;1;10
2593;0;1;11
2594;1;1;10
2595;0;1;11
2596;0;1;10
2597;1;1;10
2598;0;1;10
2599;1;0;10
2600;1;1;10
2601;0;1;11
2602;1;2;10
2603;0;2;11
2604;1;2;10
2605;0;1;11
2606;0;1;10
2607;1;1;10
2608;0;2;10
2609;1;2;11
2610;2;2;10
2611;2;3;11
2612;2;4;11
2613;1;4;11
2614;2;4;11
2615;0;5;12
2616;1;4;12
2617;0;5;12
2618;1;5;12
2619;0;5;12
2620;1;6;12
2621;0;5;13
2622;0;5;12
2623;0;4;12
2624;1;4;12
2625;1;5;11
2626;0;5;12
2627;1;4;13
2628;0;5;13
2629;1;4;13
2630;0;5;13
2631;1;5;13
2632;0;5;14
2633;0;5;13
2634;1;5;14
2635;2;5;13
2636;0;5;14
2637;0;5;14
2638;1;4;13
2639;1;4;14
2640;1;4;14
2641;0;4;14
2642;1;5;14
2643;0;5;14
2644;1;5;13
2645;0;5;14
2646;1;5;13
2647;0;5;13
2648;1;7;13
2649;0;7;13
2650;1;8;14
2651;0;8;14
2652;0;8;14
2653;1;6;15
2654;1;7;14
2655;0;7;15
2656;1;6;15
2657;0;7;15
2658;0;6;15
2659;0;6;14
2660;1;5;14
2661;0;6;14
2662;1;5;14
2663;0;6;13
2664;0;5;14
2665;1;4;13
2666;0;3;14
2667;1;2;14
2668;1;3;14
2669;1;2;13
2670;0;3;14
2671;0;3;13
2672;1;2;13
2673;1;3;12
2674;0;3;13
2675;0;2;13
2676;1;2;14
2677;0;3;13
2678;1;2;15
2679;0;3;14
2680;1;1;15
2681;0;2;15
2682;1;0;15
2683;1;1;15
2684;1;1;15
2685;0;1;16
2686;1;1;15
2687;0;2;16
2688;1;1;16
2689;0;2;16
2690;0;1;16
2691;1;1;16
2692;0;2;16
2693;1;1;17
2694;0;2;16
2695;1;1;16
2696;0;2;16
2697;1;2;17
2698;0;3;17
2699;0;2;17
2700;1;2;16
2701;0;2;17
2702;1;0;17
2703;0;2;17
2704;0;1;17
2705;0;1;16
2706;1;1;16
2707;0;1;16
2708;1;1;15
2709;0;1;16
2710;1;1;15
2711;0;1;16
2712;1;1;16
2713;0;2;16
2714;1;1;16
2715;0;1;17
2716;1;1;16
2717;0;2;17
2718;0;1;17
2719;1;0;16
2720;0;1;16
2721;1;1;15
2722;0;1;16
2723;1;1;15
2724;0;1;15
2725;1;1;15
2726;0;1;15
2727;0;1;15
2728;1;1;14
2729;0;1;15
2730;1;1;14
2731;0;1;15
2732;0;1;14
2733;1;1;14
2734;0;1;14
2735;1;1;15
2736;0;2;14
2737;1;2;15
2738;0;3;15
2739;1;3;16
2740;2;3;15
2741;0;4;15
2742;0;3;15
2743;0;4;14
2744;0;3;15
2745;1;3;14
2746;1;3;15
2747;1;3;14
2748;0;4;15
2749;1;3;15
2750;0;3;15
2751;0;2;15
2752;0;2;14
2753;1;1;14
2754;0;1;13
2755;0;1;13
2756;0;1;13
2757;1;1;13
2758;1;1;13
2759;1;1;12
2760;1;0;13
2761;0;1;13
2762;1;1;13
2763;0;1;14
2764;0;1;13
2765;1;1;13
2766;0;2;13
2767;1;1;14
2768;1;2;13
2769;0;2;14
2770;0;1;14
2771;1;1;13
2772;0;1;13
2773;1;1;13
2774;0;1;14
2775;0;1;13
2776;1;1;13
2777;1;1;14
2778;1;1;14
2779;0;1;14
2780;1;1;14
2781;1;0;14
2782;0;2;14
2783;0;0;14
2784;1;1;14
2785;1;1;14
2786;1;1;14
2787;1;2;14
2788;0;3;14
2789;0;2;14
2790;1;2;14
2791;0;3;15
2792;0;1;15
2793;1;1;15
2794;0;1;15
2795;1;1;15
2796;1;2;15
2797;0;2;16
2798;1;2;16
2799;0;3;16
2800;1;2;16
2801;0;3;16
2802;0;2;16
2803;1;2;15
2804;1;2;16
2805;1;1;16
2806;0;3;16
2807;1;2;17
2808;1;3;16
2809;0;4;17
2810;1;3;17
2811;0;4;16
2812;1;3;17
2813;1;4;17
2814;0;3;17
2815;0;3;16
2816;1;2;16
2817;0;3;15
2818;0;3;16
2819;0;3;15
2820;0;2;15
2821;1;2;15
2822;0;3;16
2823;2;3;16
2824;1;4;15
2825;1;4;16
2826;0;4;17
2827;0;4;16
2828;1;3;17
2829;0;4;16
2830;1;3;16
2831;0;4;15
2832;0;3;16
2833;1;3;15
2834;0;4;16
2835;0;3;16
2836;1;2;16
2837;0;2;16
2838;1;2;15
2839;1;2;16
2840;1;2;15
2841;0;2;16
2842;1;1;16
2843;1;2;15
2844;0;2;16
2845;0;2;17
2846;0;2;17
2847;1;1;17
2848;1;1;17
2849;0;1;18
2850;1;2;17
2851;0;3;18
2852;0;2;18
2853;1;2;17
2854;0;2;18
2855;0;2;17
2856;1;1;17
2857;1;2;18
2858;1;2;18
2859;1;2;18
2860;1;3;18
2861;1;3;18
2862;0;2;19
2863;0;2;18
2864;1;2;19
2865;0;1;19
2866;1;1;19
2867;1;2;19
2868;0;2;19
2869;0;2;19
2870;1;1;19
2871;0;2;18
2872;0;1;18
2873;1;1;19
2874;0;2;20
2875;1;3;19
2876;0;3;20
2877;0;3;20
2878;1;3;21
2879;1;4;20
2880;0;4;21
2881;0;2;21
2882;1;2;21
2883;0;2;21
2884;1;2;20
2885;1;2;20
2886;0;2;20
2887;0;2;21
2888;1;1;21
2889;0;2;21
2890;1;1;21
2891;1;1;22
2892;0;1;21
2893;1;0;20
2894;0;1;20
2895;0;1;20
2896;1;1;19
2897;0;0;19
2898;1;1;19
2899;0;1;20
2900;1;1;19
2901;0;1;20
2902;0;1;19
2903;0;1;18
2904;1;1;17
2905;0;0;18
2906;0;1;17
2907;1;1;16
2908;0;1;17
2909;1;1;17
2910;0;2;17
2911;1;1;17
2912;0;2;17
2913;1;2;17
2914;0;2;18
2915;1;2;17
2916;0;3;18
2917;1;3;18
2918;0;3;19
2919;1;3;18
2920;0;3;19
2921;1;3;18
2922;0;3;19
2923;1;3;19
2924;0;4;19
2925;1;4;19
2926;1;3;19
2927;0;4;19
2928;1;1;19
2929;1;2;18
2930;0;2;19
2931;1;2;20
2932;1;2;20
2933;1;3;20
2934;1;3;20
2935;1;3;20
2936;0;3;21
2937;2;2;20
2938;0;3;21
2939;1;2;21
2940;0;3;20
2941;1;2;21
2942;0;3;21
2943;0;2;21
2944;0;2;20
2945;1;2;21
2946;1;2;21
2947;1;3;21
2948;0;3;21
2949;1;2;22
2950;0;3;21
2951;1;4;22
2952;1;4;22
2953;0;4;23
2954;1;4;22
2955;0;4;23
2956;0;5;22
2957;1;5;23
2958;2;5;22
2959;0;6;22
2960;0;5;23
2961;1;5;22
2962;0;4;23
2963;0;4;22
2964;1;4;22
2965;1;5;21
2966;0;5;22
2967;0;4;23
2968;1;5;23
2969;1;4;23
2970;0;4;23
2971;0;2;23
2972;1;3;22
2973;0;2;23
2974;1;3;23
2975;1;3;23
2976;1;3;22
2977;0;2;23
2978;1;2;22
2979;0;2;22
2980;0;2;22
2981;1;1;23
2982;1;2;22
2983;0;2;23
2984;0;1;23
2985;1;0;22
2986;1;1;21
2987;0;1;22
2988;0;1;22
2989;1;1;21
2990;1;1;22
2991;1;2;22
2992;2;1;22
2993;0;2;23
2994;0;1;23
2995;1;1;23
2996;0;2;22
2997;0;1;23
2998;1;1;22
2999;0;1;23
3000;1;1;23
3001;1;1;23
3002;1;1;23
3003;1;1;23
3004;1;1;23
3005;1;2;23
3006;0;2;24
3007;1;0;24
3008;0;0;24
3009;0;1;23
3010;1;1;23
3011;1;1;23
3012;1;1;23
3013;1;0;23
3014;0;1;23
3015;1;1;22
3016;0;0;23
3017;0;1;22
3018;0;1;21
3019;1;1;21
3020;1;1;21
3021;0;1;22
3022;1;1;21
3023;0;2;22
3024;1;1;22
3025;0;2;22
3026;1;1;22
3027;0;2;21
3028;1;1;22
3029;0;2;21
3030;1;2;22
3031;0;2;21
3032;0;1;22
3033;1;1;21
3034;0;1;22
3035;1;1;21
3036;0;1;22
3037;1;1;21
3038;0;2;22
3039;1;1;22
3040;0;2;22
3041;1;0;22
3042;0;1;21
3043;0;1;21
3044;1;1;20
3045;0;1;21
3046;0;1;20
3047;1;1;20
3048;1;1;20
3049;0;1;19
3050;1;1;20
3051;0;2;20
3052;0;2;20
3053;1;2;19
3054;0;3;20
3055;1;2;20
3056;0;3;19
3057;1;2;20
3058;1;3;20
3059;0;4;20
3060;1;4;21
3061;0;5;21
3062;1;5;20
3063;0;5;20
3064;1;4;20
3065;0;3;20
3066;0;3;20
3067;0;2;20
3068;2;2;20
3069;0;3;20
3070;1;2;21
3071;0;3;21
3072;0;2;21
3073;1;2;21
3074;1;2;21
3075;0;2;21
3076;1;1;21
3077;0;1;21
3078;0;1;21
3079;1;1;21
3080;0;0;21
3081;1;1;21
3082;0;1;21
3083;1;1;20
3084;0;1;20
3085;0;1;20
3086;0;1;19
3087;1;1;18
3088;1;1;19
3089;1;2;18
3090;0;3;19
3091;1;2;19
3092;0;2;19
3093;0;2;19
3094;1;2;20
3095;0;2;20
3096;1;2;20
3097;0;3;19
3098;0;2;20
3099;1;2;19
3100;0;2;20
3101;1;2;19
3102;0;3;20
3103;0;2;20
3104;1;2;19
3105;2;3;19
3106;0;4;20
3107;0;3;21
3108;1;3;21
3109;0;3;21
3110;1;3;20
3111;0;3;21
3112;1;3;21
3113;0;4;21
3114;0;3;21
3115;1;3;21
3116;0;4;21
3117;0;3;21
3118;1;3;20
3119;1;3;20
3120;1;4;20
3121;1;4;21
3122;0;4;21
3123;1;3;21
3124;0;3;22
3125;1;3;21
3126;0;3;22
3127;1;3;21
3128;0;4;22
3129;1;3;22
3130;0;4;22
3131;1;3;22
3132;0;4;21
3133;0;3;22
3134;1;3;22
3135;1;3;22
3136;1;3;22
3137;1;5;22
3138;1;4;22
3139;1;5;22
3140;0;5;23
3141;1;3;23
3142;1;4;23
3143;1;4;23
3144;1;4;22
3145;1;3;23
3146;1;3;23
3147;1;4;23
3148;0;4;24
3149;1;4;23
3150;0;4;23
3151;0;4;23
3152;1;3;24
3153;1;4;23
3154;0;4;24
3155;0;3;24
3156;1;2;24
3157;0;1;24
3158;1;1;24
3159;1;1;24
3160;1;1;24
3161;1;1;24
3162;1;1;25
3163;1;2;25
3164;1;2;25
3165;1;2;25
3166;1;2;25
3167;1;2;25
3168;1;1;24
3169;1;2;25
3170;1;2;25
3171;1;2;25
3172;1;1;25
3173;0;2;25
3174;1;1;24
3175;0;1;24
3176;0;1;24
3177;1;1;23
3178;0;2;24
3179;1;1;24
3180;0;2;24
3181;1;2;24
3182;0;2;24
3183;1;1;24
3184;0;2;23
3185;0;0;24
3186;1;1;23
3187;1;1;24
3188;1;1;24
3189;0;1;24
3190;1;1;23
3191;0;1;24
3192;1;1;23
3193;0;1;24
3194;1;1;23
3195;0;2;24
3196;1;1;24
3197;0;2;24
3198;0;2;24
3199;1;1;23
3200;0;2;23
3201;0;1;24
3202;1;1;23
3203;0;1;24
3204;0;1;23
3205;1;1;24
3206;0;2;23
3207;1;1;23
3208;1;1;23
3209;0;1;24
3210;0;1;23
3211;1;1;23
3212;0;1;23
3213;1;2;22
3214;1;2;22
3215;0;2;24
3216;1;2;23
3217;0;1;24
3218;0;0;23
3219;1;1;23
3220;0;1;23
3221;0;2;23
3222;1;1;23
3223;0;2;23
3224;1;1;24
3225;1;2;23
3226;1;2;24
3227;2;2;23
3228;1;2;23
3229;1;2;24
3230;1;3;24
3231;1;3;24
3232;0;3;24
3233;0;3;24
3234;0;2;24
3235;1;2;24
3236;0;3;24
3237;1;4;25
3238;1;4;25
3239;1;4;26
3240;1;5;25
3241;0;5;26
3242;0;4;26
3243;1;4;26
3244;0;3;26
3245;1;3;25
3246;0;2;26
3247;1;2;26
3248;1;2;26
3249;1;2;27
3250;1;3;26
3251;0;3;26
3252;1;2;27
3253;1;2;26
3254;1;2;27
3255;1;2;27
3256;0;1;27
3257;1;2;26
3258;0;2;27
3259;1;1;27
3260;0;2;27
3261;0;1;27
3262;1;1;27
3263;0;1;27
3264;1;1;28
3265;1;2;27
3266;0;1;28
3267;1;0;27
3268;0;1;26
3269;1;0;26
3270;0;1;26
3271;1;1;25
3272;0;0;26
3273;1;1;25
3274;0;1;25
3275;1;1;26
3276;0;1;27
3277;1;0;26
3278;0;1;26
3279;1;1;25
3280;0;1;26
3281;1;1;25
3282;0;1;26
3283;1;1;25
3284;0;1;26
3285;1;1;25
3286;0;1;25
3287;1;1;25
3288;0;2;26
3289;0;1;26
3290;1;1;25
3291;0;2;25
3292;0;0;26
3293;1;2;25
3294;1;3;25
3295;1;3;26
3296;1;3;26
3297;0;3;27
3298;1;2;27
3299;0;3;27
3300;1;1;27
3301;0;2;27
3302;1;1;27
3303;0;2;26
3304;1;1;27
3305;0;1;26
3306;1;1;26
3307;0;1;27
3308;0;1;26
3309;1;1;25
3310;0;2;26
3311;1;0;26
3312;0;1;26
3313;1;1;25
3314;0;1;25
3315;0;1;25
3316;1;1;25
3317;1;1;25
3318;1;1;25
3319;1;2;25
3320;0;2;25
3321;0;1;26
3322;0;2;25
3323;1;1;25
3324;0;2;25
3325;0;1;25
3326;1;1;24
3327;0;1;25
3328;1;0;24
3329;0;1;24
3330;1;1;23
3331;0;2;24
3332;1;1;24
3333;0;1;24
3334;1;1;23
3335;0;1;23
3336;1;0;23
3337;0;1;23
3338;0;2;23
3339;1;2;23
3340;1;2;23
3341;1;2;22
3342;1;3;23
3343;0;2;24
3344;0;3;23
3345;1;2;24
3346;1;3;23
3347;1;3;23
3348;1;3;24
3349;1;2;23
3350;0;2;23
3351;0;2;22
3352;1;2;23
3353;0;3;24
3354;1;3;24
3355;0;3;25
3356;1;3;24
3357;0;3;24
3358;1;3;25
3359;0;4;24
3360;0;3;25
3361;0;3;24
3362;1;2;25
3363;0;3;24
3364;1;1;25
3365;0;2;24
3366;1;1;24
3367;0;2;25
3368;1;3;24
3369;0;1;25
3370;1;1;24
3371;0;1;25
3372;1;1;24
3373;0;2;24
3374;1;1;25
3375;0;2;24
3376;0;1;25
3377;1;1;24
3378;0;1;24
3379;1;1;24
3380;0;1;24
3381;1;1;24
3382;0;2;25
3383;1;0;25
3384;0;1;24
3385;1;1;24
3386;0;1;24
3387;0;0;24
3388;0;1;23
3389;1;1;22
3390;0;1;23
3391;1;1;22
3392;0;0;23
3393;1;1;22
3394;0;1;22
3395;0;1;22
3396;0;1;21
3397;1;1;20
3398;0;1;21
3399;1;1;20
3400;0;1;21
3401;0;2;20
3402;1;0;20
3403;1;1;20
3404;0;0;21
3405;0;1;20
3406;1;1;20
3407;0;1;20
3408;1;1;19
3409;0;2;20
3410;1;1;20
3411;0;2;20
3412;1;1;21
3413;1;2;20
3414;0;2;20
3415;0;2;21
3416;0;1;21
3417;1;1;21
3418;1;1;22
3419;2;1;21
3420;0;2;22
3421;0;1;22
3422;1;1;23
3423;0;2;22
3424;1;1;22
3425;0;2;21
3426;0;1;22
3427;0;0;21
3428;1;0;21
3429;1;1;20
3430;1;1;21
3431;0;1;21
3432;1;1;22
3433;1;2;21
3434;0;2;22
3435;1;1;22
3436;0;2;23
3437;0;2;22
3438;1;1;23
3439;1;2;22
3440;0;2;23
3441;1;1;23
3442;0;2;23
3443;1;0;23
3444;1;0;23
3445;0;1;23
3446;1;1;23
3447;1;1;23
3448;0;1;23
3449;1;2;22
3450;0;1;23
3451;1;1;22
3452;0;1;23
3453;1;1;22
3454;0;1;23
3455;0;1;23
3456;1;1;23
3457;1;1;23
3458;1;0;23
3459;1;1;24
3460;1;1;25
3461;0;2;24
3462;1;1;24
3463;0;2;24
3464;1;1;24
3465;0;2;24
3466;0;1;24
3467;1;1;23
3468;0;1;24
3469;1;1;24
3470;1;1;24
3471;0;0;24
3472;1;1;24
3473;0;1;25
3474;0;1;24
3475;1;1;23
3476;1;1;24
3477;1;2;24
3478;0;2;24
3479;1;2;25
3480;1;2;25
3481;1;2;25
3482;0;1;25
3483;1;2;25
3484;1;1;25
3485;0;1;25
3486;1;1;25
3487;0;1;26
3488;1;1;25
3489;0;1;26
3490;0;1;25
3491;1;1;24
3492;0;1;24
3493;0;1;24
3494;1;1;24
3495;0;2;23
3496;1;1;24
3497;0;2;24
3498;1;1;24
3499;0;2;24
3500;0;1;24
3501;1;1;24
3502;1;2;24
3503;1;2;23
3504;1;3;24
3505;0;3;24
3506;0;3;24
3507;1;2;24
3508;0;3;25
3509;1;3;25
3510;1;3;25
3511;1;4;24
3512;0;4;25
3513;1;4;26
3514;0;5;25
3515;1;5;26
3516;0;5;25
3517;1;4;26
3518;1;5;25
3519;0;5;25
3520;0;4;25
3521;0;4;25
3522;1;2;25
3523;0;3;24
3524;0;1;25
3525;1;1;24
3526;0;2;25
3527;1;2;24
3528;0;2;25
3529;1;1;24
3530;0;2;24
3531;0;1;24
3532;1;1;23
3533;0;2;24
3534;1;1;24
3535;0;1;24
3536;0;1;23
3537;1;1;23
3538;1;1;23
3539;1;1;22
3540;0;1;23
3541;1;1;22
3542;0;2;23
3543;1;1;23
3544;0;1;23
3545;0;1;22
3546;1;0;21
3547;0;1;21
3548;1;0;20
3549;0;1;20
3550;0;0;19
3551;1;1;18
3552;0;2;19
3553;1;1;19
3554;0;2;18
3555;0;1;19
3556;1;1;18
3557;0;1;19
3558;1;1;18
3559;0;1;19
3560;0;1;18
3561;1;2;18
3562;1;1;18
3563;0;1;19
3564;1;1;18
3565;0;1;19
3566;0;1;18
3567;1;1;18
3568;0;1;18
3569;1;1;17
3570;0;1;17
3571;0;1;17
3572;0;1;16
3573;1;1;16
3574;1;1;16
3575;1;1;15
3576;1;2;16
3577;0;2;17
3578;1;1;17
3579;1;2;16
3580;0;2;17
3581;1;0;17
3582;0;1;16
3583;1;1;17
3584;0;0;18
3585;1;0;17
3586;0;2;17
3587;0;1;17
3588;1;1;17
3589;1;1;17
3590;1;1;16
3591;0;1;17
3592;1;1;17
3593;1;1;17
3594;1;1;16
3595;0;1;17
3596;1;1;16
3597;0;1;17
3598;1;1;16
3599;0;2;17
3600;1;1;17
3601;0;2;17
3602;1;1;17
3603;0;2;17
3604;1;2;17
3605;0;3;18
3606;1;2;18
3607;0;3;18
3608;1;2;18
3609;0;2;18
3610;1;1;18
3611;0;2;18
3612;1;1;18
3613;0;2;17
3614;0;1;17
3615;1;1;17
3616;0;1;18
3617;0;1;17
3618;1;1;17
3619;0;2;17
3620;0;1;17
3621;0;2;17
3622;1;2;17
3623;0;3;17
3624;1;2;18
3625;1;3;17
3626;0;3;17
3627;1;2;17
3628;0;2;17
3629;1;2;17
3630;0;2;17
3631;1;2;17
3632;0;2;17
3633;1;2;16
3634;0;2;17
3635;0;2;16
3636;1;1;17
3637;1;2;16
3638;0;2;16
3639;0;1;17
3640;1;1;17
3641;0;2;16
3642;0;2;17
3643;0;1;16
3644;1;0;15
3645;0;1;15
3646;0;1;15
3647;0;2;15
3648;1;1;15
3649;0;1;16
3650;1;1;15
3651;1;1;16
3652;1;2;15
3653;1;1;16
3654;1;1;16
3655;1;1;16
3656;1;1;16
3657;1;1;16
3658;1;2;16
3659;1;2;16
3660;0;2;17
3661;1;2;16
3662;0;3;17
3663;0;2;17
3664;1;2;16
3665;0;2;17
3666;0;2;16
3667;0;2;17
3668;1;2;17
3669;1;3;17
3670;0;2;17
3671;1;3;18
3672;0;2;18
3673;1;2;17
3674;1;2;18
3675;1;2;18
3676;1;3;18
3677;0;3;18
3678;0;1;19
3679;0;1;19
3680;1;1;18
3681;1;1;18
3682;2;1;18
3683;1;2;18
3684;0;2;19
3685;1;1;19
3686;0;2;19
3687;0;1;19
3688;1;1;18
3689;0;1;18
3690;1;0;18
3691;0;1;18
3692;0;1;18
3693;0;1;17
3694;1;1;17
3695;1;1;17
3696;1;1;18
3697;1;2;17
3698;0;1;17
3699;0;1;17
3700;1;1;16
3701;1;1;17
3702;1;1;16
3703;1;0;17
3704;1;1;16
3705;0;1;17
3706;1;1;17
3707;0;2;17
3708;1;1;18
3709;2;2;17
3710;0;2;18
3711;1;1;18
3712;0;2;17
3713;1;1;18
3714;0;2;18
3715;0;2;18
3716;1;2;18
3717;1;2;18
3718;1;2;17
3719;1;2;18
3720;1;2;17
3721;0;2;18
3722;1;1;18
3723;0;2;17
3724;0;1;18
3725;1;1;17
3726;0;1;18
3727;1;1;17
3728;0;1;18
3729;1;1;18
3730;0;2;17
3731;1;1;18
3732;0;2;18
3733;0;1;18
3734;1;1;17
3735;0;1;18
3736;1;1;17
3737;0;1;17
3738;0;1;16
3739;0;1;17
3740;0;1;16
3741;1;1;16
3742;0;1;16
3743;1;0;15
3744;0;1;15
3745;1;2;14
3746;0;2;15
3747;1;2;14
3748;0;3;15
3749;1;2;15
3750;0;2;15
3751;0;1;15
3752;1;1;14
3753;0;1;15
3754;0;1;14
3755;1;1;15
3756;0;1;14
3757;0;1;13
3758;1;0;12
3759;1;1;12
3760;0;1;12
3761;0;1;14
3762;0;1;13
3763;1;1;13
3764;1;1;13
3765;1;1;13
3766;0;2;13
3767;1;1;14
3768;1;2;13
3769;0;2;14
3770;1;1;14
3771;0;2;14
3772;1;1;14
3773;1;0;14
3774;2;1;14
3775;1;1;14
3776;2;0;15
3777;1;1;15
3778;1;1;15
3779;1;1;15
3780;0;1;16
3781;1;1;15
3782;0;2;16
3783;1;2;16
3784;0;2;15
3785;0;1;16
3786;1;1;16
3787;1;1;16
3788;1;1;16
3789;1;1;16
3790;1;1;16
3791;0;1;16
3792;1;1;15
3793;0;0;16
3794;1;2;15
3795;0;2;15
3796;1;2;16
3797;0;2;17
3798;0;3;16
3799;1;3;17
3800;1;3;16
3801;1;3;17
3802;2;4;16
3803;1;4;17
3804;0;4;17
3805;1;4;17
3806;1;5;16
3807;1;5;17
3808;1;6;17
3809;1;6;17
3810;0;5;17
3811;1;5;17
3812;0;5;18
3813;0;5;17
3814;1;4;17
3815;0;5;17
3816;0;4;17
3817;1;5;17
3818;0;6;17
3819;1;4;18
3820;1;5;17
3821;0;5;18
3822;0;4;18
3823;0;4;17
3824;1;3;18
3825;1;4;17
3826;0;4;18
3827;1;3;18
3828;0;4;17
3829;0;3;18
3830;0;3;17
3831;1;2;18
3832;1;3;17
3833;0;3;18
3834;1;2;18
3835;0;3;18
3836;1;3;18
3837;0;3;18
3838;0;3;18
3839;1;2;18
3840;0;3;18
3841;0;3;18
3842;1;1;18
3843;1;1;18
3844;1;1;17
3845;0;1;18
3846;1;1;17
3847;0;1;18
3848;1;2;17
3849;0;2;18
3850;0;2;18
3851;1;1;17
3852;0;1;17
3853;0;1;16
3854;1;1;17
3855;0;2;17
3856;1;1;17
3857;0;1;16
3858;0;1;17
3859;1;2;16
3860;0;2;17
3861;1;0;17
3862;0;1;16
3863;0;1;16
3864;1;1;15
3865;0;1;16
3866;1;1;15
3867;0;1;15
3868;1;1;16
3869;0;2;16
3870;1;1;16
3871;0;2;16
3872;0;1;16
3873;1;0;15
3874;0;1;16
3875;1;1;15
3876;0;1;16
3877;1;1;15
3878;0;2;16
3879;1;1;16
3880;0;1;15
3881;0;0;15
3882;0;1;15
3883;1;0;15
3884;0;1;14
3885;1;1;14
3886;1;1;15
3887;1;0;14
3888;0;1;14
3889;0;1;13
3890;1;1;13
3891;1;1;13
3892;1;1;13
3893;0;1;13
3894;1;0;13
3895;1;1;12
3896;0;2;13
3897;0;1;13
3898;1;1;12
3899;1;1;13
3900;1;2;12
3901;1;3;13
3902;0;2;13
3903;1;2;14
3904;0;3;13
3905;1;2;14
3906;0;3;14
3907;1;2;14
3908;0;3;14
3909;1;2;14
3910;0;3;14
3911;1;2;14
3912;0;3;13
3913;0;2;13
3914;0;3;13
3915;0;1;14
3916;1;1;13
3917;0;1;14
3918;1;1;13
3919;1;1;14
3920;2;2;13
3921;1;1;13
3922;0;1;14
3923;1;1;14
3924;1;2;14
3925;2;3;15
3926;1;4;15
3927;1;3;16
3928;0;4;15
3929;1;3;16
3930;0;4;15
3931;1;3;16
3932;2;4;16
3933;1;4;15
3934;0;4;15
3935;1;2;16
3936;0;4;16
3937;0;2;16
3938;1;2;16
3939;0;2;16
3940;1;2;16
3941;0;2;16
3942;1;1;15
3943;0;0;16
3944;1;1;15
3945;0;1;16
3946;1;1;15
3947;0;1;16
3948;0;1;15
3949;1;1;16
3950;0;2;15
3951;1;1;15
3952;0;2;14
3953;0;1;15
3954;1;1;15
3955;1;1;15
3956;0;1;15
3957;0;1;14
3958;1;0;14
3959;0;0;14
3960;1;1;14
3961;0;0;15
3962;0;1;14
3963;1;1;13
3964;0;2;14
3965;1;0;14
3966;0;0;14
3967;1;1;13
3968;0;1;14
3969;1;1;13
3970;0;1;14
3971;0;1;13
3972;1;1;13
3973;1;1;13
3974;1;1;12
3975;0;1;13
3976;0;1;12
3977;2;0;13
3978;0;1;13
3979;1;1;13
3980;0;0;14
3981;1;0;13
3982;0;1;14
3983;0;3;14
3984;1;2;14
3985;1;3;14
3986;0;3;15
3987;0;3;15
3988;1;3;15
3989;0;3;15
3990;1;3;14
3991;1;3;15
3992;1;4;15
3993;0;4;15
3994;1;3;15
3995;2;4;15
3996;0;4;16
3997;0;4;16
3998;1;4;16
3999;0;4;16
4000;1;4;16
4001;1;4;16
4002;1;4;15
4003;1;4;16
4004;1;4;16
4005;1;4;16
4006;1;4;15
4007;1;4;16
4008;1;4;15
4009;1;5;16
4010;0;5;17
4011;1;5;16
4012;0;4;16
4013;1;5;16
4014;0;5;16
4015;0;5;17
4016;1;6;16
4017;0;6;16
4018;1;5;16
4019;0;5;16
4020;0;6;15
4021;1;4;16
4022;0;5;15
4023;0;4;16
4024;1;4;15
4025;1;4;16
4026;1;5;15
4027;1;5;16
4028;0;5;17
4029;1;6;16
4030;0;5;16
4031;1;5;17
4032;0;6;17
4033;0;5;17
4034;1;5;16
4035;0;6;16
4036;0;4;17
4037;0;4;16
4038;1;4;17
4039;1;4;16
4040;0;4;17
4041;0;3;17
4042;1;3;16
4043;0;2;17
4044;0;2;16
4045;1;2;17
4046;1;3;16
4047;1;3;16
4048;1;2;17
4049;1;1;17
4050;0;1;17
4051;1;1;17
4052;0;1;17
4053;1;1;16
4054;1;1;17
4055;1;1;17
4056;1;1;17
4057;1;1;17
4058;1;2;17
4059;0;2;18
4060;0;2;17
4061;1;1;17
4062;0;1;17
4063;1;0;16
4064;0;2;15
4065;0;1;16
4066;1;2;16
4067;1;3;15
4068;0;2;15
4069;1;3;16
4070;0;4;16
4071;1;3;16
4072;0;4;15
4073;0;4;16
4074;0;3;17
4075;2;4;16
4076;0;4;16
4077;0;3;17
4078;0;3;17
4079;2;2;17
4080;2;3;16
4081;1;3;17
4082;1;2;18
4083;1;3;17
4084;0;3;17
4085;1;3;18
4086;1;3;17
4087;1;4;18
4088;0;4;18
4089;0;4;18
4090;1;2;19
4091;0;3;18
4092;1;2;18
4093;0;3;18
4094;1;2;18
4095;0;3;17
4096;1;2;18
4097;0;3;17
4098;0;2;18
4099;1;2;17
4100;1;2;18
4101;1;2;18
4102;1;2;18
4103;1;3;18
4104;0;4;18
4105;1;2;19
4106;1;3;18
4107;1;3;18
4108;1;2;17
4109;0;2;17
4110;0;1;18
4111;1;1;18
4112;1;0;18
4113;0;1;17
4114;0;1;18
4115;1;1;18
4116;0;1;19
4117;1;1;18
4118;0;2;18
4119;0;1;19
4120;1;1;18
4121;0;1;18
4122;1;1;18
4123;0;1;19
4124;1;1;18
4125;0;0;19
4126;1;1;18
4127;0;1;19
4128;1;1;18
4129;0;2;19
4130;0;1;19
4131;1;0;18
4132;1;1;18
4133;0;1;19
4134;1;0;19
4135;0;2;19
4136;1;0;19
4137;0;1;18
4138;1;1;18
4139;0;2;19
4140;0;2;19
4141;1;2;19
4142;2;3;20
4143;1;3;19
4144;0;3;20
4145;1;4;20
4146;1;5;20
4147;1;4;21
4148;0;5;21
4149;1;5;20
4150;1;6;20
4151;0;6;21
4152;0;4;22
4153;1;4;22
4154;1;4;22
4155;1;4;22
4156;1;5;22
4157;0;5;23
4158;1;4;23
4159;0;5;23
4160;1;5;23
4161;0;5;24
4162;1;5;23
4163;0;5;23
4164;1;5;23
4165;0;5;24
4166;0;5;23
4167;1;4;24
4168;0;5;23
4169;1;4;23
4170;0;5;23
4171;0;5;23
4172;0;4;24
4173;2;4;24
4174;1;5;23
4175;0;5;24
4176;1;3;24
4177;0;4;24
4178;0;3;24
4179;1;3;25
4180;1;4;24
4181;1;4;25
4182;0;3;25
4183;0;3;24
4184;1;3;25
4185;0;3;25
4186;1;3;25
4187;1;3;25
4188;0;4;26
4189;0;3;26
4190;1;3;25
4191;1;3;26
4192;1;4;25
4193;0;4;26
4194;1;3;26
4195;0;3;26
4196;1;2;26
4197;0;3;26
4198;1;1;26
4199;0;2;26
4200;1;1;26
4201;0;2;26
4202;1;0;26
4203;0;1;26
4204;1;1;25
4205;0;1;26
4206;1;1;25
4207;0;1;26
4208;1;0;25
4209;0;1;24
4210;1;0;25
4211;0;1;24
4212;0;1;24
4213;1;1;23
4214;0;1;24
4215;1;2;23
4216;0;2;23
4217;0;2;24
4218;1;1;23
4219;0;2;24
4220;1;1;24
4221;0;2;24
4222;0;1;24
4223;1;1;24
4224;0;1;24
4225;1;1;23
4226;0;1;24
4227;1;0;23
4228;0;2;23
4229;1;1;23
4230;0;2;22
4231;0;1;23
4232;1;1;23
4233;1;2;23
4234;0;2;23
4235;0;1;24
4236;1;1;23
4237;1;1;24
4238;1;1;23
4239;0;2;24
4240;1;1;25
4241;1;2;24
4242;0;2;25
4243;1;1;25
4244;0;1;25
4245;1;2;24
4246;0;2;24
4247;1;2;24
4248;0;2;24
4249;1;2;24
4250;0;2;24
4251;0;1;25
4252;1;1;25
4253;0;2;24
4254;0;1;24
4255;1;1;24
4256;0;2;24
4257;0;1;25
4258;1;1;24
4259;0;1;25
4260;1;1;24
4261;0;1;25
4262;1;1;24
4263;0;1;24
4264;0;0;23
4265;1;1;23
4266;0;1;24
4267;1;1;23
4268;0;1;23
4269;0;1;23
4270;1;1;22
4271;0;1;23
4272;1;1;23
4273;0;1;23
4274;1;0;23
4275;0;1;23
4276;1;0;22
4277;0;1;23
4278;0;1;22
4279;1;1;21
4280;0;1;21
4281;0;1;21
4282;0;1;20
4283;1;1;19
4284;1;2;20
4285;0;2;21
4286;1;2;21
4287;0;2;21
4288;0;2;20
4289;0;1;21
4290;1;1;20
4291;0;1;21
4292;1;1;20
4293;0;1;21
4294;0;1;20
4295;1;1;19
4296;0;1;20
4297;1;1;19
4298;0;1;20
4299;1;1;20
4300;0;1;20
4301;1;1;20
4302;0;1;20
4303;1;2;20
4304;1;1;20
4305;0;2;20
4306;1;2;19
4307;0;2;19
4308;1;2;19
4309;0;2;20
4310;0;2;19
4311;1;1;19
4312;1;2;18
4313;0;1;19
4314;0;0;19
4315;1;1;18
4316;0;1;19
4317;0;1;19
4318;1;1;19
4319;0;2;19
4320;1;0;20
4321;1;1;19
4322;1;1;19
4323;1;1;19
4324;1;1;19
4325;1;2;18
4326;0;2;19
4327;1;1;19
4328;0;2;18
4329;1;1;19
4330;0;2;18
4331;1;0;19
4332;0;2;18
4333;1;1;19
4334;0;2;18
4335;0;1;19
4336;0;1;19
4337;0;2;19
4338;2;1;19
4339;2;2;19
4340;1;1;19
4341;0;1;19
4342;1;1;19
4343;0;1;20
4344;0;1;19
4345;1;0;18
4346;0;1;18
4347;0;1;17
4348;1;1;18
4349;1;1;18
4350;1;0;18
4351;1;1;17
4352;0;0;18
4353;1;0;17
4354;0;1;17
4355;0;1;16
4356;1;1;15
4357;0;0;16
4358;1;1;15
4359;0;1;15
4360;0;1;15
4361;1;0;14
4362;0;1;14
4363;1;1;13
4364;0;1;14
4365;0;1;13
4366;1;1;13
4367;1;0;14
4368;0;0;14
4369;1;1;14
4370;0;1;15
4371;0;1;14
4372;1;1;13
4373;1;2;14
4374;0;2;14
4375;0;2;14
4376;0;1;14
4377;1;1;14
4378;1;1;14
4379;1;0;14
4380;1;0;13
4381;0;2;13
4382;1;1;13
4383;0;2;12
4384;1;0;13
4385;0;1;13
4386;0;1;13
4387;1;1;13
4388;0;1;13
4389;1;1;13
4390;0;1;13
4391;1;1;13
4392;1;2;13
4393;0;3;13
4394;1;2;14
4395;0;2;15
4396;0;2;14
4397;0;1;14
4398;1;1;13
4399;1;1;14
4400;1;0;13
4401;1;1;13
4402;1;1;14
4403;1;1;14
4404;1;1;14
4405;1;1;14
4406;1;0;13
4407;1;1;13
4408;0;1;13
4409;1;1;14
4410;0;1;15
4411;1;1;14
4412;0;0;14
4413;1;1;14
4414;0;2;14
4415;0;2;15
4416;1;1;14
4417;0;1;15
4418;1;0;14
4419;0;2;14
4420;0;1;14
4421;1;2;13
4422;0;1;14
4423;1;1;13
4424;0;0;14
4425;0;1;13
4426;1;1;13
4427;1;1;13
4428;1;1;14
4429;1;2;13
4430;0;3;14
4431;1;1;14
4432;0;2;13
4433;1;1;14
4434;0;2;14
4435;0;1;14
4436;0;1;13
4437;0;1;14
4438;1;1;14
4439;1;1;14
4440;0;1;14
4441;1;1;13
4442;1;1;13
4443;1;1;14
4444;0;1;14
4445;1;0;13
4446;1;1;13
4447;0;1;14
4448;1;1;13
4449;0;1;14
4450;1;1;13
4451;0;1;14
4452;1;1;13
4453;0;1;14
4454;1;1;13
4455;0;1;14
4456;0;2;13
4457;0;1;13
4458;1;1;13
4459;0;1;13
4460;1;1;13
4461;1;1;13
4462;1;1;12
4463;0;1;13
4464;1;1;12
4465;0;2;12
4466;1;1;13
4467;0;2;13
4468;1;1;13
4469;0;2;13
4470;1;1;13
4471;1;2;12
4472;0;1;13
4473;1;1;12
4474;0;1;13
4475;1;2;12
4476;0;2;12
4477;1;1;13
4478;0;2;12
4479;1;1;13
4480;0;2;13
4481;1;0;13
4482;0;1;13
4483;1;1;12
4484;0;1;12
4485;1;1;12
4486;0;1;13
4487;0;1;12
4488;1;1;12
4489;1;1;12
4490;1;1;11
4491;1;2;12
4492;1;2;12
4493;0;2;13
4494;1;2;12
4495;0;2;12
4496;1;2;12
4497;0;2;12
4498;0;2;12
4499;0;1;12
4500;1;0;12
4501;1;1;11
4502;0;1;11
4503;1;1;11
4504;0;1;12
4505;1;1;11
4506;0;2;11
4507;0;3;11
4508;0;3;11
4509;1;3;11
4510;1;4;11
4511;0;5;11
4512;0;4;11
4513;0;4;10
4514;0;3;10
4515;1;4;11
4516;0;5;11
4517;0;4;11
4518;1;4;11
4519;1;4;11
4520;1;4;10
4521;0;4;11
4522;1;4;10
4523;1;4;11
4524;1;4;11
4525;1;5;12
4526;1;5;12
4527;0;6;12
4528;0;5;12
4529;1;5;11
4530;0;5;11
4531;1;5;12
4532;0;6;12
4533;1;5;13
4534;1;6;12
4535;0;6;13
4536;1;5;13
4537;0;6;13
4538;0;5;13
4539;1;5;13
4540;1;5;13
4541;1;5;12
4542;1;5;13
4543;1;5;12
4544;0;6;13
4545;1;5;14
4546;0;6;13
4547;1;5;13
4548;0;6;13
4549;1;5;13
4550;0;6;13
4551;0;6;13
4552;1;5;13
4553;0;6;13
4554;1;6;14
4555;1;5;14
4556;1;5;14
4557;1;5;14
4558;1;5;14
4559;0;4;14
4560;1;5;14
4561;1;5;14
4562;1;5;15
4563;1;6;14
4564;0;6;14
4565;0;5;15
4566;0;5;15
4567;1;4;15
4568;2;4;14
4569;0;5;15
4570;0;5;15
4571;1;4;14
4572;0;4;15
4573;1;3;15
4574;0;4;15
4575;1;3;15
4576;0;4;15
4577;0;3;15
4578;1;3;15
4579;1;3;15
4580;1;3;15
4581;1;3;15
4582;1;2;15
4583;0;2;15
4584;1;2;15
4585;0;2;15
4586;1;2;14
4587;0;2;15
4588;1;2;14
4589;0;2;15
4590;0;2;14
4591;1;1;15
4592;1;2;14
4593;0;2;15
4594;1;1;15
4595;0;1;14
4596;1;1;14
4597;0;0;15
4598;1;0;14
4599;1;1;15
4600;1;1;15
4601;0;1;16
4602;1;2;16
4603;1;3;16
4604;1;3;16
4605;1;3;15
4606;0;3;16
4607;1;2;16
4608;1;4;17
4609;1;3;17
4610;1;5;17
4611;0;5;18
4612;1;4;18
4613;0;5;18
4614;1;4;19
4615;0;5;18
4616;1;5;19
4617;1;5;18
4618;1;5;19
4619;1;5;19
4620;1;6;19
4621;0;6;19
4622;1;6;19
4623;0;6;20
4624;1;6;19
4625;0;6;20
4626;0;5;20
4627;0;5;19
4628;1;3;20
4629;0;4;19
4630;1;4;19
4631;1;4;19
4632;1;4;19
4633;1;4;19
4634;1;4;19
4635;1;4;19
4636;0;4;19
4637;1;4;19
4638;1;4;19
4639;1;5;18
4640;0;5;18
4641;0;4;19
4642;0;5;18
4643;1;4;19
4644;1;5;18
4645;0;5;19
4646;1;4;19
4647;0;5;19
4648;1;4;19
4649;0;4;19
4650;0;4;19
4651;0;3;19
4652;1;3;19
4653;1;3;19
4654;1;3;18
4655;0;3;19
4656;1;3;20
4657;1;4;19
4658;1;4;20
4659;0;3;20
4660;0;3;19
4661;1;2;19
4662;1;3;19
4663;0;3;19
4664;1;2;20
4665;1;3;20
4666;1;3;20
4667;0;3;20
4668;1;1;20
4669;0;2;19
4670;1;1;20
4671;0;2;19
4672;0;1;20
4673;1;1;20
4674;1;1;20
4675;1;2;19
4676;0;2;19
4677;1;1;20
4678;0;2;19
4679;0;1;20
4680;1;0;19
4681;1;1;20
4682;1;0;20
4683;1;1;20
4684;0;1;21
4685;1;1;20
4686;0;1;21
4687;1;1;20
4688;0;1;20
4689;0;1;20
4690;1;0;20
4691;1;1;19
4692;0;1;19
4693;0;0;19
4694;0;0;19
4695;1;1;19
4696;0;2;19
4697;1;1;20
4698;1;2;19
4699;0;3;19
4700;1;2;20
4701;1;3;19
4702;1;3;20
4703;1;3;20
4704;1;3;20
4705;1;2;20
4706;1;2;20
4707;1;2;20
4708;0;1;20
4709;1;1;20
4710;0;1;20
4711;1;1;19
4712;1;0;20
4713;0;1;19
4714;0;1;19
4715;1;1;19
4716;1;2;19
4717;0;2;20
4718;1;3;19
4719;0;3;20
4720;1;2;20
4721;0;3;20
4722;1;3;20
4723;0;3;21
4724;0;3;20
4725;1;2;21
4726;1;3;20
4727;2;4;20
4728;0;5;21
4729;1;4;21
4730;1;5;21
4731;0;5;22
4732;1;4;22
4733;0;4;22
4734;0;3;22
4735;1;3;21
4736;1;4;22
4737;0;4;23
4738;1;4;22
4739;0;5;23
4740;1;4;23
4741;0;4;23
4742;0;4;23
4743;0;2;23
4744;1;1;22
4745;0;1;23
4746;1;2;22
4747;0;1;23
4748;1;1;22
4749;0;1;22
4750;0;1;22
4751;1;1;22
4752;0;1;23
4753;0;2;23
4754;1;0;23
4755;1;0;23
4756;0;1;22
4757;1;1;22
4758;0;1;22
4759;1;1;22
4760;0;1;23
4761;1;0;22
4762;0;0;22
4763;1;0;21
4764;0;1;21
4765;1;1;21
4766;0;0;22
4767;1;2;21
4768;0;2;21
4769;1;2;22
4770;1;3;23
4771;1;2;23
4772;0;3;23
4773;1;2;23
4774;0;2;23
4775;0;1;23
4776;1;1;23
4777;1;0;23
4778;0;1;24
4779;1;1;23
4780;0;1;24
4781;1;1;24
4782;0;1;24
4783;1;1;24
4784;0;1;25
4785;1;1;24
4786;0;2;25
4787;1;1;24
4788;0;1;25
4789;1;1;24
4790;0;1;24
4791;0;1;24
4792;1;1;24
4793;1;1;24
4794;1;2;24
4795;0;3;24
4796;1;1;25
4797;1;2;24
4798;0;2;24
4799;1;1;25
4800;0;1;25
4801;1;1;24
4802;0;1;25
4803;0;1;24
4804;1;1;24
4805;1;2;24
4806;1;2;24
4807;1;2;25
4808;1;1;24
4809;0;1;24
4810;0;1;23
4811;1;1;23
4812;0;1;23
4813;1;1;23
4814;0;1;23
4815;0;1;23
4816;1;2;23
4817;0;2;24
4818;1;2;23
4819;0;2;23
4820;1;2;23
4821;0;1;24
4822;1;2;23
4823;0;1;24
4824;1;1;23
4825;0;1;23
4826;0;0;23
4827;1;1;22
4828;0;1;23
4829;0;1;22
4830;1;1;21
4831;0;1;21
4832;1;1;21
4833;0;1;21
4834;0;1;21
4835;0;0;20
4836;1;1;19
4837;1;1;20
4838;1;1;20
4839;0;0;20
4840;1;1;20
4841;1;2;20
4842;1;1;20
4843;1;2;20
4844;0;2;20
4845;1;1;21
4846;0;2;21
4847;1;1;21
4848;1;2;20
4849;1;2;21
4850;1;1;20
4851;1;1;21
4852;1;1;21
4853;0;1;22
4854;1;1;21
4855;0;2;22
4856;0;1;21
4857;1;1;21
4858;1;2;20
4859;0;2;21
4860;0;1;22
4861;1;1;22
4862;1;1;22
4863;1;1;22
4864;0;1;22
4865;1;1;22
4866;0;0;22
4867;1;1;22
4868;1;2;22
4869;0;1;23
4870;0;2;22
4871;1;1;23
4872;0;3;22
4873;1;0;22
4874;0;2;22
4875;0;1;22
4876;1;0;22
4877;0;1;21
4878;1;1;20
4879;0;1;21
4880;0;1;21
4881;1;1;21
4882;1;2;22
4883;1;1;22
4884;1;2;22
4885;0;1;23
4886;1;1;22
4887;0;0;23
4888;1;0;22
4889;0;1;21
4890;1;1;21
4891;0;1;22
4892;0;0;21
4893;0;2;20
4894;0;1;20
4895;1;1;19
4896;1;1;20
4897;1;1;20
4898;1;2;20
4899;0;2;21
4900;0;2;20
4901;1;0;21
4902;1;1;20
4903;1;1;21
4904;1;1;21
4905;1;1;20
4906;0;2;21
4907;0;1;22
4908;0;1;21
4909;2;1;21
4910;2;1;21
4911;1;1;21
4912;1;1;21
4913;1;1;21
4914;1;2;21
4915;1;1;22
4916;0;2;21
4917;1;1;21
4918;0;1;20
4919;0;2;20
4920;1;0;21
4921;1;1;20
4922;1;1;21
4923;0;1;21
4924;1;1;21
4925;1;1;21
4926;0;2;21
4927;1;0;22
4928;0;1;23
4929;1;2;22
4930;0;2;22
4931;1;2;22
4932;0;2;23
4933;0;2;22
4934;1;2;23
4935;1;2;23
4936;1;2;23
4937;0;2;23
4938;1;2;23
4939;1;2;23
4940;1;2;23
4941;1;2;23
4942;1;2;23
4943;1;3;23
4944;0;3;24
4945;0;3;24
4946;1;2;23
4947;1;2;24
4948;1;2;24
4949;0;2;24
4950;1;1;24
4951;1;1;24
4952;1;1;23
4953;0;1;24
4954;1;1;24
4955;1;2;24
4956;0;2;25
4957;1;0;25
4958;0;1;26
4959;0;0;25
4960;1;2;24
4961;0;1;24
4962;0;1;24
4963;1;1;24
4964;0;2;24
4965;0;1;24
4966;0;1;23
4967;1;1;24
4968;0;0;24
4969;1;1;23
4970;0;1;23
4971;0;1;23
4972;2;1;24
4973;0;2;25
4974;1;1;25
4975;1;2;24
4976;0;3;24
4977;1;2;25
4978;0;2;25
4979;1;2;25
4980;1;2;25
4981;0;2;25
4982;1;2;25
4983;1;2;25
4984;1;3;24
4985;1;3;25
4986;0;3;25
4987;1;3;25
4988;0;2;26
4989;0;3;25
4990;1;2;26
4991;1;3;26
4992;1;3;25
4993;1;3;26
4994;1;2;25
4995;0;1;25
4996;0;2;25
4997;1;0;25
4998;0;1;25
4999;1;1;24
