step;d2;d3;d1
0;0;0;0
1;0;0;0
2;0;0;0
3;0;0;0
4;0;0;0
5;0;0;0
6;0;0;0
7;0;0;0
8;0;0;0
9;0;0;0
10;0;0;0
11;0;0;0
12;0;0;0
13;0;0;0
14;0;0;0
15;0;0;0
16;0;0;0
17;0;0;0
18;0;0;0
19;0;0;0
20;0;0;0
21;0;0;0
22;0;0;0
23;0;0;0
24;0;0;0
25;0;0;0
26;0;0;0
27;0;0;0
28;0;0;0
29;0;0;0
30;0;0;0
31;0;0;0
32;0;0;0
33;0;0;0
34;0;0;0
35;0;0;0
36;0;0;0
37;0;0;0
38;0;0;0
39;0;0;0
40;0;0;0
41;0;0;0
42;0;0;0
43;0;0;0
44;0;0;0
45;0;0;0
46;0;0;0
47;0;0;0
48;0;0;0
49;0;0;0
50;0;0;0
51;0;0;0
52;0;0;0
53;0;0;0
54;0;0;0
55;0;0;0
56;0;0;0
57;0;0;0
58;0;0;0
59;0;0;0
60;0;0;0
61;0;0;0
62;0;0;0
63;0;0;0
64;0;0;0
65;0;0;0
66;0;0;0
67;0;0;0
68;0;0;0
69;0;0;0
70;0;0;0
71;0;0;0
72;0;1;0
73;0;0;1
74;0;1;0
75;0;1;2
76;0;0;2
77;0;1;2
78;0;1;1
79;0;1;2
80;0;1;2
81;0;1;2
82;0;1;1
83;0;1;1
84;0;1;1
85;0;1;0
86;0;1;1
87;0;1;0
88;0;1;2
89;0;2;2
90;0;2;2
91;0;1;2
92;0;1;2
93;0;1;1
94;0;1;1
95;0;1;1
96;0;1;0
97;0;1;2
98;0;1;2
99;0;0;3
100;0;1;2
101;0;1;2
102;0;2;3
103;0;2;3
104;0;2;3
105;0;2;3
106;0;2;3
107;0;3;2
108;0;3;2
109;0;3;3
110;0;3;2
111;0;3;3
112;0;3;3
113;0;3;5
114;0;4;5
115;0;5;4
116;0;5;4
117;0;6;4
118;0;6;3
119;0;6;4
120;0;6;4
121;0;6;4
122;0;7;4
123;0;7;4
124;0;8;4
125;0;7;3
126;0;7;4
127;0;7;4
128;0;7;4
129;0;7;3
130;0;7;3
131;0;7;2
132;0;7;2
133;0;7;1
134;0;7;1
135;0;7;1
136;0;7;0
137;0;7;0
138;0;8;2
139;0;8;1
140;0;8;1
141;0;8;2
142;0;8;1
143;0;8;2
144;0;7;2
145;0;7;2
146;0;7;2
147;0;7;1
148;0;7;2
149;0;7;1
150;0;7;1
151;0;7;3
152;0;7;3
153;0;7;3
154;0;7;3
155;0;7;2
156;0;8;3
157;0;8;3
158;0;8;3
159;0;8;3
160;0;9;4
161;0;10;4
162;0;10;4
163;0;10;5
164;0;10;5
165;0;10;5
166;0;10;5
167;0;10;4
168;0;9;5
169;0;9;5
170;0;10;5
171;0;11;4
172;0;11;3
173;0;11;3
174;0;10;3
175;0;10;2
176;0;11;3
177;0;10;3
178;0;10;3
179;0;10;4
180;0;9;3
181;0;10;4
182;0;11;4
183;0;11;4
184;0;11;4
185;0;11;3
186;0;11;3
187;0;10;2
188;0;10;3
189;0;10;3
190;0;10;2
191;0;10;2
192;0;11;2
193;0;11;3
194;0;11;3
195;0;11;4
196;0;11;4
197;0;11;5
198;0;11;5
199;0;11;4
200;0;11;4
201;0;11;4
202;0;11;4
203;0;11;4
204;0;11;3
205;0;10;2
206;0;10;3
207;0;9;2
208;0;9;3
209;0;10;4
210;0;9;4
211;0;9;5
212;0;9;5
213;0;9;4
214;0;9;5
215;0;10;5
216;0;9;5
217;0;9;5
218;0;8;5
219;0;8;5
220;0;8;5
221;0;8;5
222;0;8;4
223;0;8;3
224;0;9;3
225;0;9;4
226;0;9;4
227;0;9;4
228;0;9;4
229;0;9;4
230;0;10;4
231;0;9;4
232;0;9;4
233;0;10;4
234;0;9;4
235;0;9;3
236;0;9;4
237;0;9;4
238;0;10;3
239;0;9;4
240;0;9;3
241;0;9;3
242;0;9;3
243;0;8;4
244;0;7;4
245;0;7;3
246;0;7;3
247;0;7;3
248;0;7;4
249;0;7;4
250;0;7;5
251;0;6;4
252;0;6;5
253;0;6;4
254;0;6;5
255;0;6;5
256;0;7;6
257;0;7;5
258;0;8;5
259;0;7;6
260;0;6;7
261;0;6;6
262;0;6;6
263;0;6;5
264;0;6;5
265;0;6;4
266;0;6;3
267;0;6;5
268;0;6;5
269;0;7;6
270;0;7;5
271;0;7;5
272;0;7;5
273;0;8;5
274;0;7;6
275;0;7;5
276;0;7;6
277;0;7;8
278;0;7;7
279;0;7;8
280;0;7;8
281;0;6;9
282;0;7;10
283;0;7;10
284;0;8;9
285;0;8;8
286;0;9;8
287;0;9;8
288;0;9;9
289;0;8;8
290;0;8;8
291;0;8;8
292;0;8;8
293;0;7;8
294;0;7;8
295;0;7;8
296;0;7;8
297;0;7;8
298;0;7;7
299;0;7;8
300;0;7;7
301;0;7;9
302;0;7;9
303;0;7;8
304;0;7;9
305;0;8;9
306;0;9;9
307;0;9;9
308;0;9;9
309;0;9;9
310;0;9;9
311;0;10;10
312;0;10;10
313;0;11;9
314;0;12;8
315;0;12;9
316;0;13;9
317;0;12;8
318;0;13;9
319;0;12;8
320;0;12;9
321;0;12;9
322;0;12;9
323;0;11;9
324;0;12;8
325;0;13;8
326;0;13;9
327;0;13;8
328;0;13;7
329;0;13;7
330;0;12;8
331;0;12;7
332;0;12;8
333;0;13;8
334;0;13;8
335;0;13;9
336;0;14;10
337;0;14;9
338;0;14;9
339;0;14;8
340;0;14;10
341;0;14;10
342;0;14;10
343;0;13;10
344;0;13;10
345;0;13;10
346;0;13;10
347;0;13;11
348;0;13;11
349;0;13;11
350;0;12;12
351;0;12;12
352;0;12;12
353;0;12;11
354;0;12;12
355;0;12;12
356;0;12;13
357;0;12;12
358;0;12;13
359;0;12;12
360;0;12;13
361;0;11;13
362;0;11;13
363;0;11;13
364;0;10;12
365;0;11;13
366;0;11;13
367;0;11;13
368;0;11;13
369;0;11;13
370;0;11;13
371;0;11;14
372;0;11;14
373;0;12;14
374;0;13;13
375;0;12;13
376;0;12;13
377;0;12;15
378;0;12;15
379;0;12;15
380;0;12;15
381;0;12;14
382;0;12;15
383;0;12;15
384;0;13;15
385;0;13;15
386;0;13;15
387;0;13;15
388;0;14;14
389;0;13;15
390;0;14;15
391;0;14;14
392;0;14;15
393;0;14;15
394;0;14;15
395;0;14;15
396;0;14;15
397;0;13;14
398;0;12;14
399;0;11;13
400;0;13;14
401;0;13;14
402;0;13;13
403;0;13;14
404;0;14;13
405;0;14;14
406;0;14;14
407;0;14;15
408;0;14;16
409;0;14;16
410;0;14;17
411;0;14;17
412;0;14;17
413;0;14;17
414;0;15;17
415;0;14;17
416;0;14;17
417;0;14;17
418;0;14;18
419;0;15;18
420;0;14;17
421;0;15;17
422;0;15;16
423;0;15;17
424;0;15;17
425;0;15;18
426;0;15;18
427;0;15;19
428;0;15;18
429;0;15;18
430;0;15;18
431;0;15;18
432;0;15;17
433;0;15;17
434;0;15;18
435;0;15;18
436;0;15;18
437;0;15;18
438;0;15;17
439;0;15;18
440;0;14;18
441;0;14;17
442;0;14;18
443;0;15;17
444;0;15;18
445;0;15;18
446;0;16;17
447;0;16;19
448;0;16;19
449;0;17;19
450;0;16;19
451;0;17;19
452;0;17;18
453;0;17;18
454;0;17;18
455;0;16;17
456;0;17;18
457;0;17;17
458;0;16;18
459;0;16;17
460;0;17;18
461;0;17;19
462;0;18;19
463;0;18;19
464;0;19;19
465;0;18;19
466;0;18;18
467;0;18;17
468;0;18;17
469;0;19;17
470;0;19;16
471;0;19;17
472;0;19;17
473;0;19;16
474;0;19;17
475;0;19;16
476;0;18;17
477;0;18;16
478;0;17;16
479;0;17;16
480;0;17;16
481;0;17;16
482;0;17;16
483;0;17;16
484;0;17;17
485;0;17;17
486;0;17;17
487;0;17;17
488;0;17;17
489;0;17;16
490;0;17;17
491;0;17;17
492;0;17;18
493;0;17;18
494;0;17;17
495;0;17;18
496;0;17;17
497;0;17;19
498;0;17;19
499;0;17;19
500;0;17;18
501;0;16;19
502;0;16;19
503;0;16;19
504;0;16;18
505;0;15;18
506;0;16;19
507;0;16;19
508;0;17;18
509;0;16;18
510;0;16;17
511;0;15;16
512;0;15;17
513;0;15;17
514;0;15;17
515;0;15;17
516;0;15;17
517;0;15;16
518;0;15;18
519;0;15;17
520;0;15;17
521;0;15;17
522;0;15;16
523;0;15;15
524;0;15;16
525;0;14;16
526;0;15;15
527;0;15;15
528;0;15;14
529;0;14;14
530;0;13;14
531;0;13;13
532;0;13;13
533;0;12;12
534;0;13;12
535;0;14;13
536;0;13;13
537;0;14;13
538;0;14;13
539;0;14;12
540;0;14;12
541;0;14;11
542;0;15;10
543;0;15;10
544;0;15;10
545;0;14;11
546;0;14;11
547;0;14;11
548;0;14;11
549;0;14;10
550;0;14;11
551;0;14;10
552;0;14;10
553;0;14;10
554;0;14;11
555;0;14;11
556;0;14;12
557;0;14;11
558;0;14;10
559;0;14;11
560;0;14;11
561;0;14;12
562;0;14;12
563;0;14;12
564;0;14;11
565;0;14;11
566;0;13;10
567;0;12;11
568;0;13;11
569;0;13;11
570;0;12;11
571;0;12;10
572;0;11;10
573;0;11;9
574;0;11;9
575;0;11;9
576;0;12;9
577;0;12;8
578;0;12;9
579;0;11;9
580;0;11;9
581;0;11;9
582;0;12;10
583;0;13;11
584;0;11;11
585;0;10;11
586;0;10;11
587;0;10;10
588;0;10;10
589;0;10;11
590;0;9;11
591;0;9;11
592;0;9;11
593;0;9;10
594;0;9;11
595;0;9;10
596;0;9;11
597;0;9;12
598;0;9;12
599;0;9;12
600;0;9;12
601;0;9;12
602;0;9;12
603;0;9;11
604;0;9;12
605;0;10;12
606;0;10;12
607;0;10;12
608;0;11;12
609;0;11;12
610;0;11;12
611;0;12;12
612;0;12;12
613;0;12;12
614;0;12;12
615;0;12;11
616;0;12;11
617;0;12;11
618;0;11;11
619;0;11;11
620;0;12;11
621;0;12;11
622;0;11;11
623;0;11;10
624;0;11;10
625;0;11;9
626;0;12;10
627;0;12;9
628;0;12;10
629;0;12;9
630;0;12;10
631;0;13;9
632;0;13;10
633;0;13;9
634;0;13;10
635;0;12;10
636;0;12;10
637;0;13;9
638;0;13;10
639;0;13;9
640;0;14;8
641;0;13;8
642;0;13;8
643;0;13;8
644;0;13;7
645;0;13;7
646;0;13;7
647;0;13;7
648;0;12;6
649;0;12;8
650;0;12;9
651;0;12;8
652;0;13;9
653;0;13;8
654;0;13;9
655;0;13;9
656;0;13;9
657;0;13;8
658;0;12;8
659;0;12;8
660;0;13;7
661;0;12;8
662;0;11;8
663;0;11;9
664;0;11;9
665;0;12;9
666;0;12;9
667;0;12;8
668;0;12;9
669;0;12;10
670;0;13;9
671;0;14;9
672;0;14;9
673;0;14;9
674;0;14;8
675;0;14;9
676;0;14;9
677;0;13;10
678;0;13;10
679;0;14;9
680;0;13;9
681;0;12;9
682;0;12;8
683;0;13;8
684;0;14;7
685;0;14;8
686;0;14;7
687;0;14;8
688;0;14;7
689;0;15;7
690;0;14;7
691;0;15;6
692;0;15;7
693;0;16;7
694;0;17;7
695;0;17;7
696;0;18;6
697;0;18;6
698;0;18;6
699;0;18;7
700;0;18;7
701;0;18;7
702;0;18;6
703;0;18;5
704;0;18;5
705;0;18;5
706;0;18;5
707;0;18;5
708;0;18;5
709;0;18;6
710;0;18;6
711;0;18;5
712;0;18;6
713;0;18;5
714;0;18;5
715;0;18;5
716;0;18;5
717;0;18;4
718;0;17;5
719;0;18;5
720;0;17;4
721;0;18;5
722;0;17;6
723;0;17;5
724;0;18;5
725;0;19;5
726;0;19;4
727;0;18;4
728;0;18;5
729;0;18;5
730;0;18;5
731;0;19;6
732;0;19;6
733;0;19;6
734;0;19;7
735;0;19;7
736;0;19;8
737;0;19;8
738;0;19;8
739;0;19;7
740;0;19;7
741;0;19;8
742;0;19;8
743;0;19;8
744;0;19;8
745;0;19;8
746;0;19;8
747;0;19;8
748;0;19;8
749;0;19;8
750;0;19;8
751;0;19;8
752;0;19;8
753;0;19;7
754;0;19;8
755;0;19;7
756;0;19;7
757;0;19;6
758;0;19;6
759;0;19;7
760;0;19;6
761;0;20;6
762;0;19;6
763;0;19;6
764;0;19;5
765;0;20;6
766;0;20;5
767;0;20;6
768;0;20;6
769;0;20;6
770;0;21;6
771;0;21;6
772;0;21;6
773;0;21;5
774;0;21;5
775;0;22;5
776;0;22;5
777;0;23;5
778;0;22;5
779;0;22;4
780;0;22;5
781;0;22;6
782;0;22;5
783;0;22;5
784;0;22;4
785;0;22;4
786;0;22;4
787;0;21;4
788;0;21;4
789;0;21;4
790;0;21;4
791;0;21;4
792;0;20;3
793;0;20;4
794;0;20;4
795;0;20;4
796;0;20;4
797;0;21;3
798;0;21;3
799;0;21;3
800;0;21;2
801;0;21;2
802;0;21;3
803;0;21;2
804;0;21;3
805;0;21;2
806;0;21;1
807;0;21;1
808;0;21;2
809;0;21;2
810;0;21;1
811;0;20;2
812;0;20;1
813;0;20;1
814;0;20;2
815;0;20;1
816;0;20;2
817;0;20;2
818;0;20;1
819;0;20;1
820;0;19;0
821;0;20;2
822;0;20;2
823;0;21;2
824;0;22;1
825;0;22;2
826;0;22;1
827;0;22;1
828;0;22;1
829;0;22;1
830;0;22;0
831;0;23;2
832;0;23;2
833;0;23;1
834;0;22;2
835;0;22;1
836;0;22;1
837;0;22;0
838;0;21;1
839;0;21;3
840;0;21;3
841;0;21;3
842;0;21;3
843;0;20;3
844;0;20;3
845;0;20;3
846;0;20;3
847;0;20;3
848;0;20;2
849;0;20;2
850;0;19;3
851;0;19;3
852;0;19;3
853;0;19;3
854;0;19;3
855;0;19;3
856;0;19;3
857;0;19;3
858;0;19;2
859;0;19;3
860;0;19;3
861;0;19;3
862;0;19;2
863;0;19;3
864;0;19;2
865;0;19;3
866;0;19;4
867;0;19;4
868;0;19;5
869;0;18;4
870;0;18;3
871;0;18;2
872;0;18;3
873;0;18;3
874;0;18;3
875;0;18;2
876;0;18;2
877;0;18;3
878;0;18;2
879;0;18;2
880;0;18;2
881;0;18;1
882;0;18;2
883;0;18;2
884;0;19;1
885;0;20;2
886;0;20;1
887;0;20;1
888;0;20;1
889;0;20;1
890;0;20;0
891;0;20;1
892;0;21;1
893;0;20;1
894;0;20;0
895;0;20;0
896;0;20;1
897;0;20;1
898;0;19;1
899;0;19;1
900;0;20;0
901;0;20;1
902;0;20;1
903;0;20;2
904;0;20;2
905;0;19;2
906;0;19;2
907;0;20;2
908;0;20;2
909;0;20;1
910;0;20;1
911;0;20;2
912;0;21;1
913;0;22;2
914;0;22;1
915;0;22;1
916;0;23;1
917;0;22;1
918;0;22;1
919;0;23;0
920;0;22;1
921;0;22;1
922;0;22;1
923;0;22;1
924;0;22;1
925;0;22;0
926;0;21;2
927;0;21;1
928;0;21;2
929;0;21;2
930;0;21;2
931;0;22;1
932;0;22;1
933;0;22;2
934;0;22;2
935;0;22;2
936;0;22;2
937;0;22;1
938;0;21;2
939;0;21;2
940;0;22;1
941;0;22;1
942;0;21;1
943;0;21;2
944;0;21;1
945;0;21;1
946;0;21;1
947;0;21;0
948;0;20;2
949;0;20;2
950;0;19;2
951;0;19;2
952;0;18;3
953;0;18;2
954;0;19;1
955;0;19;0
956;0;20;2
957;0;20;1
958;0;20;1
959;0;20;2
960;0;19;2
961;0;19;2
962;0;19;2
963;0;20;2
964;0;21;1
965;0;21;2
966;0;20;3
967;0;20;3
968;0;21;3
969;0;21;3
970;0;21;3
971;0;21;3
972;0;22;3
973;0;21;3
974;0;21;3
975;0;21;2
976;0;20;2
977;0;21;3
978;0;22;3
979;0;23;2
980;0;23;3
981;0;24;3
982;0;24;3
983;0;24;3
984;0;24;3
985;0;23;3
986;0;24;3
987;0;25;2
988;0;24;3
989;0;24;2
990;0;25;3
991;0;26;3
992;0;27;3
993;0;25;2
994;0;24;2
995;0;24;1
996;0;25;1
997;0;25;1
998;0;26;1
999;0;26;1
1000;0;26;0
1001;0;26;0
1002;0;26;1
1003;0;26;1
1004;0;26;2
1005;0;26;1
1006;0;26;1
1007;0;26;3
1008;0;26;3
1009;0;26;3
1010;0;26;3
1011;0;26;2
1012;0;26;2
1013;0;26;2
1014;0;26;2
1015;0;26;1
1016;0;25;1
1017;0;24;2
1018;0;24;1
1019;0;24;1
1020;0;25;1
1021;0;24;2
1022;0;24;2
1023;0;24;1
1024;0;24;2
1025;0;24;2
1026;0;24;1
1027;0;24;2
1028;0;24;3
1029;0;24;3
1030;0;24;2
1031;0;24;3
1032;0;24;2
1033;0;24;2
1034;0;24;2
1035;0;24;2
1036;0;24;1
1037;0;24;1
1038;0;24;2
1039;0;24;2
1040;0;24;2
1041;0;23;3
1042;0;24;3
1043;0;24;4
1044;0;24;4
1045;0;24;4
1046;0;24;4
1047;0;24;3
1048;0;25;4
1049;0;25;4
1050;0;25;4
1051;0;25;4
1052;0;24;3
1053;0;24;4
1054;0;26;4
1055;0;26;4
1056;0;26;3
1057;0;27;4
1058;0;28;4
1059;0;28;4
1060;0;28;3
1061;0;28;3
1062;0;28;2
1063;0;28;2
1064;0;27;2
1065;0;27;2
1066;0;27;2
1067;0;27;2
1068;0;27;1
1069;0;27;2
1070;0;27;2
1071;0;26;2
1072;0;26;2
1073;0;26;2
1074;0;26;1
1075;0;26;1
1076;0;25;2
1077;0;25;2
1078;0;24;1
1079;0;25;1
1080;0;25;0
1081;0;25;2
1082;0;26;2
1083;0;26;1
1084;0;26;2
1085;0;26;2
1086;0;26;1
1087;0;25;1
1088;0;25;1
1089;0;25;0
1090;0;25;2
1091;0;25;2
1092;0;25;2
1093;0;26;1
1094;0;26;2
1095;0;26;2
1096;0;26;1
1097;0;26;2
1098;0;26;2
1099;0;26;2
1100;0;26;2
1101;0;25;2
1102;0;25;1
1103;0;25;0
1104;0;25;1
1105;0;25;2
1106;0;25;2
1107;0;25;2
1108;0;25;2
1109;0;25;1
1110;0;25;1
1111;0;25;1
1112;0;26;1
1113;0;26;2
1114;0;26;1
1115;0;26;2
1116;0;25;2
1117;0;25;1
1118;0;25;1
1119;0;25;2
1120;0;25;1
1121;0;25;2
1122;0;25;3
1123;0;24;3
1124;0;24;2
1125;0;24;3
1126;0;24;3
1127;0;24;3
1128;0;24;2
1129;0;24;3
1130;0;24;4
1131;0;24;4
1132;0;24;3
1133;0;24;4
1134;0;24;4
1135;0;23;3
1136;0;23;3
1137;0;23;3
1138;0;23;3
1139;0;23;3
1140;0;23;4
1141;0;23;4
1142;0;23;4
1143;0;23;3
1144;0;23;2
1145;0;23;3
1146;0;23;3
1147;0;23;3
1148;0;23;2
1149;0;23;2
1150;0;23;2
1151;0;23;2
1152;0;23;3
1153;0;23;3
1154;0;23;3
1155;0;23;3
1156;0;23;3
1157;0;23;3
1158;0;23;3
1159;0;23;3
1160;0;23;3
1161;0;23;4
1162;0;22;4
1163;0;22;4
1164;0;21;4
1165;0;21;3
1166;0;21;3
1167;0;21;3
1168;0;22;2
1169;0;23;2
1170;0;23;3
1171;0;23;3
1172;0;24;4
1173;0;25;4
1174;0;25;4
1175;0;24;3
1176;0;25;3
1177;0;24;2
1178;0;23;1
1179;0;24;0
1180;0;25;2
1181;0;25;1
1182;0;25;0
1183;0;24;1
1184;0;24;1
1185;0;24;0
1186;0;24;1
1187;0;25;1
1188;0;26;1
1189;0;26;0
1190;0;26;2
1191;0;26;2
1192;0;26;3
1193;0;27;3
1194;0;27;2
1195;0;27;3
1196;0;27;3
1197;0;27;3
1198;0;27;2
1199;0;27;2
1200;0;27;2
1201;0;27;1
1202;0;27;2
1203;0;27;2
1204;0;27;2
1205;0;27;2
1206;0;27;1
1207;0;27;1
1208;0;27;1
1209;0;27;1
1210;0;26;1
1211;0;26;1
1212;0;26;0
1213;0;26;2
1214;0;27;1
1215;0;27;0
1216;0;26;2
1217;0;26;2
1218;0;26;2
1219;0;26;2
1220;0;27;3
1221;0;26;3
1222;0;27;2
1223;0;27;2
1224;0;28;1
1225;0;28;2
1226;0;27;2
1227;0;26;2
1228;0;26;2
1229;0;26;2
1230;0;25;1
1231;0;25;2
1232;0;25;2
1233;0;25;1
1234;0;25;2
1235;0;25;0
1236;0;25;2
1237;0;25;2
1238;0;26;2
1239;0;26;2
1240;0;26;1
1241;0;26;2
1242;0;26;2
1243;0;26;1
1244;0;26;2
1245;0;26;2
1246;0;26;1
1247;0;26;0
1248;0;25;2
1249;0;25;1
1250;0;25;2
1251;0;24;2
1252;0;24;1
1253;0;24;1
1254;0;23;0
1255;0;23;0
1256;0;24;2
1257;0;23;1
1258;0;23;2
1259;0;23;2
1260;0;23;2
1261;0;23;2
1262;0;23;1
1263;0;23;0
1264;0;23;2
1265;0;23;2
1266;0;22;2
1267;0;22;1
1268;0;22;1
1269;0;22;1
1270;0;22;0
1271;0;22;1
1272;0;21;2
1273;0;21;2
1274;0;21;2
1275;0;22;1
1276;0;22;2
1277;0;23;2
1278;0;23;1
1279;0;22;0
1280;0;22;2
1281;0;22;2
1282;0;22;1
1283;0;22;0
1284;0;22;1
1285;0;22;0
1286;0;22;2
1287;0;22;2
1288;0;23;1
1289;0;23;3
1290;0;23;2
1291;0;23;3
1292;0;23;3
1293;0;23;4
1294;0;23;3
1295;0;23;4
1296;0;23;3
1297;0;23;4
1298;0;24;5
1299;0;24;5
1300;0;24;5
1301;0;23;5
1302;0;23;5
1303;0;23;4
1304;0;23;4
1305;0;22;3
1306;0;22;3
1307;0;21;4
1308;0;21;5
1309;0;20;6
1310;0;20;6
1311;0;22;5
1312;0;22;5
1313;0;22;5
1314;0;22;5
1315;0;22;5
1316;0;22;5
1317;0;21;4
1318;0;21;4
1319;0;22;4
1320;0;23;4
1321;0;22;4
1322;0;21;4
1323;0;21;3
1324;0;21;4
1325;0;21;3
1326;0;21;4
1327;0;21;4
1328;0;21;4
1329;0;20;4
1330;0;20;4
1331;0;21;3
1332;0;20;2
1333;0;20;1
1334;0;20;0
1335;0;20;0
1336;0;20;2
1337;0;20;3
1338;0;20;2
1339;0;20;3
1340;0;20;3
1341;0;20;3
1342;0;20;2
1343;0;20;3
1344;0;20;3
1345;0;20;3
1346;0;21;2
1347;0;22;3
1348;0;22;2
1349;0;23;2
1350;0;22;2
1351;0;22;1
1352;0;22;1
1353;0;22;2
1354;0;22;2
1355;0;22;3
1356;0;22;3
1357;0;21;3
1358;0;21;4
1359;0;21;4
1360;0;21;4
1361;0;21;4
1362;0;21;4
1363;0;21;5
1364;0;22;4
1365;0;22;5
1366;0;22;4
1367;0;22;5
1368;0;22;5
1369;0;22;5
1370;0;22;4
1371;0;22;4
1372;0;22;5
1373;0;22;6
1374;0;22;6
1375;0;22;6
1376;0;22;6
1377;0;22;6
1378;0;22;5
1379;0;21;6
1380;0;20;5
1381;0;19;7
1382;0;19;7
1383;0;18;7
1384;0;18;7
1385;0;18;7
1386;0;18;7
1387;0;18;7
1388;0;18;7
1389;0;18;7
1390;0;18;7
1391;0;19;7
1392;0;19;8
1393;0;19;8
1394;0;19;7
1395;0;19;6
1396;0;18;5
1397;0;18;5
1398;0;18;5
1399;0;18;5
1400;0;18;6
1401;0;17;7
1402;0;17;7
1403;0;18;7
1404;0;18;8
1405;0;18;8
1406;0;19;7
1407;0;19;6
1408;0;19;6
1409;0;20;6
1410;0;20;6
1411;0;20;7
1412;0;21;7
1413;0;20;9
1414;0;20;9
1415;0;20;9
1416;0;20;10
1417;0;19;10
1418;0;19;10
1419;0;19;10
1420;0;18;9
1421;0;18;8
1422;0;19;8
1423;0;19;9
1424;0;18;9
1425;0;18;9
1426;0;17;8
1427;0;17;9
1428;0;17;8
1429;0;16;9
1430;0;17;9
1431;0;17;9
1432;0;17;9
1433;0;17;9
1434;0;17;9
1435;0;17;9
1436;0;18;9
1437;0;18;9
1438;0;18;8
1439;0;18;9
1440;0;17;10
1441;0;17;9
1442;0;17;10
1443;0;16;10
1444;0;16;9
1445;0;16;10
1446;0;16;10
1447;0;16;10
1448;0;16;9
1449;0;16;9
1450;0;15;9
1451;0;15;10
1452;0;15;9
1453;0;15;9
1454;0;14;10
1455;0;15;9
1456;0;15;10
1457;0;15;9
1458;0;15;10
1459;0;15;10
1460;0;14;9
1461;0;14;9
1462;0;14;8
1463;0;14;9
1464;0;14;8
1465;0;14;8
1466;0;14;8
1467;0;14;8
1468;0;14;8
1469;0;14;7
1470;0;14;8
1471;0;14;8
1472;0;15;9
1473;0;16;9
1474;0;16;9
1475;0;16;8
1476;0;16;9
1477;0;16;8
1478;0;16;7
1479;0;16;7
1480;0;16;8
1481;0;16;7
1482;0;16;8
1483;0;16;8
1484;0;16;8
1485;0;17;8
1486;0;17;8
1487;0;17;8
1488;0;17;8
1489;0;16;8
1490;0;16;8
1491;0;16;7
1492;0;16;8
1493;0;16;7
1494;0;15;7
1495;0;15;7
1496;0;15;6
1497;0;15;7
1498;0;15;7
1499;0;15;6
1500;0;15;7
1501;0;15;8
1502;0;16;9
1503;0;16;9
1504;0;16;9
1505;0;15;9
1506;0;15;8
1507;0;15;9
1508;0;15;8
1509;0;15;9
1510;0;16;9
1511;0;16;9
1512;0;16;9
1513;0;16;9
1514;0;16;8
1515;0;16;9
1516;0;17;9
1517;0;17;8
1518;0;17;8
1519;0;18;8
1520;0;17;9
1521;0;17;9
1522;0;17;8
1523;0;18;8
1524;0;17;8
1525;0;17;8
1526;0;17;8
1527;0;17;9
1528;0;17;9
1529;0;16;9
1530;0;16;9
1531;0;16;8
1532;0;15;7
1533;0;15;7
1534;0;15;6
1535;0;15;7
1536;0;15;7
1537;0;14;7
1538;0;14;8
1539;0;15;7
1540;0;14;7
1541;0;14;8
1542;0;14;7
1543;0;13;8
1544;0;13;7
1545;0;13;7
1546;0;13;7
1547;0;13;6
1548;0;13;7
1549;0;13;6
1550;0;12;5
1551;0;12;6
1552;0;13;5
1553;0;13;4
1554;0;13;4
1555;0;13;5
1556;0;13;5
1557;0;13;4
1558;0;13;4
1559;0;14;5
1560;0;14;5
1561;0;13;5
1562;0;14;5
1563;0;14;4
1564;0;14;5
1565;0;14;5
1566;0;14;4
1567;0;14;5
1568;0;14;4
1569;0;14;4
1570;0;14;5
1571;0;14;4
1572;0;14;5
1573;0;13;5
1574;0;13;6
1575;0;13;5
1576;0;13;5
1577;0;13;5
1578;0;12;5
1579;0;12;4
1580;0;13;5
1581;0;13;6
1582;0;12;6
1583;0;12;5
1584;0;12;6
1585;0;12;6
1586;0;13;6
1587;0;14;6
1588;0;14;5
1589;0;13;6
1590;0;14;6
1591;0;14;5
1592;0;14;6
1593;0;14;5
1594;0;14;4
1595;0;14;5
1596;0;14;4
1597;0;15;5
1598;0;15;4
1599;0;15;4
1600;0;15;5
1601;0;15;5
1602;0;15;5
1603;0;15;4
1604;0;15;4
1605;0;15;5
1606;0;15;4
1607;0;15;4
1608;0;15;4
1609;0;15;5
1610;0;14;5
1611;0;14;6
1612;0;14;6
1613;0;14;6
1614;0;14;5
1615;0;14;5
1616;0;14;4
1617;0;14;4
1618;0;14;3
1619;0;14;3
1620;0;14;3
1621;0;14;2
1622;0;14;3
1623;0;14;5
1624;0;14;4
1625;0;14;5
1626;0;14;5
1627;0;14;4
1628;0;14;5
1629;0;13;4
1630;0;12;4
1631;0;12;4
1632;0;10;3
1633;0;10;3
1634;0;10;4
1635;0;10;4
1636;0;10;3
1637;0;10;4
1638;0;11;4
1639;0;11;4
1640;0;11;4
1641;0;10;4
1642;0;10;3
1643;0;10;4
1644;0;10;3
1645;0;10;3
1646;0;10;3
1647;0;10;3
1648;0;10;2
1649;0;10;2
1650;0;10;3
1651;0;10;4
1652;0;10;4
1653;0;9;4
1654;0;8;3
1655;0;8;5
1656;0;9;5
1657;0;9;4
1658;0;9;5
1659;0;9;4
1660;0;9;4
1661;0;10;3
1662;0;11;3
1663;0;11;3
1664;0;11;3
1665;0;11;4
1666;0;11;4
1667;0;11;4
1668;0;11;4
1669;0;11;4
1670;0;10;4
1671;0;10;4
1672;0;11;4
1673;0;11;4
1674;0;11;5
1675;0;11;5
1676;0;12;5
1677;0;13;4
1678;0;13;5
1679;0;12;5
1680;0;12;4
1681;0;12;4
1682;0;12;3
1683;0;12;4
1684;0;13;4
1685;0;13;4
1686;0;13;5
1687;0;13;5
1688;0;14;5
1689;0;14;4
1690;0;14;5
1691;0;14;6
1692;0;14;6
1693;0;14;5
1694;0;14;4
1695;0;14;5
1696;0;14;4
1697;0;14;5
1698;0;15;5
1699;0;15;5
1700;0;15;5
1701;0;14;4
1702;0;14;4
1703;0;15;5
1704;0;15;5
1705;0;15;4
1706;0;15;4
1707;0;14;4
1708;0;15;5
1709;0;14;6
1710;0;14;6
1711;0;14;5
1712;0;13;6
1713;0;13;5
1714;0;13;6
1715;0;13;6
1716;0;14;6
1717;0;14;6
1718;0;14;6
1719;0;14;5
1720;0;14;5
1721;0;14;6
1722;0;15;6
1723;0;15;5
1724;0;16;6
1725;0;15;6
1726;0;15;6
1727;0;15;6
1728;0;16;6
1729;0;17;5
1730;0;16;6
1731;0;16;6
1732;0;16;6
1733;0;16;5
1734;0;16;6
1735;0;16;6
1736;0;16;6
1737;0;16;7
1738;0;16;7
1739;0;16;8
1740;0;16;8
1741;0;16;9
1742;0;16;9
1743;0;16;9
1744;0;16;8
1745;0;15;8
1746;0;15;8
1747;0;15;9
1748;0;15;9
1749;0;16;9
1750;0;15;8
1751;0;15;8
1752;0;15;8
1753;0;15;9
1754;0;15;9
1755;0;15;9
1756;0;15;9
1757;0;15;8
1758;0;15;9
1759;0;15;10
1760;0;15;9
1761;0;15;9
1762;0;15;9
1763;0;15;9
1764;0;15;9
1765;0;15;10
1766;0;15;10
1767;0;14;9
1768;0;13;11
1769;0;14;10
1770;0;13;9
1771;0;13;10
1772;0;13;10
1773;0;13;10
1774;0;14;10
1775;0;14;10
1776;0;14;10
1777;0;14;10
1778;0;14;10
1779;0;14;11
1780;0;13;11
1781;0;14;10
1782;0;13;10
1783;0;14;10
1784;0;15;11
1785;0;15;10
1786;0;15;10
1787;0;16;10
1788;0;16;12
1789;0;15;11
1790;0;15;11
1791;0;14;11
1792;0;15;12
1793;0;14;11
1794;0;14;11
1795;0;14;11
1796;0;14;11
1797;0;14;12
1798;0;14;11
1799;0;14;11
1800;0;14;10
1801;0;14;10
1802;0;15;9
1803;0;15;10
1804;0;16;10
1805;0;15;11
1806;0;14;10
1807;0;15;10
1808;0;16;9
1809;0;17;11
1810;0;16;10
1811;0;18;11
1812;0;19;10
1813;0;18;11
1814;0;18;11
1815;0;17;11
1816;0;17;11
1817;0;17;11
1818;0;16;11
1819;0;16;10
1820;0;16;10
1821;0;16;10
1822;0;16;10
1823;0;16;10
1824;0;16;10
1825;0;16;9
1826;0;16;9
1827;0;16;10
1828;0;16;10
1829;0;16;9
1830;0;16;10
1831;0;17;9
1832;0;17;8
1833;0;16;9
1834;0;16;8
1835;0;15;9
1836;0;15;9
1837;0;14;8
1838;0;13;8
1839;0;14;8
1840;0;13;8
1841;0;13;8
1842;0;14;8
1843;0;14;8
1844;0;14;7
1845;0;14;7
1846;0;14;8
1847;0;14;9
1848;0;14;8
1849;0;14;8
1850;0;15;7
1851;0;14;8
1852;0;14;8
1853;0;14;8
1854;0;15;7
1855;0;15;8
1856;0;15;8
1857;0;15;8
1858;0;15;7
1859;0;16;8
1860;0;16;8
1861;0;16;9
1862;0;17;8
1863;0;17;8
1864;0;17;9
1865;0;17;8
1866;0;17;8
1867;0;17;8
1868;0;17;9
1869;0;17;9
1870;0;17;9
1871;0;17;9
1872;0;17;9
1873;0;17;9
1874;0;17;9
1875;0;16;9
1876;0;16;9
1877;0;15;9
1878;0;15;9
1879;0;15;10
1880;0;15;9
1881;0;14;10
1882;0;14;10
1883;0;14;10
1884;0;14;10
1885;0;14;10
1886;0;14;10
1887;0;13;9
1888;0;13;10
1889;0;13;9
1890;0;13;9
1891;0;13;10
1892;0;13;10
1893;0;13;9
1894;0;13;10
1895;0;13;9
1896;0;13;10
1897;0;13;10
1898;0;13;11
1899;0;13;11
1900;0;14;10
1901;0;14;11
1902;0;14;11
1903;0;13;10
1904;0;13;10
1905;0;13;10
1906;0;13;9
1907;0;13;8
1908;0;13;8
1909;0;13;8
1910;0;13;7
1911;0;13;8
1912;0;14;7
1913;0;14;7
1914;0;15;7
1915;0;15;7
1916;0;15;6
1917;0;16;6
1918;0;16;5
1919;0;16;4
1920;0;17;5
1921;0;17;5
1922;0;17;5
1923;0;17;5
1924;0;17;6
1925;0;17;6
1926;0;17;6
1927;0;17;6
1928;0;16;6
1929;0;17;5
1930;0;16;5
1931;0;16;5
1932;0;16;6
1933;0;16;7
1934;0;16;6
1935;0;16;6
1936;0;16;6
1937;0;15;6
1938;0;15;5
1939;0;14;5
1940;0;14;5
1941;0;14;6
1942;0;14;6
1943;0;15;6
1944;0;16;5
1945;0;16;6
1946;0;16;5
1947;0;16;6
1948;0;16;6
1949;0;16;6
1950;0;16;5
1951;0;15;5
1952;0;15;5
1953;0;15;4
1954;0;15;3
1955;0;14;3
1956;0;14;4
1957;0;15;4
1958;0;15;4
1959;0;15;4
1960;0;15;3
1961;0;15;4
1962;0;16;4
1963;0;16;3
1964;0;16;4
1965;0;16;4
1966;0;16;5
1967;0;16;4
1968;0;16;4
1969;0;17;4
1970;0;17;4
1971;0;17;3
1972;0;18;4
1973;0;18;4
1974;0;17;4
1975;0;17;4
1976;0;17;3
1977;0;17;4
1978;0;17;3
1979;0;17;3
1980;0;18;4
1981;0;18;4
1982;0;17;3
1983;0;17;4
1984;0;17;3
1985;0;17;2
1986;0;17;2
1987;0;18;2
1988;0;18;1
1989;0;18;1
1990;0;18;1
1991;0;17;1
1992;0;18;1
1993;0;18;1
1994;0;18;3
1995;0;18;3
1996;0;18;4
1997;0;17;4
1998;0;17;3
1999;0;18;3
2000;0;18;3
2001;0;18;2
2002;0;18;3
2003;0;18;3
2004;0;17;3
2005;0;17;3
2006;0;17;3
2007;0;17;2
2008;0;18;2
2009;0;18;2
2010;0;17;3
2011;0;16;3
2012;0;16;3
2013;0;16;4
2014;0;16;4
2015;0;16;4
2016;0;16;4
2017;0;16;5
2018;0;16;5
2019;0;16;4
2020;0;16;6
2021;0;16;5
2022;0;16;5
2023;0;16;4
2024;0;16;5
2025;0;17;5
2026;0;17;5
2027;0;17;4
2028;0;17;4
2029;0;16;5
2030;0;16;4
2031;0;16;5
2032;0;16;6
2033;0;16;5
2034;0;16;5
2035;0;16;5
2036;0;16;6
2037;0;17;5
2038;0;17;6
2039;0;17;5
2040;0;17;5
2041;0;17;5
2042;0;17;5
2043;0;17;5
2044;0;17;6
2045;0;17;6
2046;0;16;6
2047;0;16;5
2048;0;16;6
2049;0;16;5
2050;0;16;4
2051;0;16;4
2052;0;17;4
2053;0;17;4
2054;0;17;5
2055;0;17;5
2056;0;17;4
2057;0;17;4
2058;0;17;5
2059;0;17;4
2060;0;17;3
2061;0;17;4
2062;0;17;4
2063;0;17;3
2064;0;17;3
2065;0;17;4
2066;0;17;4
2067;0;18;4
2068;0;19;4
2069;0;19;4
2070;0;19;5
2071;0;19;5
2072;0;19;5
2073;0;19;5
2074;0;19;5
2075;0;19;5
2076;0;19;5
2077;0;19;4
2078;0;20;5
2079;0;21;5
2080;0;21;4
2081;0;21;5
2082;0;21;4
2083;0;21;4
2084;0;20;5
2085;0;20;5
2086;0;21;4
2087;0;21;5
2088;0;20;5
2089;0;20;5
2090;0;20;4
2091;0;19;5
2092;0;19;5
2093;0;20;6
2094;0;20;6
2095;0;20;5
2096;0;20;6
2097;0;19;6
2098;0;19;5
2099;0;19;6
2100;0;19;6
2101;0;18;5
2102;0;19;5
2103;0;19;5
2104;0;18;5
2105;0;18;5
2106;0;18;5
2107;0;18;5
2108;0;18;4
2109;0;18;5
2110;0;18;4
2111;0;18;5
2112;0;18;5
2113;0;18;4
2114;0;18;5
2115;0;18;4
2116;0;18;5
2117;0;18;5
2118;0;18;6
2119;0;18;5
2120;0;18;6
2121;0;18;5
2122;0;18;6
2123;0;18;6
2124;0;17;6
2125;0;17;5
2126;0;17;5
2127;0;17;5
2128;0;17;5
2129;0;16;4
2130;0;16;4
2131;0;16;3
2132;0;16;4
2133;0;16;3
2134;0;16;4
2135;0;15;4
2136;0;15;4
2137;0;14;4
2138;0;14;3
2139;0;14;3
2140;0;14;3
2141;0;14;2
2142;0;13;3
2143;0;13;2
2144;0;13;2
2145;0;13;3
2146;0;14;2
2147;0;13;2
2148;0;13;2
2149;0;13;1
2150;0;14;2
2151;0;12;1
2152;0;12;1
2153;0;12;2
2154;0;12;2
2155;0;12;2
2156;0;13;1
2157;0;13;1
2158;0;13;1
2159;0;13;1
2160;0;13;0
2161;0;13;1
2162;0;13;2
2163;0;13;1
2164;0;13;2
2165;0;13;2
2166;0;13;2
2167;0;12;2
2168;0;12;2
2169;0;12;2
2170;0;12;2
2171;0;13;1
2172;0;13;1
2173;0;13;2
2174;0;13;1
2175;0;13;0
2176;0;14;1
2177;0;13;2
2178;0;13;2
2179;0;14;1
2180;0;14;1
2181;0;14;1
2182;0;14;0
2183;0;13;1
2184;0;13;0
2185;0;13;1
2186;0;13;1
2187;0;12;2
2188;0;13;2
2189;0;13;2
2190;0;12;2
2191;0;12;2
2192;0;12;2
2193;0;13;1
2194;0;11;1
2195;0;11;3
2196;0;10;3
2197;0;9;2
2198;0;9;3
2199;0;9;3
2200;0;9;2
2201;0;9;3
2202;0;9;3
2203;0;9;3
2204;0;9;3
2205;0;9;3
2206;0;9;4
2207;0;9;3
2208;0;9;4
2209;0;9;3
2210;0;9;3
2211;0;9;4
2212;0;9;3
2213;0;9;4
2214;0;10;3
2215;0;10;4
2216;0;10;4
2217;0;10;3
2218;0;10;3
2219;0;10;2
2220;0;9;2
2221;0;9;1
2222;0;9;1
2223;0;9;2
2224;0;9;2
2225;0;9;2
2226;0;8;2
2227;0;7;2
2228;0;7;2
2229;0;7;1
2230;0;6;3
2231;0;6;3
2232;0;7;2
2233;0;7;1
2234;0;8;2
2235;0;7;2
2236;0;7;2
2237;0;7;1
2238;0;7;0
2239;0;7;2
2240;0;7;2
2241;0;7;1
2242;0;7;2
2243;0;7;2
2244;0;7;2
2245;0;7;1
2246;0;7;2
2247;0;7;3
2248;0;7;3
2249;0;7;3
2250;0;7;4
2251;0;7;4
2252;0;7;4
2253;0;7;3
2254;0;8;4
2255;0;7;4
2256;0;7;4
2257;0;7;4
2258;0;8;5
2259;0;8;5
2260;0;8;5
2261;0;8;5
2262;0;8;4
2263;0;9;5
2264;0;9;5
2265;0;9;4
2266;0;8;3
2267;0;8;2
2268;0;8;3
2269;0;8;4
2270;0;7;4
2271;0;7;3
2272;0;7;4
2273;0;8;3
2274;0;8;4
2275;0;8;5
2276;0;8;5
2277;0;8;5
2278;0;8;5
2279;0;8;5
2280;0;8;4
2281;0;8;4
2282;0;8;5
2283;0;8;4
2284;0;8;4
2285;0;8;4
2286;0;9;3
2287;0;8;3
2288;0;8;2
2289;0;9;3
2290;0;9;2
2291;0;9;2
2292;0;10;1
2293;0;10;1
2294;0;10;1
2295;0;10;2
2296;0;10;2
2297;0;10;2
2298;0;10;2
2299;0;10;2
2300;0;10;2
2301;0;10;3
2302;0;10;3
2303;0;10;2
2304;0;10;2
2305;0;10;3
2306;0;11;3
2307;0;12;3
2308;0;13;4
2309;0;12;3
2310;0;12;4
2311;0;13;4
2312;0;13;4
2313;0;13;4
2314;0;13;4
2315;0;13;5
2316;0;13;5
2317;0;13;5
2318;0;13;5
2319;0;13;5
2320;0;13;4
2321;0;13;4
2322;0;12;5
2323;0;12;4
2324;0;12;4
2325;0;12;3
2326;0;11;3
2327;0;10;3
2328;0;10;3
2329;0;11;3
2330;0;11;3
2331;0;11;3
2332;0;11;2
2333;0;12;2
2334;0;12;1
2335;0;12;2
2336;0;12;2
2337;0;12;1
2338;0;12;2
2339;0;12;1
2340;0;12;2
2341;0;12;1
2342;0;12;2
2343;0;12;2
2344;0;12;2
2345;0;12;2
2346;0;12;2
2347;0;11;1
2348;0;11;2
2349;0;11;1
2350;0;12;1
2351;0;11;1
2352;0;10;1
2353;0;10;1
2354;0;10;0
2355;0;10;2
2356;0;11;2
2357;0;10;2
2358;0;10;2
2359;0;9;2
2360;0;10;2
2361;0;9;2
2362;0;9;1
2363;0;9;0
2364;0;9;0
2365;0;9;1
2366;0;10;1
2367;0;10;1
2368;0;11;2
2369;0;11;2
2370;0;11;2
2371;0;12;1
2372;0;12;1
2373;0;12;2
2374;0;12;2
2375;0;13;3
2376;0;13;2
2377;0;13;3
2378;0;13;3
2379;0;13;3
2380;0;13;2
2381;0;13;2
2382;0;13;1
2383;0;13;2
2384;0;13;1
2385;0;13;2
2386;0;14;3
2387;0;14;3
2388;0;12;3
2389;0;12;2
2390;0;12;3
2391;0;12;2
2392;0;12;2
2393;0;13;2
2394;0;13;3
2395;0;13;3
2396;0;13;3
2397;0;14;3
2398;0;15;4
2399;0;15;4
2400;0;15;4
2401;0;15;4
2402;0;15;4
2403;0;14;5
2404;0;14;5
2405;0;14;5
2406;0;15;4
2407;0;15;4
2408;0;15;3
2409;0;16;2
2410;0;16;2
2411;0;16;1
2412;0;16;2
2413;0;16;1
2414;0;16;2
2415;0;16;2
2416;0;16;3
2417;0;16;3
2418;0;16;2
2419;0;16;2
2420;0;16;2
2421;0;16;3
2422;0;16;3
2423;0;15;3
2424;0;15;3
2425;0;15;3
2426;0;15;4
2427;0;15;4
2428;0;14;3
2429;0;14;4
2430;0;13;4
2431;0;13;4
2432;0;13;4
2433;0;13;4
2434;0;13;3
2435;0;13;3
2436;0;12;2
2437;0;13;4
2438;0;13;4
2439;0;12;4
2440;0;12;4
2441;0;12;3
2442;0;12;2
2443;0;12;3
2444;0;12;3
2445;0;12;2
2446;0;13;3
2447;0;14;3
2448;0;14;3
2449;0;14;2
2450;0;14;3
2451;0;14;2
2452;0;14;2
2453;0;14;1
2454;0;14;1
2455;0;14;1
2456;0;14;1
2457;0;15;0
2458;0;15;1
2459;0;15;2
2460;0;15;3
2461;0;15;2
2462;0;15;1
2463;0;15;2
2464;0;15;3
2465;0;15;2
2466;0;15;2
2467;0;15;2
2468;0;15;2
2469;0;15;1
2470;0;14;1
2471;0;14;0
2472;0;14;1
2473;0;14;1
2474;0;14;1
2475;0;13;2
2476;0;13;2
2477;0;14;1
2478;0;15;2
2479;0;15;2
2480;0;15;3
2481;0;15;3
2482;0;15;2
2483;0;14;3
2484;0;14;3
2485;0;14;3
2486;0;15;2
2487;0;16;2
2488;0;16;3
2489;0;17;3
2490;0;17;2
2491;0;18;3
2492;0;17;2
2493;0;18;3
2494;0;18;3
2495;0;18;3
2496;0;18;3
2497;0;18;3
2498;0;18;3
2499;0;18;2
2500;0;19;3
2501;0;19;3
2502;0;20;4
2503;0;19;3
2504;0;19;4
2505;0;20;4
2506;0;20;4
2507;0;19;4
2508;0;19;5
2509;0;19;4
2510;0;18;5
2511;0;18;4
2512;0;18;5
2513;0;18;5
2514;0;18;5
2515;0;18;4
2516;0;18;5
2517;0;18;4
2518;0;17;5
2519;0;17;4
2520;0;17;6
2521;0;17;5
2522;0;17;6
2523;0;18;6
2524;0;18;5
2525;0;18;6
2526;0;18;6
2527;0;18;6
2528;0;18;5
2529;0;18;6
2530;0;18;5
2531;0;18;6
2532;0;18;6
2533;0;18;5
2534;0;18;4
2535;0;18;5
2536;0;18;5
2537;0;17;5
2538;0;17;5
2539;0;17;5
2540;0;17;5
2541;0;17;6
2542;0;17;6
2543;0;17;6
2544;0;17;6
2545;0;16;6
2546;0;16;6
2547;0;16;5
2548;0;16;6
2549;0;16;5
2550;0;16;5
2551;0;16;5
2552;0;16;5
2553;0;16;4
2554;0;16;4
2555;0;16;4
2556;0;16;4
2557;0;16;4
2558;0;16;4
2559;0;16;3
2560;0;16;4
2561;0;16;3
2562;0;16;3
2563;0;16;3
2564;0;17;3
2565;0;17;2
2566;0;17;3
2567;0;17;3
2568;0;17;3
2569;0;17;2
2570;0;16;2
2571;0;16;2
2572;0;15;2
2573;0;15;2
2574;0;15;2
2575;0;15;3
2576;0;15;3
2577;0;15;2
2578;0;15;2
2579;0;15;2
2580;0;14;1
2581;0;13;2
2582;0;14;2
2583;0;14;1
2584;0;15;2
2585;0;15;2
2586;0;15;2
2587;0;14;2
2588;0;14;1
2589;0;13;1
2590;0;12;2
2591;0;12;1
2592;0;12;1
2593;0;12;1
2594;0;12;1
2595;0;12;1
2596;0;12;0
2597;0;12;2
2598;0;12;1
2599;0;11;2
2600;0;12;2
2601;0;12;2
2602;0;13;2
2603;0;13;2
2604;0;13;2
2605;0;12;2
2606;0;12;1
2607;0;12;2
2608;0;12;2
2609;0;13;3
2610;0;13;3
2611;0;14;4
2612;0;15;4
2613;0;15;3
2614;0;15;4
2615;0;15;4
2616;0;15;4
2617;0;15;4
2618;0;15;5
2619;0;15;4
2620;0;16;5
2621;0;15;5
2622;0;15;4
2623;0;15;3
2624;0;15;4
2625;0;15;4
2626;0;15;4
2627;0;15;5
2628;0;15;5
2629;0;15;5
2630;0;15;5
2631;0;15;6
2632;0;15;6
2633;0;15;5
2634;0;16;6
2635;0;16;6
2636;0;15;6
2637;0;16;5
2638;0;15;5
2639;0;15;6
2640;0;15;6
2641;0;15;5
2642;0;16;6
2643;0;16;5
2644;0;16;5
2645;0;16;5
2646;0;16;5
2647;0;16;4
2648;0;18;5
2649;0;18;4
2650;0;19;6
2651;0;19;5
2652;0;19;5
2653;0;18;6
2654;0;18;6
2655;0;18;6
2656;0;18;6
2657;0;18;6
2658;0;18;5
2659;0;18;4
2660;0;18;4
2661;0;18;4
2662;0;18;4
2663;0;18;3
2664;0;18;3
2665;0;17;3
2666;0;16;3
2667;0;15;4
2668;0;16;4
2669;0;15;3
2670;0;16;3
2671;0;16;2
2672;0;16;2
2673;0;16;2
2674;0;16;2
2675;0;16;1
2676;0;16;3
2677;0;16;2
2678;0;16;4
2679;0;16;3
2680;0;15;4
2681;0;15;4
2682;0;14;4
2683;0;14;5
2684;0;14;5
2685;0;14;5
2686;0;14;5
2687;0;14;6
2688;0;14;6
2689;0;14;6
2690;0;14;5
2691;0;14;6
2692;0;15;5
2693;0;15;6
2694;0;15;5
2695;0;15;5
2696;0;15;5
2697;0;15;7
2698;0;15;7
2699;0;15;6
2700;0;15;6
2701;0;15;6
2702;0;14;6
2703;0;15;6
2704;0;15;5
2705;0;15;4
2706;0;15;5
2707;0;15;4
2708;0;15;4
2709;0;15;4
2710;0;15;4
2711;0;15;4
2712;0;15;5
2713;0;15;5
2714;0;15;5
2715;0;14;6
2716;0;14;6
2717;0;15;6
2718;0;15;5
2719;0;14;5
2720;0;14;5
2721;0;14;5
2722;0;14;5
2723;0;14;5
2724;0;14;4
2725;0;14;5
2726;0;14;4
2727;0;14;4
2728;0;14;4
2729;0;14;4
2730;0;14;4
2731;0;14;4
2732;0;14;3
2733;0;14;4
2734;0;14;3
2735;0;14;5
2736;0;14;4
2737;0;14;6
2738;0;14;6
2739;0;15;7
2740;0;15;7
2741;0;15;6
2742;0;15;5
2743;0;16;4
2744;0;16;4
2745;0;16;4
2746;0;16;5
2747;0;16;4
2748;0;17;4
2749;0;17;4
2750;0;16;4
2751;0;16;3
2752;0;16;2
2753;0;16;2
2754;0;15;1
2755;0;15;1
2756;0;16;0
2757;0;16;2
2758;0;16;2
2759;0;16;1
2760;0;15;2
2761;0;15;2
2762;0;15;3
2763;0;15;3
2764;0;15;2
2765;0;15;3
2766;0;16;2
2767;0;16;3
2768;0;16;3
2769;0;16;3
2770;0;16;2
2771;0;16;2
2772;0;16;1
2773;0;16;2
2774;0;15;3
2775;0;15;2
2776;0;15;3
2777;0;15;4
2778;0;15;4
2779;0;15;3
2780;0;15;4
2781;0;14;4
2782;0;15;4
2783;0;14;3
2784;0;14;4
2785;0;14;4
2786;0;14;4
2787;0;15;4
2788;0;15;4
2789;0;15;3
2790;0;15;4
2791;0;16;4
2792;0;15;3
2793;0;15;4
2794;0;15;3
2795;0;15;4
2796;0;15;5
2797;0;15;5
2798;0;16;5
2799;0;16;5
2800;0;16;5
2801;0;16;5
2802;0;16;4
2803;0;16;4
2804;0;16;5
2805;0;15;5
2806;0;16;5
2807;0;16;6
2808;0;16;6
2809;0;17;6
2810;0;17;6
2811;0;17;5
2812;0;17;6
2813;0;18;6
2814;0;17;5
2815;0;17;4
2816;0;17;4
2817;0;17;3
2818;0;18;3
2819;0;18;2
2820;0;18;1
2821;0;18;2
2822;0;19;2
2823;0;19;4
2824;0;19;3
2825;0;19;4
2826;0;19;4
2827;0;19;3
2828;0;19;4
2829;0;19;3
2830;0;19;3
2831;0;19;2
2832;0;19;2
2833;0;19;2
2834;0;20;2
2835;0;20;1
2836;0;19;2
2837;0;19;1
2838;0;19;1
2839;0;19;2
2840;0;19;1
2841;0;19;1
2842;0;19;1
2843;0;19;1
2844;0;19;1
2845;0;19;2
2846;0;20;1
2847;0;19;2
2848;0;18;3
2849;0;18;3
2850;0;19;3
2851;0;20;3
2852;0;20;2
2853;0;20;2
2854;0;20;2
2855;0;20;1
2856;0;20;1
2857;0;20;3
2858;0;20;3
2859;0;20;3
2860;0;21;3
2861;0;21;3
2862;0;20;3
2863;0;20;2
2864;0;20;4
2865;0;19;3
2866;0;19;4
2867;0;20;4
2868;0;20;3
2869;0;20;3
2870;0;20;3
2871;0;20;2
2872;0;20;1
2873;0;20;3
2874;0;20;4
2875;0;21;4
2876;0;20;5
2877;0;21;4
2878;0;21;6
2879;0;21;6
2880;0;21;6
2881;0;20;5
2882;0;20;6
2883;0;20;5
2884;0;20;5
2885;0;20;5
2886;0;20;4
2887;0;20;5
2888;0;20;5
2889;0;20;5
2890;0;20;5
2891;0;20;6
2892;0;19;5
2893;0;18;5
2894;0;19;4
2895;0;19;4
2896;0;19;4
2897;0;18;3
2898;0;18;4
2899;0;18;4
2900;0;18;4
2901;0;18;4
2902;0;18;3
2903;0;18;2
2904;0;18;2
2905;0;17;2
2906;0;17;1
2907;0;17;1
2908;0;17;1
2909;0;17;2
2910;0;17;2
2911;0;17;2
2912;0;17;2
2913;0;17;3
2914;0;17;3
2915;0;17;3
2916;0;17;4
2917;0;17;5
2918;0;17;5
2919;0;17;5
2920;0;17;5
2921;0;17;5
2922;0;17;5
2923;0;17;6
2924;0;17;6
2925;0;18;6
2926;0;17;6
2927;0;18;5
2928;0;16;5
2929;0;17;4
2930;0;17;4
2931;0;17;6
2932;0;17;6
2933;0;18;6
2934;0;18;6
2935;0;18;6
2936;0;18;6
2937;0;17;7
2938;0;17;7
2939;0;17;7
2940;0;17;6
2941;0;17;7
2942;0;17;7
2943;0;17;6
2944;0;17;5
2945;0;17;7
2946;0;17;7
2947;0;18;7
2948;0;18;6
2949;0;18;7
2950;0;18;6
2951;0;19;8
2952;0;19;8
2953;0;19;8
2954;0;19;8
2955;0;19;8
2956;0;20;7
2957;0;21;8
2958;0;21;8
2959;0;21;7
2960;0;21;7
2961;0;21;7
2962;0;20;7
2963;0;20;6
2964;0;21;6
2965;0;21;6
2966;0;21;6
2967;0;21;6
2968;0;22;7
2969;0;21;7
2970;0;20;7
2971;0;19;6
2972;0;20;6
2973;0;19;6
2974;0;20;7
2975;0;20;7
2976;0;20;6
2977;0;19;6
2978;0;19;6
2979;0;19;5
2980;0;19;5
2981;0;19;6
2982;0;19;6
2983;0;19;6
2984;0;19;5
2985;0;18;5
2986;0;18;5
2987;0;18;5
2988;0;18;5
2989;0;18;5
2990;0;18;6
2991;0;19;6
2992;0;18;7
2993;0;18;7
2994;0;18;6
2995;0;18;7
2996;0;18;6
2997;0;17;7
2998;0;17;7
2999;0;17;7
3000;0;17;8
3001;0;17;8
3002;0;17;8
3003;0;17;8
3004;0;17;8
3005;0;17;9
3006;0;17;9
3007;0;16;9
3008;0;15;9
3009;0;16;8
3010;0;16;9
3011;0;16;9
3012;0;16;9
3013;0;15;9
3014;0;15;9
3015;0;15;9
3016;0;14;9
3017;0;14;8
3018;0;14;7
3019;0;15;7
3020;0;14;8
3021;0;14;8
3022;0;14;8
3023;0;14;9
3024;0;14;9
3025;0;14;9
3026;0;14;9
3027;0;14;8
3028;0;14;9
3029;0;14;8
3030;0;15;9
3031;0;14;8
3032;0;14;8
3033;0;14;8
3034;0;14;8
3035;0;14;8
3036;0;14;8
3037;0;14;8
3038;0;14;9
3039;0;14;9
3040;0;14;9
3041;0;13;9
3042;0;13;8
3043;0;13;8
3044;0;13;8
3045;0;13;8
3046;0;13;7
3047;0;13;8
3048;0;13;8
3049;0;12;7
3050;0;13;8
3051;0;13;8
3052;0;14;7
3053;0;14;7
3054;0;14;8
3055;0;14;8
3056;0;14;7
3057;0;14;8
3058;0;15;8
3059;0;16;7
3060;0;17;8
3061;0;17;8
3062;0;17;8
3063;0;17;7
3064;0;16;8
3065;0;15;7
3066;0;15;7
3067;0;15;6
3068;0;15;8
3069;0;15;7
3070;0;15;8
3071;0;15;8
3072;0;15;7
3073;0;15;8
3074;0;15;8
3075;0;15;7
3076;0;14;8
3077;0;14;7
3078;0;14;7
3079;0;14;8
3080;0;13;7
3081;0;13;8
3082;0;13;7
3083;0;13;7
3084;0;13;6
3085;0;13;6
3086;0;13;5
3087;0;13;5
3088;0;13;6
3089;0;14;5
3090;0;15;5
3091;0;15;5
3092;0;14;5
3093;0;14;5
3094;0;14;7
3095;0;14;6
3096;0;14;7
3097;0;14;6
3098;0;14;6
3099;0;14;6
3100;0;14;6
3101;0;14;6
3102;0;15;6
3103;0;15;5
3104;0;15;5
3105;0;16;6
3106;0;16;6
3107;0;16;6
3108;0;16;7
3109;0;16;6
3110;0;16;6
3111;0;16;6
3112;0;16;7
3113;0;16;7
3114;0;16;6
3115;0;16;7
3116;0;16;7
3117;0;16;6
3118;0;16;6
3119;0;16;6
3120;0;17;6
3121;0;17;7
3122;0;17;6
3123;0;16;7
3124;0;16;7
3125;0;16;7
3126;0;16;7
3127;0;16;7
3128;0;16;8
3129;0;16;8
3130;0;16;8
3131;0;16;8
3132;0;16;7
3133;0;16;7
3134;0;16;8
3135;0;16;8
3136;0;16;8
3137;0;18;8
3138;0;18;7
3139;0;18;8
3140;0;18;8
3141;0;17;8
3142;0;18;8
3143;0;18;8
3144;0;18;7
3145;0;17;8
3146;0;17;8
3147;0;18;8
3148;0;18;8
3149;0;18;8
3150;0;18;7
3151;0;18;7
3152;0;18;8
3153;0;18;8
3154;0;18;8
3155;0;18;7
3156;0;17;8
3157;0;16;7
3158;0;16;8
3159;0;16;8
3160;0;16;8
3161;0;16;8
3162;0;16;9
3163;0;16;10
3164;0;16;10
3165;0;16;10
3166;0;16;10
3167;0;16;10
3168;0;15;9
3169;0;16;10
3170;0;16;10
3171;0;16;10
3172;0;15;10
3173;0;16;9
3174;0;15;9
3175;0;15;8
3176;0;15;8
3177;0;15;8
3178;0;15;9
3179;0;15;9
3180;0;15;9
3181;0;16;9
3182;0;15;9
3183;0;15;9
3184;0;15;8
3185;0;14;8
3186;0;14;8
3187;0;14;9
3188;0;14;9
3189;0;14;8
3190;0;14;8
3191;0;14;8
3192;0;14;8
3193;0;13;9
3194;0;13;9
3195;0;13;10
3196;0;13;10
3197;0;13;10
3198;0;14;9
3199;0;13;9
3200;0;13;9
3201;0;13;9
3202;0;13;9
3203;0;13;9
3204;0;13;8
3205;0;14;9
3206;0;14;8
3207;0;14;8
3208;0;13;9
3209;0;13;9
3210;0;13;8
3211;0;13;9
3212;0;13;8
3213;0;14;8
3214;0;14;8
3215;0;14;9
3216;0;14;9
3217;0;13;9
3218;0;12;8
3219;0;12;9
3220;0;12;8
3221;0;13;8
3222;0;13;8
3223;0;13;8
3224;0;13;9
3225;0;14;8
3226;0;14;9
3227;0;14;9
3228;0;14;8
3229;0;15;8
3230;0;15;9
3231;0;15;9
3232;0;15;8
3233;0;15;8
3234;0;15;7
3235;0;15;8
3236;0;16;7
3237;0;17;9
3238;0;17;9
3239;0;17;10
3240;0;17;10
3241;0;17;10
3242;0;17;9
3243;0;17;10
3244;0;16;9
3245;0;16;9
3246;0;15;9
3247;0;15;10
3248;0;15;10
3249;0;15;11
3250;0;15;11
3251;0;15;10
3252;0;15;11
3253;0;15;10
3254;0;15;11
3255;0;15;11
3256;0;14;10
3257;0;15;10
3258;0;15;10
3259;0;15;10
3260;0;15;10
3261;0;15;9
3262;0;15;10
3263;0;15;9
3264;0;15;11
3265;0;15;11
3266;0;14;11
3267;0;13;11
3268;0;13;10
3269;0;12;11
3270;0;12;11
3271;0;12;11
3272;0;11;11
3273;0;11;11
3274;0;11;10
3275;0;11;12
3276;0;11;12
3277;0;10;12
3278;0;10;12
3279;0;10;12
3280;0;10;12
3281;0;10;12
3282;0;10;12
3283;0;10;12
3284;0;10;12
3285;0;10;12
3286;0;10;11
3287;0;10;12
3288;0;11;12
3289;0;11;11
3290;0;11;11
3291;0;12;10
3292;0;11;10
3293;0;12;10
3294;0;13;10
3295;0;14;10
3296;0;13;11
3297;0;13;11
3298;0;13;11
3299;0;13;11
3300;0;12;11
3301;0;12;11
3302;0;12;11
3303;0;12;10
3304;0;12;11
3305;0;11;10
3306;0;11;11
3307;0;11;11
3308;0;11;10
3309;0;11;10
3310;0;12;10
3311;0;11;10
3312;0;11;10
3313;0;11;10
3314;0;11;9
3315;0;11;9
3316;0;11;10
3317;0;11;10
3318;0;11;10
3319;0;11;11
3320;0;11;10
3321;0;11;10
3322;0;12;9
3323;0;12;9
3324;0;12;9
3325;0;12;8
3326;0;12;8
3327;0;12;8
3328;0;11;8
3329;0;11;8
3330;0;11;8
3331;0;11;9
3332;0;11;9
3333;0;10;9
3334;0;10;9
3335;0;10;8
3336;0;9;9
3337;0;9;9
3338;0;11;8
3339;0;11;9
3340;0;11;9
3341;0;11;8
3342;0;12;9
3343;0;11;9
3344;0;12;8
3345;0;12;9
3346;0;12;9
3347;0;12;9
3348;0;12;10
3349;0;11;9
3350;0;11;8
3351;0;11;7
3352;0;11;9
3353;0;12;9
3354;0;12;10
3355;0;12;10
3356;0;12;10
3357;0;12;9
3358;0;12;11
3359;0;12;10
3360;0;12;10
3361;0;12;9
3362;0;12;10
3363;0;12;9
3364;0;11;10
3365;0;11;9
3366;0;11;9
3367;0;11;10
3368;0;12;10
3369;0;10;10
3370;0;10;10
3371;0;10;10
3372;0;10;10
3373;0;11;9
3374;0;11;10
3375;0;11;9
3376;0;11;9
3377;0;11;9
3378;0;11;8
3379;0;11;9
3380;0;11;8
3381;0;11;9
3382;0;12;9
3383;0;11;9
3384;0;11;8
3385;0;11;9
3386;0;11;8
3387;0;10;8
3388;0;11;7
3389;0;11;7
3390;0;11;7
3391;0;11;7
3392;0;10;7
3393;0;10;7
3394;0;10;6
3395;0;10;6
3396;0;10;5
3397;0;10;5
3398;0;10;5
3399;0;10;5
3400;0;10;5
3401;0;11;4
3402;0;10;4
3403;0;10;5
3404;0;9;5
3405;0;9;4
3406;0;9;5
3407;0;9;4
3408;0;9;4
3409;0;9;5
3410;0;9;5
3411;0;9;5
3412;0;9;6
3413;0;9;6
3414;0;9;5
3415;0;9;6
3416;0;9;5
3417;0;9;6
3418;0;9;7
3419;0;9;7
3420;0;9;7
3421;0;9;6
3422;0;9;8
3423;0;9;7
3424;0;9;7
3425;0;9;6
3426;0;9;6
3427;0;8;5
3428;0;7;6
3429;0;7;6
3430;0;7;7
3431;0;7;6
3432;0;7;8
3433;0;7;8
3434;0;7;8
3435;0;7;8
3436;0;7;9
3437;0;7;8
3438;0;7;9
3439;0;7;9
3440;0;7;9
3441;0;7;9
3442;0;7;9
3443;0;6;9
3444;0;6;9
3445;0;6;9
3446;0;7;9
3447;0;7;9
3448;0;7;8
3449;0;8;8
3450;0;7;8
3451;0;7;8
3452;0;7;8
3453;0;7;8
3454;0;7;8
3455;0;7;8
3456;0;7;9
3457;0;7;9
3458;0;6;9
3459;0;6;11
3460;0;6;12
3461;0;6;11
3462;0;6;11
3463;0;6;11
3464;0;6;11
3465;0;6;11
3466;0;6;10
3467;0;6;10
3468;0;6;10
3469;0;6;11
3470;0;6;11
3471;0;5;10
3472;0;5;11
3473;0;5;11
3474;0;5;10
3475;0;5;10
3476;0;5;11
3477;0;6;11
3478;0;6;10
3479;0;6;12
3480;0;6;12
3481;0;6;12
3482;0;5;11
3483;0;6;12
3484;0;5;12
3485;0;5;11
3486;0;5;12
3487;0;5;12
3488;0;5;12
3489;0;5;12
3490;0;5;11
3491;0;5;11
3492;0;5;10
3493;0;5;10
3494;0;6;10
3495;0;6;9
3496;0;6;10
3497;0;6;10
3498;0;6;10
3499;0;6;10
3500;0;6;9
3501;0;6;10
3502;0;7;10
3503;0;7;9
3504;0;8;10
3505;0;8;9
3506;0;8;9
3507;0;8;9
3508;0;8;10
3509;0;8;11
3510;0;8;11
3511;0;9;10
3512;0;9;10
3513;0;10;11
3514;0;10;10
3515;0;11;11
3516;0;10;10
3517;0;10;11
3518;0;10;11
3519;0;10;10
3520;0;10;9
3521;0;10;9
3522;0;9;9
3523;0;9;8
3524;0;8;8
3525;0;8;8
3526;0;9;8
3527;0;9;8
3528;0;9;8
3529;0;8;8
3530;0;9;7
3531;0;8;7
3532;0;8;7
3533;0;9;7
3534;0;9;7
3535;0;8;7
3536;0;8;6
3537;0;8;7
3538;0;8;7
3539;0;8;6
3540;0;8;6
3541;0;8;6
3542;0;8;7
3543;0;8;7
3544;0;7;7
3545;0;7;6
3546;0;6;6
3547;0;6;6
3548;0;5;6
3549;0;5;6
3550;0;4;5
3551;0;4;5
3552;0;5;5
3553;0;5;5
3554;0;5;4
3555;0;5;4
3556;0;5;4
3557;0;5;4
3558;0;5;4
3559;0;5;4
3560;0;5;3
3561;0;6;4
3562;0;5;4
3563;0;4;5
3564;0;4;5
3565;0;4;5
3566;0;4;4
3567;0;4;5
3568;0;4;4
3569;0;4;4
3570;0;4;3
3571;0;4;3
3572;0;4;2
3573;0;4;3
3574;0;4;3
3575;0;4;2
3576;0;4;4
3577;0;4;4
3578;0;4;4
3579;0;5;3
3580;0;4;4
3581;0;3;4
3582;0;3;3
3583;0;3;5
3584;0;2;5
3585;0;1;5
3586;0;2;5
3587;0;2;4
3588;0;2;5
3589;0;2;5
3590;0;2;4
3591;0;2;4
3592;0;2;5
3593;0;2;5
3594;0;2;4
3595;0;2;4
3596;0;2;4
3597;0;2;4
3598;0;2;4
3599;0;2;5
3600;0;2;5
3601;0;2;5
3602;0;2;5
3603;0;2;5
3604;0;2;6
3605;0;3;6
3606;0;3;6
3607;0;3;6
3608;0;3;6
3609;0;2;6
3610;0;2;6
3611;0;2;6
3612;0;2;6
3613;0;2;5
3614;0;2;4
3615;0;2;5
3616;0;2;5
3617;0;2;4
3618;0;2;5
3619;0;3;4
3620;0;3;3
3621;0;4;3
3622;0;4;4
3623;0;4;4
3624;0;4;5
3625;0;5;4
3626;0;5;3
3627;0;4;4
3628;0;4;3
3629;0;4;4
3630;0;4;3
3631;0;4;4
3632;0;4;3
3633;0;4;3
3634;0;4;3
3635;0;4;2
3636;0;4;3
3637;0;4;3
3638;0;4;2
3639;0;4;2
3640;0;4;3
3641;0;4;2
3642;0;5;2
3643;0;4;1
3644;0;3;1
3645;0;3;1
3646;0;3;1
3647;0;5;0
3648;0;4;2
3649;0;4;2
3650;0;4;2
3651;0;4;3
3652;0;5;2
3653;0;3;4
3654;0;3;4
3655;0;3;4
3656;0;3;4
3657;0;3;4
3658;0;4;4
3659;0;4;4
3660;0;4;4
3661;0;4;4
3662;0;5;4
3663;0;5;3
3664;0;5;3
3665;0;5;3
3666;0;5;2
3667;0;6;2
3668;0;6;3
3669;0;6;4
3670;0;5;3
3671;0;6;5
3672;0;5;4
3673;0;5;4
3674;0;5;5
3675;0;5;5
3676;0;5;6
3677;0;5;5
3678;0;4;5
3679;0;4;5
3680;0;4;5
3681;0;4;5
3682;0;4;6
3683;0;4;6
3684;0;4;6
3685;0;4;6
3686;0;4;6
3687;0;4;5
3688;0;4;5
3689;0;4;4
3690;0;3;5
3691;0;3;5
3692;0;3;5
3693;0;3;4
3694;0;3;5
3695;0;3;5
3696;0;4;5
3697;0;4;5
3698;0;3;4
3699;0;3;4
3700;0;3;4
3701;0;3;5
3702;0;3;4
3703;0;2;5
3704;0;3;4
3705;0;3;4
3706;0;3;5
3707;0;3;5
3708;0;3;6
3709;0;4;6
3710;0;3;6
3711;0;3;6
3712;0;3;5
3713;0;3;6
3714;0;3;6
3715;0;4;5
3716;0;4;6
3717;0;4;6
3718;0;4;5
3719;0;4;6
3720;0;4;5
3721;0;3;6
3722;0;3;6
3723;0;3;5
3724;0;3;5
3725;0;3;5
3726;0;3;5
3727;0;3;5
3728;0;3;5
3729;0;3;6
3730;0;3;5
3731;0;3;6
3732;0;3;6
3733;0;3;5
3734;0;3;5
3735;0;3;5
3736;0;3;5
3737;0;3;4
3738;0;3;3
3739;0;4;3
3740;0;3;2
3741;0;3;3
3742;0;2;3
3743;0;1;3
3744;0;1;3
3745;0;2;3
3746;0;2;3
3747;0;2;3
3748;0;2;4
3749;0;2;4
3750;0;1;4
3751;0;1;3
3752;0;1;3
3753;0;1;3
3754;0;1;2
3755;0;2;3
3756;0;1;2
3757;0;1;1
3758;0;0;1
3759;0;1;2
3760;0;1;1
3761;0;2;2
3762;0;2;1
3763;0;2;2
3764;0;2;2
3765;0;2;2
3766;0;3;1
3767;0;3;2
3768;0;3;2
3769;0;3;2
3770;0;3;2
3771;0;3;2
3772;0;3;2
3773;0;2;2
3774;0;3;3
3775;0;3;2
3776;0;3;3
3777;0;3;3
3778;0;3;3
3779;0;4;2
3780;0;3;3
3781;0;3;3
3782;0;4;3
3783;0;5;3
3784;0;4;2
3785;0;4;2
3786;0;4;3
3787;0;4;3
3788;0;4;3
3789;0;4;3
3790;0;4;3
3791;0;4;2
3792;0;4;2
3793;0;3;2
3794;0;5;2
3795;0;5;1
3796;0;5;3
3797;0;5;3
3798;0;6;2
3799;0;7;3
3800;0;7;2
3801;0;7;3
3802;0;8;3
3803;0;8;3
3804;0;8;2
3805;0;8;3
3806;0;9;2
3807;0;9;3
3808;0;10;3
3809;0;10;3
3810;0;9;2
3811;0;9;3
3812;0;9;3
3813;0;9;2
3814;0;9;2
3815;0;9;2
3816;0;9;1
3817;0;10;2
3818;0;11;1
3819;0;10;2
3820;0;10;2
3821;0;10;2
3822;0;10;1
3823;0;10;0
3824;0;10;2
3825;0;10;2
3826;0;10;2
3827;0;10;2
3828;0;10;1
3829;0;10;1
3830;0;10;0
3831;0;10;2
3832;0;10;2
3833;0;10;2
3834;0;10;2
3835;0;10;2
3836;0;10;3
3837;0;10;2
3838;0;10;2
3839;0;10;2
3840;0;10;2
3841;0;11;1
3842;0;9;2
3843;0;9;2
3844;0;9;1
3845;0;9;1
3846;0;9;1
3847;0;9;1
3848;0;10;1
3849;0;10;1
3850;0;11;0
3851;0;10;1
3852;0;10;0
3853;0;10;0
3854;0;11;2
3855;0;11;2
3856;0;11;2
3857;0;10;1
3858;0;11;1
3859;0;12;1
3860;0;12;1
3861;0;11;1
3862;0;11;0
3863;0;11;1
3864;0;11;1
3865;0;11;1
3866;0;11;1
3867;0;11;0
3868;0;11;2
3869;0;11;2
3870;0;11;2
3871;0;11;2
3872;0;11;1
3873;0;10;1
3874;0;10;2
3875;0;10;2
3876;0;10;2
3877;0;10;2
3878;0;11;2
3879;0;11;2
3880;0;10;1
3881;0;9;1
3882;0;9;1
3883;0;9;1
3884;0;8;0
3885;0;8;2
3886;0;8;3
3887;0;7;2
3888;0;7;2
3889;0;7;1
3890;0;7;2
3891;0;7;2
3892;0;7;2
3893;0;7;1
3894;0;6;2
3895;0;6;2
3896;0;7;2
3897;0;7;1
3898;0;7;1
3899;0;7;2
3900;0;8;1
3901;0;9;2
3902;0;8;1
3903;0;8;3
3904;0;8;2
3905;0;8;3
3906;0;8;3
3907;0;8;3
3908;0;8;3
3909;0;8;3
3910;0;8;3
3911;0;8;3
3912;0;8;2
3913;0;8;1
3914;0;9;1
3915;0;8;1
3916;0;8;1
3917;0;8;1
3918;0;8;1
3919;0;8;2
3920;0;9;2
3921;0;8;1
3922;0;8;1
3923;0;8;2
3924;0;9;2
3925;0;10;4
3926;0;10;4
3927;0;10;4
3928;0;10;3
3929;0;10;4
3930;0;10;3
3931;0;10;4
3932;0;11;5
3933;0;10;4
3934;0;10;3
3935;0;9;4
3936;0;10;4
3937;0;9;3
3938;0;9;4
3939;0;9;3
3940;0;9;4
3941;0;9;3
3942;0;8;3
3943;0;7;3
3944;0;7;3
3945;0;7;3
3946;0;7;3
3947;0;7;3
3948;0;7;2
3949;0;8;3
3950;0;8;2
3951;0;8;2
3952;0;8;1
3953;0;8;1
3954;0;8;2
3955;0;7;3
3956;0;7;2
3957;0;7;1
3958;0;6;2
3959;0;5;2
3960;0;6;3
3961;0;5;3
3962;0;5;2
3963;0;5;2
3964;0;6;2
3965;0;5;2
3966;0;4;2
3967;0;5;2
3968;0;5;2
3969;0;5;2
3970;0;5;2
3971;0;5;1
3972;0;5;2
3973;0;5;2
3974;0;5;1
3975;0;5;1
3976;0;5;0
3977;0;4;3
3978;0;4;2
3979;0;4;3
3980;0;3;3
3981;0;2;3
3982;0;3;3
3983;0;5;3
3984;0;5;3
3985;0;5;4
3986;0;5;4
3987;0;6;3
3988;0;6;4
3989;0;6;3
3990;0;6;3
3991;0;6;4
3992;0;7;4
3993;0;7;3
3994;0;7;3
3995;0;8;4
3996;0;7;4
3997;0;8;3
3998;0;8;4
3999;0;8;3
4000;0;8;4
4001;0;8;4
4002;0;8;3
4003;0;8;4
4004;0;8;4
4005;0;8;4
4006;0;8;3
4007;0;8;4
4008;0;8;3
4009;0;9;4
4010;0;9;4
4011;0;9;4
4012;0;8;3
4013;0;9;4
4014;0;9;3
4015;0;10;3
4016;0;11;3
4017;0;11;2
4018;0;10;3
4019;0;10;2
4020;0;11;1
4021;0;10;2
4022;0;10;1
4023;0;10;1
4024;0;10;1
4025;0;10;2
4026;0;11;1
4027;0;11;2
4028;0;11;2
4029;0;12;2
4030;0;11;1
4031;0;12;2
4032;0;12;2
4033;0;12;1
4034;0;12;1
4035;0;13;0
4036;0;12;1
4037;0;12;0
4038;0;13;2
4039;0;12;2
4040;0;12;2
4041;0;12;1
4042;0;12;1
4043;0;11;1
4044;0;11;0
4045;0;12;2
4046;0;12;2
4047;0;12;2
4048;0;11;3
4049;0;10;3
4050;0;10;2
4051;0;10;3
4052;0;10;2
4053;0;10;2
4054;0;10;3
4055;0;10;3
4056;0;10;3
4057;0;10;3
4058;0;11;3
4059;0;11;3
4060;0;11;2
4061;0;11;2
4062;0;10;2
4063;0;9;2
4064;0;10;1
4065;0;10;1
4066;0;11;2
4067;0;12;1
4068;0;11;0
4069;0;12;2
4070;0;12;2
4071;0;12;2
4072;0;12;1
4073;0;12;2
4074;0;12;2
4075;0;13;3
4076;0;12;2
4077;0;12;2
4078;0;12;2
4079;0;12;3
4080;0;13;2
4081;0;12;3
4082;0;12;3
4083;0;12;3
4084;0;12;2
4085;0;13;3
4086;0;13;2
4087;0;14;3
4088;0;14;2
4089;0;14;2
4090;0;13;3
4091;0;13;2
4092;0;13;2
4093;0;13;2
4094;0;13;2
4095;0;13;1
4096;0;13;2
4097;0;13;1
4098;0;13;1
4099;0;13;1
4100;0;13;2
4101;0;13;2
4102;0;13;2
4103;0;14;2
4104;0;15;1
4105;0;14;2
4106;0;15;1
4107;0;15;1
4108;0;14;0
4109;0;13;0
4110;0;13;1
4111;0;13;2
4112;0;12;2
4113;0;12;1
4114;0;12;2
4115;0;13;2
4116;0;12;3
4117;0;12;3
4118;0;13;2
4119;0;13;2
4120;0;13;2
4121;0;13;1
4122;0;13;2
4123;0;13;2
4124;0;13;2
4125;0;12;2
4126;0;12;2
4127;0;12;2
4128;0;12;2
4129;0;12;3
4130;0;12;2
4131;0;11;2
4132;0;11;3
4133;0;11;3
4134;0;10;4
4135;0;11;4
4136;0;10;4
4137;0;10;3
4138;0;10;4
4139;0;10;5
4140;0;11;4
4141;0;11;5
4142;0;12;7
4143;0;11;6
4144;0;11;6
4145;0;12;7
4146;0;13;7
4147;0;13;7
4148;0;13;7
4149;0;13;7
4150;0;13;8
4151;0;13;8
4152;0;12;8
4153;0;12;9
4154;0;12;9
4155;0;12;9
4156;0;12;10
4157;0;12;10
4158;0;12;10
4159;0;12;10
4160;0;12;11
4161;0;12;11
4162;0;12;11
4163;0;12;10
4164;0;12;11
4165;0;12;11
4166;0;12;10
4167;0;12;11
4168;0;12;10
4169;0;12;10
4170;0;12;10
4171;0;12;10
4172;0;12;10
4173;0;12;12
4174;0;12;11
4175;0;12;11
4176;0;11;11
4177;0;11;11
4178;0;11;10
4179;0;11;12
4180;0;11;12
4181;0;11;13
4182;0;10;12
4183;0;10;11
4184;0;10;13
4185;0;10;12
4186;0;10;13
4187;0;9;14
4188;0;10;14
4189;0;10;13
4190;0;10;13
4191;0;10;14
4192;0;11;13
4193;0;11;13
4194;0;11;13
4195;0;10;13
4196;0;10;13
4197;0;10;13
4198;0;9;13
4199;0;9;13
4200;0;9;13
4201;0;9;13
4202;0;8;13
4203;0;8;13
4204;0;8;13
4205;0;8;13
4206;0;8;13
4207;0;8;13
4208;0;7;13
4209;0;7;12
4210;0;7;13
4211;0;7;12
4212;0;7;12
4213;0;7;12
4214;0;7;12
4215;0;8;12
4216;0;8;11
4217;0;9;11
4218;0;8;11
4219;0;8;12
4220;0;8;12
4221;0;8;12
4222;0;8;11
4223;0;8;12
4224;0;8;11
4225;0;8;11
4226;0;8;11
4227;0;7;11
4228;0;8;11
4229;0;8;11
4230;0;8;10
4231;0;8;10
4232;0;8;11
4233;0;8;12
4234;0;8;11
4235;0;8;11
4236;0;8;11
4237;0;8;12
4238;0;8;11
4239;0;9;11
4240;0;9;12
4241;0;9;12
4242;0;9;12
4243;0;9;12
4244;0;8;12
4245;0;9;12
4246;0;9;11
4247;0;9;12
4248;0;9;11
4249;0;9;12
4250;0;9;11
4251;0;9;11
4252;0;9;12
4253;0;9;11
4254;0;9;10
4255;0;9;11
4256;0;9;11
4257;0;9;11
4258;0;9;11
4259;0;9;11
4260;0;9;11
4261;0;9;11
4262;0;9;11
4263;0;9;10
4264;0;8;9
4265;0;9;10
4266;0;9;10
4267;0;9;10
4268;0;9;9
4269;0;9;9
4270;0;9;9
4271;0;9;9
4272;0;9;10
4273;0;9;9
4274;0;8;10
4275;0;8;10
4276;0;7;10
4277;0;7;11
4278;0;7;10
4279;0;7;10
4280;0;7;9
4281;0;7;9
4282;0;7;8
4283;0;7;8
4284;0;7;10
4285;0;7;10
4286;0;7;11
4287;0;7;10
4288;0;7;9
4289;0;7;9
4290;0;7;9
4291;0;7;9
4292;0;7;9
4293;0;7;9
4294;0;7;8
4295;0;7;8
4296;0;7;8
4297;0;7;8
4298;0;7;8
4299;0;7;9
4300;0;7;8
4301;0;7;9
4302;0;7;8
4303;0;8;9
4304;0;7;9
4305;0;8;8
4306;0;8;8
4307;0;8;7
4308;0;8;8
4309;0;8;8
4310;0;8;7
4311;0;8;7
4312;0;8;7
4313;0;7;7
4314;0;6;7
4315;0;6;7
4316;0;6;7
4317;0;6;7
4318;0;6;8
4319;0;7;7
4320;0;6;8
4321;0;7;7
4322;0;7;7
4323;0;7;7
4324;0;7;7
4325;0;8;6
4326;0;8;6
4327;0;8;6
4328;0;8;5
4329;0;8;6
4330;0;8;5
4331;0;7;6
4332;0;8;5
4333;0;8;6
4334;0;8;5
4335;0;8;5
4336;0;8;5
4337;0;9;5
4338;0;9;6
4339;0;10;6
4340;0;8;6
4341;0;8;5
4342;0;8;6
4343;0;8;6
4344;0;8;5
4345;0;7;5
4346;0;7;5
4347;0;7;4
4348;0;7;6
4349;0;7;6
4350;0;6;6
4351;0;6;6
4352;0;5;6
4353;0;4;6
4354;0;4;6
4355;0;4;5
4356;0;4;5
4357;0;3;5
4358;0;3;5
4359;0;3;4
4360;0;3;4
4361;0;2;4
4362;0;2;4
4363;0;2;4
4364;0;2;4
4365;0;2;3
4366;0;2;4
4367;0;1;5
4368;0;0;5
4369;0;1;6
4370;0;1;6
4371;0;1;5
4372;0;1;5
4373;0;2;6
4374;0;2;5
4375;0;2;5
4376;0;2;4
4377;0;2;5
4378;0;2;5
4379;0;1;5
4380;0;0;5
4381;0;2;5
4382;0;2;5
4383;0;2;4
4384;0;1;5
4385;0;1;5
4386;0;1;5
4387;0;1;6
4388;0;1;5
4389;0;1;6
4390;0;1;5
4391;0;1;6
4392;0;2;6
4393;0;2;6
4394;0;2;7
4395;0;1;8
4396;0;1;7
4397;0;1;6
4398;0;1;6
4399;0;1;7
4400;0;0;6
4401;0;1;7
4402;0;1;8
4403;0;1;8
4404;0;1;8
4405;0;1;8
4406;0;0;7
4407;0;1;8
4408;0;1;7
4409;0;1;9
4410;0;1;9
4411;0;1;9
4412;0;0;8
4413;0;1;9
4414;0;2;8
4415;0;3;8
4416;0;2;8
4417;0;2;8
4418;0;1;8
4419;0;2;8
4420;0;2;7
4421;0;3;7
4422;0;2;7
4423;0;2;7
4424;0;1;7
4425;0;1;6
4426;0;1;7
4427;0;1;7
4428;0;1;8
4429;0;1;8
4430;0;2;8
4431;0;1;8
4432;0;1;7
4433;0;1;8
4434;0;1;8
4435;0;1;7
4436;0;1;6
4437;0;1;7
4438;0;2;7
4439;0;1;8
4440;0;1;7
4441;0;1;7
4442;0;1;7
4443;0;1;8
4444;0;1;7
4445;0;0;7
4446;0;1;8
4447;0;1;8
4448;0;1;8
4449;0;1;8
4450;0;1;8
4451;0;1;8
4452;0;1;8
4453;0;1;8
4454;0;1;8
4455;0;1;8
4456;0;2;7
4457;0;2;6
4458;0;2;7
4459;0;2;6
4460;0;2;7
4461;0;2;7
4462;0;2;6
4463;0;2;6
4464;0;2;6
4465;0;3;5
4466;0;3;6
4467;0;3;6
4468;0;3;6
4469;0;3;6
4470;0;3;6
4471;0;4;5
4472;0;3;5
4473;0;3;5
4474;0;3;5
4475;0;4;5
4476;0;4;4
4477;0;4;5
4478;0;4;4
4479;0;4;5
4480;0;4;5
4481;0;3;5
4482;0;3;5
4483;0;3;5
4484;0;3;4
4485;0;3;5
4486;0;3;5
4487;0;3;4
4488;0;3;5
4489;0;3;5
4490;0;3;4
4491;0;4;5
4492;0;3;6
4493;0;3;6
4494;0;3;6
4495;0;3;5
4496;0;3;6
4497;0;3;5
4498;0;3;5
4499;0;3;4
4500;0;2;5
4501;0;2;5
4502;0;2;4
4503;0;2;5
4504;0;2;5
4505;0;2;5
4506;0;3;4
4507;0;4;4
4508;0;5;3
4509;0;5;4
4510;0;6;4
4511;0;6;4
4512;0;6;3
4513;0;6;2
4514;0;6;1
4515;0;7;3
4516;0;7;3
4517;0;7;2
4518;0;7;3
4519;0;7;3
4520;0;7;2
4521;0;7;2
4522;0;7;2
4523;0;7;3
4524;0;7;3
4525;0;7;5
4526;0;7;5
4527;0;8;4
4528;0;8;3
4529;0;8;3
4530;0;8;2
4531;0;8;4
4532;0;9;3
4533;0;9;4
4534;0;9;4
4535;0;9;4
4536;0;9;4
4537;0;9;4
4538;0;9;3
4539;0;9;4
4540;0;9;4
4541;0;9;3
4542;0;9;4
4543;0;9;3
4544;0;10;3
4545;0;10;4
4546;0;10;3
4547;0;10;3
4548;0;10;3
4549;0;10;3
4550;0;10;3
4551;0;11;2
4552;0;10;3
4553;0;11;2
4554;0;11;4
4555;0;10;4
4556;0;10;4
4557;0;10;4
4558;0;10;4
4559;0;9;3
4560;0;10;4
4561;0;10;4
4562;0;11;4
4563;0;11;4
4564;0;11;3
4565;0;11;3
4566;0;11;3
4567;0;11;3
4568;0;11;3
4569;0;11;3
4570;0;12;2
4571;0;11;2
4572;0;10;3
4573;0;10;3
4574;0;10;3
4575;0;10;3
4576;0;10;3
4577;0;10;2
4578;0;10;3
4579;0;10;3
4580;0;10;3
4581;0;10;3
4582;0;9;3
4583;0;9;2
4584;0;9;3
4585;0;9;2
4586;0;9;2
4587;0;9;2
4588;0;9;2
4589;0;9;2
4590;0;9;1
4591;0;9;2
4592;0;9;2
4593;0;9;2
4594;0;9;2
4595;0;8;1
4596;0;8;2
4597;0;7;2
4598;0;6;2
4599;0;7;3
4600;0;7;3
4601;0;7;3
4602;0;8;4
4603;0;9;4
4604;0;9;4
4605;0;9;3
4606;0;9;3
4607;0;9;3
4608;0;10;5
4609;0;9;5
4610;0;10;6
4611;0;10;6
4612;0;9;7
4613;0;9;7
4614;0;9;8
4615;0;9;7
4616;0;10;8
4617;0;10;7
4618;0;10;8
4619;0;10;8
4620;0;11;8
4621;0;11;7
4622;0;11;8
4623;0;11;8
4624;0;11;8
4625;0;10;9
4626;0;10;8
4627;0;10;7
4628;0;9;8
4629;0;9;7
4630;0;10;7
4631;0;10;7
4632;0;10;7
4633;0;10;7
4634;0;10;7
4635;0;10;7
4636;0;10;6
4637;0;10;7
4638;0;10;7
4639;0;11;6
4640;0;11;5
4641;0;11;5
4642;0;12;4
4643;0;12;5
4644;0;12;5
4645;0;12;5
4646;0;12;5
4647;0;12;5
4648;0;11;6
4649;0;11;5
4650;0;11;5
4651;0;11;4
4652;0;11;5
4653;0;11;5
4654;0;11;4
4655;0;11;4
4656;0;11;6
4657;0;11;6
4658;0;11;7
4659;0;11;5
4660;0;11;4
4661;0;11;4
4662;0;11;5
4663;0;11;4
4664;0;11;5
4665;0;12;5
4666;0;12;5
4667;0;11;5
4668;0;10;5
4669;0;10;4
4670;0;10;5
4671;0;10;4
4672;0;10;4
4673;0;10;5
4674;0;10;5
4675;0;11;4
4676;0;11;3
4677;0;11;4
4678;0;11;3
4679;0;11;3
4680;0;10;3
4681;0;11;4
4682;0;11;3
4683;0;11;4
4684;0;11;4
4685;0;11;4
4686;0;11;4
4687;0;11;4
4688;0;11;3
4689;0;11;3
4690;0;10;4
4691;0;10;4
4692;0;10;3
4693;0;9;3
4694;0;8;3
4695;0;8;4
4696;0;8;4
4697;0;8;5
4698;0;8;5
4699;0;9;4
4700;0;9;5
4701;0;10;4
4702;0;10;5
4703;0;10;5
4704;0;10;5
4705;0;9;5
4706;0;9;5
4707;0;9;5
4708;0;8;4
4709;0;8;5
4710;0;8;4
4711;0;8;4
4712;0;7;5
4713;0;7;4
4714;0;7;4
4715;0;7;5
4716;0;8;5
4717;0;8;5
4718;0;9;5
4719;0;9;5
4720;0;9;5
4721;0;9;5
4722;0;9;6
4723;0;9;6
4724;0;9;5
4725;0;9;6
4726;0;10;5
4727;0;11;6
4728;0;11;6
4729;0;11;6
4730;0;11;7
4731;0;11;7
4732;0;11;7
4733;0;10;7
4734;0;10;6
4735;0;10;6
4736;0;11;7
4737;0;11;7
4738;0;11;7
4739;0;12;7
4740;0;12;7
4741;0;11;7
4742;0;11;7
4743;0;10;6
4744;0;9;6
4745;0;9;6
4746;0;10;6
4747;0;9;6
4748;0;9;6
4749;0;9;5
4750;0;9;5
4751;0;9;6
4752;0;8;7
4753;0;9;7
4754;0;7;8
4755;0;6;9
4756;0;6;8
4757;0;6;9
4758;0;6;8
4759;0;6;9
4760;0;6;9
4761;0;5;9
4762;0;4;9
4763;0;3;9
4764;0;4;8
4765;0;4;9
4766;0;3;9
4767;0;4;9
4768;0;4;8
4769;0;4;10
4770;0;5;11
4771;0;4;11
4772;0;4;11
4773;0;4;11
4774;0;3;11
4775;0;3;10
4776;0;3;11
4777;0;2;11
4778;0;2;12
4779;0;2;12
4780;0;2;12
4781;0;2;13
4782;0;1;13
4783;0;1;14
4784;0;1;14
4785;0;1;14
4786;0;2;14
4787;0;1;14
4788;0;1;14
4789;0;1;14
4790;0;1;13
4791;0;1;13
4792;0;1;14
4793;0;1;14
4794;0;2;14
4795;0;3;13
4796;0;2;14
4797;0;2;14
4798;0;2;13
4799;0;2;14
4800;0;1;14
4801;0;1;14
4802;0;1;14
4803;0;1;13
4804;0;2;13
4805;0;2;14
4806;0;2;14
4807;0;2;15
4808;0;1;14
4809;0;1;13
4810;0;1;12
4811;0;1;13
4812;0;1;12
4813;0;1;13
4814;0;1;12
4815;0;1;12
4816;0;2;13
4817;0;2;13
4818;0;2;13
4819;0;2;12
4820;0;2;13
4821;0;1;13
4822;0;2;13
4823;0;1;13
4824;0;1;13
4825;0;1;12
4826;0;0;12
4827;0;1;12
4828;0;1;12
4829;0;1;11
4830;0;1;11
4831;0;1;10
4832;0;1;11
4833;0;1;10
4834;0;1;10
4835;0;0;9
4836;0;1;9
4837;0;1;10
4838;0;1;10
4839;0;0;9
4840;0;1;10
4841;0;2;10
4842;0;2;9
4843;0;2;10
4844;0;2;9
4845;0;2;10
4846;0;2;10
4847;0;2;10
4848;0;3;9
4849;0;3;10
4850;0;2;9
4851;0;2;10
4852;0;2;10
4853;0;1;11
4854;0;1;11
4855;0;2;11
4856;0;1;10
4857;0;2;10
4858;0;2;10
4859;0;2;10
4860;0;2;10
4861;0;2;11
4862;0;2;11
4863;0;2;11
4864;0;2;10
4865;0;2;11
4866;0;1;10
4867;0;1;11
4868;0;2;11
4869;0;1;11
4870;0;2;10
4871;0;2;11
4872;0;3;10
4873;0;1;10
4874;0;2;10
4875;0;2;9
4876;0;1;10
4877;0;1;9
4878;0;1;9
4879;0;1;9
4880;0;1;9
4881;0;1;10
4882;0;1;12
4883;0;0;12
4884;0;1;13
4885;0;0;13
4886;0;1;13
4887;0;0;13
4888;0;0;13
4889;0;1;12
4890;0;1;13
4891;0;1;13
4892;0;0;12
4893;0;2;11
4894;0;2;10
4895;0;2;10
4896;0;2;11
4897;0;2;11
4898;0;3;11
4899;0;3;11
4900;0;3;10
4901;0;2;11
4902;0;2;11
4903;0;2;12
4904;0;2;12
4905;0;2;11
4906;0;3;11
4907;0;3;11
4908;0;3;10
4909;0;3;12
4910;0;3;12
4911;0;2;12
4912;0;2;12
4913;0;2;12
4914;0;3;12
4915;0;2;13
4916;0;2;12
4917;0;2;12
4918;0;1;11
4919;0;2;11
4920;0;1;12
4921;0;1;12
4922;0;1;13
4923;0;1;12
4924;0;2;12
4925;0;1;13
4926;0;2;12
4927;0;1;13
4928;0;1;14
4929;0;2;14
4930;0;2;13
4931;0;2;14
4932;0;2;14
4933;0;2;13
4934;0;2;15
4935;0;2;15
4936;0;2;15
4937;0;2;14
4938;0;2;15
4939;0;2;15
4940;0;2;15
4941;0;2;15
4942;0;2;15
4943;0;2;16
4944;0;2;16
4945;0;3;15
4946;0;2;15
4947;0;2;16
4948;0;2;16
4949;0;2;15
4950;0;1;16
4951;0;1;16
4952;0;1;15
4953;0;1;15
4954;0;1;16
4955;0;1;17
4956;0;1;17
4957;0;0;17
4958;0;1;18
4959;0;0;17
4960;0;2;17
4961;0;1;16
4962;0;1;16
4963;0;1;17
4964;0;2;16
4965;0;2;15
4966;0;1;14
4967;0;1;16
4968;0;0;15
4969;0;1;15
4970;0;1;14
4971;0;1;14
4972;0;1;17
4973;0;1;17
4974;0;1;17
4975;0;2;16
4976;0;2;16
4977;0;2;17
4978;0;1;17
4979;0;2;17
4980;0;2;17
4981;0;2;16
4982;0;2;17
4983;0;2;17
4984;0;3;16
4985;0;3;17
4986;0;3;16
4987;0;3;17
4988;0;2;17
4989;0;3;16
4990;0;3;17
4991;0;3;18
4992;0;3;17
4993;0;3;18
4994;0;2;17
4995;0;1;16
4996;0;2;16
4997;0;1;16
4998;0;1;16
4999;0;1;16
