T1;7200;3600;0.5;2;48;0.0096;0.01;0.1;0.01;151.583
T2;7200;3600;0.5;2;6;0.0012;0.001;0.1;0.01;150.333
T1;7200;3600;0.5;2;278;0.0556;0.0566667;0.1;0.0566667;152.129
T2;7200;3600;0.5;2;39;0.0078;0.00566667;0.1;0.0566667;151.385
T1;7200;3600;0.5;2;550;0.11;0.103333;0.1;0.103333;152.482
T2;7200;3600;0.5;2;44;0.0088;0.0103333;0.1;0.103333;151.705
T1;7200;3600;0.5;2;743;0.1486;0.15;0.1;0.15;153.097
T2;7200;3600;0.5;2;83;0.0166;0.015;0.1;0.15;151.651
T1;7200;3600;0.5;2;973;0.1946;0.196667;0.1;0.196667;153.15
T2;7200;3600;0.5;2;104;0.0208;0.0196667;0.1;0.196667;151.144
T1;7200;3600;0.5;2;1129;0.2258;0.243333;0.1;0.243333;153.954
T2;7200;3600;0.5;2;113;0.0226;0.0243333;0.1;0.243333;151.274
T1;7200;3600;0.5;2;1406;0.2812;0.29;0.1;0.29;154.526
T2;7200;3600;0.5;2;135;0.027;0.029;0.1;0.29;151.578
T1;7200;3600;0.5;2;1673;0.3346;0.336667;0.1;0.336667;157.399
T2;7200;3600;0.5;2;188;0.0376;0.0336667;0.1;0.336667;151.67
T1;7200;3600;0.5;2;1887;0.3774;0.383333;0.1;0.383333;160.378
T2;7200;3600;0.5;2;194;0.0388;0.0383333;0.1;0.383333;151.562
T1;7200;3600;0.5;2;2088;0.4176;0.43;0.1;0.43;166.669
T2;7200;3600;0.5;2;228;0.0456;0.043;0.1;0.43;151.675
T1;7200;3600;0.5;2;44;0.0088;0.01;0.25;0.01;151.523
T2;7200;3600;0.5;2;9;0.0018;0.0025;0.25;0.01;151.222
T1;7200;3600;0.5;2;245;0.049;0.0566667;0.25;0.0566667;151.886
T2;7200;3600;0.5;2;78;0.0156;0.0141667;0.25;0.0566667;150.859
T1;7200;3600;0.5;2;529;0.1058;0.103333;0.25;0.103333;152.369
T2;7200;3600;0.5;2;126;0.0252;0.0258333;0.25;0.103333;151.476
T1;7200;3600;0.5;2;733;0.1466;0.15;0.25;0.15;152.715
T2;7200;3600;0.5;2;194;0.0388;0.0375;0.25;0.15;151.572
T1;7200;3600;0.5;2;851;0.1702;0.196667;0.25;0.196667;153.016
T2;7200;3600;0.5;2;249;0.0498;0.0491667;0.25;0.196667;151.554
T1;7200;3600;0.5;2;1189;0.2378;0.243333;0.25;0.243333;154.166
T2;7200;3600;0.5;2;284;0.0568;0.0608333;0.25;0.243333;151.373
T1;7200;3600;0.5;2;1469;0.2938;0.29;0.25;0.29;155.683
T2;7200;3600;0.5;2;334;0.0668;0.0725;0.25;0.29;151.778
T1;7200;3600;0.5;2;1636;0.3272;0.336667;0.25;0.336667;157.148
T2;7200;3600;0.5;2;428;0.0856;0.0841667;0.25;0.336667;151.834
T1;7200;3600;0.5;2;1843;0.3686;0.383333;0.25;0.383333;161.685
T2;7200;3600;0.5;2;447;0.0894;0.0958333;0.25;0.383333;151.644
T1;7200;3600;0.5;2;2064;0.4128;0.43;0.25;0.43;166.222
T2;7200;3600;0.5;2;534;0.1068;0.1075;0.25;0.43;152.052
T1;7200;3600;0.5;2;36;0.0072;0.01;0.5;0.01;151.889
T2;7200;3600;0.5;2;20;0.004;0.005;0.5;0.01;151.1
T1;7200;3600;0.5;2;286;0.0572;0.0566667;0.5;0.0566667;152.066
T2;7200;3600;0.5;2;147;0.0294;0.0283333;0.5;0.0566667;151.129
T1;7200;3600;0.5;2;467;0.0934;0.103333;0.5;0.103333;152.31
T2;7200;3600;0.5;2;226;0.0452;0.0516667;0.5;0.103333;151.451
T1;7200;3600;0.5;2;752;0.1504;0.15;0.5;0.15;152.819
T2;7200;3600;0.5;2;421;0.0842;0.075;0.5;0.15;151.601
T1;7200;3600;0.5;2;971;0.1942;0.196667;0.5;0.196667;153.303
T2;7200;3600;0.5;2;475;0.095;0.0983333;0.5;0.196667;151.905
T1;7200;3600;0.5;2;1177;0.2354;0.243333;0.5;0.243333;154.009
T2;7200;3600;0.5;2;528;0.1056;0.121667;0.5;0.243333;151.822
T1;7200;3600;0.5;2;1458;0.2916;0.29;0.5;0.29;155.191
T2;7200;3600;0.5;2;703;0.1406;0.145;0.5;0.29;152.297
T1;7200;3600;0.5;2;1603;0.3206;0.336667;0.5;0.336667;156.591
T2;7200;3600;0.5;2;809;0.1618;0.168333;0.5;0.336667;152.304
T1;7200;3600;0.5;2;1814;0.3628;0.383333;0.5;0.383333;160.331
T2;7200;3600;0.5;2;934;0.1868;0.191667;0.5;0.383333;152.559
T1;7200;3600;0.5;2;2076;0.4152;0.43;0.5;0.43;169.764
T2;7200;3600;0.5;2;1008;0.2016;0.215;0.5;0.43;153.098
