T1;3600;3600;0.25;1;40;0.008;0.01;0.1;0.01;155.2
T2;3600;3600;0.25;1;7;0.0014;0.001;0.1;0.01;149.714
T1;3600;3600;0.25;1;152;0.0304;0.0333333;0.1;0.0333333;154.901
T2;3600;3600;0.25;1;15;0.003;0.00333333;0.1;0.0333333;150.2
T1;3600;3600;0.25;1;262;0.0524;0.0566667;0.1;0.0566667;154.885
T2;3600;3600;0.25;1;24;0.0048;0.00566667;0.1;0.0566667;149.833
T1;3600;3600;0.25;1;394;0.0788;0.08;0.1;0.08;155.36
T2;3600;3600;0.25;1;34;0.0068;0.008;0.1;0.08;150.265
T1;3600;3600;0.25;1;489;0.0978;0.103333;0.1;0.103333;157.444
T2;3600;3600;0.25;1;55;0.011;0.0103333;0.1;0.103333;150.309
T1;3600;3600;0.25;1;638;0.1276;0.126667;0.1;0.126667;159.367
T2;3600;3600;0.25;1;59;0.0118;0.0126667;0.1;0.126667;150.492
T1;3600;3600;0.25;1;696;0.1392;0.15;0.1;0.15;160.122
T2;3600;3600;0.25;1;58;0.0116;0.015;0.1;0.15;150.293
T1;3600;3600;0.25;1;824;0.1648;0.173333;0.1;0.173333;164.574
T2;3600;3600;0.25;1;79;0.0158;0.0173333;0.1;0.173333;150.304
T1;3600;3600;0.25;1;946;0.1892;0.196667;0.1;0.196667;177.594
T2;3600;3600;0.25;1;103;0.0206;0.0196667;0.1;0.196667;150.427
T1;3600;3600;0.25;1;1064;0.2128;0.22;0.1;0.22;180.228
T2;3600;3600;0.25;1;122;0.0244;0.022;0.1;0.22;150.393
T1;3600;3600;0.25;1;44;0.0088;0.01;0.25;0.01;155.114
T2;3600;3600;0.25;1;14;0.0028;0.0025;0.25;0.01;149.786
T1;3600;3600;0.25;1;175;0.035;0.0333333;0.25;0.0333333;154.269
T2;3600;3600;0.25;1;44;0.0088;0.00833333;0.25;0.0333333;150.045
T1;3600;3600;0.25;1;271;0.0542;0.0566667;0.25;0.0566667;154.745
T2;3600;3600;0.25;1;73;0.0146;0.0141667;0.25;0.0566667;150.301
T1;3600;3600;0.25;1;365;0.073;0.08;0.25;0.08;155.192
T2;3600;3600;0.25;1;94;0.0188;0.02;0.25;0.08;150.426
T1;3600;3600;0.25;1;516;0.1032;0.103333;0.25;0.103333;156.229
T2;3600;3600;0.25;1;119;0.0238;0.0258333;0.25;0.103333;150.261
T1;3600;3600;0.25;1;618;0.1236;0.126667;0.25;0.126667;159.348
T2;3600;3600;0.25;1;131;0.0262;0.0316667;0.25;0.126667;150.351
T1;3600;3600;0.25;1;757;0.1514;0.15;0.25;0.15;161.804
T2;3600;3600;0.25;1;168;0.0336;0.0375;0.25;0.15;150.429
T1;3600;3600;0.25;1;858;0.1716;0.173333;0.25;0.173333;168.763
T2;3600;3600;0.25;1;204;0.0408;0.0433333;0.25;0.173333;150.338
T1;3600;3600;0.25;1;912;0.1824;0.196667;0.25;0.196667;180.827
T2;3600;3600;0.25;1;220;0.044;0.0491667;0.25;0.196667;150.359
T1;3600;3600;0.25;1;995;0.199;0.22;0.25;0.22;198.223
T2;3600;3600;0.25;1;276;0.0552;0.055;0.25;0.22;150.312
T1;3600;3600;0.25;1;51;0.0102;0.01;0.5;0.01;153.353
T2;3600;3600;0.25;1;18;0.0036;0.005;0.5;0.01;150.111
T1;3600;3600;0.25;1;132;0.0264;0.0333333;0.5;0.0333333;154.356
T2;3600;3600;0.25;1;98;0.0196;0.0166667;0.5;0.0333333;150.082
T1;3600;3600;0.25;1;285;0.057;0.0566667;0.5;0.0566667;155.274
T2;3600;3600;0.25;1;128;0.0256;0.0283333;0.5;0.0566667;150.109
T1;3600;3600;0.25;1;382;0.0764;0.08;0.5;0.08;155.547
T2;3600;3600;0.25;1;178;0.0356;0.04;0.5;0.08;150.309
T1;3600;3600;0.25;1;519;0.1038;0.103333;0.5;0.103333;156.99
T2;3600;3600;0.25;1;257;0.0514;0.0516667;0.5;0.103333;150.374
T1;3600;3600;0.25;1;651;0.1302;0.126667;0.5;0.126667;159.404
T2;3600;3600;0.25;1;284;0.0568;0.0633333;0.5;0.126667;150.32
T1;3600;3600;0.25;1;770;0.154;0.15;0.5;0.15;162.774
T2;3600;3600;0.25;1;359;0.0718;0.075;0.5;0.15;150.365
T1;3600;3600;0.25;1;863;0.1726;0.173333;0.5;0.173333;168.64
T2;3600;3600;0.25;1;411;0.0822;0.0866667;0.5;0.173333;150.65
T1;3600;3600;0.25;1;955;0.191;0.196667;0.5;0.196667;172.865
T2;3600;3600;0.25;1;469;0.0938;0.0983333;0.5;0.196667;150.552
T1;3600;3600;0.25;1;1046;0.2092;0.22;0.5;0.22;196.287
T2;3600;3600;0.25;1;584;0.1168;0.11;0.5;0.22;150.717
