T1;7200;3600;0.25;2;38;0.0076;0.01;0.1;0.01;153.974
T2;7200;3600;0.25;2;11;0.0022;0.001;0.1;0.01;149.727
T1;7200;3600;0.25;2;156;0.0312;0.0322222;0.1;0.0322222;155.058
T2;7200;3600;0.25;2;13;0.0026;0.00322222;0.1;0.0322222;151.231
T1;7200;3600;0.25;2;250;0.05;0.0544444;0.1;0.0544444;154.62
T2;7200;3600;0.25;2;28;0.0056;0.00544444;0.1;0.0544444;150.714
T1;7200;3600;0.25;2;360;0.072;0.0766667;0.1;0.0766667;155.969
T2;7200;3600;0.25;2;40;0.008;0.00766667;0.1;0.0766667;150.95
T1;7200;3600;0.25;2;494;0.0988;0.0988889;0.1;0.0988889;157.462
T2;7200;3600;0.25;2;57;0.0114;0.00988889;0.1;0.0988889;150.754
T1;7200;3600;0.25;2;565;0.113;0.121111;0.1;0.121111;158.908
T2;7200;3600;0.25;2;53;0.0106;0.0121111;0.1;0.121111;150.547
T1;7200;3600;0.25;2;684;0.1368;0.143333;0.1;0.143333;161.816
T2;7200;3600;0.25;2;72;0.0144;0.0143333;0.1;0.143333;150.903
T1;7200;3600;0.25;2;791;0.1582;0.165556;0.1;0.165556;168.114
T2;7200;3600;0.25;2;68;0.0136;0.0165556;0.1;0.165556;150.779
T1;7200;3600;0.25;2;877;0.1754;0.187778;0.1;0.187778;173.128
T2;7200;3600;0.25;2;89;0.0178;0.0187778;0.1;0.187778;150.753
T1;7200;3600;0.25;2;1035;0.207;0.21;0.1;0.21;217.46
T2;7200;3600;0.25;2;116;0.0232;0.021;0.1;0.21;150.741
T1;7200;3600;0.25;2;49;0.0098;0.01;0.25;0.01;154.612
T2;7200;3600;0.25;2;13;0.0026;0.0025;0.25;0.01;150.615
T1;7200;3600;0.25;2;156;0.0312;0.0322222;0.25;0.0322222;155.731
T2;7200;3600;0.25;2;34;0.0068;0.00805556;0.25;0.0322222;150.029
T1;7200;3600;0.25;2;252;0.0504;0.0544444;0.25;0.0544444;155.476
T2;7200;3600;0.25;2;56;0.0112;0.0136111;0.25;0.0544444;150.696
T1;7200;3600;0.25;2;370;0.074;0.0766667;0.25;0.0766667;156.262
T2;7200;3600;0.25;2;93;0.0186;0.0191667;0.25;0.0766667;150.903
T1;7200;3600;0.25;2;518;0.1036;0.0988889;0.25;0.0988889;157.913
T2;7200;3600;0.25;2;122;0.0244;0.0247222;0.25;0.0988889;150.59
T1;7200;3600;0.25;2;549;0.1098;0.121111;0.25;0.121111;157.947
T2;7200;3600;0.25;2;150;0.03;0.0302778;0.25;0.121111;150.5
T1;7200;3600;0.25;2;720;0.144;0.143333;0.25;0.143333;163.486
T2;7200;3600;0.25;2;182;0.0364;0.0358333;0.25;0.143333;150.841
T1;7200;3600;0.25;2;804;0.1608;0.165556;0.25;0.165556;164.845
T2;7200;3600;0.25;2;195;0.039;0.0413889;0.25;0.165556;150.785
T1;7200;3600;0.25;2;946;0.1892;0.187778;0.25;0.187778;190.869
T2;7200;3600;0.25;2;222;0.0444;0.0469444;0.25;0.187778;150.626
T1;7200;3600;0.25;2;979;0.1958;0.21;0.25;0.21;187.859
T2;7200;3600;0.25;2;220;0.044;0.0525;0.25;0.21;150.709
T1;7200;3600;0.25;2;41;0.0082;0.01;0.5;0.01;154.512
T2;7200;3600;0.25;2;28;0.0056;0.005;0.5;0.01;150.357
T1;7200;3600;0.25;2;169;0.0338;0.0322222;0.5;0.0322222;155.414
T2;7200;3600;0.25;2;89;0.0178;0.0161111;0.5;0.0322222;150.404
T1;7200;3600;0.25;2;272;0.0544;0.0544444;0.5;0.0544444;155.603
T2;7200;3600;0.25;2;127;0.0254;0.0272222;0.5;0.0544444;150.465
T1;7200;3600;0.25;2;396;0.0792;0.0766667;0.5;0.0766667;158.374
T2;7200;3600;0.25;2;184;0.0368;0.0383333;0.5;0.0766667;150.516
T1;7200;3600;0.25;2;519;0.1038;0.0988889;0.5;0.0988889;158.067
T2;7200;3600;0.25;2;247;0.0494;0.0494444;0.5;0.0988889;150.538
T1;7200;3600;0.25;2;564;0.1128;0.121111;0.5;0.121111;159.305
T2;7200;3600;0.25;2;274;0.0548;0.0605556;0.5;0.121111;150.803
T1;7200;3600;0.25;2;686;0.1372;0.143333;0.5;0.143333;160.579
T2;7200;3600;0.25;2;365;0.073;0.0716667;0.5;0.143333;150.781
T1;7200;3600;0.25;2;807;0.1614;0.165556;0.5;0.165556;165.463
T2;7200;3600;0.25;2;375;0.075;0.0827778;0.5;0.165556;150.904
T1;7200;3600;0.25;2;881;0.1762;0.187778;0.5;0.187778;169.611
T2;7200;3600;0.25;2;471;0.0942;0.0938889;0.5;0.187778;150.968
T1;7200;3600;0.25;2;1057;0.2114;0.21;0.5;0.21;248.167
T2;7200;3600;0.25;2;555;0.111;0.105;0.5;0.21;150.742
