T1;3600;3600;0.5;1;53;0.0106;0.01;0.1;0.01;151.075
T2;3600;3600;0.5;1;8;0.0016;0.001;0.1;0.01;149.75
T1;3600;3600;0.5;1;259;0.0518;0.0566667;0.1;0.0566667;151.463
T2;3600;3600;0.5;1;32;0.0064;0.00566667;0.1;0.0566667;150.469
T1;3600;3600;0.5;1;506;0.1012;0.103333;0.1;0.103333;151.998
T2;3600;3600;0.5;1;63;0.0126;0.0103333;0.1;0.103333;150.841
T1;3600;3600;0.5;1;743;0.1486;0.15;0.1;0.15;152.215
T2;3600;3600;0.5;1;68;0.0136;0.015;0.1;0.15;151.279
T1;3600;3600;0.5;1;890;0.178;0.196667;0.1;0.196667;152.731
T2;3600;3600;0.5;1;93;0.0186;0.0196667;0.1;0.196667;151.129
T1;3600;3600;0.5;1;1213;0.2426;0.243333;0.1;0.243333;153.45
T2;3600;3600;0.5;1;117;0.0234;0.0243333;0.1;0.243333;151.282
T1;3600;3600;0.5;1;1412;0.2824;0.29;0.1;0.29;154.601
T2;3600;3600;0.5;1;161;0.0322;0.029;0.1;0.29;151.112
T1;3600;3600;0.5;1;1645;0.329;0.336667;0.1;0.336667;156.424
T2;3600;3600;0.5;1;158;0.0316;0.0336667;0.1;0.336667;151.595
T1;3600;3600;0.5;1;1879;0.3758;0.383333;0.1;0.383333;162.674
T2;3600;3600;0.5;1;196;0.0392;0.0383333;0.1;0.383333;151.628
T1;3600;3600;0.5;1;2042;0.4084;0.43;0.1;0.43;166.364
T2;3600;3600;0.5;1;230;0.046;0.043;0.1;0.43;151.452
T1;3600;3600;0.5;1;59;0.0118;0.01;0.25;0.01;150.831
T2;3600;3600;0.5;1;9;0.0018;0.0025;0.25;0.01;150.222
T1;3600;3600;0.5;1;279;0.0558;0.0566667;0.25;0.0566667;151.369
T2;3600;3600;0.5;1;49;0.0098;0.0141667;0.25;0.0566667;150.857
T1;3600;3600;0.5;1;491;0.0982;0.103333;0.25;0.103333;151.925
T2;3600;3600;0.5;1;119;0.0238;0.0258333;0.25;0.103333;150.992
T1;3600;3600;0.5;1;708;0.1416;0.15;0.25;0.15;152.11
T2;3600;3600;0.5;1;167;0.0334;0.0375;0.25;0.15;151.317
T1;3600;3600;0.5;1;955;0.191;0.196667;0.25;0.196667;152.804
T2;3600;3600;0.5;1;249;0.0498;0.0491667;0.25;0.196667;151.129
T1;3600;3600;0.5;1;1213;0.2426;0.243333;0.25;0.243333;153.45
T2;3600;3600;0.5;1;311;0.0622;0.0608333;0.25;0.243333;151.383
T1;3600;3600;0.5;1;1404;0.2808;0.29;0.25;0.29;154.097
T2;3600;3600;0.5;1;324;0.0648;0.0725;0.25;0.29;151.435
T1;3600;3600;0.5;1;1614;0.3228;0.336667;0.25;0.336667;156.211
T2;3600;3600;0.5;1;415;0.083;0.0841667;0.25;0.336667;152.067
T1;3600;3600;0.5;1;1789;0.3578;0.383333;0.25;0.383333;158.383
T2;3600;3600;0.5;1;441;0.0882;0.0958333;0.25;0.383333;151.857
T1;3600;3600;0.5;1;2055;0.411;0.43;0.25;0.43;174.458
T2;3600;3600;0.5;1;515;0.103;0.1075;0.25;0.43;152.202
T1;3600;3600;0.5;1;41;0.0082;0.01;0.5;0.01;151.317
T2;3600;3600;0.5;1;26;0.0052;0.005;0.5;0.01;150.654
T1;3600;3600;0.5;1;256;0.0512;0.0566667;0.5;0.0566667;151.555
T2;3600;3600;0.5;1;131;0.0262;0.0283333;0.5;0.0566667;150.985
T1;3600;3600;0.5;1;516;0.1032;0.103333;0.5;0.103333;151.862
T2;3600;3600;0.5;1;254;0.0508;0.0516667;0.5;0.103333;151.181
T1;3600;3600;0.5;1;670;0.134;0.15;0.5;0.15;152.391
T2;3600;3600;0.5;1;322;0.0644;0.075;0.5;0.15;151.217
T1;3600;3600;0.5;1;989;0.1978;0.196667;0.5;0.196667;152.73
T2;3600;3600;0.5;1;503;0.1006;0.0983333;0.5;0.196667;151.479
T1;3600;3600;0.5;1;1220;0.244;0.243333;0.5;0.243333;153.962
T2;3600;3600;0.5;1;567;0.1134;0.121667;0.5;0.243333;151.688
T1;3600;3600;0.5;1;1384;0.2768;0.29;0.5;0.29;154.683
T2;3600;3600;0.5;1;688;0.1376;0.145;0.5;0.29;151.967
T1;3600;3600;0.5;1;1639;0.3278;0.336667;0.5;0.336667;156.414
T2;3600;3600;0.5;1;867;0.1734;0.168333;0.5;0.336667;152.572
T1;3600;3600;0.5;1;1970;0.394;0.383333;0.5;0.383333;167.35
T2;3600;3600;0.5;1;922;0.1844;0.191667;0.5;0.383333;152.799
T1;3600;3600;0.5;1;2034;0.4068;0.43;0.5;0.43;169.273
T2;3600;3600;0.5;1;1008;0.2016;0.215;0.5;0.43;153.716
