T1;3600;3600;0.5;1;53;0.0106;0.01;0.1;0.01;152
T2;3600;3600;0.5;1;4;0.0008;0.001;0.1;0.01;154.25
T1;3600;3600;0.5;1;283;0.0566;0.0566667;0.1;0.0566667;151.537
T2;3600;3600;0.5;1;29;0.0058;0.00566667;0.1;0.0566667;151.276
T1;3600;3600;0.5;1;509;0.1018;0.103333;0.1;0.103333;152.305
T2;3600;3600;0.5;1;40;0.008;0.0103333;0.1;0.103333;150.95
T1;3600;3600;0.5;1;708;0.1416;0.15;0.1;0.15;152.155
T2;3600;3600;0.5;1;69;0.0138;0.015;0.1;0.15;151.116
T1;3600;3600;0.5;1;983;0.1966;0.196667;0.1;0.196667;152.713
T2;3600;3600;0.5;1;110;0.022;0.0196667;0.1;0.196667;150.9
T1;3600;3600;0.5;1;1207;0.2414;0.243333;0.1;0.243333;153.729
T2;3600;3600;0.5;1;119;0.0238;0.0243333;0.1;0.243333;150.824
T1;3600;3600;0.5;1;1408;0.2816;0.29;0.1;0.29;153.911
T2;3600;3600;0.5;1;131;0.0262;0.029;0.1;0.29;151.229
T1;3600;3600;0.5;1;1591;0.3182;0.336667;0.1;0.336667;155.459
T2;3600;3600;0.5;1;170;0.034;0.0336667;0.1;0.336667;151.359
T1;3600;3600;0.5;1;1839;0.3678;0.383333;0.1;0.383333;159.955
T2;3600;3600;0.5;1;186;0.0372;0.0383333;0.1;0.383333;151.22
T1;3600;3600;0.5;1;2137;0.4274;0.43;0.1;0.43;192.01
T2;3600;3600;0.5;1;207;0.0414;0.043;0.1;0.43;151.401
T1;3600;3600;0.5;1;54;0.0108;0.01;0.25;0.01;150.963
T2;3600;3600;0.5;1;11;0.0022;0.0025;0.25;0.01;150.455
T1;3600;3600;0.5;1;235;0.047;0.0566667;0.25;0.0566667;151.8
T2;3600;3600;0.5;1;74;0.0148;0.0141667;0.25;0.0566667;150.824
T1;3600;3600;0.5;1;511;0.1022;0.103333;0.25;0.103333;151.726
T2;3600;3600;0.5;1;127;0.0254;0.0258333;0.25;0.103333;151.008
T1;3600;3600;0.5;1;691;0.1382;0.15;0.25;0.15;152.126
T2;3600;3600;0.5;1;179;0.0358;0.0375;0.25;0.15;150.939
T1;3600;3600;0.5;1;936;0.1872;0.196667;0.25;0.196667;152.736
T2;3600;3600;0.5;1;232;0.0464;0.0491667;0.25;0.196667;151.073
T1;3600;3600;0.5;1;1152;0.2304;0.243333;0.25;0.243333;153.921
T2;3600;3600;0.5;1;292;0.0584;0.0608333;0.25;0.243333;150.853
T1;3600;3600;0.5;1;1441;0.2882;0.29;0.25;0.29;155.116
T2;3600;3600;0.5;1;328;0.0656;0.0725;0.25;0.29;151.448
T1;3600;3600;0.5;1;1631;0.3262;0.336667;0.25;0.336667;155.945
T2;3600;3600;0.5;1;401;0.0802;0.0841667;0.25;0.336667;151.426
T1;3600;3600;0.5;1;1880;0.376;0.383333;0.25;0.383333;160.544
T2;3600;3600;0.5;1;449;0.0898;0.0958333;0.25;0.383333;151.641
T1;3600;3600;0.5;1;2091;0.4182;0.43;0.25;0.43;177.376
T2;3600;3600;0.5;1;515;0.103;0.1075;0.25;0.43;151.683
T1;3600;3600;0.5;1;42;0.0084;0.01;0.5;0.01;151.262
T2;3600;3600;0.5;1;29;0.0058;0.005;0.5;0.01;150.552
T1;3600;3600;0.5;1;257;0.0514;0.0566667;0.5;0.0566667;151.521
T2;3600;3600;0.5;1;120;0.024;0.0283333;0.5;0.0566667;150.85
T1;3600;3600;0.5;1;510;0.102;0.103333;0.5;0.103333;151.888
T2;3600;3600;0.5;1;254;0.0508;0.0516667;0.5;0.103333;151.256
T1;3600;3600;0.5;1;711;0.1422;0.15;0.5;0.15;152.357
T2;3600;3600;0.5;1;349;0.0698;0.075;0.5;0.15;151.115
T1;3600;3600;0.5;1;954;0.1908;0.196667;0.5;0.196667;152.913
T2;3600;3600;0.5;1;505;0.101;0.0983333;0.5;0.196667;151.695
T1;3600;3600;0.5;1;1213;0.2426;0.243333;0.5;0.243333;153.376
T2;3600;3600;0.5;1;550;0.11;0.121667;0.5;0.243333;151.438
T1;3600;3600;0.5;1;1425;0.285;0.29;0.5;0.29;155.336
T2;3600;3600;0.5;1;714;0.1428;0.145;0.5;0.29;152.164
T1;3600;3600;0.5;1;1699;0.3398;0.336667;0.5;0.336667;157.215
T2;3600;3600;0.5;1;840;0.168;0.168333;0.5;0.336667;152.121
T1;3600;3600;0.5;1;1814;0.3628;0.383333;0.5;0.383333;160.45
T2;3600;3600;0.5;1;926;0.1852;0.191667;0.5;0.383333;152.812
T1;3600;3600;0.5;1;2129;0.4258;0.43;0.5;0.43;178.602
T2;3600;3600;0.5;1;1033;0.2066;0.215;0.5;0.43;152.559
