T1;7200;3600;0.25;2;39;0.0078;0.01;0.1;0.01;155.872
T2;7200;3600;0.25;2;7;0.0014;0.001;0.1;0.01;150.714
T1;7200;3600;0.25;2;170;0.034;0.0322222;0.1;0.0322222;157.806
T2;7200;3600;0.25;2;15;0.003;0.00322222;0.1;0.0322222;150.533
T1;7200;3600;0.25;2;268;0.0536;0.0544444;0.1;0.0544444;158.724
T2;7200;3600;0.25;2;30;0.006;0.00544444;0.1;0.0544444;150.767
T1;7200;3600;0.25;2;380;0.076;0.0766667;0.1;0.0766667;166.611
T2;7200;3600;0.25;2;41;0.0082;0.00766667;0.1;0.0766667;150.78
T1;7200;3600;0.25;2;494;0.0988;0.0988889;0.1;0.0988889;183.008
T2;7200;3600;0.25;2;45;0.009;0.00988889;0.1;0.0988889;150.867
T1;7200;3600;0.25;2;543;0.1086;0.121111;0.1;0.121111;182.186
T2;7200;3600;0.25;2;75;0.015;0.0121111;0.1;0.121111;150.853
T1;7200;3600;0.25;2;647;0.1294;0.143333;0.1;0.143333;229.9
T2;7200;3600;0.25;2;75;0.015;0.0143333;0.1;0.143333;150.8
T1;7200;3600;0.25;2;792;0.1584;0.165556;0.1;0.165556;324.667
T2;7200;3600;0.25;2;80;0.016;0.0165556;0.1;0.165556;150.8
T1;7200;3600;0.25;2;830;0.166;0.187778;0.1;0.187778;366.449
T2;7200;3600;0.25;2;90;0.018;0.0187778;0.1;0.187778;150.556
T1;7200;3600;0.25;2;828;0.1656;0.21;0.1;0.21;396.089
T2;7200;3600;0.25;2;116;0.0232;0.021;0.1;0.21;150.793
T1;7200;3600;0.25;2;33;0.0066;0.01;0.25;0.01;154.303
T2;7200;3600;0.25;2;7;0.0014;0.0025;0.25;0.01;151
T1;7200;3600;0.25;2;165;0.033;0.0322222;0.25;0.0322222;156.467
T2;7200;3600;0.25;2;38;0.0076;0.00805556;0.25;0.0322222;151.237
T1;7200;3600;0.25;2;238;0.0476;0.0544444;0.25;0.0544444;157.122
T2;7200;3600;0.25;2;70;0.014;0.0136111;0.25;0.0544444;151.143
T1;7200;3600;0.25;2;385;0.077;0.0766667;0.25;0.0766667;162.278
T2;7200;3600;0.25;2;97;0.0194;0.0191667;0.25;0.0766667;151.041
T1;7200;3600;0.25;2;469;0.0938;0.0988889;0.25;0.0988889;169.595
T2;7200;3600;0.25;2;132;0.0264;0.0247222;0.25;0.0988889;150.909
T1;7200;3600;0.25;2;576;0.1152;0.121111;0.25;0.121111;202.656
T2;7200;3600;0.25;2;135;0.027;0.0302778;0.25;0.121111;150.837
T1;7200;3600;0.25;2;676;0.1352;0.143333;0.25;0.143333;251.46
T2;7200;3600;0.25;2;179;0.0358;0.0358333;0.25;0.143333;150.67
T1;7200;3600;0.25;2;740;0.148;0.165556;0.25;0.165556;306.192
T2;7200;3600;0.25;2;201;0.0402;0.0413889;0.25;0.165556;150.741
T1;7200;3600;0.25;2;845;0.169;0.187778;0.25;0.187778;409.789
T2;7200;3600;0.25;2;218;0.0436;0.0469444;0.25;0.187778;150.514
T1;7200;3600;0.25;2;854;0.1708;0.21;0.25;0.21;404.303
T2;7200;3600;0.25;2;254;0.0508;0.0525;0.25;0.21;150.728
T1;7200;3600;0.25;2;52;0.0104;0.01;0.5;0.01;156.038
T2;7200;3600;0.25;2;29;0.0058;0.005;0.5;0.01;150.931
T1;7200;3600;0.25;2;144;0.0288;0.0322222;0.5;0.0322222;156.986
T2;7200;3600;0.25;2;72;0.0144;0.0161111;0.5;0.0322222;151.167
T1;7200;3600;0.25;2;232;0.0464;0.0544444;0.5;0.0544444;157.22
T2;7200;3600;0.25;2;134;0.0268;0.0272222;0.5;0.0544444;150.769
T1;7200;3600;0.25;2;402;0.0804;0.0766667;0.5;0.0766667;162.56
T2;7200;3600;0.25;2;163;0.0326;0.0383333;0.5;0.0766667;151.043
T1;7200;3600;0.25;2;509;0.1018;0.0988889;0.5;0.0988889;172.081
T2;7200;3600;0.25;2;212;0.0424;0.0494444;0.5;0.0988889;151.08
T1;7200;3600;0.25;2;570;0.114;0.121111;0.5;0.121111;195.904
T2;7200;3600;0.25;2;283;0.0566;0.0605556;0.5;0.121111;150.929
T1;7200;3600;0.25;2;683;0.1366;0.143333;0.5;0.143333;273.646
T2;7200;3600;0.25;2;359;0.0718;0.0716667;0.5;0.143333;150.986
T1;7200;3600;0.25;2;739;0.1478;0.165556;0.5;0.165556;292.072
T2;7200;3600;0.25;2;417;0.0834;0.0827778;0.5;0.165556;150.918
T1;7200;3600;0.25;2;820;0.164;0.187778;0.5;0.187778;410.102
T2;7200;3600;0.25;2;486;0.0972;0.0938889;0.5;0.187778;150.809
T1;7200;3600;0.25;2;857;0.1714;0.21;0.5;0.21;414.291
T2;7200;3600;0.25;2;481;0.0962;0.105;0.5;0.21;150.985
