T1;7200;3600;0.1;2;49;0.0098;0.01;0.1;0.01;168.918
T2;7200;3600;0.1;2;8;0.0016;0.001;0.1;0.01;150.25
T1;7200;3600;0.1;2;81;0.0162;0.0177778;0.1;0.0177778;168.741
T2;7200;3600;0.1;2;12;0.0024;0.00177778;0.1;0.0177778;150.417
T1;7200;3600;0.1;2;113;0.0226;0.0255556;0.1;0.0255556;172.142
T2;7200;3600;0.1;2;9;0.0018;0.00255556;0.1;0.0255556;150
T1;7200;3600;0.1;2;159;0.0318;0.0333333;0.1;0.0333333;175.579
T2;7200;3600;0.1;2;19;0.0038;0.00333333;0.1;0.0333333;150.737
T1;7200;3600;0.1;2;200;0.04;0.0411111;0.1;0.0411111;178.435
T2;7200;3600;0.1;2;18;0.0036;0.00411111;0.1;0.0411111;150.5
T1;7200;3600;0.1;2;244;0.0488;0.0488889;0.1;0.0488889;177.689
T2;7200;3600;0.1;2;22;0.0044;0.00488889;0.1;0.0488889;150.091
T1;7200;3600;0.1;2;259;0.0518;0.0566667;0.1;0.0566667;183.649
T2;7200;3600;0.1;2;31;0.0062;0.00566667;0.1;0.0566667;149.806
T1;7200;3600;0.1;2;274;0.0548;0.0644444;0.1;0.0644444;187.46
T2;7200;3600;0.1;2;27;0.0054;0.00644444;0.1;0.0644444;150.889
T1;7200;3600;0.1;2;331;0.0662;0.0722222;0.1;0.0722222;187.353
T2;7200;3600;0.1;2;46;0.0092;0.00722222;0.1;0.0722222;150.261
T1;7200;3600;0.1;2;365;0.073;0.08;0.1;0.08;204.203
T2;7200;3600;0.1;2;35;0.007;0.008;0.1;0.08;150.829
T1;7200;3600;0.1;2;41;0.0082;0.01;0.25;0.01;165.976
T2;7200;3600;0.1;2;11;0.0022;0.0025;0.25;0.01;149.909
T1;7200;3600;0.1;2;86;0.0172;0.0177778;0.25;0.0177778;170.605
T2;7200;3600;0.1;2;17;0.0034;0.00444444;0.25;0.0177778;150.412
T1;7200;3600;0.1;2;119;0.0238;0.0255556;0.25;0.0255556;171.429
T2;7200;3600;0.1;2;26;0.0052;0.00638889;0.25;0.0255556;150.5
T1;7200;3600;0.1;2;204;0.0408;0.0333333;0.25;0.0333333;179.176
T2;7200;3600;0.1;2;42;0.0084;0.00833333;0.25;0.0333333;150.286
T1;7200;3600;0.1;2;211;0.0422;0.0411111;0.25;0.0411111;179.156
T2;7200;3600;0.1;2;44;0.0088;0.0102778;0.25;0.0411111;150.614
T1;7200;3600;0.1;2;243;0.0486;0.0488889;0.25;0.0488889;177.626
T2;7200;3600;0.1;2;52;0.0104;0.0122222;0.25;0.0488889;150.462
T1;7200;3600;0.1;2;293;0.0586;0.0566667;0.25;0.0566667;195.147
T2;7200;3600;0.1;2;68;0.0136;0.0141667;0.25;0.0566667;150.471
T1;7200;3600;0.1;2;357;0.0714;0.0644444;0.25;0.0644444;202.885
T2;7200;3600;0.1;2;83;0.0166;0.0161111;0.25;0.0644444;150.554
T1;7200;3600;0.1;2;340;0.068;0.0722222;0.25;0.0722222;193.541
T2;7200;3600;0.1;2;97;0.0194;0.0180556;0.25;0.0722222;150.701
T1;7200;3600;0.1;2;342;0.0684;0.08;0.25;0.08;204.009
T2;7200;3600;0.1;2;93;0.0186;0.02;0.25;0.08;150.333
T1;7200;3600;0.1;2;58;0.0116;0.01;0.5;0.01;168.276
T2;7200;3600;0.1;2;19;0.0038;0.005;0.5;0.01;150.368
T1;7200;3600;0.1;2;82;0.0164;0.0177778;0.5;0.0177778;174.537
T2;7200;3600;0.1;2;42;0.0084;0.00888889;0.5;0.0177778;150.857
T1;7200;3600;0.1;2;124;0.0248;0.0255556;0.5;0.0255556;169.427
T2;7200;3600;0.1;2;53;0.0106;0.0127778;0.5;0.0255556;150.509
T1;7200;3600;0.1;2;154;0.0308;0.0333333;0.5;0.0333333;174.532
T2;7200;3600;0.1;2;71;0.0142;0.0166667;0.5;0.0333333;150.07
T1;7200;3600;0.1;2;196;0.0392;0.0411111;0.5;0.0411111;174.76
T2;7200;3600;0.1;2;95;0.019;0.0205556;0.5;0.0411111;150.537
T1;7200;3600;0.1;2;221;0.0442;0.0488889;0.5;0.0488889;177.986
T2;7200;3600;0.1;2;125;0.025;0.0244444;0.5;0.0488889;150.296
T1;7200;3600;0.1;2;244;0.0488;0.0566667;0.5;0.0566667;191.262
T2;7200;3600;0.1;2;123;0.0246;0.0283333;0.5;0.0566667;150.252
T1;7200;3600;0.1;2;298;0.0596;0.0644444;0.5;0.0644444;191.044
T2;7200;3600;0.1;2;157;0.0314;0.0322222;0.5;0.0644444;150.376
T1;7200;3600;0.1;2;354;0.0708;0.0722222;0.5;0.0722222;192.412
T2;7200;3600;0.1;2;176;0.0352;0.0361111;0.5;0.0722222;150.511
T1;7200;3600;0.1;2;353;0.0706;0.08;0.5;0.08;193.088
T2;7200;3600;0.1;2;187;0.0374;0.04;0.5;0.08;150.342
