T1;3600;3600;0.25;1;58;0.0116;0.01;0.1;0.01;156.638
T2;3600;3600;0.25;1;4;0.0008;0.001;0.1;0.01;151.5
T1;3600;3600;0.25;1;157;0.0314;0.0322222;0.1;0.0322222;156.669
T2;3600;3600;0.25;1;12;0.0024;0.00322222;0.1;0.0322222;151.167
T1;3600;3600;0.25;1;254;0.0508;0.0544444;0.1;0.0544444;157.157
T2;3600;3600;0.25;1;23;0.0046;0.00544444;0.1;0.0544444;150.522
T1;3600;3600;0.25;1;373;0.0746;0.0766667;0.1;0.0766667;161.812
T2;3600;3600;0.25;1;30;0.006;0.00766667;0.1;0.0766667;150.433
T1;3600;3600;0.25;1;443;0.0886;0.0988889;0.1;0.0988889;168.334
T2;3600;3600;0.25;1;40;0.008;0.00988889;0.1;0.0988889;150.525
T1;3600;3600;0.25;1;588;0.1176;0.121111;0.1;0.121111;200.051
T2;3600;3600;0.25;1;65;0.013;0.0121111;0.1;0.121111;150.477
T1;3600;3600;0.25;1;676;0.1352;0.143333;0.1;0.143333;232.497
T2;3600;3600;0.25;1;69;0.0138;0.0143333;0.1;0.143333;150.667
T1;3600;3600;0.25;1;688;0.1376;0.165556;0.1;0.165556;250.584
T2;3600;3600;0.25;1;69;0.0138;0.0165556;0.1;0.165556;150.87
T1;3600;3600;0.25;1;737;0.1474;0.187778;0.1;0.187778;258.6
T2;3600;3600;0.25;1;72;0.0144;0.0187778;0.1;0.187778;150.681
T1;3600;3600;0.25;1;734;0.1468;0.21;0.1;0.21;250.049
T2;3600;3600;0.25;1;98;0.0196;0.021;0.1;0.21;150.633
T1;3600;3600;0.25;1;40;0.008;0.01;0.25;0.01;154.425
T2;3600;3600;0.25;1;15;0.003;0.0025;0.25;0.01;151.933
T1;3600;3600;0.25;1;154;0.0308;0.0322222;0.25;0.0322222;155.721
T2;3600;3600;0.25;1;33;0.0066;0.00805556;0.25;0.0322222;151.455
T1;3600;3600;0.25;1;293;0.0586;0.0544444;0.25;0.0544444;159.44
T2;3600;3600;0.25;1;67;0.0134;0.0136111;0.25;0.0544444;151.418
T1;3600;3600;0.25;1;374;0.0748;0.0766667;0.25;0.0766667;159.078
T2;3600;3600;0.25;1;90;0.018;0.0191667;0.25;0.0766667;150.689
T1;3600;3600;0.25;1;471;0.0942;0.0988889;0.25;0.0988889;170.87
T2;3600;3600;0.25;1;113;0.0226;0.0247222;0.25;0.0988889;150.929
T1;3600;3600;0.25;1;566;0.1132;0.121111;0.25;0.121111;200.44
T2;3600;3600;0.25;1;148;0.0296;0.0302778;0.25;0.121111;150.885
T1;3600;3600;0.25;1;634;0.1268;0.143333;0.25;0.143333;232.743
T2;3600;3600;0.25;1;162;0.0324;0.0358333;0.25;0.143333;150.63
T1;3600;3600;0.25;1;713;0.1426;0.165556;0.25;0.165556;252.154
T2;3600;3600;0.25;1;217;0.0434;0.0413889;0.25;0.165556;150.825
T1;3600;3600;0.25;1;745;0.149;0.187778;0.25;0.187778;258.403
T2;3600;3600;0.25;1;239;0.0478;0.0469444;0.25;0.187778;150.695
T1;3600;3600;0.25;1;737;0.1474;0.21;0.25;0.21;240.019
T2;3600;3600;0.25;1;248;0.0496;0.0525;0.25;0.21;150.597
T1;3600;3600;0.25;1;48;0.0096;0.01;0.5;0.01;155.167
T2;3600;3600;0.25;1;25;0.005;0.005;0.5;0.01;151.4
T1;3600;3600;0.25;1;158;0.0316;0.0322222;0.5;0.0322222;155.728
T2;3600;3600;0.25;1;90;0.018;0.0161111;0.5;0.0322222;150.967
T1;3600;3600;0.25;1;286;0.0572;0.0544444;0.5;0.0544444;157.276
T2;3600;3600;0.25;1;141;0.0282;0.0272222;0.5;0.0544444;151.085
T1;3600;3600;0.25;1;336;0.0672;0.0766667;0.5;0.0766667;159.688
T2;3600;3600;0.25;1;198;0.0396;0.0383333;0.5;0.0766667;150.995
T1;3600;3600;0.25;1;464;0.0928;0.0988889;0.5;0.0988889;175.33
T2;3600;3600;0.25;1;244;0.0488;0.0494444;0.5;0.0988889;150.93
T1;3600;3600;0.25;1;565;0.113;0.121111;0.5;0.121111;197.173
T2;3600;3600;0.25;1;278;0.0556;0.0605556;0.5;0.121111;151.022
T1;3600;3600;0.25;1;678;0.1356;0.143333;0.5;0.143333;253.215
T2;3600;3600;0.25;1;375;0.075;0.0716667;0.5;0.143333;150.896
T1;3600;3600;0.25;1;711;0.1422;0.165556;0.5;0.165556;264.975
T2;3600;3600;0.25;1;398;0.0796;0.0827778;0.5;0.165556;150.55
T1;3600;3600;0.25;1;719;0.1438;0.187778;0.5;0.187778;257.967
T2;3600;3600;0.25;1;431;0.0862;0.0938889;0.5;0.187778;150.891
T1;3600;3600;0.25;1;723;0.1446;0.21;0.5;0.21;247.277
T2;3600;3600;0.25;1;528;0.1056;0.105;0.5;0.21;151.034
