T1;1800;3600;0.5;0.5;50;0.01;0.01;0.1;0.01;151.9
T2;1800;3600;0.5;0.5;2;0.0004;0.001;0.1;0.01;151.5
T1;1800;3600;0.5;0.5;153;0.0306;0.0322222;0.1;0.0322222;151.948
T2;1800;3600;0.5;0.5;19;0.0038;0.00322222;0.1;0.0322222;150.895
T1;1800;3600;0.5;0.5;248;0.0496;0.0544444;0.1;0.0544444;151.996
T2;1800;3600;0.5;0.5;28;0.0056;0.00544444;0.1;0.0544444;151.929
T1;1800;3600;0.5;0.5;401;0.0802;0.0766667;0.1;0.0766667;152.312
T2;1800;3600;0.5;0.5;40;0.008;0.00766667;0.1;0.0766667;151.65
T1;1800;3600;0.5;0.5;454;0.0908;0.0988889;0.1;0.0988889;152.368
T2;1800;3600;0.5;0.5;47;0.0094;0.00988889;0.1;0.0988889;151.234
T1;1800;3600;0.5;0.5;594;0.1188;0.121111;0.1;0.121111;152.742
T2;1800;3600;0.5;0.5;67;0.0134;0.0121111;0.1;0.121111;151.075
T1;1800;3600;0.5;0.5;726;0.1452;0.143333;0.1;0.143333;152.955
T2;1800;3600;0.5;0.5;67;0.0134;0.0143333;0.1;0.143333;152.716
T1;1800;3600;0.5;0.5;850;0.17;0.165556;0.1;0.165556;153.094
T2;1800;3600;0.5;0.5;76;0.0152;0.0165556;0.1;0.165556;151.711
T1;1800;3600;0.5;0.5;902;0.1804;0.187778;0.1;0.187778;153.32
T2;1800;3600;0.5;0.5;84;0.0168;0.0187778;0.1;0.187778;152.179
T1;1800;3600;0.5;0.5;967;0.1934;0.21;0.1;0.21;153.943
T2;1800;3600;0.5;0.5;86;0.0172;0.021;0.1;0.21;152.395
T1;1800;3600;0.5;0.5;48;0.0096;0.01;0.25;0.01;151.792
T2;1800;3600;0.5;0.5;11;0.0022;0.0025;0.25;0.01;150.182
T1;1800;3600;0.5;0.5;131;0.0262;0.0322222;0.25;0.0322222;152.16
T2;1800;3600;0.5;0.5;38;0.0076;0.00805556;0.25;0.0322222;152.395
T1;1800;3600;0.5;0.5;287;0.0574;0.0544444;0.25;0.0544444;152.084
T2;1800;3600;0.5;0.5;46;0.0092;0.0136111;0.25;0.0544444;151.891
T1;1800;3600;0.5;0.5;410;0.082;0.0766667;0.25;0.0766667;152.376
T2;1800;3600;0.5;0.5;88;0.0176;0.0191667;0.25;0.0766667;151.659
T1;1800;3600;0.5;0.5;491;0.0982;0.0988889;0.25;0.0988889;152.662
T2;1800;3600;0.5;0.5;119;0.0238;0.0247222;0.25;0.0988889;151.966
T1;1800;3600;0.5;0.5;584;0.1168;0.121111;0.25;0.121111;152.949
T2;1800;3600;0.5;0.5;146;0.0292;0.0302778;0.25;0.121111;151.925
T1;1800;3600;0.5;0.5;699;0.1398;0.143333;0.25;0.143333;153.243
T2;1800;3600;0.5;0.5;191;0.0382;0.0358333;0.25;0.143333;152.209
T1;1800;3600;0.5;0.5;835;0.167;0.165556;0.25;0.165556;153.881
T2;1800;3600;0.5;0.5;201;0.0402;0.0413889;0.25;0.165556;152.756
T1;1800;3600;0.5;0.5;925;0.185;0.187778;0.25;0.187778;154.006
T2;1800;3600;0.5;0.5;231;0.0462;0.0469444;0.25;0.187778;152.584
T1;1800;3600;0.5;0.5;1067;0.2134;0.21;0.25;0.21;154.399
T2;1800;3600;0.5;0.5;266;0.0532;0.0525;0.25;0.21;152.823
T1;1800;3600;0.5;0.5;50;0.01;0.01;0.5;0.01;152.02
T2;1800;3600;0.5;0.5;17;0.0034;0.005;0.5;0.01;151.353
T1;1800;3600;0.5;0.5;143;0.0286;0.0322222;0.5;0.0322222;151.972
T2;1800;3600;0.5;0.5;67;0.0134;0.0161111;0.5;0.0322222;151.716
T1;1800;3600;0.5;0.5;259;0.0518;0.0544444;0.5;0.0544444;152
T2;1800;3600;0.5;0.5;121;0.0242;0.0272222;0.5;0.0544444;151.388
T1;1800;3600;0.5;0.5;353;0.0706;0.0766667;0.5;0.0766667;152.547
T2;1800;3600;0.5;0.5;170;0.034;0.0383333;0.5;0.0766667;151.676
T1;1800;3600;0.5;0.5;483;0.0966;0.0988889;0.5;0.0988889;152.689
T2;1800;3600;0.5;0.5;232;0.0464;0.0494444;0.5;0.0988889;151.776
T1;1800;3600;0.5;0.5;535;0.107;0.121111;0.5;0.121111;153.097
T2;1800;3600;0.5;0.5;279;0.0558;0.0605556;0.5;0.121111;152.1
T1;1800;3600;0.5;0.5;699;0.1398;0.143333;0.5;0.143333;153.775
T2;1800;3600;0.5;0.5;327;0.0654;0.0716667;0.5;0.143333;152.893
T1;1800;3600;0.5;0.5;748;0.1496;0.165556;0.5;0.165556;153.801
T2;1800;3600;0.5;0.5;407;0.0814;0.0827778;0.5;0.165556;153.128
T1;1800;3600;0.5;0.5;893;0.1786;0.187778;0.5;0.187778;154.253
T2;1800;3600;0.5;0.5;479;0.0958;0.0938889;0.5;0.187778;153.284
T1;1800;3600;0.5;0.5;991;0.1982;0.21;0.5;0.21;155.103
T2;1800;3600;0.5;0.5;506;0.1012;0.105;0.5;0.21;153.822
