T1;7200;3600;0.5;2;47;0.0094;0.01;0.1;0.01;151.66
T2;7200;3600;0.5;2;5;0.001;0.001;0.1;0.01;150.2
T1;7200;3600;0.5;2;268;0.0536;0.0566667;0.1;0.0566667;152.131
T2;7200;3600;0.5;2;19;0.0038;0.00566667;0.1;0.0566667;151.421
T1;7200;3600;0.5;2;507;0.1014;0.103333;0.1;0.103333;152.434
T2;7200;3600;0.5;2;48;0.0096;0.0103333;0.1;0.103333;151.458
T1;7200;3600;0.5;2;727;0.1454;0.15;0.1;0.15;152.741
T2;7200;3600;0.5;2;65;0.013;0.015;0.1;0.15;151.323
T1;7200;3600;0.5;2;847;0.1694;0.196667;0.1;0.196667;152.947
T2;7200;3600;0.5;2;102;0.0204;0.0196667;0.1;0.196667;151.265
T1;7200;3600;0.5;2;1192;0.2384;0.243333;0.1;0.243333;153.783
T2;7200;3600;0.5;2;129;0.0258;0.0243333;0.1;0.243333;151.659
T1;7200;3600;0.5;2;1390;0.278;0.29;0.1;0.29;155.047
T2;7200;3600;0.5;2;160;0.032;0.029;0.1;0.29;151.338
T1;7200;3600;0.5;2;1592;0.3184;0.336667;0.1;0.336667;156.941
T2;7200;3600;0.5;2;173;0.0346;0.0336667;0.1;0.336667;151.572
T1;7200;3600;0.5;2;1807;0.3614;0.383333;0.1;0.383333;161.637
T2;7200;3600;0.5;2;175;0.035;0.0383333;0.1;0.383333;151.16
T1;7200;3600;0.5;2;2069;0.4138;0.43;0.1;0.43;166.836
T2;7200;3600;0.5;2;199;0.0398;0.043;0.1;0.43;151.874
T1;7200;3600;0.5;2;48;0.0096;0.01;0.25;0.01;151.896
T2;7200;3600;0.5;2;11;0.0022;0.0025;0.25;0.01;150.455
T1;7200;3600;0.5;2;270;0.054;0.0566667;0.25;0.0566667;151.919
T2;7200;3600;0.5;2;73;0.0146;0.0141667;0.25;0.0566667;151.342
T1;7200;3600;0.5;2;520;0.104;0.103333;0.25;0.103333;152.494
T2;7200;3600;0.5;2;148;0.0296;0.0258333;0.25;0.103333;151.473
T1;7200;3600;0.5;2;707;0.1414;0.15;0.25;0.15;152.542
T2;7200;3600;0.5;2;204;0.0408;0.0375;0.25;0.15;151.353
T1;7200;3600;0.5;2;993;0.1986;0.196667;0.25;0.196667;153.171
T2;7200;3600;0.5;2;238;0.0476;0.0491667;0.25;0.196667;151.739
T1;7200;3600;0.5;2;1150;0.23;0.243333;0.25;0.243333;153.597
T2;7200;3600;0.5;2;279;0.0558;0.0608333;0.25;0.243333;151.355
T1;7200;3600;0.5;2;1356;0.2712;0.29;0.25;0.29;154.514
T2;7200;3600;0.5;2;352;0.0704;0.0725;0.25;0.29;151.622
T1;7200;3600;0.5;2;1640;0.328;0.336667;0.25;0.336667;157.315
T2;7200;3600;0.5;2;393;0.0786;0.0841667;0.25;0.336667;151.501
T1;7200;3600;0.5;2;1853;0.3706;0.383333;0.25;0.383333;161.451
T2;7200;3600;0.5;2;438;0.0876;0.0958333;0.25;0.383333;151.817
T1;7200;3600;0.5;2;1971;0.3942;0.43;0.25;0.43;167.575
T2;7200;3600;0.5;2;545;0.109;0.1075;0.25;0.43;151.758
T1;7200;3600;0.5;2;54;0.0108;0.01;0.5;0.01;152.111
T2;7200;3600;0.5;2;32;0.0064;0.005;0.5;0.01;151.125
T1;7200;3600;0.5;2;271;0.0542;0.0566667;0.5;0.0566667;152.081
T2;7200;3600;0.5;2;147;0.0294;0.0283333;0.5;0.0566667;151.884
T1;7200;3600;0.5;2;494;0.0988;0.103333;0.5;0.103333;152.287
T2;7200;3600;0.5;2;260;0.052;0.0516667;0.5;0.103333;151.319
T1;7200;3600;0.5;2;703;0.1406;0.15;0.5;0.15;152.485
T2;7200;3600;0.5;2;369;0.0738;0.075;0.5;0.15;151.905
T1;7200;3600;0.5;2;984;0.1968;0.196667;0.5;0.196667;153.318
T2;7200;3600;0.5;2;449;0.0898;0.0983333;0.5;0.196667;151.853
T1;7200;3600;0.5;2;1205;0.241;0.243333;0.5;0.243333;154.472
T2;7200;3600;0.5;2;571;0.1142;0.121667;0.5;0.243333;152.114
T1;7200;3600;0.5;2;1421;0.2842;0.29;0.5;0.29;154.645
T2;7200;3600;0.5;2;681;0.1362;0.145;0.5;0.29;152.267
T1;7200;3600;0.5;2;1725;0.345;0.336667;0.5;0.336667;159.808
T2;7200;3600;0.5;2;800;0.16;0.168333;0.5;0.336667;152.164
T1;7200;3600;0.5;2;1794;0.3588;0.383333;0.5;0.383333;159.357
T2;7200;3600;0.5;2;959;0.1918;0.191667;0.5;0.383333;152.839
T1;7200;3600;0.5;2;2048;0.4096;0.43;0.5;0.43;168.917
T2;7200;3600;0.5;2;1061;0.2122;0.215;0.5;0.43;152.654
