T1;3600;3600;0.25;1;37;0.0074;0.01;0.1;0.01;154.243
T2;3600;3600;0.25;1;6;0.0012;0.001;0.1;0.01;149.667
T1;3600;3600;0.25;1;158;0.0316;0.0333333;0.1;0.0333333;154.032
T2;3600;3600;0.25;1;18;0.0036;0.00333333;0.1;0.0333333;149.778
T1;3600;3600;0.25;1;285;0.057;0.0566667;0.1;0.0566667;155.109
T2;3600;3600;0.25;1;25;0.005;0.00566667;0.1;0.0566667;150.36
T1;3600;3600;0.25;1;383;0.0766;0.08;0.1;0.08;156.713
T2;3600;3600;0.25;1;29;0.0058;0.008;0.1;0.08;150.103
T1;3600;3600;0.25;1;455;0.091;0.103333;0.1;0.103333;156.396
T2;3600;3600;0.25;1;41;0.0082;0.0103333;0.1;0.103333;150.171
T1;3600;3600;0.25;1;613;0.1226;0.126667;0.1;0.126667;160.444
T2;3600;3600;0.25;1;62;0.0124;0.0126667;0.1;0.126667;150.129
T1;3600;3600;0.25;1;717;0.1434;0.15;0.1;0.15;162.473
T2;3600;3600;0.25;1;78;0.0156;0.015;0.1;0.15;150.5
T1;3600;3600;0.25;1;832;0.1664;0.173333;0.1;0.173333;168.424
T2;3600;3600;0.25;1;81;0.0162;0.0173333;0.1;0.173333;150.222
T1;3600;3600;0.25;1;955;0.191;0.196667;0.1;0.196667;170.952
T2;3600;3600;0.25;1;81;0.0162;0.0196667;0.1;0.196667;150.321
T1;3600;3600;0.25;1;1031;0.2062;0.22;0.1;0.22;201.651
T2;3600;3600;0.25;1;96;0.0192;0.022;0.1;0.22;150.354
T1;3600;3600;0.25;1;52;0.0104;0.01;0.25;0.01;154.654
T2;3600;3600;0.25;1;17;0.0034;0.0025;0.25;0.01;150
T1;3600;3600;0.25;1;163;0.0326;0.0333333;0.25;0.0333333;154.663
T2;3600;3600;0.25;1;48;0.0096;0.00833333;0.25;0.0333333;150.562
T1;3600;3600;0.25;1;289;0.0578;0.0566667;0.25;0.0566667;155.045
T2;3600;3600;0.25;1;57;0.0114;0.0141667;0.25;0.0566667;149.982
T1;3600;3600;0.25;1;374;0.0748;0.08;0.25;0.08;155.853
T2;3600;3600;0.25;1;106;0.0212;0.02;0.25;0.08;150.283
T1;3600;3600;0.25;1;508;0.1016;0.103333;0.25;0.103333;156.626
T2;3600;3600;0.25;1;135;0.027;0.0258333;0.25;0.103333;150.43
T1;3600;3600;0.25;1;597;0.1194;0.126667;0.25;0.126667;157.68
T2;3600;3600;0.25;1;142;0.0284;0.0316667;0.25;0.126667;150.366
T1;3600;3600;0.25;1;709;0.1418;0.15;0.25;0.15;160.188
T2;3600;3600;0.25;1;176;0.0352;0.0375;0.25;0.15;150.409
T1;3600;3600;0.25;1;839;0.1678;0.173333;0.25;0.173333;167.416
T2;3600;3600;0.25;1;212;0.0424;0.0433333;0.25;0.173333;150.453
T1;3600;3600;0.25;1;899;0.1798;0.196667;0.25;0.196667;170.198
T2;3600;3600;0.25;1;227;0.0454;0.0491667;0.25;0.196667;150.445
T1;3600;3600;0.25;1;1048;0.2096;0.22;0.25;0.22;175.525
T2;3600;3600;0.25;1;277;0.0554;0.055;0.25;0.22;150.437
T1;3600;3600;0.25;1;43;0.0086;0.01;0.5;0.01;153.884
T2;3600;3600;0.25;1;24;0.0048;0.005;0.5;0.01;149.667
T1;3600;3600;0.25;1;173;0.0346;0.0333333;0.5;0.0333333;154.046
T2;3600;3600;0.25;1;78;0.0156;0.0166667;0.5;0.0333333;150.167
T1;3600;3600;0.25;1;277;0.0554;0.0566667;0.5;0.0566667;154.736
T2;3600;3600;0.25;1;146;0.0292;0.0283333;0.5;0.0566667;150.233
T1;3600;3600;0.25;1;396;0.0792;0.08;0.5;0.08;155.803
T2;3600;3600;0.25;1;190;0.038;0.04;0.5;0.08;150.516
T1;3600;3600;0.25;1;508;0.1016;0.103333;0.5;0.103333;156.035
T2;3600;3600;0.25;1;254;0.0508;0.0516667;0.5;0.103333;150.165
T1;3600;3600;0.25;1;632;0.1264;0.126667;0.5;0.126667;158.684
T2;3600;3600;0.25;1;315;0.063;0.0633333;0.5;0.126667;150.511
T1;3600;3600;0.25;1;731;0.1462;0.15;0.5;0.15;159.689
T2;3600;3600;0.25;1;379;0.0758;0.075;0.5;0.15;150.596
T1;3600;3600;0.25;1;867;0.1734;0.173333;0.5;0.173333;164.286
T2;3600;3600;0.25;1;439;0.0878;0.0866667;0.5;0.173333;150.558
T1;3600;3600;0.25;1;937;0.1874;0.196667;0.5;0.196667;172.066
T2;3600;3600;0.25;1;511;0.1022;0.0983333;0.5;0.196667;150.509
T1;3600;3600;0.25;1;1035;0.207;0.22;0.5;0.22;230.142
T2;3600;3600;0.25;1;553;0.1106;0.11;0.5;0.22;150.57
