T1;3600;3600;0.1;1;42;0.0084;0.01;0.1;0.01;160.333
T2;3600;3600;0.1;1;6;0.0012;0.001;0.1;0.01;150.333
T1;3600;3600;0.1;1;77;0.0154;0.0177778;0.1;0.0177778;162.883
T2;3600;3600;0.1;1;10;0.002;0.00177778;0.1;0.0177778;150.2
T1;3600;3600;0.1;1;124;0.0248;0.0255556;0.1;0.0255556;162.726
T2;3600;3600;0.1;1;15;0.003;0.00255556;0.1;0.0255556;150.333
T1;3600;3600;0.1;1;176;0.0352;0.0333333;0.1;0.0333333;165.403
T2;3600;3600;0.1;1;20;0.004;0.00333333;0.1;0.0333333;149.6
T1;3600;3600;0.1;1;176;0.0352;0.0411111;0.1;0.0411111;165.869
T2;3600;3600;0.1;1;21;0.0042;0.00411111;0.1;0.0411111;149.905
T1;3600;3600;0.1;1;252;0.0504;0.0488889;0.1;0.0488889;166.413
T2;3600;3600;0.1;1;29;0.0058;0.00488889;0.1;0.0488889;149.897
T1;3600;3600;0.1;1;277;0.0554;0.0566667;0.1;0.0566667;185.466
T2;3600;3600;0.1;1;31;0.0062;0.00566667;0.1;0.0566667;149.903
T1;3600;3600;0.1;1;319;0.0638;0.0644444;0.1;0.0644444;178.489
T2;3600;3600;0.1;1;33;0.0066;0.00644444;0.1;0.0644444;149.879
T1;3600;3600;0.1;1;313;0.0626;0.0722222;0.1;0.0722222;171.725
T2;3600;3600;0.1;1;27;0.0054;0.00722222;0.1;0.0722222;150.185
T1;3600;3600;0.1;1;360;0.072;0.08;0.1;0.08;188.881
T2;3600;3600;0.1;1;33;0.0066;0.008;0.1;0.08;150.091
T1;3600;3600;0.1;1;55;0.011;0.01;0.25;0.01;160.691
T2;3600;3600;0.1;1;10;0.002;0.0025;0.25;0.01;149.4
T1;3600;3600;0.1;1;94;0.0188;0.0177778;0.25;0.0177778;161.117
T2;3600;3600;0.1;1;15;0.003;0.00444444;0.25;0.0177778;149.8
T1;3600;3600;0.1;1;128;0.0256;0.0255556;0.25;0.0255556;162.008
T2;3600;3600;0.1;1;27;0.0054;0.00638889;0.25;0.0255556;150.037
T1;3600;3600;0.1;1;176;0.0352;0.0333333;0.25;0.0333333;165.199
T2;3600;3600;0.1;1;46;0.0092;0.00833333;0.25;0.0333333;149.696
T1;3600;3600;0.1;1;206;0.0412;0.0411111;0.25;0.0411111;166.782
T2;3600;3600;0.1;1;49;0.0098;0.0102778;0.25;0.0411111;149.939
T1;3600;3600;0.1;1;222;0.0444;0.0488889;0.25;0.0488889;168.122
T2;3600;3600;0.1;1;65;0.013;0.0122222;0.25;0.0488889;149.831
T1;3600;3600;0.1;1;266;0.0532;0.0566667;0.25;0.0566667;175.218
T2;3600;3600;0.1;1;78;0.0156;0.0141667;0.25;0.0566667;149.936
T1;3600;3600;0.1;1;274;0.0548;0.0644444;0.25;0.0644444;174.584
T2;3600;3600;0.1;1;79;0.0158;0.0161111;0.25;0.0644444;150.038
T1;3600;3600;0.1;1;352;0.0704;0.0722222;0.25;0.0722222;181.375
T2;3600;3600;0.1;1;91;0.0182;0.0180556;0.25;0.0722222;150.176
T1;3600;3600;0.1;1;397;0.0794;0.08;0.25;0.08;198.975
T2;3600;3600;0.1;1;97;0.0194;0.02;0.25;0.08;149.897
T1;3600;3600;0.1;1;50;0.01;0.01;0.5;0.01;159.08
T2;3600;3600;0.1;1;25;0.005;0.005;0.5;0.01;149.56
T1;3600;3600;0.1;1;66;0.0132;0.0177778;0.5;0.0177778;160.939
T2;3600;3600;0.1;1;45;0.009;0.00888889;0.5;0.0177778;150.156
T1;3600;3600;0.1;1;121;0.0242;0.0255556;0.5;0.0255556;164.636
T2;3600;3600;0.1;1;65;0.013;0.0127778;0.5;0.0255556;149.692
T1;3600;3600;0.1;1;179;0.0358;0.0333333;0.5;0.0333333;167.553
T2;3600;3600;0.1;1;83;0.0166;0.0166667;0.5;0.0333333;149.807
T1;3600;3600;0.1;1;213;0.0426;0.0411111;0.5;0.0411111;169.413
T2;3600;3600;0.1;1;98;0.0196;0.0205556;0.5;0.0411111;149.878
T1;3600;3600;0.1;1;199;0.0398;0.0488889;0.5;0.0488889;168.894
T2;3600;3600;0.1;1;111;0.0222;0.0244444;0.5;0.0488889;150.072
T1;3600;3600;0.1;1;281;0.0562;0.0566667;0.5;0.0566667;175.281
T2;3600;3600;0.1;1;146;0.0292;0.0283333;0.5;0.0566667;149.945
T1;3600;3600;0.1;1;337;0.0674;0.0644444;0.5;0.0644444;186.276
T2;3600;3600;0.1;1;170;0.034;0.0322222;0.5;0.0644444;150
T1;3600;3600;0.1;1;355;0.071;0.0722222;0.5;0.0722222;186.214
T2;3600;3600;0.1;1;179;0.0358;0.0361111;0.5;0.0722222;150.039
T1;3600;3600;0.1;1;352;0.0704;0.08;0.5;0.08;185.241
T2;3600;3600;0.1;1;211;0.0422;0.04;0.5;0.08;150.038
