T1;1800;3600;0.1;0.5;54;0.0108;0.01;0.1;0.01;198.704
T2;1800;3600;0.1;0.5;6;0.0012;0.001;0.1;0.01;150.5
T1;1800;3600;0.1;0.5;81;0.0162;0.0133333;0.1;0.0133333;196.333
T2;1800;3600;0.1;0.5;7;0.0014;0.00133333;0.1;0.0133333;150.286
T1;1800;3600;0.1;0.5;71;0.0142;0.0166667;0.1;0.0166667;219.775
T2;1800;3600;0.1;0.5;4;0.0008;0.00166667;0.1;0.0166667;150.5
T1;1800;3600;0.1;0.5;90;0.018;0.02;0.1;0.02;199.489
T2;1800;3600;0.1;0.5;7;0.0014;0.002;0.1;0.02;150.143
T1;1800;3600;0.1;0.5;89;0.0178;0.0233333;0.1;0.0233333;196.652
T2;1800;3600;0.1;0.5;10;0.002;0.00233333;0.1;0.0233333;151.4
T1;1800;3600;0.1;0.5;145;0.029;0.0266667;0.1;0.0266667;196.159
T2;1800;3600;0.1;0.5;12;0.0024;0.00266667;0.1;0.0266667;150.75
T1;1800;3600;0.1;0.5;131;0.0262;0.03;0.1;0.03;224.908
T2;1800;3600;0.1;0.5;8;0.0016;0.003;0.1;0.03;150
T1;1800;3600;0.1;0.5;174;0.0348;0.0333333;0.1;0.0333333;229.092
T2;1800;3600;0.1;0.5;22;0.0044;0.00333333;0.1;0.0333333;150.955
T1;1800;3600;0.1;0.5;149;0.0298;0.0366667;0.1;0.0366667;230.799
T2;1800;3600;0.1;0.5;17;0.0034;0.00366667;0.1;0.0366667;150.941
T1;1800;3600;0.1;0.5;186;0.0372;0.04;0.1;0.04;263.935
T2;1800;3600;0.1;0.5;20;0.004;0.004;0.1;0.04;150.15
T1;1800;3600;0.1;0.5;53;0.0106;0.01;0.25;0.01;188.83
T2;1800;3600;0.1;0.5;9;0.0018;0.0025;0.25;0.01;150.222
T1;1800;3600;0.1;0.5;57;0.0114;0.0133333;0.25;0.0133333;186.175
T2;1800;3600;0.1;0.5;12;0.0024;0.00333333;0.25;0.0133333;150.583
T1;1800;3600;0.1;0.5;104;0.0208;0.0166667;0.25;0.0166667;232.029
T2;1800;3600;0.1;0.5;26;0.0052;0.00416667;0.25;0.0166667;150.731
T1;1800;3600;0.1;0.5;96;0.0192;0.02;0.25;0.02;192.365
T2;1800;3600;0.1;0.5;23;0.0046;0.005;0.25;0.02;150.478
T1;1800;3600;0.1;0.5;116;0.0232;0.0233333;0.25;0.0233333;209.155
T2;1800;3600;0.1;0.5;31;0.0062;0.00583333;0.25;0.0233333;150.419
T1;1800;3600;0.1;0.5;127;0.0254;0.0266667;0.25;0.0266667;209.945
T2;1800;3600;0.1;0.5;31;0.0062;0.00666667;0.25;0.0266667;150.452
T1;1800;3600;0.1;0.5;144;0.0288;0.03;0.25;0.03;208.014
T2;1800;3600;0.1;0.5;29;0.0058;0.0075;0.25;0.03;150.345
T1;1800;3600;0.1;0.5;156;0.0312;0.0333333;0.25;0.0333333;227.59
T2;1800;3600;0.1;0.5;36;0.0072;0.00833333;0.25;0.0333333;150.25
T1;1800;3600;0.1;0.5;173;0.0346;0.0366667;0.25;0.0366667;297.786
T2;1800;3600;0.1;0.5;63;0.0126;0.00916667;0.25;0.0366667;150.603
T1;1800;3600;0.1;0.5;176;0.0352;0.04;0.25;0.04;222.205
T2;1800;3600;0.1;0.5;54;0.0108;0.01;0.25;0.04;150.889
T1;1800;3600;0.1;0.5;40;0.008;0.01;0.5;0.01;186.6
T2;1800;3600;0.1;0.5;29;0.0058;0.005;0.5;0.01;150.379
T1;1800;3600;0.1;0.5;60;0.012;0.0133333;0.5;0.0133333;205.4
T2;1800;3600;0.1;0.5;28;0.0056;0.00666667;0.5;0.0133333;150.571
T1;1800;3600;0.1;0.5;89;0.0178;0.0166667;0.5;0.0166667;196.101
T2;1800;3600;0.1;0.5;30;0.006;0.00833333;0.5;0.0166667;150.167
T1;1800;3600;0.1;0.5;80;0.016;0.02;0.5;0.02;199.662
T2;1800;3600;0.1;0.5;54;0.0108;0.01;0.5;0.02;150.685
T1;1800;3600;0.1;0.5;127;0.0254;0.0233333;0.5;0.0233333;199.157
T2;1800;3600;0.1;0.5;60;0.012;0.0116667;0.5;0.0233333;150.733
T1;1800;3600;0.1;0.5;135;0.027;0.0266667;0.5;0.0266667;240.519
T2;1800;3600;0.1;0.5;62;0.0124;0.0133333;0.5;0.0266667;150.452
T1;1800;3600;0.1;0.5;154;0.0308;0.03;0.5;0.03;228.961
T2;1800;3600;0.1;0.5;84;0.0168;0.015;0.5;0.03;150.571
T1;1800;3600;0.1;0.5;176;0.0352;0.0333333;0.5;0.0333333;283.403
T2;1800;3600;0.1;0.5;76;0.0152;0.0166667;0.5;0.0333333;150.618
T1;1800;3600;0.1;0.5;148;0.0296;0.0366667;0.5;0.0366667;202.845
T2;1800;3600;0.1;0.5;114;0.0228;0.0183333;0.5;0.0366667;150.825
T1;1800;3600;0.1;0.5;190;0.038;0.04;0.5;0.04;237.679
T2;1800;3600;0.1;0.5;102;0.0204;0.02;0.5;0.04;150.706
