T1;7200;3600;0.1;2;44;0.0088;0.01;0.1;0.01;160.432
T2;7200;3600;0.1;2;4;0.0008;0.001;0.1;0.01;152.75
T1;7200;3600;0.1;2;90;0.018;0.0177778;0.1;0.0177778;170.356
T2;7200;3600;0.1;2;11;0.0022;0.00177778;0.1;0.0177778;150.636
T1;7200;3600;0.1;2;124;0.0248;0.0255556;0.1;0.0255556;172.339
T2;7200;3600;0.1;2;12;0.0024;0.00255556;0.1;0.0255556;151.333
T1;7200;3600;0.1;2;145;0.029;0.0333333;0.1;0.0333333;177.062
T2;7200;3600;0.1;2;12;0.0024;0.00333333;0.1;0.0333333;152.167
T1;7200;3600;0.1;2;189;0.0378;0.0411111;0.1;0.0411111;199.471
T2;7200;3600;0.1;2;16;0.0032;0.00411111;0.1;0.0411111;150.812
T1;7200;3600;0.1;2;203;0.0406;0.0488889;0.1;0.0488889;205.7
T2;7200;3600;0.1;2;23;0.0046;0.00488889;0.1;0.0488889;150.913
T1;7200;3600;0.1;2;254;0.0508;0.0566667;0.1;0.0566667;232.35
T2;7200;3600;0.1;2;34;0.0068;0.00566667;0.1;0.0566667;150.676
T1;7200;3600;0.1;2;264;0.0528;0.0644444;0.1;0.0644444;295.273
T2;7200;3600;0.1;2;31;0.0062;0.00644444;0.1;0.0644444;150.419
T1;7200;3600;0.1;2;332;0.0664;0.0722222;0.1;0.0722222;348.819
T2;7200;3600;0.1;2;37;0.0074;0.00722222;0.1;0.0722222;150.108
T1;7200;3600;0.1;2;331;0.0662;0.08;0.1;0.08;399.338
T2;7200;3600;0.1;2;42;0.0084;0.008;0.1;0.08;150.548
T1;7200;3600;0.1;2;56;0.0112;0.01;0.25;0.01;168.232
T2;7200;3600;0.1;2;14;0.0028;0.0025;0.25;0.01;151.143
T1;7200;3600;0.1;2;114;0.0228;0.0177778;0.25;0.0177778;172.5
T2;7200;3600;0.1;2;20;0.004;0.00444444;0.25;0.0177778;150.6
T1;7200;3600;0.1;2;127;0.0254;0.0255556;0.25;0.0255556;181.827
T2;7200;3600;0.1;2;24;0.0048;0.00638889;0.25;0.0255556;151.292
T1;7200;3600;0.1;2;136;0.0272;0.0333333;0.25;0.0333333;176.735
T2;7200;3600;0.1;2;35;0.007;0.00833333;0.25;0.0333333;150.857
T1;7200;3600;0.1;2;206;0.0412;0.0411111;0.25;0.0411111;199
T2;7200;3600;0.1;2;46;0.0092;0.0102778;0.25;0.0411111;150.217
T1;7200;3600;0.1;2;257;0.0514;0.0488889;0.25;0.0488889;242.899
T2;7200;3600;0.1;2;55;0.011;0.0122222;0.25;0.0488889;150.8
T1;7200;3600;0.1;2;275;0.055;0.0566667;0.25;0.0566667;268.189
T2;7200;3600;0.1;2;72;0.0144;0.0141667;0.25;0.0566667;150.389
T1;7200;3600;0.1;2;276;0.0552;0.0644444;0.25;0.0644444;248.67
T2;7200;3600;0.1;2;83;0.0166;0.0161111;0.25;0.0644444;150.663
T1;7200;3600;0.1;2;299;0.0598;0.0722222;0.25;0.0722222;341.331
T2;7200;3600;0.1;2;90;0.018;0.0180556;0.25;0.0722222;150.722
T1;7200;3600;0.1;2;349;0.0698;0.08;0.25;0.08;451.989
T2;7200;3600;0.1;2;96;0.0192;0.02;0.25;0.08;150.438
T1;7200;3600;0.1;2;44;0.0088;0.01;0.5;0.01;164.227
T2;7200;3600;0.1;2;24;0.0048;0.005;0.5;0.01;150.333
T1;7200;3600;0.1;2;92;0.0184;0.0177778;0.5;0.0177778;170.304
T2;7200;3600;0.1;2;42;0.0084;0.00888889;0.5;0.0177778;150.976
T1;7200;3600;0.1;2;133;0.0266;0.0255556;0.5;0.0255556;182.647
T2;7200;3600;0.1;2;66;0.0132;0.0127778;0.5;0.0255556;150.455
T1;7200;3600;0.1;2;163;0.0326;0.0333333;0.5;0.0333333;191.16
T2;7200;3600;0.1;2;83;0.0166;0.0166667;0.5;0.0333333;150.542
T1;7200;3600;0.1;2;182;0.0364;0.0411111;0.5;0.0411111;182.736
T2;7200;3600;0.1;2;99;0.0198;0.0205556;0.5;0.0411111;150.778
T1;7200;3600;0.1;2;223;0.0446;0.0488889;0.5;0.0488889;220.803
T2;7200;3600;0.1;2;117;0.0234;0.0244444;0.5;0.0488889;150.607
T1;7200;3600;0.1;2;267;0.0534;0.0566667;0.5;0.0566667;251.558
T2;7200;3600;0.1;2;151;0.0302;0.0283333;0.5;0.0566667;150.424
T1;7200;3600;0.1;2;282;0.0564;0.0644444;0.5;0.0644444;265.745
T2;7200;3600;0.1;2;168;0.0336;0.0322222;0.5;0.0644444;150.625
T1;7200;3600;0.1;2;341;0.0682;0.0722222;0.5;0.0722222;421.276
T2;7200;3600;0.1;2;170;0.034;0.0361111;0.5;0.0722222;150.547
T1;7200;3600;0.1;2;344;0.0688;0.08;0.5;0.08;445.965
T2;7200;3600;0.1;2;211;0.0422;0.04;0.5;0.08;150.445
