OBJECTID_1,ObjectID,Name,FacilityTy,Weight,Capacity,DemandCoun,DemandWeig,SourceID,SourceOID,PosAlong,SideOfEdge,CurbApproa,Status,Total_Leng,TotalWeigh,POINT_X,POINT_Y,NormalizedWeight
1,13935,42,3,1,0,530,2469415.65,1,3229,0.358173417,2,0,0,34909757.17,1.33276E+11,356146.1325,6693899.918,1.052129726
2,13950,57,3,1,0,495,1773047.745,1,2828,0.629391925,2,0,0,34548197.5,1.10843E+11,348919.199,6789805.149,1.043355458
3,13995,102,1,1,0,179,554448.9524,1,451,0.203152104,2,0,0,8245277.844,20877872405,495574.1893,6615699.925,1.008166222
4,14009,116,3,1,0,201,1012905.086,1,2036,0.814149731,2,0,0,14853442.97,70859040840,900573.8986,6846058.211,1.027715978
5,14021,128,3,1,0,250,1048216.663,1,1894,0.97040509,2,0,0,19659769.4,73451076526,773863.8138,6906293.47,1.028729833
6,14025,132,3,1,0,548,3363633.35,1,41,0.945482927,2,0,0,28963483.6,1.51415E+11,706149.2469,7053618.912,1.059224715
7,14044,151,1,1,0,41,114526.9805,1,910,0.011008136,2,0,0,2861109.193,8232393033,870842.8855,6761480.901,1.003220038
8,14085,192,3,1,0,392,2024388.354,1,1926,0.188465816,2,0,0,21862706.38,83880616498,572235.6306,6281090.868,1.032809269
9,14113,220,1,1,0,149,667624.7625,1,892,0.457702805,2,0,0,7317382.389,29213672540,851371.1757,6677445.299,1.011426707
10,14122,229,3,1,0,96,279163.6275,1,1061,0.6341703,2,0,0,5277178.036,15624250070,880389.8932,6612340.926,1.006111307
11,14186,293,1,1,0,324,1328879.972,1,863,0.067566877,2,0,0,26015353,1.07104E+11,647743.1555,6973403.785,1.041892798
12,14188,295,3,1,0,123,452747.56,1,1590,0.536664993,2,0,0,9958593.349,37366036216,715580.6642,6654003.938,1.014615442
13,14197,304,3,1,0,36,119073.6419,1,2786,0.943591048,2,0,0,887286.7294,3151602582,636226.0623,6401310.223,1.001232726
14,14210,317,3,1,0,342,1414350.4,1,3214,0.968330548,2,0,0,23712682.94,1.01408E+11,457708.7418,6902748.886,1.039664806
15,14233,340,3,1,0,231,963655.1883,1,1120,0.334177087,2,0,0,9191082.951,36458207682,942163.6515,6544133.133,1.014260352
16,14302,409,3,1,0,289,1241152.066,1,3016,0.949836386,2,0,0,19453584.89,78026112465,163351.4312,6831547.522,1.030519324
17,14354,461,3,1,0,194,840934.6654,1,1434,0.541245795,2,0,0,11737127.49,50066148534,416706.2933,6259081.054,1.019582995
18,14361,468,3,1,0,116,534706.315,1,2770,0.110701173,2,0,0,4540758.971,14605569785,686380.3235,6176871.887,1.005712858
19,14423,530,1,1,0,299,1223946.717,1,1028,0.405493861,2,0,0,21319276.97,85127173051,979736.0177,6710283.583,1.03329685
20,14460,567,1,1,0,239,1426406.402,1,382,0.835952875,2,0,0,12928883.65,63525362063,757636.4702,6265718.861,1.024847465
21,14510,617,3,1,0,63,226083.2678,1,1289,0.436098869,2,0,0,3565771.576,12046501693,935704.7876,6348389.452,1.004711898
22,14515,622,3,1,0,269,1484545.899,1,1936,1,2,0,0,13844677,49582907666,414859.7085,6416439.35,1.019393979
23,14541,648,1,1,0,161,537969.5982,1,213,0.090455885,2,0,0,12033485.29,38976139241,750308.5394,6743092.055,1.015245222
24,14594,701,1,1,0,241,1129656.766,1,270,0.031227171,2,0,0,11415799.16,55176239314,838979.2175,6355946.053,1.021581769
25,14597,704,3,1,0,234,1047479.161,1,1903,0.264240765,2,0,0,11399392.97,37734257096,912130.5892,6456580.001,1.014759469
26,14626,733,1,1,0,211,825757.8885,1,430,0.929107803,2,0,0,9848446.369,31063029122,532395.407,6710470.725,1.012150069
27,14633,740,3,1,0,917,12331004.39,1,1687,0.422379219,2,0,0,52065134.71,4.31685E+11,656270.4148,6852738.196,1.168850167
28,14643,750,1,1,0,223,759678.2596,1,486,0.394290125,2,0,0,12060394.74,35400367288,495316.3574,6776274.406,1.013846586
29,14686,793,1,1,0,539,3003812.632,1,253,0.496254112,2,0,0,30359315.7,1.28532E+11,841206.7795,6515574.934,1.050274474
30,14688,795,3,1,0,151,2248398.856,1,1321,0.747712503,2,0,0,7173516.129,60252292425,891512.5582,6250119.961,1.023567228
31,14700,807,3,1,0,226,813633.5851,1,460,1,2,0,0,13803601.03,54585496094,414532.4917,6523706.181,1.021350704
32,14705,812,1,1,0,64,196626.0211,1,2656,0.514770964,2,0,0,3447184.917,9971319831,705781.0883,6359356.561,1.003900206
33,14707,814,1,1,0,161,633086.8954,1,1542,0.169585326,2,0,0,10403748.91,37687012030,722123.7144,6475250.302,1.01474099
34,14714,821,1,1,0,171,788656.6004,1,1498,0.549939725,2,0,0,10920858.7,49256470904,628146.7374,6694642.001,1.019266296
35,14802,909,3,1,0,399,1707100.77,1,139,0.497701531,2,0,0,32229597.45,1.3811E+11,997596.7238,6882232.582,1.05402054
36,14815,922,3,1,0,149,1623829.644,1,335,0.501762846,2,0,0,7304211.916,64519957694,1025819.675,6285111.613,1.025236493
37,14898,1005,3,1,0,160,508785.1312,1,1743,0.902007625,2,0,0,10292843.49,32511059768,526505.8396,6451696.547,1.012716455
38,14903,1010,1,1,0,128,444612.7645,1,668,0.55316569,2,0,0,6777481.632,15013928871,566158.4865,6529565.863,1.005872585