start time;target;time at S;time at I;total time
2;e4;0;1;150
0;e4;0;5;153
7;e4;0;1;150
8;e4;0;1;150
4;e4;1;6;155
1;e4;5;4;158
13;e4;0;1;149
12;e4;4;1;154
17;e4;0;1;150
12;e4;0;7;155
21;e4;1;2;152
19;e4;5;2;155
21;e4;0;6;155
27;e4;0;1;150
27;e4;1;1;152
30;e4;0;1;150
29;e4;2;1;152
27;e4;5;1;155
18;e4;0;15;165
4;e4;0;31;181
35;e4;1;1;152
40;e4;0;1;150
44;e4;0;2;151
44;e4;2;1;152
43;e4;0;4;154
42;e4;0;7;156
43;e4;6;1;157
50;e4;1;1;151
53;e4;0;1;149
57;e4;0;2;150
42;e4;13;5;167
61;e4;0;1;150
63;e4;0;2;152
66;e4;0;1;150
63;e4;5;1;155
69;e4;1;1;151
62;e4;10;2;162
73;e4;0;3;152
78;e4;0;1;151
82;e4;0;3;152
86;e4;0;1;150
82;e4;2;4;156
89;e4;0;1;150
76;e4;4;10;164
93;e4;1;1;151
92;e4;0;4;153
92;e4;3;1;154
96;e4;1;1;151
98;e4;1;1;150
100;e4;1;1;151
103;e4;0;1;149
102;e4;3;2;153
107;e4;0;2;151
102;e4;6;1;156
89;e4;22;1;172
112;e4;0;1;150
91;e4;19;4;172
115;e4;0;1;150
113;e4;1;4;153
115;e4;1;1;151
112;e4;6;1;156
115;e4;2;2;154
87;e4;32;1;183
92;e4;17;13;180
85;e4;38;2;189
86;e4;35;1;193
81;e4;44;1;199
130;e4;0;2;152
129;e4;3;1;154
133;e4;0;3;153
129;e4;2;7;158
140;e4;0;1;149
138;e4;0;4;153
145;e4;1;2;152
147;e4;1;1;150
149;e4;1;1;151
153;e4;0;3;151
152;e4;2;1;152
157;e4;0;1;150
158;e4;0;1;150
147;e4;12;1;162
156;e4;0;5;154
155;e4;0;6;155
163;e4;0;2;151
167;e4;0;2;151
169;e4;0;1;151
169;e4;2;1;152
172;e4;1;1;151
174;e4;1;1;150
174;e4;0;2;152
176;e4;0;3;152
179;e4;2;1;152
183;e4;0;1;150
187;e4;1;2;152
186;e4;0;4;154
191;e4;0;1;151
193;e4;0;1;149
197;e4;1;1;150
194;e4;1;3;153
196;e4;4;1;153
196;e4;6;1;156
203;e4;0;1;150
205;e4;0;1;153
190;e4;17;3;169
209;e4;1;1;151
189;e4;23;1;173
211;e4;1;3;152
204;e4;2;2;159
186;e4;30;1;180
217;e4;1;2;152
219;e4;0;1;151
221;e4;0;2;151
220;e4;0;3;153
225;e4;0;1;149
222;e4;1;1;152
226;e4;1;1;151
226;e4;0;3;152
185;e4;43;1;194
229;e4;1;1;151
183;e4;48;1;198
232;e4;1;1;150
182;e4;52;1;202
236;e4;0;1;149
237;e4;0;1;150
238;e4;0;1;150
232;e4;0;7;157
235;e4;4;1;155
240;e4;1;1;151
240;e4;0;4;152
246;e4;0;1;150
242;e4;3;3;155
247;e4;2;1;152
250;e4;0;1;150
250;e4;1;4;153
254;e4;0;1;150
256;e4;0;2;151
257;e4;0;1;151
259;e4;1;1;151
258;e4;0;5;154
262;e4;0;1;151
258;e4;6;4;158
266;e4;0;1;150
267;e4;2;1;152
248;e4;0;22;172
270;e4;1;2;152
247;e4;0;26;176
275;e4;1;1;151
277;e4;1;1;151
273;e4;1;5;156
280;e4;0;1;149
215;e4;0;67;216
284;e4;0;2;151
281;e4;7;1;156
279;e4;10;1;160
291;e4;0;2;150
290;e4;0;1;151
293;e4;0;1;150
283;e4;4;9;161
296;e4;0;1;149
292;e4;2;1;154
285;e4;0;13;162
297;e4;1;1;152
299;e4;1;2;153
302;e4;1;1;151
299;e4;2;4;155
296;e4;8;1;159
275;e4;30;2;181
275;e4;32;1;181
308;e4;0;2;152
309;e4;0;3;152
311;e4;0;1;151
313;e4;0;1;149
314;e4;1;1;151
317;e4;0;1;150
318;e4;1;2;152
321;e4;0;1;151
323;e4;0;2;150
324;e4;1;1;151
327;e4;0;1;151
323;e4;6;1;156
331;e4;0;2;151
334;e4;0;1;150
336;e4;0;1;150
333;e4;2;3;154
333;e4;0;6;155
316;e4;25;1;175
322;e4;18;2;170
312;e4;31;1;181
345;e4;0;1;150
347;e4;0;1;150
332;e4;7;9;166
348;e4;1;1;151
346;e4;4;1;154
346;e4;5;2;156
346;e4;7;1;158
309;e4;45;2;196
355;e4;0;1;150
356;e4;0;3;152
358;e4;1;1;150
355;e4;5;1;156
355;e4;7;1;157
273;e4;91;1;241
355;e4;6;5;160
365;e4;0;1;151
272;e4;95;1;246
267;e4;101;2;252
253;e4;117;1;267
352;e4;0;19;169
373;e4;0;1;150
371;e4;3;1;153
372;e4;0;3;153
240;e4;136;2;287
378;e4;0;1;150
377;e4;0;2;152
379;e4;1;2;151
382;e4;0;1;150
383;e4;0;1;150
384;e4;0;1;150
384;e4;1;2;151
375;e4;0;13;163
387;e4;1;4;154
382;e4;8;2;159
394;e4;0;1;151
394;e4;1;2;152
398;e4;0;1;150
392;e4;0;9;159
402;e4;0;1;150
404;e4;0;1;149
406;e4;0;1;149
402;e4;6;1;155
404;e4;3;3;155
409;e4;0;1;151
410;e4;0;1;152
414;e4;0;1;149
412;e4;1;3;153
416;e4;0;1;150
416;e4;1;1;151
415;e4;3;2;153
411;e4;0;1;157
421;e4;0;1;150
414;e4;5;3;157
423;e4;0;1;150
424;e4;0;1;150
422;e4;3;1;153
420;e4;6;1;156
429;e4;0;2;152
427;e4;4;1;155
414;e4;19;1;169
434;e4;2;1;152
438;e4;0;1;150
440;e4;1;1;153
439;e4;6;1;156
434;e4;13;1;163
442;e4;1;4;156
448;e4;1;1;151
451;e4;0;1;150
453;e4;0;1;151
455;e4;0;1;149
456;e4;1;1;151
459;e4;0;1;150
450;e4;10;1;160
450;e4;12;1;161
461;e4;0;1;150
452;e4;6;5;161
463;e4;0;1;151
465;e4;1;1;151
470;e4;0;1;150
400;e4;69;2;221
472;e4;0;1;151
474;e4;0;2;151
434;e4;34;9;192
476;e4;1;1;151
396;e4;84;1;233
379;e4;104;1;254
482;e4;0;1;152
484;e4;0;1;150
378;e4;107;1;257
486;e4;0;1;150
489;e4;0;2;150
489;e4;2;1;152
489;e4;1;2;153
182;e4;306;6;461
487;e4;0;9;158
495;e4;0;1;150
481;e4;0;17;166
496;e4;1;1;151
500;e4;0;1;149
498;e4;1;1;151
503;e4;0;1;151
500;e4;9;1;159
510;e4;0;2;150
513;e4;0;2;151
515;e4;0;1;150
508;e4;0;8;157
516;e4;0;1;151
519;e4;0;1;150
518;e4;0;3;152
518;e4;4;3;155
525;e4;0;1;149
516;e4;1;10;160
528;e4;0;1;150
526;e4;1;3;152
530;e4;2;1;152
531;e4;0;3;152
530;e4;0;5;154
513;e4;23;1;173
526;e4;8;3;160
513;e4;26;2;176
540;e4;1;1;151
543;e4;0;1;150
538;e4;0;6;156
537;e4;0;8;158
524;e4;11;12;172
547;e4;0;2;150
546;e4;2;1;153
504;e4;2;44;196
549;e4;2;1;153
554;e4;0;1;149
553;e4;0;1;150
502;e4;5;49;203
504;e4;1;52;202
558;e4;0;1;150
560;e4;2;1;152
560;e4;4;1;154
565;e4;0;1;151
559;e4;7;2;158
569;e4;0;2;151
570;e4;2;1;153
573;e4;1;1;150
567;e4;10;1;159
579;e4;0;2;152
581;e4;0;1;151
586;e4;0;1;150
580;e4;3;4;157
587;e4;2;1;153
591;e4;1;1;152
590;e4;3;1;154
596;e4;0;2;151
579;e4;18;1;169
556;e4;43;1;193
555;e4;45;1;195
553;e4;49;1;199
554;e4;47;3;199
578;e4;20;6;176
587;e4;7;13;168
604;e4;1;1;153
607;e4;0;1;150
591;e4;0;18;167
612;e4;0;2;151
611;e4;0;4;153
614;e4;0;1;151
616;e4;1;1;151
607;e4;12;1;162
620;e4;0;1;150
607;e4;14;1;164
622;e4;0;1;150
624;e4;0;1;149
618;e4;0;6;155
623;e4;0;2;152
612;e4;3;11;164
616;e4;0;12;161
630;e4;0;1;150
549;e4;82;1;232
634;e4;0;1;149
545;e4;90;1;241
545;e4;91;2;242
546;e4;87;5;242
638;e4;1;1;151
641;e4;0;2;151
642;e4;1;1;151
624;e4;5;15;169
645;e4;0;1;150
644;e4;0;3;152
627;e4;1;19;170
640;e4;7;1;158
648;e4;1;1;151
650;e4;0;1;150
651;e4;0;1;150
640;e4;12;2;163
638;e4;15;1;166
545;e4;109;2;260
627;e4;0;30;180
656;e4;0;1;152
660;e4;0;1;150
657;e4;0;4;154
659;e4;3;1;153
609;e4;0;53;203
663;e4;1;1;151
666;e4;0;5;154
672;e4;1;1;151
672;e4;2;1;152
676;e4;1;1;151
680;e4;0;1;150
679;e4;0;1;151
682;e4;0;1;150
676;e4;0;8;156
689;e4;0;1;151
688;e4;0;3;153
693;e4;0;1;150
691;e4;3;1;152
695;e4;0;1;150
697;e4;0;1;149
699;e4;0;1;149
698;e4;0;3;152
701;e4;0;1;150
702;e4;1;1;150
692;e4;0;10;160
688;e4;2;13;166
705;e4;0;1;151
709;e4;0;1;150
711;e4;0;1;151
713;e4;1;1;151
716;e4;1;1;152
713;e4;7;1;157
721;e4;0;1;153
725;e4;0;1;150
712;e4;12;2;163
713;e4;10;4;164
721;e4;1;7;157
727;e4;0;1;151
706;e4;23;1;173
732;e4;0;1;151
731;e4;0;3;153
734;e4;0;1;151
733;e4;3;1;152
731;e4;6;1;157
739;e4;0;2;151
741;e4;0;2;150
743;e4;0;1;150
743;e4;2;1;152
742;e4;4;2;155
748;e4;0;1;150
705;e4;44;1;195
695;e4;55;1;206
687;e4;64;2;215
752;e4;0;1;151
755;e4;0;1;150
754;e4;0;2;152
753;e4;0;5;154
757;e4;0;1;150
758;e4;1;1;151
738;e4;9;13;171
762;e4;0;1;150
760;e4;1;3;153
763;e4;0;1;150
754;e4;12;3;163
769;e4;0;1;150
771;e4;0;1;150
770;e4;2;1;152
770;e4;0;4;153
774;e4;0;2;150
776;e4;0;1;150
773;e4;4;2;155
757;e4;8;15;171
780;e4;0;1;150
738;e4;0;45;193
781;e4;2;1;152
784;e4;2;2;153
789;e4;0;3;151
792;e4;0;1;150
793;e4;1;2;152
791;e4;6;1;156
791;e4;8;2;159
802;e4;0;1;150
803;e4;0;1;150
803;e4;1;1;151
800;e4;0;5;154
805;e4;1;1;151
798;e4;0;10;158
807;e4;0;1;151
796;e4;0;14;163
809;e4;0;2;152
808;e4;5;1;155
814;e4;0;2;150
815;e4;0;1;150
815;e4;1;1;152
817;e4;0;1;150
809;e4;3;8;159
817;e4;2;2;153
820;e4;1;1;152
815;e4;8;2;158
825;e4;0;1;150
809;e4;2;15;167
827;e4;0;1;150
782;e4;0;46;196
829;e4;0;1;150
826;e4;5;2;156
834;e4;0;1;150
835;e4;1;1;151
838;e4;0;1;149
833;e4;7;1;157
839;e4;0;3;152
824;e4;20;1;170
833;e4;9;4;162
837;e4;0;11;159
846;e4;0;1;150
847;e4;1;1;151
850;e4;0;1;149
824;e4;8;21;177
852;e4;0;1;150
846;e4;8;1;158
855;e4;1;1;151
824;e4;34;2;185
807;e4;53;1;203
859;e4;0;2;152
861;e4;0;1;151
863;e4;0;1;150
864;e4;0;1;149
866;e4;0;1;150
805;e4;57;5;212
868;e4;0;1;150
857;e4;0;13;162
801;e4;71;1;220
874;e4;0;1;150
875;e4;0;1;150
876;e4;0;1;151
790;e4;90;1;239
879;e4;0;3;153
790;e4;87;7;244
873;e4;0;13;162
884;e4;0;1;151
888;e4;0;1;149
870;e4;0;18;167
887;e4;0;3;152
893;e4;0;1;150
890;e4;1;4;154
895;e4;0;1;150
899;e4;0;1;151
853;e4;0;48;198
830;e4;0;73;222
898;e4;2;2;156
718;e4;1;186;337
908;e4;0;1;150
909;e4;0;1;150
910;e4;0;1;150
911;e4;0;3;152
903;e4;10;2;162
917;e4;0;1;150
918;e4;0;1;150
919;e4;0;1;150
919;e4;1;2;152
922;e4;0;1;150
923;e4;0;2;150
916;e4;0;11;159
925;e4;0;1;150
926;e4;0;1;150
924;e4;4;1;154
903;e4;12;14;176
931;e4;1;1;152
933;e4;1;1;150
930;e4;0;5;154
936;e4;0;2;151
927;e4;0;10;162
938;e4;1;2;152
935;e4;5;3;157
942;e4;0;1;150
914;e4;0;31;179
946;e4;0;1;150
930;e4;14;3;167
946;e4;4;1;154
946;e4;2;4;155
952;e4;0;2;151
905;e4;2;48;199
906;e4;0;51;199
960;e4;0;1;150
962;e4;0;1;150
965;e4;0;1;150
963;e4;0;1;152
962;e4;4;1;156
968;e4;0;1;150
971;e4;0;1;150
973;e4;0;3;152
974;e4;1;1;152
977;e4;0;1;151
979;e4;0;1;150
981;e4;0;1;149
979;e4;1;3;152
982;e4;0;1;150
988;e4;0;2;151
990;e4;0;1;150
991;e4;1;1;151
986;e4;0;9;157
995;e4;0;1;150
977;e4;8;11;169
998;e4;0;1;151
997;e4;0;5;153
1000;e4;0;1;150
1001;e4;1;1;150
1000;e4;5;1;155
1006;e4;0;1;150
1004;e4;0;3;152
1008;e4;0;2;152
999;e4;13;2;164
1009;e4;0;7;156
1016;e4;0;1;150
1013;e4;1;1;154
994;e4;24;1;174
1001;e4;2;18;169
1019;e4;2;1;152
1020;e4;0;1;151
988;e4;35;2;186
994;e4;28;4;181
978;e4;5;43;198
987;e4;40;1;190
986;e4;43;1;192
1031;e4;0;1;150
1030;e4;0;3;152
1033;e4;0;1;150
1036;e4;0;1;150
1034;e4;3;2;154
1032;e4;7;1;157
1040;e4;0;2;150
1043;e4;0;1;150
1043;e4;2;1;151
973;e4;68;5;223
973;e4;69;6;223
1043;e4;4;1;155
973;e4;75;2;226
1049;e4;1;1;151
1034;e4;4;13;167
1052;e4;0;1;150
1049;e4;2;2;156
1056;e4;0;1;150
1053;e4;0;2;154
1056;e4;2;1;152
1035;e4;0;26;175
1062;e4;0;2;151
1065;e4;0;2;150
1063;e4;1;1;153
1067;e4;0;1;150
1068;e4;0;1;151
1069;e4;0;1;151
1068;e4;2;2;153
1072;e4;0;2;151
1071;e4;3;2;153
1076;e4;0;1;149
1078;e4;0;1;149
1054;e4;12;11;173
1054;e4;7;19;175
1079;e4;1;1;152
1079;e4;2;2;153
1078;e4;4;1;155
1083;e4;1;1;151
1053;e4;32;1;183
972;e4;114;1;265
970;e4;117;1;268
1083;e4;0;8;157
1091;e4;0;2;151
1090;e4;2;2;154
1094;e4;0;2;151
1097;e4;0;2;151
1101;e4;0;1;150
1102;e4;0;1;150
1098;e4;6;1;155
1098;e4;8;1;158
1107;e4;0;1;150
1105;e4;0;4;153
1103;e4;0;8;157
1107;e4;2;1;153
1110;e4;1;1;152
1100;e4;0;14;163
1119;e4;0;1;150
1118;e4;0;2;151
1120;e4;1;1;150
1122;e4;0;1;150
1116;e4;1;8;158
1123;e4;2;1;153
1126;e4;1;1;151
1128;e4;1;1;150
1116;e4;0;15;163
1131;e4;0;1;149
1114;e4;0;22;170
1122;e4;11;2;162
1135;e4;0;1;151
1136;e4;1;1;151
1096;e4;0;41;191
1139;e4;0;1;149
1059;e4;1;80;231
1141;e4;0;2;151
1142;e4;1;1;152
1145;e4;0;1;150
1028;e4;0;121;270
1149;e4;3;1;152
1149;e4;1;3;154
1154;e4;0;1;150
1146;e4;2;7;160
1156;e4;0;1;151
1153;e4;6;2;157
1146;e4;14;2;165
1161;e4;0;1;150
1156;e4;2;6;156
1163;e4;0;1;151
1165;e4;0;2;152
1164;e4;5;1;155
1167;e4;0;5;154
1170;e4;0;2;151
1170;e4;2;1;152
1173;e4;2;1;152
1174;e4;0;3;151
988;e4;38;152;339
1180;e4;0;1;150
1173;e4;9;1;159
1186;e4;0;1;151
1145;e4;42;2;193
1188;e4;0;1;151
1162;e4;23;6;178
1190;e4;0;1;150
1164;e4;19;10;177
1189;e4;3;1;154
1189;e4;5;2;155
1179;e4;2;16;167
1176;e4;2;19;171
1195;e4;1;1;152
978;e4;0;222;370
1197;e4;1;1;153
1200;e4;0;2;151
1202;e4;0;1;151
974;e4;2;229;379
1205;e4;1;1;150
1204;e4;0;1;151
1203;e4;5;1;155
1210;e4;1;1;150
1212;e4;1;1;151
1212;e4;2;2;153
1217;e4;0;1;151
1219;e4;0;1;150
1221;e4;0;1;149
1218;e4;0;3;152
1222;e4;0;2;151
1221;e4;5;2;155
1215;e4;14;2;165
1223;e4;1;7;158
1231;e4;2;1;152
1231;e4;0;3;153
1235;e4;1;1;151
1240;e4;0;1;149
1238;e4;0;2;151
1242;e4;0;1;151
1238;e4;3;4;156
1245;e4;0;2;150
1239;e4;0;8;158
1249;e4;0;1;149
1245;e4;3;1;153
1244;e4;6;1;156
1201;e4;52;1;202
1199;e4;56;1;206
1256;e4;0;1;150
1197;e4;60;1;210
1189;e4;69;2;221
1145;e4;114;1;266
1260;e4;0;1;151
1262;e4;0;2;152
1144;e4;119;1;271
1266;e4;0;1;150
1199;e4;55;14;218
1264;e4;0;1;153
1265;e4;3;1;154
1142;e4;127;2;278
1272;e4;0;1;149
1141;e4;130;2;282
1270;e4;0;4;154
1273;e4;1;1;152
1275;e4;1;1;151
1203;e4;49;26;224
1244;e4;7;28;184
1278;e4;1;1;151
1246;e4;1;33;184
1209;e4;28;45;222
1281;e4;0;2;151
1283;e4;0;1;151
1281;e4;3;2;154
1280;e4;5;2;157
1287;e4;1;1;151
1278;e4;8;4;161
1281;e4;1;9;159
1235;e4;0;58;207
1291;e4;1;1;151
1294;e4;0;2;150
1296;e4;0;1;151
1298;e4;0;1;151
1300;e4;1;1;151
1297;e4;0;6;155
1303;e4;0;1;151
1305;e4;1;1;150
1307;e4;1;2;152
1305;e4;6;1;155
1317;e4;0;1;150
1319;e4;0;1;149
1316;e4;0;2;152
1318;e4;0;2;152
1313;e4;0;6;158
1313;e4;9;1;159
1323;e4;1;1;151
1312;e4;13;1;163
1290;e4;37;1;188
1329;e4;0;1;150
1332;e4;0;1;151
1277;e4;58;2;209
1333;e4;0;4;154
1338;e4;0;1;150
1341;e4;1;1;151
1343;e4;0;1;150
1341;e4;0;4;154
1346;e4;0;1;150
1337;e4;3;8;160
1348;e4;0;2;151
1349;e4;1;1;152
1352;e4;0;3;151
1353;e4;1;1;152
1355;e4;1;1;151
1351;e4;6;2;157
1338;e4;1;21;171
1272;e4;89;1;238
1366;e4;0;1;149
1364;e4;0;2;151
1140;e4;223;5;377
1369;e4;1;1;150
1367;e4;1;2;152
1140;e4;222;10;380
1371;e4;1;2;151
1347;e4;13;15;176
1374;e4;0;1;151
1376;e4;0;2;151
1348;e4;11;19;180
1289;e4;41;49;240
1377;e4;4;1;154
1382;e4;0;2;152
1384;e4;1;1;151
1383;e4;0;4;153
1387;e4;1;1;151
1390;e4;0;2;151
1392;e4;0;1;149
1394;e4;0;2;151
1397;e4;0;1;150
1383;e4;16;1;166
1394;e4;2;5;155
1389;e4;4;9;162
1384;e4;2;16;168
1373;e4;30;2;180
1405;e4;0;1;150
1400;e4;2;4;156
1406;e4;1;2;152
1410;e4;0;2;150
1411;e4;1;1;150
1378;e4;1;35;186
1417;e4;0;1;151
1418;e4;3;1;153
1420;e4;0;2;151
1414;e4;0;9;159
1424;e4;0;1;149
1380;e4;0;46;195
1424;e4;2;1;153
1423;e4;4;2;155
1404;e4;24;1;175
1429;e4;2;1;151
1430;e4;0;1;150
1432;e4;0;1;150
1433;e4;0;1;150
1278;e4;53;104;305
1434;e4;1;1;151
1429;e4;7;1;157
1371;e4;66;1;217
1434;e4;0;5;155
1440;e4;0;2;151
1439;e4;3;2;153
1444;e4;0;1;151
1447;e4;0;2;151
1450;e4;0;1;149
1452;e4;0;1;150
1453;e4;0;1;150
1449;e4;2;4;155
1139;e4;315;1;465
1456;e4;0;1;151
1135;e4;323;1;473
1115;e4;344;1;494
1455;e4;2;4;155
1461;e4;0;3;151
1460;e4;2;1;152
1463;e4;1;3;153
1365;e4;83;19;252
1469;e4;0;1;150
1460;e4;7;4;161
1471;e4;0;2;152
1475;e4;0;1;149
1112;e4;356;9;514
1476;e4;1;2;152
1438;e4;8;34;191
1478;e4;2;1;153
1476;e4;6;1;156
1487;e4;0;1;150
1485;e4;0;4;153
1489;e4;1;1;151
1488;e4;4;1;154
1488;e4;3;6;158
1499;e4;0;1;150
1501;e4;0;1;150
1502;e4;1;1;150
1505;e4;0;1;150
1507;e4;0;1;150
1507;e4;1;1;151
1504;e4;0;6;156
1510;e4;1;2;152
1510;e4;3;1;153
1514;e4;1;1;151
1516;e4;0;2;150
1518;e4;1;1;150
1520;e4;1;2;152
1520;e4;4;2;155
1514;e4;11;1;161
1526;e4;1;1;151
1526;e4;0;3;153
1528;e4;1;1;152
1526;e4;4;3;155
1531;e4;2;1;153
1535;e4;0;1;150
1514;e4;20;2;172
1537;e4;0;1;150
1523;e4;0;17;166
1539;e4;0;1;153
1541;e4;0;2;152
1542;e4;3;1;152
1543;e4;0;1;151
1547;e4;0;1;150
1542;e4;2;4;156
1547;e4;2;1;153
1551;e4;0;2;151
1535;e4;17;1;168
1509;e4;45;1;194
1507;e4;48;1;198
1504;e4;52;2;204
1504;e4;54;1;205
1502;e4;58;2;209
1568;e4;0;1;150
1564;e4;2;4;155
1501;e4;61;13;222
1571;e4;0;2;152
1500;e4;63;11;223
1572;e4;2;1;153
1575;e4;1;1;151
1559;e4;0;18;168
1578;e4;0;1;149
1579;e4;0;1;150
1580;e4;0;2;150
1580;e4;1;1;152
1580;e4;3;1;153
1570;e4;14;4;167
1577;e4;0;11;160
1588;e4;1;2;152
1591;e4;0;1;150
1509;e4;44;40;232
1592;e4;1;1;151
1538;e4;12;44;205
1540;e4;0;55;205
1596;e4;0;1;150
1599;e4;0;1;151
1603;e4;0;2;150
1601;e4;0;4;154
1606;e4;0;1;151
1601;e4;6;2;157
1600;e4;10;1;160
1612;e4;0;1;150
1618;e4;0;1;149
1619;e4;0;1;151
1617;e4;3;2;154
1617;e4;4;1;155
1622;e4;0;1;150
1624;e4;0;2;151
1613;e4;2;12;163
1627;e4;0;2;151
1629;e4;0;1;151
1631;e4;0;1;150
1632;e4;0;1;149
1633;e4;0;1;150
1634;e4;1;1;150
1634;e4;0;3;152
1617;e4;20;1;172
1600;e4;39;1;190
1640;e4;0;2;152
1597;e4;44;1;196
1644;e4;0;1;149
1591;e4;52;3;204
1642;e4;0;2;155
1648;e4;0;1;150
1647;e4;0;2;152
1649;e4;0;1;151
1648;e4;4;2;155
1648;e4;6;1;156
1651;e4;0;5;154
1655;e4;1;1;151
1616;e4;22;21;192
1659;e4;0;1;149
1658;e4;2;1;152
1663;e4;0;1;151
1655;e4;11;1;160
1648;e4;20;2;171
1669;e4;0;1;150
1671;e4;0;1;151
1674;e4;0;1;150
1669;e4;6;1;155
1647;e4;29;1;179
1672;e4;1;7;156
1679;e4;1;3;154
1686;e4;0;1;149
1685;e4;0;3;152
1688;e4;1;1;151
1686;e4;1;3;153
1688;e4;0;4;152
1690;e4;2;2;153
1693;e4;0;1;150
1695;e4;0;1;150
1695;e4;2;1;152
1696;e4;0;3;152
1690;e4;11;2;163
1704;e4;0;1;150
1699;e4;1;5;156
1706;e4;0;1;150
1709;e4;0;1;150
1709;e4;1;1;151
1711;e4;0;3;151
1709;e4;3;1;153
1714;e4;0;1;150
1713;e4;2;1;152
1695;e4;3;19;171
1708;e4;0;8;158
1718;e4;0;2;150
1721;e4;0;1;150
1667;e4;0;56;206
1725;e4;0;1;150
1726;e4;0;1;150
1724;e4;0;3;153
1727;e4;0;1;150
1665;e4;0;65;214
1658;e4;3;70;222
1731;e4;0;1;150
1631;e4;5;95;250
1739;e4;0;1;150
1735;e4;0;7;155
1736;e4;1;4;154
1740;e4;2;1;153
1746;e4;0;1;150
1747;e4;0;1;150
1743;e4;2;4;155
1748;e4;0;1;150
1749;e4;0;1;151
1740;e4;12;1;162
1746;e4;4;4;157
1738;e4;16;1;166
1755;e4;1;1;151
1758;e4;0;2;150
1760;e4;0;1;150
1760;e4;1;1;152
1755;e4;7;2;159
1764;e4;0;1;150
1735;e4;30;3;182
1767;e4;1;1;152
1763;e4;0;8;157
1770;e4;0;1;151
1770;e4;2;1;152
1769;e4;5;1;156
1776;e4;0;2;151
1778;e4;0;1;150
1780;e4;0;1;150
1779;e4;4;1;154
1784;e4;0;1;150
1780;e4;2;4;154
1785;e4;0;2;152
1787;e4;0;1;151
1777;e4;12;1;161
1790;e4;0;1;150
1791;e4;0;1;151
1791;e4;1;1;151
1791;e4;3;1;153
1797;e4;0;2;151
1799;e4;0;1;150
1800;e4;0;1;150
1796;e4;2;2;154
1802;e4;0;1;150
1803;e4;1;1;151
1800;e4;7;1;156
1775;e4;33;1;182
1810;e4;0;1;150
1801;e4;5;7;160
1811;e4;0;1;150
1812;e4;0;1;151
1813;e4;0;2;151
1803;e4;2;11;162
1795;e4;0;22;171
1817;e4;0;1;151
1818;e4;0;3;151
1819;e4;0;1;150
1822;e4;1;1;151
1822;e4;0;3;152
1824;e4;1;2;153
1828;e4;0;1;150
1827;e4;0;2;152
1821;e4;8;1;159
1820;e4;10;1;161
1818;e4;13;2;164
1816;e4;17;1;167
1821;e4;0;14;162
1835;e4;0;1;150
1836;e4;1;2;151
1788;e4;0;52;201
1816;e4;23;2;175
1844;e4;0;1;150
1811;e4;31;4;184
1841;e4;0;5;155

start time;target;time at S;time at I;total time
2;e6;1;3;152
0;e6;1;6;155
23;e6;0;2;150
26;e6;0;2;151
34;e6;0;1;149
29;e6;0;8;156
39;e6;0;5;154
48;e6;6;3;157
52;e6;0;6;154
62;e6;0;3;151
71;e6;0;2;151
76;e6;0;1;150
78;e6;1;2;151
74;e6;0;8;157
80;e6;1;1;152
84;e6;1;1;152
86;e6;4;4;156
99;e6;1;1;150
97;e6;9;2;159
113;e6;0;2;150
121;e6;1;2;152
129;e6;0;2;154
127;e6;0;12;160
123;e6;1;15;165
120;e6;0;21;172
145;e6;0;1;149
102;e6;2;40;192
102;e6;0;45;193
146;e6;5;6;159
148;e6;1;14;164
146;e6;1;21;171
172;e6;0;6;154
179;e6;1;1;150
182;e6;0;4;152
185;e6;0;2;151
186;e6;1;1;151
181;e6;13;2;163
192;e6;0;4;153
204;e6;0;1;150
200;e6;1;7;156
213;e6;0;2;151
209;e6;1;7;157
217;e6;0;1;150
199;e6;0;23;171
224;e6;0;3;151
229;e6;0;3;152
195;e6;2;38;188
188;e6;2;55;205
242;e6;2;1;152
169;e6;1;82;231
252;e6;0;1;150
254;e6;1;2;151
98;e6;0;162;310
260;e6;1;1;150
259;e6;0;5;154
96;e6;0;170;318
268;e6;2;2;152
272;e6;1;1;151
275;e6;0;1;149
272;e6;5;1;154
280;e6;1;2;151
278;e6;1;7;157
286;e6;0;1;151
267;e6;0;24;172
295;e6;4;3;155
306;e6;0;3;152
311;e6;1;3;152
322;e6;0;1;150
315;e6;15;2;165
331;e6;1;4;153
337;e6;1;2;152
344;e6;0;1;149
346;e6;0;1;149
321;e6;7;24;179
321;e6;5;27;181
324;e6;0;33;182
320;e6;0;43;192
366;e6;0;2;150
370;e6;1;2;151
369;e6;0;8;156
318;e6;0;67;216
386;e6;0;2;150
315;e6;1;74;223
386;e6;7;1;156
391;e6;0;4;153
397;e6;0;3;151
399;e6;1;1;150
412;e6;0;9;157
427;e6;1;1;150
422;e6;0;8;156
430;e6;0;1;149
431;e6;1;2;152
437;e6;0;1;149
439;e6;0;1;149
443;e6;1;2;151
449;e6;3;1;152
466;e6;1;1;150
465;e6;0;3;152
471;e6;0;2;150
472;e6;1;2;151
474;e6;5;9;163
475;e6;0;16;164
454;e6;2;39;189
496;e6;2;3;154
501;e6;3;1;153
502;e6;0;5;153
496;e6;0;11;160
454;e6;0;55;203
450;e6;0;61;209
436;e6;12;65;225
443;e6;3;67;219
520;e6;0;2;150
525;e6;1;4;154
533;e6;0;3;151
522;e6;2;15;165
513;e6;1;26;175
555;e6;0;4;153
552;e6;0;9;157
570;e6;0;2;151
568;e6;7;1;157
567;e6;13;1;162
581;e6;1;3;152
583;e6;2;1;151
588;e6;0;2;150
577;e6;1;13;163
572;e6;1;20;170
567;e6;0;29;177
610;e6;0;2;150
613;e6;0;6;154
625;e6;0;4;152
603;e6;5;21;176
632;e6;0;1;149
606;e6;0;28;176
603;e6;1;31;181
640;e6;0;1;149
638;e6;0;4;152
655;e6;0;3;152
659;e6;4;4;156
660;e6;1;7;157
647;e6;1;22;172
646;e6;0;26;174
639;e6;3;30;182
556;e6;5;117;270
550;e6;0;128;276
540;e6;0;139;288
687;e6;0;3;151
681;e6;0;10;160
442;e6;0;255;403
707;e6;3;2;153
705;e6;7;1;157
705;e6;10;1;160
707;e6;0;10;159
701;e6;17;6;171
701;e6;3;22;173
729;e6;1;2;151
726;e6;2;5;156
734;e6;1;3;152
742;e6;0;2;151
743;e6;1;2;152
733;e6;0;16;165
726;e6;0;29;177
759;e6;1;2;151
764;e6;0;3;152
758;e6;0;13;161
756;e6;0;19;167
781;e6;0;1;149
784;e6;1;1;150
702;e6;0;85;233
786;e6;1;1;151
784;e6;4;3;155
793;e6;0;2;150
789;e6;6;1;156
789;e6;2;8;158
700;e6;0;101;249
809;e6;1;1;150
821;e6;1;2;151
820;e6;8;2;158
824;e6;2;6;156
824;e6;0;8;157
833;e6;2;3;153
833;e6;0;7;155
841;e6;0;2;150
820;e6;0;24;172
849;e6;0;2;151
855;e6;0;3;152
869;e6;0;2;150
846;e6;5;20;174
878;e6;0;6;154
846;e6;1;43;192
889;e6;1;2;151
845;e6;0;48;196
842;e6;1;54;204
818;e6;0;81;229
808;e6;0;96;244
905;e6;0;1;150
434;e6;1;473;622
912;e6;0;1;149
420;e6;0;494;643
402;e6;1;514;663
387;e6;2;532;683
931;e6;0;1;149
938;e6;0;1;149
931;e6;2;8;158
941;e6;2;3;153
946;e6;1;2;151
949;e6;0;1;149
946;e6;9;1;158
972;e6;0;1;150
967;e6;0;8;156
964;e6;0;14;162
961;e6;0;20;168
957;e6;0;28;176
956;e6;0;33;181
992;e6;4;1;154
992;e6;1;5;155
999;e6;0;5;153
1007;e6;0;2;150
990;e6;1;21;170
1013;e6;0;1;150
1019;e6;0;4;153
1024;e6;1;3;153
1014;e6;3;13;165
1033;e6;1;2;151
1032;e6;0;5;154
1015;e6;0;25;173
1010;e6;1;31;181
1044;e6;0;1;149
1046;e6;0;9;157
1056;e6;1;1;150
1063;e6;0;3;151
1059;e6;0;9;158
1054;e6;1;17;167
1073;e6;0;2;150
1078;e6;1;2;151
1076;e6;1;8;158
1090;e6;0;2;150
1093;e6;0;4;152
1074;e6;1;23;172
989;e6;0;110;258
949;e6;5;150;303
950;e6;3;153;304
1108;e6;0;2;150
1111;e6;1;4;153
1110;e6;5;2;156
1110;e6;0;9;157
1123;e6;0;1;150
1124;e6;2;2;152
1132;e6;0;1;149
1127;e6;1;5;155
1146;e6;0;1;149
1148;e6;1;2;151
1135;e6;9;8;166
1150;e6;5;1;155
1147;e6;10;2;160
1150;e6;3;7;158
1163;e6;1;1;151
1166;e6;0;1;149
1162;e6;0;7;155
1172;e6;1;2;151
1176;e6;1;1;150
1179;e6;0;3;151
1171;e6;0;12;161
1184;e6;0;1;149
1167;e6;1;17;167
1151;e6;0;35;184
1193;e6;0;1;150
1198;e6;3;2;153
1212;e6;0;3;151
1216;e6;0;1;149
1209;e6;1;13;162
1223;e6;0;1;149
1196;e6;11;19;179
1225;e6;0;1;152
1232;e6;0;1;149
1234;e6;0;2;150
1223;e6;7;7;163
1225;e6;3;11;162
1205;e6;0;36;185
1243;e6;0;2;151
1244;e6;2;6;156
1203;e6;0;50;198
1199;e6;0;56;204
1197;e6;0;63;211
1261;e6;0;2;151
1267;e6;0;2;153
1274;e6;6;3;158
1277;e6;1;8;158
1289;e6;4;2;154
1300;e6;0;1;149
1307;e6;0;2;151
1304;e6;6;5;159
1314;e6;2;1;151
1323;e6;0;8;157
1320;e6;1;12;161
1314;e6;0;14;169
1334;e6;0;1;150
1337;e6;0;3;152
1304;e6;0;37;186
1299;e6;3;42;194
1346;e6;1;1;151
1344;e6;5;1;155
1351;e6;2;1;151
1350;e6;5;6;159
1351;e6;0;12;160
1344;e6;1;16;168
1367;e6;0;1;150
1371;e6;0;2;150
1374;e6;1;1;152
1368;e6;10;3;161
1370;e6;3;10;161
1369;e6;0;15;163
1388;e6;3;3;154
1388;e6;1;6;155
1395;e6;0;2;150
1387;e6;0;12;160
1401;e6;0;3;151
1406;e6;0;2;150
1406;e6;2;2;152
1404;e6;0;6;155
1412;e6;1;1;150
1410;e6;1;7;156
1409;e6;7;1;157
1418;e6;1;1;150
1429;e6;0;9;157
1444;e6;1;2;151
1439;e6;4;5;157
1441;e6;0;9;157
1455;e6;0;2;150
1463;e6;0;1;150
1439;e6;0;27;175
1464;e6;2;2;153
1423;e6;0;47;196
1398;e6;0;74;223
1475;e6;1;1;151
1480;e6;4;2;154
1479;e6;10;5;163
1485;e6;1;9;158
1494;e6;0;1;150
1506;e6;0;1;149
1509;e6;0;3;151
1510;e6;2;2;152
1510;e6;4;2;154
1520;e6;0;1;149
1517;e6;5;2;155
1528;e6;0;4;152
1517;e6;0;17;165
1538;e6;0;1;150
1536;e6;0;5;154
1542;e6;0;5;153
1548;e6;0;2;150
1546;e6;0;5;154
1499;e6;3;56;208
1499;e6;1;60;210
1482;e6;1;80;229
1564;e6;0;2;151
1480;e6;1;87;236
1569;e6;0;2;150
1582;e6;0;4;152
1585;e6;0;1;151
1599;e6;1;3;152
1602;e6;0;1;151
1610;e6;1;1;150
1613;e6;0;1;149
1587;e6;18;11;177
1608;e6;0;6;156
1608;e6;8;2;158
1623;e6;3;2;154
1627;e6;3;5;156
1628;e6;0;9;158
1623;e6;0;19;167
1646;e6;0;5;154
1587;e6;10;56;214
1654;e6;3;5;157
1662;e6;0;1;150
1662;e6;2;1;152
1655;e6;0;13;162
1670;e6;0;2;150
1653;e6;0;25;173
1677;e6;0;1;150
1587;e6;7;87;242
1590;e6;2;89;240
1682;e6;1;1;150
1682;e6;0;2;152
1590;e6;0;99;247
1690;e6;0;3;151
1699;e6;0;3;151
1702;e6;0;1;149
1704;e6;1;3;152
1703;e6;0;6;154
1694;e6;0;18;166
1734;e6;0;2;150
1734;e6;2;1;151
1733;e6;0;6;154
1743;e6;0;2;150
1741;e6;0;11;159
1757;e6;0;2;150
1756;e6;3;8;159
1773;e6;0;1;149
1773;e6;2;1;152
1776;e6;3;1;152
1777;e6;0;4;153
1767;e6;2;14;164
1786;e6;0;1;149
1755;e6;0;36;185
1796;e6;0;2;150
1803;e6;0;7;155
1814;e6;1;2;152
1820;e6;0;1;150
1824;e6;0;1;150
1801;e6;0;26;174
1833;e6;3;1;152
1834;e6;0;4;152
1837;e6;1;5;154
1832;e6;0;12;160
1848;e6;0;1;149
1844;e6;1;4;155

