step;d2;d3;d1
0;0;0;0
1;0;0;0
2;0;0;0
3;0;0;0
4;0;0;0
5;0;0;0
6;0;0;0
7;0;0;0
8;0;0;0
9;0;0;0
10;0;0;0
11;0;0;0
12;0;0;0
13;0;0;0
14;0;0;0
15;0;0;0
16;0;0;0
17;0;0;0
18;0;0;0
19;0;0;0
20;0;0;0
21;0;0;0
22;0;0;0
23;0;0;0
24;0;0;0
25;0;0;0
26;0;0;0
27;0;0;0
28;0;0;0
29;0;0;0
30;0;0;0
31;0;0;0
32;0;0;0
33;0;0;0
34;0;0;0
35;0;0;0
36;0;0;0
37;0;0;0
38;0;0;0
39;0;0;0
40;0;0;0
41;0;0;0
42;0;0;0
43;0;0;0
44;0;0;0
45;0;0;0
46;0;0;0
47;0;0;0
48;0;0;0
49;0;0;0
50;0;0;0
51;0;0;0
52;0;0;0
53;0;0;0
54;0;0;0
55;0;0;0
56;0;0;0
57;0;0;0
58;0;0;0
59;0;0;0
60;0;0;0
61;0;0;0
62;0;0;0
63;0;0;0
64;0;0;0
65;0;0;0
66;0;0;0
67;0;0;0
68;0;0;0
69;0;0;0
70;0;0;0
71;0;0;0
72;0;1;0
73;1;1;0
74;2;1;1
75;2;2;1
76;4;2;1
77;3;2;2
78;3;1;3
79;4;3;2
80;4;3;2
81;2;4;4
82;3;4;5
83;4;4;7
84;4;5;6
85;5;5;7
86;5;5;7
87;5;5;9
88;5;5;9
89;6;5;9
90;6;6;9
91;7;7;9
92;6;8;9
93;7;8;8
94;8;8;9
95;8;9;9
96;10;9;10
97;10;10;9
98;10;10;10
99;10;11;11
100;11;11;11
101;10;11;14
102;12;11;15
103;12;12;17
104;12;12;18
105;13;12;17
106;17;12;16
107;17;13;18
108;18;14;17
109;18;15;18
110;18;16;19
111;17;17;18
112;20;17;18
113;18;18;19
114;18;18;19
115;19;19;20
116;19;19;20
117;18;20;22
118;19;20;22
119;20;21;21
120;20;21;21
121;21;21;23
122;23;22;25
123;23;23;25
124;24;23;24
125;25;24;27
126;27;25;27
127;28;26;26
128;28;27;27
129;27;28;27
130;27;28;30
131;29;28;30
132;29;29;32
133;30;30;32
134;31;31;32
135;32;32;33
136;31;33;34
137;33;33;33
138;32;34;36
139;34;35;36
140;35;35;37
141;36;35;37
142;35;35;37
143;34;35;38
144;36;35;37
145;36;35;37
146;36;36;36
147;35;35;37
148;35;34;39
149;36;35;39
150;36;37;39
151;39;36;39
152;41;37;38
153;42;38;39
154;40;40;41
155;43;41;42
156;42;41;42
157;42;42;43
158;42;42;42
159;42;42;44
160;43;42;44
161;44;43;43
162;43;44;44
163;45;44;46
164;47;45;47
165;48;46;47
166;48;47;48
167;48;48;49
168;48;49;50
169;49;50;49
170;49;50;50
171;50;50;51
172;49;51;51
173;49;51;51
174;50;50;51
175;51;50;50
176;50;51;51
177;50;51;50
178;50;51;50
179;52;51;51
180;53;51;51
181;52;52;53
182;51;53;52
183;52;53;52
184;52;53;53
185;54;52;53
186;53;53;54
187;54;53;54
188;54;54;53
189;53;54;55
190;54;54;54
191;54;54;54
192;54;54;54
193;54;54;55
194;54;54;54
195;55;55;54
196;55;55;56
197;55;55;56
198;56;55;57
199;57;56;59
200;57;56;58
201;59;57;57
202;59;58;58
203;58;59;59
204;58;59;61
205;59;59;62
206;58;60;63
207;59;60;65
208;60;60;64
209;61;60;63
210;60;61;64
211;62;61;65
212;61;62;64
213;62;62;64
214;63;63;64
215;65;63;65
216;64;64;65
217;64;65;65
218;66;64;64
219;65;65;65
220;65;65;64
221;64;65;64
222;64;65;66
223;64;65;65
224;66;65;66
225;66;66;66
226;67;67;68
227;68;68;67
228;71;68;68
229;71;68;68
230;70;68;68
231;70;69;68
232;69;70;68
233;69;70;70
234;71;70;69
235;71;70;70
236;70;70;72
237;70;71;73
238;70;71;73
239;71;70;72
240;71;72;73
241;72;71;72
242;71;72;72
243;71;72;74
244;73;72;75
245;73;73;75
246;76;73;76
247;75;74;76
248;77;74;75
249;75;74;75
250;75;75;79
251;75;75;78
252;76;75;77
253;77;75;77
254;78;77;77
255;77;77;76
256;80;77;78
257;80;78;80
258;81;79;80
259;79;80;83
260;80;80;84
261;80;80;83
262;82;80;84
263;81;81;85
264;82;82;84
265;84;82;83
266;83;83;84
267;84;83;84
268;83;84;85
269;85;83;84
270;85;84;84
271;84;85;85
272;85;85;85
273;85;86;86
274;86;85;85
275;85;86;87
276;86;85;88
277;86;86;88
278;85;87;89
279;85;87;88
280;86;87;89
281;87;87;88
282;86;88;90
283;88;88;89
284;89;88;90
285;90;89;89
286;91;89;88
287;91;90;88
288;91;91;89
289;91;92;89
290;92;91;89
291;92;91;89
292;91;91;90
293;93;90;90
294;92;91;91
295;94;92;90
296;93;93;92
297;94;93;92
298;94;94;94
299;94;94;95
300;96;94;96
301;98;95;96
302;98;96;98
303;97;97;98
304;97;98;98
305;99;98;100
306;98;98;100
307;100;98;100
308;100;99;100
309;100;99;103
310;102;100;102
311;102;101;104
312;101;102;103
313;102;103;103
314;103;103;103
315;104;103;104
316;105;103;103
317;105;104;104
318;107;104;105
319;106;105;106
320;106;106;106
321;105;107;107
322;105;106;109
323;105;106;108
324;106;106;108
325;106;107;108
326;108;107;110
327;108;108;109
328;108;109;110
329;109;108;110
330;109;109;110
331;110;110;110
332;110;110;112
333;111;110;112
334;111;111;113
335;110;112;113
336;110;112;113
337;111;112;112
338;115;111;112
339;113;112;113
340;112;113;114
341;112;113;116
342;112;113;115
343;115;113;114
344;114;114;114
345;114;115;115
346;114;115;114
347;115;114;118
348;114;115;119
349;114;114;121
350;115;113;122
351;115;115;122
352;114;116;123
353;116;116;123
354;117;117;124
355;117;117;126
356;120;117;126
357;120;118;127
358;122;119;127
359;122;120;129
360;122;121;131
361;121;122;132
362;121;122;135
363;121;122;135
364;124;122;134
365;124;123;134
366;123;124;135
367;123;125;137
368;124;124;136
369;127;124;135
370;128;125;135
371;128;126;137
372;128;127;136
373;130;128;137
374;131;129;136
375;130;130;135
376;132;131;134
377;131;132;136
378;132;132;138
379;132;132;139
380;134;132;139
381;136;133;139
382;137;134;139
383;136;135;138
384;136;136;138
385;139;136;137
386;137;137;140
387;140;137;140
388;139;137;140
389;139;138;140
390;138;138;142
391;139;138;141
392;139;139;142
393;140;139;141
394;141;140;140
395;143;140;140
396;142;141;141
397;141;142;140
398;142;142;141
399;143;141;141
400;141;142;142
401;142;142;142
402;141;143;145
403;141;143;144
404;142;143;143
405;144;143;144
406;144;144;146
407;143;145;146
408;146;145;145
409;145;146;147
410;148;146;146
411;146;146;146
412;146;147;149
413;146;147;150
414;146;146;151
415;146;147;152
416;147;147;153
417;146;148;152
418;147;147;155
419;147;148;154
420;151;149;154
421;151;150;154
422;152;150;154
423;151;151;156
424;152;151;155
425;153;152;156
426;154;153;155
427;154;154;156
428;154;155;157
429;154;155;156
430;155;154;158
431;156;155;159
432;157;157;159
433;156;157;158
434;156;157;157
435;156;157;157
436;157;157;157
437;157;158;156
438;158;156;157
439;157;157;158
440;157;159;158
441;159;159;158
442;160;158;159
443;159;158;161
444;161;159;160
445;159;160;164
446;159;160;165
447;160;161;165
448;159;161;164
449;160;161;164
450;160;161;165
451;164;161;165
452;167;162;164
453;166;163;166
454;165;164;167
455;165;165;167
456;167;165;166
457;167;166;167
458;168;167;167
459;169;168;169
460;169;169;168
461;169;170;170
462;170;170;172
463;171;170;171
464;171;171;173
465;170;172;173
466;172;171;173
467;173;172;172
468;174;173;172
469;173;173;174
470;175;173;176
471;174;174;176
472;174;174;177
473;176;173;178
474;177;174;177
475;178;175;177
476;180;176;179
477;181;177;178
478;180;178;180
479;181;178;179
480;180;179;181
481;180;181;181
482;180;181;182
483;181;182;183
484;182;182;184
485;182;183;185
486;184;182;184
487;183;183;184
488;186;184;184
489;185;185;185
490;186;184;186
491;186;185;187
492;188;185;188
493;187;186;189
494;187;187;190
495;187;187;189
496;187;187;190
497;190;187;190
498;189;188;190
499;190;189;190
500;189;190;189
501;191;190;190
502;191;191;192
503;190;192;193
504;190;191;195
505;191;191;195
506;191;191;195
507;191;192;197
508;192;192;197
509;196;192;197
510;195;193;197
511;197;193;198
512;196;194;197
513;198;195;197
514;198;196;199
515;198;197;199
516;201;198;199
517;203;199;199
518;201;200;201
519;201;201;201
520;202;201;202
521;201;202;203
522;202;202;205
523;204;203;205
524;205;204;206
525;206;205;207
526;205;206;208
527;206;206;208
528;206;207;208
529;207;206;210
530;207;207;209
531;207;206;211
532;207;207;211
533;207;207;211
534;207;208;211
535;208;208;212
536;209;208;214
537;209;209;213
538;212;209;213
539;213;210;214
540;212;211;215
541;213;212;214
542;212;213;213
543;213;213;214
544;213;213;215
545;215;214;214
546;214;214;215
547;214;213;215
548;216;214;215
549;217;215;216
550;215;215;218
551;214;216;219
552;215;216;220
553;218;215;219
554;219;216;218
555;218;217;219
556;219;218;219
557;217;219;220
558;218;219;220
559;220;219;222
560;219;220;222
561;219;220;223
562;220;220;223
563;221;220;222
564;221;221;224
565;222;222;224
566;225;222;223
567;224;223;225
568;223;224;225
569;226;224;225
570;225;225;225
571;225;226;226
572;225;227;226
573;227;227;225
574;227;227;226
575;226;227;228
576;228;226;229
577;227;227;231
578;227;228;232
579;229;228;231
580;232;229;231
581;234;230;232
582;234;231;233
583;232;232;234
584;231;232;234
585;232;232;233
586;234;233;235
587;233;234;237
588;235;234;237
589;235;235;239
590;236;234;240
591;236;235;240
592;236;236;240
593;237;236;239
594;237;237;238
595;239;237;238
596;238;238;241
597;239;238;241
598;239;239;241
599;240;240;240
600;240;241;239
601;240;241;240
602;240;241;241
603;241;241;242
604;241;242;241
605;242;242;242
606;242;242;244
607;244;242;245
608;247;243;245
609;246;244;245
610;247;245;244
611;247;246;246
612;248;246;246
613;249;247;248
614;249;248;248
615;248;248;248
616;249;248;250
617;249;249;249
618;250;249;250
619;250;250;249
620;252;250;249
621;251;251;252
622;253;252;253
623;254;253;254
624;253;254;254
625;256;254;254
626;255;254;254
627;257;255;254
628;258;256;256
629;256;257;257
630;257;256;261
631;257;257;261
632;260;257;262
633;260;258;263
634;260;259;262
635;261;259;262
636;261;260;263
637;260;261;262
638;262;261;264
639;262;262;265
640;263;263;264
641;263;263;263
642;262;263;264
643;264;263;263
644;263;264;265
645;264;264;265
646;264;264;265
647;265;264;264
648;264;265;265
649;267;265;264
650;267;266;264
651;267;266;269
652;266;267;268
653;268;268;270
654;268;269;269
655;269;269;270
656;270;268;270
657;271;269;269
658;269;271;271
659;272;271;270
660;270;272;270
661;273;271;270
662;272;272;273
663;272;273;273
664;274;273;273
665;275;274;273
666;274;275;275
667;275;275;277
668;275;276;276
669;277;276;278
670;279;277;278
671;278;278;280
672;278;278;280
673;279;277;280
674;281;278;280
675;280;279;281
676;281;280;283
677;281;281;283
678;281;282;284
679;282;282;286
680;283;282;286
681;284;283;285
682;284;283;285
683;284;284;286
684;287;284;285
685;286;285;287
686;289;286;287
687;288;287;287
688;289;288;287
689;288;289;287
690;290;287;288
691;288;288;289
692;291;289;292
693;291;290;291
694;293;291;291
695;293;292;292
696;295;292;293
697;293;293;294
698;293;294;293
699;294;293;294
700;296;294;294
701;295;295;296
702;298;295;296
703;296;296;297
704;297;296;296
705;297;297;296
706;297;297;298
707;299;297;299
708;299;298;298
709;298;298;299
710;297;299;299
711;299;299;298
712;298;299;300
713;299;298;299
714;298;299;299
715;301;299;298
716;299;300;299
717;298;299;300
718;301;299;301
719;300;299;302
720;299;300;302
721;302;301;303
722;301;302;302
723;301;302;303
724;304;302;304
725;304;303;303
726;303;304;306
727;304;304;305
728;303;305;305
729;304;305;306
730;305;305;306
731;306;305;305
732;307;305;307
733;306;306;308
734;307;306;308
735;310;307;307
736;308;307;307
737;309;308;310
738;308;309;312
739;309;309;312
740;311;310;312
741;311;311;312
742;313;311;313
743;312;312;314
744;312;313;315
745;314;313;315
746;314;313;316
747;314;314;315
748;317;315;315
749;317;316;315
750;318;316;317
751;317;317;318
752;318;317;318
753;319;318;318
754;319;319;320
755;319;319;322
756;320;320;321
757;319;321;322
758;320;321;324
759;321;321;324
760;320;322;326
761;320;323;325
762;322;323;325
763;324;323;324
764;325;324;324
765;325;325;325
766;324;325;327
767;326;325;327
768;326;326;328
769;326;326;329
770;326;326;330
771;327;326;329
772;330;327;329
773;330;327;329
774;330;328;329
775;330;329;330
776;332;330;329
777;331;330;333
778;331;331;332
779;334;331;333
780;334;332;333
781;335;333;333
782;333;334;335
783;334;334;337
784;333;335;338
785;334;335;337
786;335;335;336
787;335;334;337
788;336;334;339
789;336;334;339
790;339;335;340
791;337;337;340
792;337;338;340
793;337;338;342
794;338;338;341
795;337;339;344
796;338;339;344
797;338;339;344
798;339;339;344
799;338;340;345
800;339;340;346
801;339;340;347
802;341;340;347
803;340;341;347
804;341;341;347
805;342;341;347
806;342;342;347
807;342;342;349
808;342;343;349
809;343;343;348
810;343;344;348
811;344;344;349
812;343;345;349
813;343;345;351
814;343;345;350
815;344;345;350
816;345;345;349
817;348;345;348
818;347;345;349
819;346;346;351
820;345;346;350
821;345;346;351
822;348;346;351
823;348;347;351
824;349;348;350
825;348;349;350
826;349;349;350
827;354;349;350
828;353;350;352
829;354;351;352
830;354;352;352
831;354;353;353
832;353;354;355
833;355;354;354
834;354;354;357
835;354;355;357
836;356;355;356
837;355;356;355
838;357;355;355
839;357;356;356
840;357;357;356
841;356;358;357
842;356;357;357
843;360;357;358
844;360;358;358
845;359;359;359
846;359;359;359
847;359;360;360
848;360;361;359
849;359;361;360
850;359;361;362
851;361;361;361
852;363;361;360
853;362;362;362
854;362;362;363
855;362;363;363
856;363;364;362
857;362;363;365
858;365;363;367
859;364;365;366
860;365;366;366
861;366;366;365
862;365;366;366
863;366;366;366
864;365;367;365
865;365;366;367
866;367;366;366
867;367;367;366
868;367;367;368
869;367;368;367
870;367;368;366
871;370;368;367
872;369;369;368
873;370;369;370
874;370;369;370
875;370;369;370
876;371;370;369
877;372;370;370
878;372;371;370
879;371;372;371
880;371;372;371
881;371;371;372
882;370;372;373
883;370;372;372
884;370;372;373
885;372;371;372
886;371;372;373
887;373;373;372
888;374;373;374
889;375;374;374
890;374;375;375
891;378;375;376
892;376;376;377
893;377;377;377
894;378;378;378
895;379;378;379
896;378;379;381
897;381;379;382
898;382;380;383
899;381;381;384
900;382;381;384
901;384;381;385
902;384;382;386
903;383;383;385
904;383;384;384
905;384;384;387
906;384;384;386
907;384;384;385
908;385;385;385
909;386;385;384
910;386;386;384
911;385;387;386
912;387;386;387
913;387;387;387
914;389;386;388
915;389;387;389
916;388;387;390
917;388;388;392
918;388;389;392
919;391;389;392
920;392;389;391
921;392;390;392
922;391;391;391
923;390;392;390
924;390;391;390
925;391;391;389
926;392;391;391
927;390;392;393
928;392;392;392
929;392;392;391
930;391;392;391
931;392;391;394
932;393;392;394
933;392;393;393
934;394;393;392
935;394;393;392
936;393;393;395
937;394;393;395
938;393;394;394
939;396;394;395
940;396;395;394
941;397;396;395
942;396;395;395
943;396;395;395
944;394;396;397
945;394;396;396
946;397;395;396
947;398;396;395
948;396;397;397
949;398;397;396
950;398;397;398
951;399;398;399
952;398;399;399
953;399;399;399
954;401;399;400
955;402;400;401
956;403;401;403
957;402;402;404
958;403;402;405
959;402;403;407
960;402;403;411
961;402;403;411
962;403;402;411
963;402;403;410
964;404;403;411
965;404;403;411
966;404;403;413
967;407;404;414
968;407;405;415
969;407;406;415
970;406;407;417
971;407;407;416
972;408;407;415
973;408;408;414
974;409;409;415
975;410;409;414
976;411;410;414
977;412;411;415
978;412;412;415
979;413;412;415
980;412;413;415
981;415;413;414
982;413;414;414
983;415;414;413
984;413;415;414
985;414;415;415
986;415;415;414
987;415;415;416
988;417;415;416
989;417;415;417
990;420;416;416
991;420;417;416
992;419;418;416
993;419;418;416
994;419;418;416
995;419;419;416
996;420;420;417
997;421;420;417
998;420;421;418
999;420;421;420
1000;421;421;421
1001;426;421;422
1002;425;422;422
1003;424;423;424
1004;424;424;424
1005;423;424;426
1006;424;424;425
1007;425;424;426
1008;424;424;427
1009;424;425;427
1010;426;425;428
1011;427;426;430
1012;429;426;429
1013;430;427;429
1014;431;427;430
1015;432;428;431
1016;432;430;430
1017;434;431;430
1018;432;432;431
1019;431;432;433
1020;431;433;432
1021;433;432;431
1022;431;433;431
1023;432;431;432
1024;433;432;432
1025;432;432;433
1026;431;433;433
1027;432;433;434
1028;433;433;433
1029;434;433;435
1030;433;434;435
1031;435;434;435
1032;435;435;438
1033;436;435;438
1034;436;436;438
1035;437;436;437
1036;436;436;436
1037;438;437;438
1038;438;438;439
1039;437;439;439
1040;437;439;439
1041;439;439;439
1042;439;440;438
1043;440;440;439
1044;439;440;442
1045;440;440;442
1046;441;441;442
1047;442;442;442
1048;442;441;443
1049;442;442;443
1050;443;443;443
1051;443;443;442
1052;445;443;444
1053;445;444;444
1054;447;445;443
1055;447;446;443
1056;447;446;445
1057;445;446;447
1058;446;447;447
1059;446;448;448
1060;447;447;448
1061;448;447;447
1062;449;446;448
1063;452;447;449
1064;451;447;450
1065;450;447;450
1066;451;448;449
1067;453;449;451
1068;452;450;451
1069;455;451;451
1070;453;452;452
1071;452;453;454
1072;454;453;456
1073;454;454;457
1074;456;455;456
1075;457;456;456
1076;456;456;457
1077;456;457;457
1078;456;456;458
1079;455;457;458
1080;457;457;458
1081;457;457;458
1082;458;458;458
1083;457;458;460
1084;460;457;460
1085;460;458;460
1086;460;459;460
1087;459;460;461
1088;460;460;462
1089;462;459;461
1090;462;460;462
1091;463;461;461
1092;463;463;462
1093;462;463;463
1094;461;462;464
1095;461;462;466
1096;464;462;466
1097;463;463;467
1098;464;464;466
1099;464;465;466
1100;465;464;468
1101;466;465;468
1102;467;466;468
1103;466;467;469
1104;466;466;470
1105;467;466;469
1106;467;467;468
1107;467;466;468
1108;467;467;470
1109;467;467;470
1110;469;468;470
1111;468;469;470
1112;469;470;471
1113;469;469;471
1114;472;470;470
1115;470;471;471
1116;471;471;471
1117;470;472;472
1118;473;472;472
1119;472;473;473
1120;473;473;473
1121;475;472;474
1122;473;473;474
1123;473;473;473
1124;473;474;473
1125;474;473;473
1126;474;474;474
1127;474;475;476
1128;475;475;476
1129;475;475;476
1130;475;476;475
1131;475;475;476
1132;475;475;477
1133;475;476;477
1134;475;476;477
1135;476;477;477
1136;476;476;480
1137;476;476;481
1138;476;477;482
1139;476;477;483
1140;477;477;483
1141;476;478;483
1142;476;479;483
1143;478;479;484
1144;479;479;484
1145;481;480;483
1146;481;481;483
1147;480;482;483
1148;482;482;485
1149;484;482;485
1150;483;483;485
1151;482;484;485
1152;485;484;485
1153;486;485;484
1154;485;485;485
1155;485;485;487
1156;486;485;488
1157;489;486;487
1158;490;487;487
1159;491;488;488
1160;490;489;491
1161;491;490;491
1162;493;491;490
1163;492;492;490
1164;493;493;492
1165;492;493;493
1166;494;493;493
1167;494;493;494
1168;495;494;493
1169;494;494;495
1170;495;494;495
1171;496;495;496
1172;497;496;497
1173;497;496;497
1174;497;497;498
1175;496;498;499
1176;497;498;499
1177;499;498;501
1178;498;499;502
1179;500;499;503
1180;500;500;503
1181;502;500;503
1182;502;501;503
1183;504;502;502
1184;505;503;503
1185;503;504;504
1186;504;504;505
1187;504;504;504
1188;504;505;504
1189;505;505;504
1190;508;505;505
1191;507;506;508
1192;506;507;510
1193;508;507;510
1194;508;508;510
1195;509;508;511
1196;508;509;512
1197;509;509;514
1198;510;508;514
1199;510;509;513
1200;509;510;516
1201;509;510;516
1202;510;510;518
1203;509;510;517
1204;510;510;518
1205;511;510;519
1206;513;511;518
1207;512;512;517
1208;512;512;519
1209;513;511;519
1210;512;512;521
1211;513;512;520
1212;512;513;520
1213;514;513;522
1214;514;513;521
1215;513;514;521
1216;513;515;523
1217;514;515;523
1218;515;515;522
1219;516;516;522
1220;515;517;522
1221;517;516;522
1222;517;517;521
1223;516;518;522
1224;516;519;522
1225;517;519;522
1226;518;518;523
1227;518;519;522
1228;520;519;524
1229;520;521;523
1230;520;521;525
1231;520;521;527
1232;521;521;528
1233;522;522;527
1234;522;523;529
1235;524;523;528
1236;524;524;529
1237;527;525;529
1238;527;525;528
1239;529;526;528
1240;528;528;529
1241;528;528;530
1242;529;529;529
1243;529;530;530
1244;531;530;529
1245;531;530;533
1246;533;531;532
1247;534;532;534
1248;535;533;534
1249;536;534;534
1250;535;535;535
1251;534;535;535
1252;535;535;536
1253;536;535;535
1254;536;536;535
1255;536;536;537
1256;536;535;537
1257;537;536;539
1258;536;537;539
1259;539;537;540
1260;541;538;540
1261;541;538;541
1262;540;539;541
1263;541;540;540
1264;541;539;541
1265;543;540;541
1266;542;541;541
1267;543;541;541
1268;541;542;542
1269;543;542;543
1270;543;543;542
1271;547;543;542
1272;547;544;542
1273;547;544;542
1274;546;546;542
1275;545;546;543
1276;547;545;545
1277;546;546;545
1278;547;546;545
1279;547;546;546
1280;547;546;548
1281;546;547;548
1282;547;548;549
1283;547;548;549
1284;547;549;551
1285;547;549;551
1286;547;549;550
1287;548;549;550
1288;548;549;551
1289;549;549;551
1290;550;549;551
1291;550;549;551
1292;551;550;551
1293;552;551;551
1294;550;552;553
1295;551;552;553
1296;551;552;553
1297;554;552;553
1298;553;553;552
1299;555;553;552
1300;554;554;552
1301;555;554;554
1302;556;555;553
1303;556;555;554
1304;556;555;556
1305;556;556;556
1306;556;557;556
1307;558;557;557
1308;556;556;559
1309;557;556;560
1310;557;557;559
1311;558;557;558
1312;557;558;557
1313;557;558;557
1314;558;558;558
1315;558;558;559
1316;560;557;559
1317;558;558;560
1318;558;559;561
1319;558;559;563
1320;559;560;562
1321;561;559;562
1322;560;560;564
1323;560;561;564
1324;560;561;566
1325;562;561;565
1326;564;561;566
1327;564;561;566
1328;564;562;565
1329;564;563;565
1330;564;564;566
1331;566;564;567
1332;565;565;568
1333;565;566;569
1334;568;566;571
1335;569;567;571
1336;570;568;571
1337;570;569;571
1338;570;570;572
1339;570;571;574
1340;571;571;576
1341;571;572;576
1342;571;571;576
1343;571;573;577
1344;573;573;578
1345;575;573;578
1346;577;574;577
1347;578;575;577
1348;577;576;577
1349;577;577;576
1350;578;577;578
1351;580;578;580
1352;579;579;579
1353;580;579;580
1354;579;580;580
1355;579;580;580
1356;579;580;581
1357;579;580;580
1358;580;580;580
1359;579;580;582
1360;580;580;582
1361;581;581;583
1362;582;581;582
1363;583;582;581
1364;582;582;583
1365;583;583;585
1366;584;583;585
1367;585;584;586
1368;584;584;586
1369;584;584;585
1370;585;585;586
1371;585;585;586
1372;585;586;586
1373;585;586;585
1374;585;585;587
1375;585;586;588
1376;585;586;587
1377;586;586;587
1378;585;587;587
1379;586;587;587
1380;587;587;586
1381;588;587;587
1382;587;588;586
1383;587;588;587
1384;586;588;588
1385;587;588;587
1386;589;588;588
1387;588;588;589
1388;589;589;589
1389;588;589;590
1390;589;589;589
1391;591;589;589
1392;589;590;589
1393;590;590;589
1394;589;590;589
1395;589;590;589
1396;589;590;590
1397;589;590;592
1398;589;591;591
1399;591;591;590
1400;592;590;592
1401;593;591;593
1402;593;592;593
1403;595;592;593
1404;595;593;594
1405;597;594;594
1406;596;595;595
1407;596;596;597
1408;597;597;597
1409;597;598;596
1410;598;597;597
1411;597;598;599
1412;600;598;600
1413;601;599;599
1414;600;600;600
1415;600;600;602
1416;601;600;603
1417;600;601;603
1418;602;601;606
1419;601;602;605
1420;603;601;605
1421;602;601;604
1422;602;603;604
1423;602;603;603
1424;604;603;602
1425;603;604;602
1426;604;605;603
1427;605;605;605
1428;605;605;605
1429;607;605;606
1430;606;606;605
1431;609;607;607
1432;607;607;608
1433;607;607;609
1434;607;607;609
1435;607;608;612
1436;608;609;613
1437;610;609;613
1438;610;609;613
1439;609;610;613
1440;610;610;613
1441;610;610;614
1442;611;611;614
1443;614;612;614
1444;614;612;613
1445;614;613;615
1446;614;614;615
1447;614;615;617
1448;615;615;617
1449;616;616;616
1450;617;616;617
1451;617;617;617
1452;616;617;619
1453;619;617;618
1454;618;617;618
1455;617;618;620
1456;618;619;621
1457;619;619;620
1458;619;619;619
1459;618;619;621
1460;623;619;620
1461;621;620;621
1462;623;621;620
1463;622;622;620
1464;623;622;621
1465;623;622;623
1466;622;623;623
1467;623;622;625
1468;624;623;627
1469;624;624;626
1470;625;624;627
1471;626;625;627
1472;626;626;629
1473;626;627;631
1474;628;627;630
1475;628;628;630
1476;628;629;630
1477;630;629;629
1478;630;629;631
1479;631;631;633
1480;631;632;632
1481;633;632;632
1482;632;632;634
1483;633;633;633
1484;632;633;633
1485;632;633;635
1486;634;633;636
1487;634;634;635
1488;636;635;634
1489;636;634;634
1490;635;635;635
1491;636;635;635
1492;637;636;634
1493;637;637;636
1494;637;637;638
1495;637;638;638
1496;637;638;638
1497;637;638;639
1498;638;638;639
1499;638;639;639
1500;638;639;639
1501;639;639;640
1502;639;639;640
1503;641;639;641
1504;640;640;641
1505;642;641;641
1506;642;642;641
1507;642;642;644
1508;641;643;643
1509;644;642;643
1510;643;643;644
1511;643;642;645
1512;643;643;646
1513;643;644;646
1514;643;645;646
1515;643;645;645
1516;644;645;646
1517;645;645;646
1518;644;646;648
1519;645;647;649
1520;645;647;650
1521;645;647;650
1522;646;646;651
1523;647;646;652
1524;646;647;653
1525;647;648;654
1526;649;648;654
1527;649;649;653
1528;650;649;654
1529;649;650;654
1530;653;650;653
1531;653;651;652
1532;655;652;655
1533;655;653;655
1534;656;654;655
1535;655;655;656
1536;658;655;655
1537;656;656;657
1538;656;656;658
1539;656;656;659
1540;655;657;658
1541;657;657;659
1542;657;657;658
1543;659;658;658
1544;658;658;659
1545;658;659;659
1546;658;659;659
1547;659;659;660
1548;661;659;660
1549;661;660;660
1550;661;661;661
1551;662;662;660
1552;662;662;660
1553;662;661;662
1554;661;661;662
1555;662;662;662
1556;662;662;662
1557;662;662;662
1558;664;662;664
1559;664;663;664
1560;664;664;665
1561;665;664;666
1562;664;665;666
1563;665;664;665
1564;669;665;665
1565;667;666;665
1566;666;667;668
1567;667;667;668
1568;668;668;668
1569;668;668;668
1570;668;668;668
1571;668;669;668
1572;668;668;669
1573;668;669;670
1574;668;669;670
1575;669;668;672
1576;670;670;673
1577;672;670;672
1578;672;671;671
1579;672;672;673
1580;671;673;672
1581;671;673;673
1582;672;673;673
1583;673;673;672
1584;672;672;673
1585;671;673;673
1586;675;673;672
1587;673;674;672
1588;674;674;673
1589;674;674;674
1590;675;675;674
1591;675;675;674
1592;674;674;676
1593;674;675;679
1594;675;675;678
1595;675;676;678
1596;676;676;678
1597;676;676;680
1598;676;677;681
1599;676;677;682
1600;676;677;684
1601;676;678;684
1602;676;679;685
1603;676;679;685
1604;676;679;686
1605;676;679;686
1606;678;679;685
1607;680;679;685
1608;681;680;684
1609;682;681;684
1610;681;682;686
1611;681;682;687
1612;681;681;687
1613;681;680;688
1614;681;682;691
1615;681;681;692
1616;684;681;692
1617;685;682;691
1618;685;683;691
1619;685;685;690
1620;685;685;690
1621;686;685;690
1622;686;687;690
1623;686;687;689
1624;686;687;689
1625;686;687;688
1626;686;687;692
1627;686;687;694
1628;687;687;693
1629;687;687;695
1630;686;688;694
1631;687;688;695
1632;687;688;696
1633;689;689;696
1634;692;689;696
1635;691;690;696
1636;690;691;695
1637;690;691;696
1638;691;691;695
1639;692;691;696
1640;692;692;696
1641;692;693;697
1642;694;694;696
1643;695;694;698
1644;696;695;697
1645;697;696;696
1646;695;697;696
1647;696;696;697
1648;698;696;696
1649;698;697;698
1650;699;698;697
1651;699;698;698
1652;699;698;700
1653;700;699;700
1654;700;700;701
1655;701;701;702
1656;702;701;704
1657;702;701;703
1658;703;702;703
1659;705;703;702
1660;705;704;702
1661;703;705;705
1662;704;704;705
1663;706;705;706
1664;705;706;705
1665;705;706;706
1666;706;706;706
1667;705;705;707
1668;705;705;708
1669;707;705;710
1670;706;706;711
1671;706;707;710
1672;708;707;711
1673;707;708;712
1674;711;708;712
1675;710;708;712
1676;709;709;712
1677;709;710;711
1678;709;711;710
1679;710;710;711
1680;709;711;711
1681;711;711;712
1682;712;711;712
1683;712;711;712
1684;713;712;711
1685;713;711;712
1686;712;712;712
1687;713;713;712
1688;712;713;715
1689;713;713;715
1690;714;713;715
1691;713;713;715
1692;712;715;716
1693;714;715;717
1694;716;715;718
1695;717;716;717
1696;717;717;716
1697;720;718;716
1698;718;719;716
1699;717;719;716
1700;718;718;717
1701;718;718;717
1702;717;717;721
1703;718;716;720
1704;720;717;719
1705;718;718;720
1706;718;719;721
1707;719;719;720
1708;718;720;721
1709;721;720;723
1710;720;721;722
1711;721;721;723
1712;721;721;723
1713;722;722;723
1714;722;722;722
1715;721;722;724
1716;721;722;726
1717;722;722;726
1718;722;723;728
1719;723;723;727
1720;722;724;728
1721;723;724;728
1722;724;723;728
1723;724;724;729
1724;725;725;729
1725;726;725;728
1726;726;726;729
1727;726;726;729
1728;727;726;730
1729;727;727;730
1730;727;727;729
1731;727;728;728
1732;729;727;727
1733;728;728;728
1734;728;728;729
1735;731;728;729
1736;729;729;729
1737;730;728;732
1738;730;729;731
1739;731;730;731
1740;730;731;730
1741;730;731;731
1742;731;731;731
1743;730;731;732
1744;731;731;734
1745;732;733;734
1746;733;733;735
1747;733;734;734
1748;735;734;735
1749;735;735;734
1750;738;735;734
1751;737;736;734
1752;736;736;735
1753;737;736;737
1754;736;737;736
1755;737;736;738
1756;736;737;738
1757;737;737;739
1758;738;738;741
1759;738;739;743
1760;739;739;743
1761;741;739;742
1762;742;740;742
1763;742;741;743
1764;743;742;743
1765;743;742;742
1766;741;743;744
1767;742;743;744
1768;742;743;745
1769;742;743;747
1770;743;743;748
1771;745;742;748
1772;745;744;748
1773;747;745;747
1774;747;746;749
1775;747;747;751
1776;748;747;750
1777;748;748;752
1778;750;747;751
1779;749;748;751
1780;751;750;751
1781;751;751;750
1782;750;751;752
1783;751;751;751
1784;751;752;752
1785;752;751;752
1786;752;752;753
1787;752;752;753
1788;753;753;754
1789;753;753;753
1790;752;753;757
1791;752;753;758
1792;754;753;758
1793;755;754;757
1794;756;755;758
1795;757;755;757
1796;756;756;757
1797;758;758;758
1798;757;759;757
1799;759;758;759
1800;759;759;758
1801;760;759;759
1802;759;759;760
1803;759;759;759
1804;761;760;760
1805;759;761;760
1806;761;761;760
1807;760;761;760
1808;760;761;759
1809;761;760;761
1810;762;761;761
1811;761;761;761
1812;763;761;762
1813;764;762;762
1814;763;763;763
1815;763;764;763
1816;763;764;763
1817;764;764;765
1818;764;764;768
1819;765;765;767
1820;766;765;768
1821;769;766;769
1822;769;767;769
1823;771;768;770
1824;769;769;771
1825;771;769;772
1826;771;770;771
1827;771;771;772
1828;772;771;771
1829;771;772;773
1830;773;772;772
1831;772;773;772
1832;774;771;775
1833;774;771;774
1834;776;772;773
1835;776;772;774
1836;776;773;775
1837;776;774;776
1838;778;775;775
1839;776;776;777
1840;776;777;776
1841;779;776;777
1842;778;777;779
1843;779;778;778
1844;779;779;777
1845;779;778;780
1846;782;779;779
1847;780;780;779
1848;783;780;781
1849;782;781;782
1850;782;782;782
1851;784;782;783
1852;782;783;783
1853;782;782;784
1854;782;782;785
1855;783;782;784
1856;783;783;783
1857;784;783;784
1858;783;784;785
1859;786;784;787
1860;786;784;786
1861;787;784;786
1862;787;786;786
1863;787;787;786
1864;787;786;789
1865;786;787;788
1866;788;787;788
1867;788;787;788
1868;788;788;789
1869;788;790;789
1870;788;790;788
1871;789;789;790
1872;791;790;790
1873;790;791;792
1874;791;791;794
1875;792;791;793
1876;794;792;794
1877;793;793;793
1878;793;793;794
1879;792;794;795
1880;792;795;795
1881;792;795;797
1882;793;796;796
1883;794;796;796
1884;794;796;797
1885;795;795;798
1886;795;795;799
1887;796;795;802
1888;795;796;801
1889;795;796;801
1890;799;796;800
1891;798;797;800
1892;797;798;799
1893;797;798;799
1894;798;798;798
1895;797;799;798
1896;797;799;799
1897;797;799;798
1898;798;798;800
1899;800;799;800
1900;798;800;802
1901;799;799;804
1902;800;798;804
1903;800;799;803
1904;800;800;802
1905;799;801;801
1906;801;801;801
1907;801;801;802
1908;803;802;801
1909;804;802;801
1910;803;803;801
1911;802;803;803
1912;803;804;803
1913;803;804;805
1914;803;805;806
1915;805;804;806
1916;804;804;807
1917;804;804;806
1918;804;805;807
1919;805;804;807
1920;805;805;808
1921;807;805;807
1922;806;805;808
1923;806;806;808
1924;806;806;808
1925;807;807;808
1926;807;808;809
1927;809;808;808
1928;808;808;810
1929;809;808;810
1930;809;809;811
1931;809;810;812
1932;811;809;812
1933;811;810;811
1934;812;811;811
1935;811;812;812
1936;815;811;812
1937;814;812;812
1938;815;813;814
1939;814;814;814
1940;814;814;817
1941;815;815;819
1942;814;815;818
1943;815;815;819
1944;816;816;818
1945;816;817;819
1946;817;817;822
1947;817;817;821
1948;818;818;820
1949;821;818;820
1950;821;819;820
1951;822;819;820
1952;822;820;821
1953;821;821;822
1954;823;820;822
1955;825;821;822
1956;826;822;822
1957;825;823;823
1958;824;823;825
1959;823;824;825
1960;823;823;825
1961;823;823;825
1962;823;823;824
1963;825;824;824
1964;826;825;823
1965;826;825;824
1966;826;826;825
1967;826;827;825
1968;826;827;826
1969;826;827;827
1970;828;827;827
1971;827;827;829
1972;828;827;829
1973;829;828;831
1974;828;829;830
1975;829;829;832
1976;831;829;832
1977;831;829;833
1978;832;829;831
1979;832;829;831
1980;836;830;831
1981;834;831;833
1982;836;832;832
1983;835;833;835
1984;834;834;834
1985;833;834;835
1986;835;834;834
1987;835;834;837
1988;835;835;837
1989;837;836;839
1990;837;837;839
1991;838;837;839
1992;839;838;838
1993;839;839;838
1994;838;839;840
1995;840;839;840
1996;841;839;839
1997;839;840;839
1998;842;840;840
1999;841;841;841
2000;842;841;843
2001;841;842;844
2002;841;842;844
2003;841;842;845
2004;841;842;844
2005;843;842;845
2006;842;843;845
2007;845;843;846
2008;845;844;845
2009;845;845;848
2010;846;845;848
2011;847;846;848
2012;848;846;849
2013;848;847;850
2014;848;849;851
2015;849;849;851
2016;848;850;851
2017;849;850;852
2018;849;850;852
2019;851;850;851
2020;850;851;851
2021;853;851;851
2022;851;852;851
2023;851;852;853
2024;852;852;852
2025;853;852;853
2026;853;853;853
2027;852;854;852
2028;854;853;852
2029;853;853;853
2030;852;853;855
2031;853;853;855
2032;854;854;855
2033;855;854;856
2034;856;855;856
2035;857;856;855
2036;857;857;857
2037;857;857;860
2038;858;857;860
2039;859;858;860
2040;859;859;860
2041;860;859;862
2042;859;860;861
2043;860;860;861
2044;860;860;860
2045;862;859;859
2046;860;860;861
2047;859;861;861
2048;859;861;860
2049;861;860;859
2050;860;861;861
2051;861;862;862
2052;863;862;862
2053;864;863;863
2054;865;864;864
2055;865;865;865
2056;865;865;868
2057;865;865;867
2058;867;866;867
2059;866;867;867
2060;868;868;867
2061;869;868;868
2062;868;869;870
2063;870;869;872
2064;869;870;871
2065;870;870;871
2066;871;870;874
2067;872;870;873
2068;872;871;873
2069;871;872;873
2070;873;872;872
2071;872;873;873
2072;873;873;872
2073;872;873;873
2074;873;873;875
2075;875;874;875
2076;875;875;874
2077;876;875;876
2078;876;876;876
2079;875;877;878
2080;877;876;879
2081;877;877;878
2082;879;876;877
2083;878;877;879
2084;877;878;879
2085;880;878;878
2086;878;879;878
2087;880;879;881
2088;879;880;881
2089;880;880;880
2090;881;880;881
2091;882;881;882
2092;882;882;883
2093;884;882;885
2094;883;882;885
2095;883;882;886
2096;884;884;886
2097;884;885;886
2098;887;886;886
2099;886;886;890
2100;890;886;889
2101;888;887;892
2102;888;888;893
2103;890;889;892
2104;891;890;891
2105;892;890;891
2106;892;891;890
2107;892;890;891
2108;892;890;892
2109;891;891;893
2110;892;892;893
2111;891;893;892
2112;891;893;894
2113;891;894;894
2114;893;894;893
2115;894;894;894
2116;894;894;893
2117;893;894;894
2118;894;893;895
2119;893;894;895
2120;894;895;895
2121;893;895;894
2122;894;894;894
2123;894;894;894
2124;895;894;894
2125;894;895;895
2126;894;895;895
2127;896;895;896
2128;896;896;896
2129;897;896;897
2130;896;896;896
2131;897;896;897
2132;897;897;897
2133;897;898;897
2134;899;897;899
2135;900;898;900
2136;899;899;899
2137;900;900;899
2138;899;900;901
2139;900;900;904
2140;900;901;904
2141;900;901;906
2142;902;901;905
2143;903;902;906
2144;902;903;908
2145;902;903;908
2146;902;903;907
2147;903;903;906
2148;904;903;905
2149;903;904;906
2150;906;904;905
2151;904;905;906
2152;906;904;906
2153;906;906;906
2154;909;906;905
2155;909;907;907
2156;907;908;907
2157;908;908;910
2158;909;908;911
2159;909;909;910
2160;908;910;911
2161;910;910;911
2162;910;911;910
2163;909;911;911
2164;910;911;912
2165;911;911;912
2166;911;912;912
2167;912;912;912
2168;912;912;914
2169;912;912;915
2170;911;913;917
2171;913;913;918
2172;913;914;917
2173;914;914;919
2174;914;915;921
2175;915;915;921
2176;915;916;921
2177;916;916;921
2178;918;916;921
2179;919;917;922
2180;920;918;923
2181;919;918;922
2182;919;919;922
2183;920;918;922
2184;921;919;921
2185;920;920;922
2186;922;919;923
2187;922;920;923
2188;921;922;925
2189;923;921;925
2190;922;923;925
2191;923;923;925
2192;922;924;924
2193;922;924;924
2194;926;924;923
2195;926;925;923
2196;926;926;924
2197;926;926;925
2198;926;926;927
2199;926;926;926
2200;926;926;928
2201;927;926;928
2202;928;927;927
2203;927;928;929
2204;929;928;928
2205;927;928;931
2206;928;928;930
2207;930;929;929
2208;929;928;929
2209;930;929;931
2210;930;930;930
2211;929;930;932
2212;931;930;932
2213;933;931;931
2214;932;931;932
2215;934;932;931
2216;933;933;932
2217;933;932;933
2218;933;933;933
2219;933;933;934
2220;934;933;934
2221;934;934;934
2222;935;934;935
2223;934;935;935
2224;937;934;935
2225;936;934;936
2226;934;936;936
2227;936;936;937
2228;935;936;936
2229;935;936;936
2230;935;936;936
2231;936;936;935
2232;936;936;937
2233;937;937;937
2234;938;937;936
2235;939;938;938
2236;938;939;940
2237;939;939;941
2238;939;940;942
2239;941;940;942
2240;941;940;942
2241;940;941;943
2242;941;940;942
2243;940;941;942
2244;942;941;942
2245;942;942;943
2246;944;943;943
2247;943;944;945
2248;946;944;945
2249;945;945;945
2250;947;946;945
2251;946;946;948
2252;947;946;947
2253;947;947;948
2254;946;948;951
2255;946;947;951
2256;947;947;953
2257;949;947;952
2258;948;948;955
2259;948;948;955
2260;951;949;955
2261;950;950;955
2262;951;950;956
2263;950;951;957
2264;951;952;957
2265;951;953;957
2266;953;952;956
2267;954;953;956
2268;953;954;956
2269;956;954;955
2270;956;955;955
2271;956;956;957
2272;955;957;957
2273;956;957;958
2274;957;957;958
2275;959;958;957
2276;960;958;958
2277;961;959;959
2278;960;960;961
2279;959;961;961
2280;962;961;962
2281;963;962;962
2282;964;963;962
2283;964;963;965
2284;963;963;966
2285;964;964;966
2286;965;964;966
2287;964;964;967
2288;964;965;966
2289;965;965;968
2290;966;965;968
2291;966;966;968
2292;966;967;968
2293;969;967;967
2294;967;967;969
2295;969;967;969
2296;969;968;969
2297;969;968;971
2298;969;969;970
2299;972;970;969
2300;971;971;970
2301;973;971;971
2302;971;972;972
2303;972;972;975
2304;972;972;974
2305;972;972;974
2306;977;972;975
2307;977;973;975
2308;977;974;977
2309;977;975;979
2310;977;976;981
2311;976;977;983
2312;976;977;982
2313;977;977;983
2314;978;978;983
2315;979;978;983
2316;979;979;984
2317;980;979;985
2318;979;980;985
2319;981;980;985
2320;980;981;986
2321;981;982;986
2322;983;983;988
2323;984;984;987
2324;985;985;990
2325;986;986;991
2326;986;986;991
2327;987;986;994
2328;986;986;994
2329;985;987;994
2330;985;987;993
2331;985;987;992
2332;985;988;993
2333;985;987;993
2334;985;987;992
2335;988;987;992
2336;987;988;992
2337;987;988;993
2338;989;988;992
2339;988;989;994
2340;990;989;994
2341;992;990;994
2342;991;990;994
2343;992;992;995
2344;992;992;996
2345;993;992;998
2346;994;993;999
2347;994;994;999
2348;994;995;999
2349;995;995;1000
2350;995;995;1001
2351;995;996;1001
2352;996;996;1001
2353;995;997;1002
2354;996;997;1001
2355;996;997;1002
2356;998;998;1002
2357;998;999;1003
2358;998;999;1004
2359;1000;999;1003
2360;1002;1000;1003
2361;1001;1001;1004
2362;1003;1001;1004
2363;1002;1002;1007
2364;1003;1003;1007
2365;1005;1003;1006
2366;1004;1004;1008
2367;1003;1005;1008
2368;1004;1005;1010
2369;1004;1004;1010
2370;1003;1005;1012
2371;1003;1005;1011
2372;1003;1005;1012
2373;1004;1005;1014
2374;1004;1005;1014
2375;1005;1005;1016
2376;1005;1005;1015
2377;1006;1006;1015
2378;1007;1006;1014
2379;1006;1006;1015
2380;1006;1007;1015
2381;1008;1007;1015
2382;1007;1008;1017
2383;1007;1008;1017
2384;1008;1008;1018
2385;1007;1009;1018
2386;1009;1008;1017
2387;1008;1008;1016
2388;1012;1008;1015
2389;1011;1009;1015
2390;1012;1010;1016
2391;1012;1011;1016
2392;1012;1012;1018
2393;1013;1012;1020
2394;1012;1013;1021
2395;1013;1013;1022
2396;1015;1013;1023
2397;1015;1014;1024
2398;1014;1015;1026
2399;1015;1015;1025
2400;1017;1015;1025
2401;1019;1016;1025
2402;1019;1017;1025
2403;1021;1018;1025
2404;1020;1019;1024
2405;1019;1020;1025
2406;1019;1019;1024
2407;1020;1020;1025
2408;1020;1020;1025
2409;1022;1020;1025
2410;1025;1021;1025
2411;1024;1022;1025
2412;1027;1023;1024
2413;1026;1024;1024
2414;1026;1025;1026
2415;1026;1026;1025
2416;1026;1026;1026
2417;1027;1026;1029
2418;1028;1027;1029
2419;1028;1028;1029
2420;1029;1029;1030
2421;1032;1029;1029
2422;1031;1030;1029
2423;1030;1031;1029
2424;1030;1030;1029
2425;1029;1030;1032
2426;1031;1030;1032
2427;1031;1030;1032
2428;1030;1031;1033
2429;1030;1031;1034
2430;1031;1031;1035
2431;1031;1031;1037
2432;1031;1031;1036
2433;1031;1032;1036
2434;1031;1032;1038
2435;1031;1033;1038
2436;1031;1033;1039
2437;1032;1033;1038
2438;1034;1033;1037
2439;1033;1034;1037
2440;1034;1035;1038
2441;1034;1035;1039
2442;1036;1036;1040
2443;1035;1037;1041
2444;1035;1037;1041
2445;1037;1037;1042
2446;1038;1037;1042
2447;1038;1038;1044
2448;1037;1039;1047
2449;1038;1039;1048
2450;1040;1039;1048
2451;1040;1040;1049
2452;1042;1041;1048
2453;1041;1042;1049
2454;1042;1042;1052
2455;1043;1042;1053
2456;1042;1043;1052
2457;1043;1043;1052
2458;1043;1044;1052
2459;1044;1044;1052
2460;1045;1045;1053
2461;1046;1046;1053
2462;1046;1047;1056
2463;1046;1047;1055
2464;1048;1047;1055
2465;1047;1048;1055
2466;1047;1049;1055
2467;1049;1048;1055
2468;1050;1049;1056
2469;1050;1050;1056
2470;1050;1051;1058
2471;1051;1051;1057
2472;1054;1050;1059
2473;1054;1050;1059
2474;1055;1051;1059
2475;1054;1052;1060
2476;1054;1053;1062
2477;1053;1054;1062
2478;1054;1054;1062
2479;1053;1055;1061
2480;1054;1055;1062
2481;1056;1055;1061
2482;1056;1056;1062
2483;1057;1056;1061
2484;1059;1057;1060
2485;1059;1058;1060
2486;1061;1059;1059
2487;1059;1060;1062
2488;1059;1060;1063
2489;1059;1060;1062
2490;1060;1060;1063
2491;1059;1061;1063
2492;1063;1061;1063
2493;1062;1061;1063
2494;1063;1062;1066
2495;1063;1063;1065
2496;1065;1064;1066
2497;1064;1065;1066
2498;1066;1065;1067
2499;1065;1066;1066
2500;1066;1065;1066
2501;1067;1065;1066
2502;1067;1066;1065
2503;1066;1067;1066
2504;1068;1067;1066
2505;1066;1067;1068
2506;1067;1067;1069
2507;1069;1067;1068
2508;1069;1068;1068
2509;1069;1069;1068
2510;1069;1069;1068
2511;1069;1069;1070
2512;1070;1069;1069
2513;1072;1070;1070
2514;1070;1071;1070
2515;1071;1071;1071
2516;1071;1071;1071
2517;1074;1071;1072
2518;1074;1072;1073
2519;1073;1073;1074
2520;1075;1073;1074
2521;1076;1074;1074
2522;1074;1075;1074
2523;1074;1074;1077
2524;1076;1075;1076
2525;1075;1076;1077
2526;1076;1076;1078
2527;1076;1076;1079
2528;1076;1076;1081
2529;1077;1076;1082
2530;1078;1077;1082
2531;1078;1078;1081
2532;1080;1079;1083
2533;1079;1080;1083
2534;1080;1080;1084
2535;1081;1080;1084
2536;1082;1080;1083
2537;1083;1081;1084
2538;1082;1082;1085
2539;1084;1082;1085
2540;1084;1083;1085
2541;1083;1084;1085
2542;1085;1084;1086
2543;1085;1085;1086
2544;1085;1085;1086
2545;1085;1086;1085
2546;1085;1085;1085
2547;1088;1085;1086
2548;1087;1086;1088
2549;1088;1087;1087
2550;1087;1088;1088
2551;1088;1088;1089
2552;1087;1089;1088
2553;1087;1089;1092
2554;1088;1089;1091
2555;1089;1089;1091
2556;1091;1089;1091
2557;1091;1090;1091
2558;1090;1091;1094
2559;1090;1091;1093
2560;1091;1091;1093
2561;1091;1091;1094
2562;1091;1091;1093
2563;1093;1091;1092
2564;1093;1092;1094
2565;1092;1093;1095
2566;1093;1093;1096
2567;1093;1093;1096
2568;1093;1094;1098
2569;1093;1094;1097
2570;1093;1094;1097
2571;1093;1094;1099
2572;1093;1094;1100
2573;1094;1094;1101
2574;1096;1095;1101
2575;1095;1096;1102
2576;1096;1096;1104
2577;1098;1097;1103
2578;1099;1098;1103
2579;1099;1099;1103
2580;1098;1100;1103
2581;1099;1100;1102
2582;1101;1099;1101
2583;1101;1100;1102
2584;1101;1101;1102
2585;1101;1102;1102
2586;1102;1102;1102
2587;1102;1103;1102
2588;1103;1103;1105
2589;1103;1103;1105
2590;1106;1103;1106
2591;1106;1104;1105
2592;1106;1105;1106
2593;1106;1106;1106
2594;1107;1106;1107
2595;1107;1106;1108
2596;1107;1106;1108
2597;1108;1107;1107
2598;1107;1108;1109
2599;1107;1108;1109
2600;1110;1108;1109
2601;1108;1109;1110
2602;1110;1109;1111
2603;1110;1110;1111
2604;1110;1111;1112
2605;1111;1110;1112
2606;1111;1111;1112
2607;1110;1112;1113
2608;1112;1112;1114
2609;1113;1112;1114
2610;1113;1113;1114
2611;1113;1113;1113
2612;1113;1113;1113
2613;1114;1113;1114
2614;1114;1114;1114
2615;1114;1114;1116
2616;1113;1115;1116
2617;1114;1114;1118
2618;1114;1114;1118
2619;1113;1115;1119
2620;1114;1115;1121
2621;1115;1115;1122
2622;1115;1115;1124
2623;1116;1115;1123
2624;1116;1116;1123
2625;1116;1117;1124
2626;1116;1116;1124
2627;1116;1116;1123
2628;1117;1116;1123
2629;1118;1116;1124
2630;1118;1117;1125
2631;1119;1118;1124
2632;1119;1119;1125
2633;1118;1120;1125
2634;1119;1120;1126
2635;1121;1120;1125
2636;1120;1121;1126
2637;1120;1121;1125
2638;1121;1120;1126
2639;1123;1122;1126
2640;1122;1122;1125
2641;1124;1123;1126
2642;1124;1124;1127
2643;1125;1125;1127
2644;1124;1124;1126
2645;1125;1125;1126
2646;1125;1126;1127
2647;1127;1126;1127
2648;1129;1127;1126
2649;1129;1128;1127
2650;1129;1128;1128
2651;1131;1128;1129
2652;1129;1129;1131
2653;1130;1129;1132
2654;1131;1130;1131
2655;1132;1131;1131
2656;1131;1131;1131
2657;1130;1132;1132
2658;1131;1133;1134
2659;1132;1133;1135
2660;1132;1133;1135
2661;1132;1133;1134
2662;1134;1133;1136
2663;1135;1134;1136
2664;1136;1135;1136
2665;1136;1136;1138
2666;1139;1137;1138
2667;1138;1138;1140
2668;1138;1138;1141
2669;1140;1138;1140
2670;1139;1139;1140
2671;1141;1139;1139
2672;1140;1140;1140
2673;1140;1141;1140
2674;1139;1141;1140
2675;1143;1141;1139
2676;1143;1142;1139
2677;1143;1143;1142
2678;1143;1143;1143
2679;1144;1144;1144
2680;1143;1145;1144
2681;1143;1145;1144
2682;1143;1145;1143
2683;1143;1144;1144
2684;1143;1144;1145
2685;1145;1143;1144
2686;1146;1143;1143
2687;1148;1145;1144
2688;1147;1146;1147
2689;1147;1146;1147
2690;1147;1147;1146
2691;1150;1146;1146
2692;1148;1146;1147
2693;1149;1146;1147
2694;1149;1147;1149
2695;1149;1150;1149
2696;1150;1149;1150
2697;1151;1150;1150
2698;1151;1151;1151
2699;1150;1151;1154
2700;1151;1151;1155
2701;1152;1151;1154
2702;1151;1152;1155
2703;1152;1152;1155
2704;1155;1153;1154
2705;1154;1154;1154
2706;1154;1154;1154
2707;1156;1154;1154
2708;1156;1155;1154
2709;1156;1156;1156
2710;1156;1157;1157
2711;1158;1156;1157
2712;1161;1157;1158
2713;1159;1158;1158
2714;1158;1159;1159
2715;1159;1159;1159
2716;1159;1159;1160
2717;1160;1160;1160
2718;1161;1160;1159
2719;1161;1161;1159
2720;1160;1161;1161
2721;1162;1161;1160
2722;1160;1162;1162
2723;1163;1162;1163
2724;1163;1163;1162
2725;1164;1163;1162
2726;1163;1163;1163
2727;1164;1163;1164
2728;1165;1164;1165
2729;1165;1165;1165
2730;1164;1165;1166
2731;1168;1165;1166
2732;1166;1165;1167
2733;1168;1165;1166
2734;1167;1167;1166
2735;1167;1167;1167
2736;1168;1166;1167
2737;1168;1168;1167
2738;1167;1167;1170
2739;1167;1167;1170
2740;1169;1168;1172
2741;1168;1169;1173
2742;1168;1169;1173
2743;1168;1169;1173
2744;1169;1170;1172
2745;1171;1170;1173
2746;1171;1171;1174
2747;1171;1171;1174
2748;1171;1171;1176
2749;1172;1172;1176
2750;1172;1172;1175
2751;1172;1173;1178
2752;1172;1173;1178
2753;1173;1173;1178
2754;1175;1173;1177
2755;1176;1174;1178
2756;1176;1174;1179
2757;1175;1175;1180
2758;1174;1176;1180
2759;1175;1176;1180
2760;1175;1175;1181
2761;1175;1176;1182
2762;1176;1176;1183
2763;1178;1177;1182
2764;1179;1177;1182
2765;1179;1178;1181
2766;1178;1179;1181
2767;1180;1179;1181
2768;1180;1180;1182
2769;1180;1180;1184
2770;1180;1180;1185
2771;1181;1181;1185
2772;1180;1181;1186
2773;1183;1181;1185
2774;1184;1182;1187
2775;1184;1183;1186
2776;1183;1184;1187
2777;1184;1184;1187
2778;1183;1185;1186
2779;1183;1185;1188
2780;1186;1185;1189
2781;1186;1186;1188
2782;1187;1186;1189
2783;1187;1187;1189
2784;1187;1188;1190
2785;1188;1188;1191
2786;1189;1188;1192
2787;1188;1189;1191
2788;1190;1189;1191
2789;1190;1189;1190
2790;1190;1190;1191
2791;1190;1191;1192
2792;1192;1190;1192
2793;1192;1191;1191
2794;1192;1191;1192
2795;1193;1192;1194
2796;1192;1193;1194
2797;1195;1193;1193
2798;1194;1194;1194
2799;1195;1195;1194
2800;1194;1195;1196
2801;1196;1195;1196
2802;1195;1196;1197
2803;1197;1196;1196
2804;1197;1197;1195
2805;1196;1196;1198
2806;1196;1195;1197
2807;1197;1197;1197
2808;1196;1197;1200
2809;1198;1197;1200
2810;1197;1197;1203
2811;1197;1198;1204
2812;1198;1200;1204
2813;1198;1200;1204
2814;1199;1200;1205
2815;1200;1199;1205
2816;1200;1199;1204
2817;1199;1201;1203
2818;1201;1201;1205
2819;1201;1200;1205
2820;1201;1201;1206
2821;1202;1202;1207
2822;1202;1203;1208
2823;1202;1204;1208
2824;1204;1204;1208
2825;1205;1205;1210
2826;1206;1205;1212
2827;1206;1206;1211
2828;1208;1206;1213
2829;1208;1207;1212
2830;1207;1208;1215
2831;1208;1208;1214
2832;1210;1208;1214
2833;1211;1209;1216
2834;1213;1210;1215
2835;1213;1211;1216
2836;1212;1212;1217
2837;1213;1213;1218
2838;1212;1214;1219
2839;1212;1214;1220
2840;1213;1214;1222
2841;1215;1214;1221
2842;1214;1215;1223
2843;1214;1215;1224
2844;1214;1215;1224
2845;1214;1215;1225
2846;1215;1215;1227
2847;1215;1215;1226
2848;1215;1216;1228
2849;1215;1216;1228
2850;1216;1216;1229
2851;1216;1216;1230
2852;1216;1217;1231
2853;1217;1216;1231
2854;1218;1217;1231
2855;1219;1218;1230
2856;1219;1219;1232
2857;1220;1220;1233
2858;1219;1221;1234
2859;1220;1221;1234
2860;1220;1221;1236
2861;1222;1221;1235
2862;1221;1222;1235
2863;1222;1222;1236
2864;1221;1223;1236
2865;1221;1223;1237
2866;1222;1223;1237
2867;1223;1223;1238
2868;1225;1223;1237
2869;1226;1224;1237
2870;1226;1225;1237
2871;1225;1226;1238
2872;1225;1226;1241
2873;1226;1226;1240
2874;1227;1226;1243
2875;1228;1227;1244
2876;1229;1227;1244
2877;1232;1227;1243
2878;1233;1229;1242
2879;1232;1229;1241
2880;1232;1230;1240
2881;1231;1231;1240
2882;1233;1231;1239
2883;1234;1232;1240
2884;1233;1233;1241
2885;1235;1233;1240
2886;1234;1234;1242
2887;1233;1235;1242
2888;1234;1235;1244
2889;1235;1234;1245
2890;1237;1235;1244
2891;1237;1236;1246
2892;1237;1237;1247
2893;1237;1238;1246
2894;1240;1238;1245
2895;1240;1239;1246
2896;1241;1240;1247
2897;1243;1241;1246
2898;1243;1242;1246
2899;1243;1242;1247
2900;1242;1242;1248
2901;1243;1244;1247
2902;1244;1245;1248
2903;1244;1243;1249
2904;1243;1244;1249
2905;1245;1244;1249
2906;1245;1245;1248
2907;1244;1246;1250
2908;1245;1246;1249
2909;1245;1246;1250
2910;1247;1246;1249
2911;1247;1247;1248
2912;1249;1248;1248
2913;1249;1248;1250
2914;1252;1248;1251
2915;1251;1249;1252
2916;1251;1250;1253
2917;1251;1251;1254
2918;1251;1251;1254
2919;1253;1251;1255
2920;1253;1252;1255
2921;1255;1253;1256
2922;1256;1254;1255
2923;1257;1255;1256
2924;1259;1256;1256
2925;1261;1257;1256
2926;1260;1258;1257
2927;1259;1259;1258
2928;1259;1259;1260
2929;1259;1260;1261
2930;1260;1260;1262
2931;1259;1261;1262
2932;1259;1261;1262
2933;1259;1261;1261
2934;1261;1261;1265
2935;1263;1262;1264
2936;1263;1263;1266
2937;1264;1264;1266
2938;1266;1264;1265
2939;1266;1265;1266
2940;1266;1266;1269
2941;1266;1266;1269
2942;1267;1267;1272
2943;1267;1268;1271
2944;1267;1268;1272
2945;1267;1268;1273
2946;1269;1268;1272
2947;1270;1269;1271
2948;1269;1270;1270
2949;1272;1270;1269
2950;1272;1271;1271
2951;1272;1270;1272
2952;1273;1271;1273
2953;1273;1272;1272
2954;1273;1273;1272
2955;1273;1273;1272
2956;1274;1273;1274
2957;1273;1274;1274
2958;1274;1274;1275
2959;1275;1273;1276
2960;1276;1274;1276
2961;1276;1275;1276
2962;1275;1276;1278
2963;1276;1276;1279
2964;1276;1277;1280
2965;1279;1277;1279
2966;1281;1278;1280
2967;1280;1279;1279
2968;1281;1279;1280
2969;1282;1280;1279
2970;1282;1281;1281
2971;1283;1282;1281
2972;1281;1282;1283
2973;1282;1282;1282
2974;1283;1283;1282
2975;1284;1283;1282
2976;1283;1284;1284
2977;1283;1284;1283
2978;1283;1284;1287
2979;1283;1284;1287
2980;1286;1283;1288
2981;1287;1284;1288
2982;1286;1285;1288
2983;1287;1286;1288
2984;1287;1287;1290
2985;1286;1288;1291
2986;1287;1288;1290
2987;1289;1288;1289
2988;1289;1289;1289
2989;1289;1289;1289
2990;1290;1289;1289
2991;1289;1288;1291
2992;1289;1289;1292
2993;1290;1290;1292
2994;1291;1290;1291
2995;1291;1291;1293
2996;1291;1292;1293
2997;1292;1292;1293
2998;1294;1292;1293
2999;1294;1292;1294
3000;1293;1293;1294
3001;1294;1293;1294
3002;1295;1294;1294
3003;1295;1295;1294
3004;1296;1294;1294
3005;1297;1295;1294
3006;1297;1296;1295
3007;1298;1297;1296
3008;1298;1297;1296
3009;1299;1297;1296
3010;1299;1298;1297
3011;1298;1298;1299
3012;1298;1299;1300
3013;1298;1299;1301
3014;1298;1299;1302
3015;1299;1299;1302
3016;1300;1299;1303
3017;1299;1300;1305
3018;1301;1300;1306
3019;1302;1300;1305
3020;1302;1301;1305
3021;1303;1302;1306
3022;1304;1303;1305
3023;1305;1304;1305
3024;1304;1305;1305
3025;1306;1306;1306
3026;1306;1306;1307
3027;1306;1307;1306
3028;1307;1306;1307
3029;1307;1307;1306
3030;1306;1307;1306
3031;1308;1307;1306
3032;1308;1308;1307
3033;1308;1308;1308
3034;1310;1307;1309
3035;1310;1309;1310
3036;1310;1310;1311
3037;1311;1310;1311
3038;1312;1311;1312
3039;1311;1313;1314
3040;1312;1312;1314
3041;1313;1312;1313
3042;1314;1313;1315
3043;1313;1313;1316
3044;1314;1313;1319
3045;1313;1314;1319
3046;1314;1313;1320
3047;1315;1314;1320
3048;1316;1315;1319
3049;1318;1315;1319
3050;1319;1316;1319
3051;1319;1317;1319
3052;1320;1318;1319
3053;1321;1319;1319
3054;1319;1320;1322
3055;1319;1320;1324
3056;1321;1320;1324
3057;1321;1321;1324
3058;1320;1322;1324
3059;1323;1322;1323
3060;1322;1323;1323
3061;1324;1323;1324
3062;1324;1324;1324
3063;1325;1325;1325
3064;1326;1325;1325
3065;1328;1326;1326
3066;1327;1327;1327
3067;1326;1327;1328
3068;1326;1327;1329
3069;1326;1327;1329
3070;1328;1327;1330
3071;1329;1328;1330
3072;1328;1329;1329
3073;1328;1329;1330
3074;1329;1329;1330
3075;1329;1330;1329
3076;1329;1330;1329
3077;1331;1329;1330
3078;1330;1330;1332
3079;1330;1331;1333
3080;1331;1331;1332
3081;1332;1332;1331
3082;1332;1332;1332
3083;1332;1332;1334
3084;1332;1331;1334
3085;1331;1331;1336
3086;1332;1331;1335
3087;1331;1332;1337
3088;1331;1332;1338
3089;1332;1333;1337
3090;1333;1333;1338
3091;1334;1334;1337
3092;1336;1334;1339
3093;1336;1335;1339
3094;1335;1336;1338
3095;1336;1336;1339
3096;1336;1335;1339
3097;1338;1336;1340
3098;1338;1337;1340
3099;1337;1337;1340
3100;1337;1338;1341
3101;1339;1338;1340
3102;1339;1339;1340
3103;1342;1339;1339
3104;1340;1340;1340
3105;1339;1341;1341
3106;1339;1341;1341
3107;1339;1341;1343
3108;1340;1341;1342
3109;1340;1340;1342
3110;1341;1340;1344
3111;1342;1341;1345
3112;1342;1342;1344
3113;1344;1342;1344
3114;1345;1343;1344
3115;1344;1344;1346
3116;1345;1344;1346
3117;1344;1345;1347
3118;1345;1346;1347
3119;1347;1346;1347
3120;1346;1347;1346
3121;1347;1347;1348
3122;1347;1348;1348
3123;1347;1348;1351
3124;1348;1348;1352
3125;1348;1348;1353
3126;1348;1349;1355
3127;1350;1349;1355
3128;1349;1350;1356
3129;1350;1350;1355
3130;1351;1351;1355
3131;1353;1352;1354
3132;1352;1353;1357
3133;1352;1352;1356
3134;1354;1351;1355
3135;1354;1352;1354
3136;1355;1353;1354
3137;1354;1354;1354
3138;1355;1353;1355
3139;1354;1354;1355
3140;1356;1355;1355
3141;1355;1356;1357
3142;1356;1356;1357
3143;1358;1356;1357
3144;1358;1357;1357
3145;1357;1358;1357
3146;1359;1358;1359
3147;1359;1359;1360
3148;1359;1360;1361
3149;1361;1360;1361
3150;1363;1361;1360
3151;1362;1362;1360
3152;1362;1362;1362
3153;1362;1362;1364
3154;1362;1362;1363
3155;1362;1362;1364
3156;1362;1363;1363
3157;1363;1363;1364
3158;1362;1364;1364
3159;1364;1364;1366
3160;1364;1364;1365
3161;1363;1365;1365
3162;1364;1365;1364
3163;1366;1366;1366
3164;1367;1366;1366
3165;1368;1366;1367
3166;1367;1367;1367
3167;1367;1367;1367
3168;1368;1367;1369
3169;1369;1368;1369
3170;1369;1369;1370
3171;1369;1370;1370
3172;1370;1370;1370
3173;1371;1370;1370
3174;1372;1370;1372
3175;1371;1371;1371
3176;1373;1371;1372
3177;1371;1372;1374
3178;1371;1372;1374
3179;1373;1372;1373
3180;1373;1373;1373
3181;1372;1373;1373
3182;1372;1374;1374
3183;1372;1374;1374
3184;1372;1374;1376
3185;1372;1374;1377
3186;1373;1374;1378
3187;1373;1374;1377
3188;1373;1375;1380
3189;1374;1375;1379
3190;1377;1374;1379
3191;1377;1375;1380
3192;1378;1376;1379
3193;1378;1377;1380
3194;1377;1378;1379
3195;1379;1378;1379
3196;1380;1379;1378
3197;1381;1379;1380
3198;1381;1380;1380
3199;1380;1381;1382
3200;1381;1380;1382
3201;1380;1381;1381
3202;1381;1380;1381
3203;1382;1381;1382
3204;1381;1382;1381
3205;1381;1381;1380
3206;1380;1381;1380
3207;1381;1381;1381
3208;1382;1381;1380
3209;1383;1382;1382
3210;1383;1382;1383
3211;1382;1383;1386
3212;1382;1383;1386
3213;1383;1383;1386
3214;1382;1384;1386
3215;1385;1383;1386
3216;1385;1384;1385
3217;1386;1385;1387
3218;1387;1386;1388
3219;1386;1387;1388
3220;1388;1387;1387
3221;1389;1387;1388
3222;1388;1388;1388
3223;1388;1388;1390
3224;1388;1387;1392
3225;1388;1388;1393
3226;1388;1388;1394
3227;1389;1389;1395
3228;1390;1389;1398
3229;1389;1390;1398
3230;1390;1390;1399
3231;1392;1391;1399
3232;1391;1392;1400
3233;1392;1392;1401
3234;1393;1393;1400
3235;1393;1393;1401
3236;1395;1393;1400
3237;1395;1394;1400
3238;1396;1395;1399
3239;1395;1396;1401
3240;1396;1396;1402
3241;1396;1397;1403
3242;1397;1397;1403
3243;1397;1398;1405
3244;1398;1397;1405
3245;1399;1398;1405
3246;1400;1399;1406
3247;1401;1400;1405
3248;1403;1401;1404
3249;1403;1402;1404
3250;1404;1403;1403
3251;1404;1404;1405
3252;1405;1405;1404
3253;1404;1406;1405
3254;1405;1405;1409
3255;1406;1406;1409
3256;1410;1407;1408
3257;1410;1408;1410
3258;1412;1409;1409
3259;1410;1410;1410
3260;1411;1411;1411
3261;1411;1412;1414
3262;1412;1412;1413
3263;1413;1412;1414
3264;1413;1413;1415
3265;1412;1414;1416
3266;1412;1414;1418
3267;1414;1415;1418
3268;1417;1415;1417
3269;1416;1416;1417
3270;1416;1417;1418
3271;1416;1417;1417
3272;1417;1416;1419
3273;1416;1417;1420
3274;1418;1417;1420
3275;1418;1418;1419
3276;1419;1418;1420
3277;1418;1419;1420
3278;1420;1419;1422
3279;1419;1420;1423
3280;1423;1420;1423
3281;1422;1421;1425
3282;1422;1422;1427
3283;1422;1423;1427
3284;1423;1423;1427
3285;1423;1424;1427
3286;1423;1424;1427
3287;1423;1424;1427
3288;1424;1424;1429
3289;1425;1425;1429
3290;1428;1425;1428
3291;1428;1426;1428
3292;1429;1427;1427
3293;1427;1428;1428
3294;1428;1428;1427
3295;1427;1428;1428
3296;1428;1428;1428
3297;1428;1428;1429
3298;1429;1427;1428
3299;1428;1428;1432
3300;1428;1429;1432
3301;1430;1429;1431
3302;1432;1430;1430
3303;1430;1431;1431
3304;1430;1431;1431
3305;1432;1431;1431
3306;1433;1432;1431
3307;1432;1433;1432
3308;1435;1432;1433
3309;1434;1433;1433
3310;1433;1434;1437
3311;1434;1434;1437
3312;1434;1434;1438
3313;1434;1434;1438
3314;1435;1434;1438
3315;1437;1435;1439
3316;1437;1435;1438
3317;1438;1436;1438
3318;1441;1438;1436
3319;1439;1439;1438
3320;1439;1439;1438
3321;1438;1439;1440
3322;1438;1439;1440
3323;1441;1439;1441
3324;1443;1440;1443
3325;1444;1440;1443
3326;1442;1442;1443
3327;1444;1442;1446
3328;1444;1443;1445
3329;1444;1444;1446
3330;1444;1445;1445
3331;1446;1443;1444
3332;1444;1444;1446
3333;1446;1444;1446
3334;1448;1444;1445
3335;1447;1445;1446
3336;1448;1446;1445
3337;1446;1447;1447
3338;1447;1447;1449
3339;1448;1447;1449
3340;1448;1448;1451
3341;1449;1448;1450
3342;1448;1448;1453
3343;1447;1449;1453
3344;1449;1449;1453
3345;1450;1449;1454
3346;1453;1450;1453
3347;1452;1451;1453
3348;1452;1452;1454
3349;1454;1453;1453
3350;1454;1454;1453
3351;1455;1454;1454
3352;1454;1455;1455
3353;1456;1455;1456
3354;1455;1456;1456
3355;1457;1456;1457
3356;1457;1457;1457
3357;1457;1457;1456
3358;1459;1457;1457
3359;1460;1458;1458
3360;1460;1459;1458
3361;1461;1459;1460
3362;1461;1460;1461
3363;1460;1461;1461
3364;1462;1461;1461
3365;1465;1462;1462
3366;1466;1463;1462
3367;1465;1464;1465
3368;1466;1465;1466
3369;1466;1465;1466
3370;1467;1466;1466
3371;1466;1467;1467
3372;1467;1467;1467
3373;1467;1467;1467
3374;1466;1468;1468
3375;1467;1468;1469
3376;1468;1468;1470
3377;1470;1469;1470
3378;1472;1470;1469
3379;1470;1471;1470
3380;1471;1471;1470
3381;1472;1471;1471
3382;1472;1471;1471
3383;1471;1472;1472
3384;1471;1471;1472
3385;1472;1472;1472
3386;1473;1472;1471
3387;1472;1471;1471
3388;1471;1472;1471
3389;1471;1473;1472
3390;1473;1472;1472
3391;1473;1473;1474
3392;1474;1473;1474
3393;1474;1473;1474
3394;1474;1475;1474
3395;1475;1474;1475
3396;1477;1475;1475
3397;1476;1476;1477
3398;1476;1475;1477
3399;1478;1476;1478
3400;1479;1477;1478
3401;1480;1478;1478
3402;1482;1478;1479
3403;1482;1478;1481
3404;1481;1479;1481
3405;1482;1480;1484
3406;1481;1481;1484
3407;1480;1482;1484
3408;1481;1482;1483
3409;1483;1482;1482
3410;1484;1483;1484
3411;1483;1484;1484
3412;1485;1484;1486
3413;1484;1484;1486
3414;1484;1484;1487
3415;1484;1484;1487
3416;1485;1484;1486
3417;1486;1485;1485
3418;1486;1485;1487
3419;1486;1486;1486
3420;1485;1487;1489
3421;1487;1487;1489
3422;1488;1487;1488
3423;1490;1488;1488
3424;1490;1489;1491
3425;1490;1490;1491
3426;1492;1490;1492
3427;1492;1491;1492
3428;1491;1492;1493
3429;1491;1492;1495
3430;1493;1492;1494
3431;1494;1493;1495
3432;1494;1494;1494
3433;1494;1495;1495
3434;1494;1495;1495
3435;1496;1495;1494
3436;1496;1496;1494
3437;1495;1496;1496
3438;1496;1496;1496
3439;1497;1496;1497
3440;1496;1496;1497
3441;1497;1495;1498
3442;1499;1496;1497
3443;1497;1497;1498
3444;1497;1498;1498
3445;1497;1498;1498
3446;1499;1498;1499
3447;1499;1499;1500
3448;1498;1500;1501
3449;1501;1500;1500
3450;1499;1501;1500
3451;1499;1500;1500
3452;1501;1499;1499
3453;1500;1500;1500
3454;1501;1500;1501
3455;1500;1501;1502
3456;1500;1501;1502
3457;1502;1501;1503
3458;1502;1502;1502
3459;1502;1502;1502
3460;1503;1502;1502
3461;1503;1503;1502
3462;1503;1503;1502
3463;1505;1503;1502
3464;1504;1504;1503
3465;1506;1504;1503
3466;1507;1505;1504
3467;1506;1506;1505
3468;1506;1506;1507
3469;1506;1507;1507
3470;1509;1507;1507
3471;1508;1508;1508
3472;1509;1509;1508
3473;1509;1509;1508
3474;1512;1509;1509
3475;1511;1510;1510
3476;1510;1511;1511
3477;1511;1511;1511
3478;1511;1511;1513
3479;1512;1511;1513
3480;1511;1512;1514
3481;1511;1512;1514
3482;1511;1512;1514
3483;1511;1511;1514
3484;1513;1513;1514
3485;1514;1514;1514
3486;1513;1514;1514
3487;1514;1514;1513
3488;1513;1514;1514
3489;1513;1514;1516
3490;1513;1514;1516
3491;1514;1514;1517
3492;1513;1515;1517
3493;1514;1515;1517
3494;1515;1515;1517
3495;1516;1516;1518
3496;1516;1516;1519
3497;1516;1516;1521
3498;1516;1517;1522
3499;1517;1517;1521
3500;1520;1517;1520
3501;1521;1518;1519
3502;1521;1519;1521
3503;1522;1520;1521
3504;1522;1521;1522
3505;1521;1522;1523
3506;1522;1522;1527
3507;1523;1523;1529
3508;1522;1524;1529
3509;1524;1524;1530
3510;1524;1524;1530
3511;1525;1525;1530
3512;1526;1526;1530
3513;1526;1527;1531
3514;1526;1527;1531
3515;1526;1527;1533
3516;1526;1527;1532
3517;1526;1527;1534
3518;1527;1527;1533
3519;1526;1528;1535
3520;1528;1529;1534
3521;1528;1529;1534
3522;1528;1529;1535
3523;1530;1529;1536
3524;1530;1530;1536
3525;1531;1530;1535
3526;1530;1531;1537
3527;1530;1531;1538
3528;1531;1532;1537
3529;1532;1532;1537
3530;1534;1533;1537
3531;1535;1534;1536
3532;1536;1535;1537
3533;1535;1536;1539
3534;1535;1536;1539
3535;1535;1536;1540
3536;1535;1536;1541
3537;1535;1535;1542
3538;1535;1536;1543
3539;1537;1536;1542
3540;1536;1537;1542
3541;1538;1537;1542
3542;1539;1538;1541
3543;1538;1539;1542
3544;1539;1539;1543
3545;1540;1540;1542
3546;1541;1540;1544
3547;1541;1541;1543
3548;1544;1541;1542
3549;1542;1542;1543
3550;1542;1543;1544
3551;1543;1543;1544
3552;1543;1544;1545
3553;1544;1544;1545
3554;1544;1544;1546
3555;1544;1545;1546
3556;1547;1543;1544
3557;1545;1543;1544
3558;1547;1544;1543
3559;1547;1545;1543
3560;1547;1546;1544
3561;1548;1546;1544
3562;1546;1547;1544
3563;1546;1547;1545
3564;1547;1545;1546
3565;1549;1546;1546
3566;1547;1547;1549
3567;1546;1548;1549
3568;1548;1548;1551
3569;1548;1548;1551
3570;1548;1548;1552
3571;1548;1548;1553
3572;1548;1550;1553
3573;1550;1550;1552
3574;1550;1550;1552
3575;1552;1551;1552
3576;1553;1552;1551
3577;1551;1553;1553
3578;1551;1553;1554
3579;1551;1553;1553
3580;1551;1553;1555
3581;1553;1553;1556
3582;1553;1553;1558
3583;1553;1553;1557
3584;1555;1554;1558
3585;1555;1554;1558
3586;1556;1555;1557
3587;1555;1556;1560
3588;1555;1556;1560
3589;1559;1555;1559
3590;1558;1556;1558
3591;1560;1557;1557
3592;1559;1558;1558
3593;1561;1559;1559
3594;1560;1560;1561
3595;1561;1560;1561
3596;1562;1561;1562
3597;1562;1562;1562
3598;1562;1563;1564
3599;1565;1563;1563
3600;1564;1564;1564
3601;1564;1564;1567
3602;1563;1565;1568
3603;1563;1565;1569
3604;1565;1565;1569
3605;1566;1566;1569
3606;1567;1567;1569
3607;1567;1567;1569
3608;1567;1568;1571
3609;1567;1568;1572
3610;1570;1567;1573
3611;1570;1568;1573
3612;1572;1569;1574
3613;1571;1570;1573
3614;1571;1571;1574
3615;1570;1572;1574
3616;1570;1572;1576
3617;1570;1572;1577
3618;1572;1573;1578
3619;1574;1573;1578
3620;1573;1573;1579
3621;1572;1573;1583
3622;1572;1573;1583
3623;1573;1572;1583
3624;1572;1572;1582
3625;1573;1574;1583
3626;1574;1574;1582
3627;1574;1575;1582
3628;1574;1575;1582
3629;1575;1576;1582
3630;1577;1576;1582
3631;1578;1577;1582
3632;1577;1578;1584
3633;1577;1579;1584
3634;1579;1579;1584
3635;1580;1579;1584
3636;1582;1580;1583
3637;1581;1580;1584
3638;1581;1581;1583
3639;1581;1582;1584
3640;1581;1582;1584
3641;1582;1581;1586
3642;1581;1582;1585
3643;1581;1581;1584
3644;1582;1581;1584
3645;1582;1582;1584
3646;1584;1583;1584
3647;1583;1584;1584
3648;1583;1584;1585
3649;1584;1584;1585
3650;1585;1585;1585
3651;1585;1585;1586
3652;1586;1585;1586
3653;1588;1586;1585
3654;1587;1587;1586
3655;1587;1587;1587
3656;1589;1588;1588
3657;1589;1588;1588
3658;1591;1589;1587
3659;1591;1590;1589
3660;1591;1590;1591
3661;1593;1591;1592
3662;1592;1592;1592
3663;1593;1592;1593
3664;1593;1593;1592
3665;1593;1593;1593
3666;1594;1593;1594
3667;1593;1594;1595
3668;1595;1594;1595
3669;1595;1595;1595
3670;1595;1595;1596
3671;1594;1595;1595
3672;1595;1595;1595
3673;1594;1595;1596
3674;1595;1596;1599
3675;1595;1596;1598
3676;1597;1596;1597
3677;1596;1597;1597
3678;1597;1597;1598
3679;1597;1598;1598
3680;1597;1598;1597
3681;1597;1598;1597
3682;1599;1597;1597
3683;1598;1598;1597
3684;1597;1598;1597
3685;1599;1598;1599
3686;1599;1599;1600
3687;1599;1599;1601
3688;1602;1599;1603
3689;1602;1600;1603
3690;1602;1601;1603
3691;1603;1602;1604
3692;1603;1603;1605
3693;1602;1604;1609
3694;1602;1604;1608
3695;1604;1604;1608
3696;1605;1605;1608
3697;1606;1605;1609
3698;1607;1606;1608
3699;1607;1607;1609
3700;1607;1607;1611
3701;1608;1607;1613
3702;1608;1608;1612
3703;1609;1608;1611
3704;1609;1608;1611
3705;1609;1609;1613
3706;1610;1609;1613
3707;1612;1610;1612
3708;1611;1611;1612
3709;1611;1612;1612
3710;1612;1612;1611
3711;1611;1612;1611
3712;1613;1612;1612
3713;1613;1613;1613
3714;1612;1613;1613
3715;1615;1613;1613
3716;1615;1614;1613
3717;1615;1614;1614
3718;1615;1615;1615
3719;1615;1615;1615
3720;1614;1615;1617
3721;1614;1615;1617
3722;1616;1615;1618
3723;1617;1616;1618
3724;1616;1617;1619
3725;1619;1617;1618
3726;1617;1618;1618
3727;1619;1618;1618
3728;1620;1618;1619
3729;1619;1619;1619
3730;1622;1619;1618
3731;1620;1620;1619
3732;1621;1620;1619
3733;1622;1619;1619
3734;1620;1620;1622
3735;1621;1621;1622
3736;1621;1622;1621
3737;1622;1622;1622
3738;1622;1621;1623
3739;1623;1622;1623
3740;1623;1623;1623
3741;1624;1624;1623
3742;1625;1624;1623
3743;1625;1623;1624
3744;1623;1624;1626
3745;1623;1624;1627
3746;1623;1624;1631
3747;1625;1624;1633
3748;1625;1625;1633
3749;1627;1625;1633
3750;1627;1626;1632
3751;1627;1626;1632
3752;1627;1627;1632
3753;1627;1628;1635
3754;1628;1629;1635
3755;1629;1629;1635
3756;1629;1630;1635
3757;1629;1631;1635
3758;1631;1631;1636
3759;1631;1632;1639
3760;1633;1631;1639
3761;1634;1632;1639
3762;1634;1633;1638
3763;1634;1634;1639
3764;1634;1635;1638
3765;1636;1635;1641
3766;1635;1635;1642
3767;1636;1635;1641
3768;1637;1636;1641
3769;1638;1637;1640
3770;1638;1638;1640
3771;1639;1638;1644
3772;1639;1639;1645
3773;1641;1640;1646
3774;1642;1640;1646
3775;1642;1641;1646
3776;1642;1642;1646
3777;1644;1643;1645
3778;1643;1644;1644
3779;1643;1644;1645
3780;1644;1644;1647
3781;1645;1644;1646
3782;1647;1645;1646
3783;1645;1645;1647
3784;1646;1645;1648
3785;1647;1646;1648
3786;1647;1647;1649
3787;1648;1648;1651
3788;1649;1649;1651
3789;1648;1650;1650
3790;1649;1650;1652
3791;1651;1650;1652
3792;1651;1651;1652
3793;1652;1651;1651
3794;1652;1651;1653
3795;1651;1652;1652
3796;1652;1652;1652
3797;1654;1653;1652
3798;1653;1653;1652
3799;1654;1652;1653
3800;1652;1653;1654
3801;1653;1653;1654
3802;1652;1654;1653
3803;1655;1654;1653
3804;1654;1655;1655
3805;1655;1654;1656
3806;1655;1654;1657
3807;1655;1655;1656
3808;1656;1654;1657
3809;1655;1655;1659
3810;1655;1655;1660
3811;1656;1656;1660
3812;1657;1657;1661
3813;1657;1658;1660
3814;1659;1658;1660
3815;1659;1659;1659
3816;1661;1659;1659
3817;1660;1660;1660
3818;1660;1660;1662
3819;1661;1661;1661
3820;1665;1661;1660
3821;1663;1662;1660
3822;1663;1662;1660
3823;1663;1662;1661
3824;1663;1662;1662
3825;1663;1663;1663
3826;1663;1664;1663
3827;1663;1663;1666
3828;1662;1663;1666
3829;1665;1663;1667
3830;1665;1664;1667
3831;1665;1664;1667
3832;1667;1664;1666
3833;1667;1665;1666
3834;1667;1666;1667
3835;1667;1667;1667
3836;1666;1668;1670
3837;1668;1668;1671
3838;1667;1668;1670
3839;1669;1669;1672
3840;1670;1670;1671
3841;1671;1671;1672
3842;1671;1671;1672
3843;1672;1671;1675
3844;1672;1672;1675
3845;1672;1673;1675
3846;1676;1672;1674
3847;1676;1673;1675
3848;1675;1674;1675
3849;1674;1675;1675
3850;1674;1674;1676
3851;1675;1675;1677
3852;1676;1674;1679
3853;1677;1675;1679
3854;1676;1676;1680
3855;1679;1677;1679
3856;1678;1678;1679
3857;1677;1678;1678
3858;1678;1678;1677
3859;1679;1679;1679
3860;1680;1680;1678
3861;1681;1681;1679
3862;1680;1681;1682
3863;1681;1681;1682
3864;1684;1681;1682
3865;1684;1682;1682
3866;1682;1683;1685
3867;1682;1683;1684
3868;1685;1683;1683
3869;1684;1684;1684
3870;1684;1684;1685
3871;1686;1685;1685
3872;1684;1686;1686
3873;1684;1686;1688
3874;1684;1685;1688
3875;1685;1686;1687
3876;1686;1685;1687
3877;1690;1687;1687
3878;1689;1688;1688
3879;1689;1689;1690
3880;1689;1689;1689
3881;1689;1690;1689
3882;1690;1689;1690
3883;1690;1690;1692
3884;1689;1691;1693
3885;1690;1692;1693
3886;1693;1692;1694
3887;1692;1693;1694
3888;1693;1693;1695
3889;1692;1694;1694
3890;1692;1694;1694
3891;1694;1693;1693
3892;1692;1694;1694
3893;1694;1694;1695
3894;1694;1695;1696
3895;1695;1695;1697
3896;1697;1695;1698
3897;1696;1696;1698
3898;1697;1697;1698
3899;1699;1698;1698
3900;1699;1699;1701
3901;1699;1699;1702
3902;1702;1699;1702
3903;1701;1700;1701
3904;1702;1701;1701
3905;1701;1702;1701
3906;1701;1702;1702
3907;1703;1702;1702
3908;1702;1703;1703
3909;1705;1702;1702
3910;1705;1703;1703
3911;1704;1704;1705
3912;1705;1705;1706
3913;1707;1705;1707
3914;1707;1706;1706
3915;1709;1707;1707
3916;1708;1708;1707
3917;1708;1708;1709
3918;1708;1709;1709
3919;1709;1709;1711
3920;1709;1709;1710
3921;1711;1708;1711
3922;1711;1709;1710
3923;1709;1710;1711
3924;1712;1710;1711
3925;1711;1710;1710
3926;1710;1711;1713
3927;1711;1712;1712
3928;1712;1711;1712
3929;1712;1712;1712
3930;1711;1711;1712
3931;1711;1712;1714
3932;1711;1712;1714
3933;1713;1713;1714
3934;1713;1714;1714
3935;1714;1714;1715
3936;1714;1714;1717
3937;1714;1713;1719
3938;1716;1713;1719
3939;1716;1714;1719
3940;1716;1715;1719
3941;1715;1716;1719
3942;1716;1716;1721
3943;1715;1717;1721
3944;1717;1716;1721
3945;1719;1717;1721
3946;1718;1718;1720
3947;1719;1718;1722
3948;1718;1718;1722
3949;1719;1718;1722
3950;1721;1719;1723
3951;1721;1720;1722
3952;1721;1721;1723
3953;1721;1721;1722
3954;1723;1722;1721
3955;1723;1722;1722
3956;1722;1722;1724
3957;1722;1723;1727
3958;1722;1723;1727
3959;1722;1722;1729
3960;1722;1722;1733
3961;1721;1723;1734
3962;1722;1723;1734
3963;1724;1724;1733
3964;1726;1725;1732
3965;1725;1726;1731
3966;1727;1726;1730
3967;1727;1727;1731
3968;1729;1728;1731
3969;1730;1729;1731
3970;1729;1730;1732
3971;1729;1730;1734
3972;1730;1730;1733
3973;1730;1730;1733
3974;1730;1730;1733
3975;1730;1730;1735
3976;1731;1729;1735
3977;1733;1730;1734
3978;1732;1731;1733
3979;1736;1732;1733
3980;1735;1733;1734
3981;1735;1734;1734
3982;1736;1735;1733
3983;1735;1736;1734
3984;1734;1736;1736
3985;1734;1737;1737
3986;1734;1737;1738
3987;1735;1736;1739
3988;1737;1736;1741
3989;1736;1737;1741
3990;1736;1737;1741
3991;1738;1737;1740
3992;1737;1738;1741
3993;1739;1738;1741
3994;1740;1739;1742
3995;1740;1740;1741
3996;1742;1740;1743
3997;1741;1741;1745
3998;1742;1742;1745
3999;1745;1742;1745
4000;1744;1743;1744
4001;1746;1743;1744
4002;1746;1744;1745
4003;1748;1745;1746
4004;1747;1746;1746
4005;1747;1747;1748
4006;1747;1747;1749
4007;1747;1747;1749
4008;1747;1748;1752
4009;1748;1748;1752
4010;1750;1748;1753
4011;1750;1749;1752
4012;1751;1750;1753
4013;1752;1751;1753
4014;1752;1752;1753
4015;1753;1752;1755
4016;1753;1753;1754
4017;1755;1754;1753
4018;1754;1755;1755
4019;1757;1755;1755
4020;1757;1756;1756
4021;1756;1757;1757
4022;1756;1757;1757
4023;1760;1757;1756
4024;1759;1758;1758
4025;1759;1759;1758
4026;1759;1759;1761
4027;1760;1759;1760
4028;1761;1760;1760
4029;1763;1760;1761
4030;1761;1761;1763
4031;1763;1762;1763
4032;1763;1763;1763
4033;1764;1763;1763
4034;1764;1763;1763
4035;1764;1763;1764
4036;1764;1764;1764
4037;1764;1764;1765
4038;1763;1765;1765
4039;1764;1766;1765
4040;1764;1766;1765
4041;1765;1765;1766
4042;1766;1766;1766
4043;1767;1766;1767
4044;1769;1767;1767
4045;1767;1768;1767
4046;1767;1768;1769
4047;1770;1768;1768
4048;1769;1768;1768
4049;1768;1768;1770
4050;1767;1769;1769
4051;1768;1769;1770
4052;1768;1769;1770
4053;1769;1769;1770
4054;1770;1769;1773
4055;1771;1770;1772
4056;1770;1771;1771
4057;1773;1771;1771
4058;1771;1772;1771
4059;1772;1772;1772
4060;1772;1773;1772
4061;1773;1773;1773
4062;1773;1773;1774
4063;1772;1774;1774
4064;1772;1774;1775
4065;1774;1774;1774
4066;1775;1775;1774
4067;1774;1775;1773
4068;1775;1774;1773
4069;1774;1775;1774
4070;1773;1775;1776
4071;1773;1775;1775
4072;1775;1775;1775
4073;1775;1775;1774
4074;1776;1775;1774
4075;1778;1775;1776
4076;1777;1776;1776
4077;1776;1777;1778
4078;1780;1777;1778
4079;1779;1778;1778
4080;1779;1779;1779
4081;1780;1779;1779
4082;1781;1779;1781
4083;1782;1780;1780
4084;1782;1781;1782
4085;1782;1782;1782
4086;1784;1782;1784
4087;1783;1783;1785
4088;1786;1783;1787
4089;1785;1783;1786
4090;1786;1784;1789
4091;1785;1785;1788
4092;1786;1785;1789
4093;1787;1786;1790
4094;1787;1787;1790
4095;1788;1787;1790
4096;1788;1788;1789
4097;1788;1788;1790
4098;1789;1788;1789
4099;1789;1789;1788
4100;1789;1789;1790
4101;1789;1789;1790
4102;1789;1790;1790
4103;1790;1790;1789
4104;1789;1790;1790
4105;1790;1791;1790
4106;1790;1790;1790
4107;1791;1790;1790
4108;1792;1791;1790
4109;1792;1792;1792
4110;1793;1793;1792
4111;1794;1793;1793
4112;1794;1794;1794
4113;1794;1794;1795
4114;1796;1794;1796
4115;1797;1795;1795
4116;1798;1796;1796
4117;1797;1797;1797
4118;1796;1797;1800
4119;1797;1797;1800
4120;1798;1797;1802
4121;1799;1797;1803
4122;1800;1798;1801
4123;1802;1799;1801
4124;1802;1800;1801
4125;1802;1801;1802
4126;1801;1802;1802
4127;1802;1802;1804
4128;1803;1802;1804
4129;1802;1803;1806
4130;1804;1803;1806
4131;1805;1804;1805
4132;1809;1804;1805
4133;1807;1805;1806
4134;1808;1805;1807
4135;1809;1806;1809
4136;1808;1807;1810
4137;1810;1808;1809
4138;1809;1809;1810
4139;1811;1809;1811
4140;1811;1810;1811
4141;1811;1811;1813
4142;1810;1812;1814
4143;1811;1812;1814
4144;1814;1812;1813
4145;1815;1813;1814
4146;1816;1814;1814
4147;1815;1814;1814
4148;1815;1814;1816
4149;1815;1815;1817
4150;1814;1816;1817
4151;1814;1816;1817
4152;1814;1815;1817
4153;1815;1814;1817
4154;1814;1815;1816
4155;1815;1815;1815
4156;1814;1815;1817
4157;1816;1815;1817
4158;1816;1816;1817
4159;1816;1816;1818
4160;1815;1817;1817
4161;1817;1817;1817
4162;1818;1817;1817
4163;1817;1818;1818
4164;1820;1819;1819
4165;1818;1820;1820
4166;1818;1820;1822
4167;1819;1820;1821
4168;1822;1820;1820
4169;1821;1821;1822
4170;1823;1822;1822
4171;1823;1823;1822
4172;1824;1823;1823
4173;1826;1824;1824
4174;1825;1825;1825
4175;1825;1825;1826
4176;1825;1825;1826
4177;1826;1826;1826
4178;1827;1826;1826
4179;1828;1826;1827
4180;1827;1827;1827
4181;1828;1827;1830
4182;1827;1828;1830
4183;1829;1828;1830
4184;1829;1829;1830
4185;1831;1829;1829
4186;1833;1830;1830
4187;1833;1831;1831
4188;1832;1832;1831
4189;1832;1831;1832
4190;1834;1832;1832
4191;1833;1833;1832
4192;1836;1833;1832
4193;1835;1834;1833
4194;1835;1835;1834
4195;1835;1835;1835
4196;1834;1836;1835
4197;1835;1836;1837
4198;1836;1837;1837
4199;1836;1836;1836
4200;1836;1836;1837
4201;1836;1837;1836
4202;1839;1837;1836
4203;1839;1838;1836
4204;1840;1837;1838
4205;1839;1839;1838
4206;1839;1839;1840
4207;1840;1840;1839
4208;1841;1840;1841
4209;1841;1841;1840
4210;1840;1841;1842
4211;1841;1842;1842
4212;1842;1842;1843
4213;1842;1843;1842
4214;1842;1843;1843
4215;1843;1844;1843
4216;1843;1844;1845
4217;1844;1844;1844
4218;1844;1844;1846
4219;1844;1845;1846
4220;1847;1845;1846
4221;1846;1845;1845
4222;1849;1846;1845
4223;1847;1847;1845
4224;1847;1847;1847
4225;1846;1848;1846
4226;1846;1847;1848
4227;1846;1847;1847
4228;1848;1847;1848
4229;1848;1848;1847
4230;1850;1847;1847
4231;1849;1847;1847
4232;1848;1848;1849
4233;1849;1848;1849
4234;1848;1849;1850
4235;1848;1848;1850
4236;1849;1849;1852
4237;1849;1849;1852
4238;1850;1849;1851
4239;1850;1850;1851
4240;1850;1851;1853
4241;1850;1851;1853
4242;1852;1851;1853
4243;1851;1852;1853
4244;1852;1852;1854
4245;1852;1853;1855
4246;1852;1852;1854
4247;1855;1852;1854
4248;1854;1853;1856
4249;1853;1853;1855
4250;1854;1854;1856
4251;1854;1854;1856
4252;1853;1855;1857
4253;1853;1855;1856
4254;1856;1856;1857
4255;1857;1856;1856
4256;1855;1857;1857
4257;1855;1857;1857
4258;1856;1857;1857
4259;1857;1857;1859
4260;1857;1857;1859
4261;1859;1857;1860
4262;1858;1858;1861
4263;1859;1859;1860
4264;1859;1859;1860
4265;1861;1860;1859
4266;1861;1860;1861
4267;1861;1860;1860
4268;1862;1860;1860
4269;1862;1861;1862
4270;1862;1862;1862
4271;1863;1863;1863
4272;1862;1863;1863
4273;1863;1863;1864
4274;1864;1863;1863
4275;1865;1864;1863
4276;1863;1865;1864
4277;1864;1864;1865
4278;1864;1864;1865
4279;1865;1865;1865
4280;1866;1866;1864
4281;1866;1866;1864
4282;1866;1865;1866
4283;1865;1866;1866
4284;1867;1867;1867
4285;1867;1867;1868
4286;1868;1868;1868
4287;1870;1868;1868
4288;1869;1869;1870
4289;1869;1870;1870
4290;1872;1870;1870
4291;1871;1871;1871
4292;1873;1871;1872
4293;1873;1872;1872
4294;1872;1873;1875
4295;1873;1873;1875
4296;1874;1874;1874
4297;1875;1874;1874
4298;1875;1875;1876
4299;1876;1875;1875
4300;1877;1876;1875
4301;1877;1876;1875
4302;1876;1876;1876
4303;1875;1877;1877
4304;1875;1877;1878
4305;1876;1877;1878
4306;1879;1877;1877
4307;1879;1878;1877
4308;1880;1879;1877
4309;1881;1880;1877
4310;1880;1881;1879
4311;1879;1881;1880
4312;1881;1881;1881
4313;1880;1882;1880
4314;1880;1881;1881
4315;1880;1881;1882
4316;1882;1882;1883
4317;1883;1882;1882
4318;1882;1883;1883
4319;1884;1882;1884
4320;1884;1883;1884
4321;1887;1884;1883
4322;1886;1885;1883
4323;1884;1885;1884
4324;1886;1884;1885
4325;1884;1886;1886
4326;1886;1885;1887
4327;1887;1885;1886
4328;1887;1887;1889
4329;1888;1887;1888
4330;1889;1889;1888
4331;1889;1889;1888
4332;1888;1888;1889
4333;1889;1889;1888
4334;1889;1890;1890
4335;1892;1889;1889
4336;1890;1890;1890
4337;1889;1890;1891
4338;1891;1890;1890
4339;1892;1891;1889
4340;1893;1892;1890
4341;1892;1892;1891
4342;1892;1892;1894
4343;1894;1893;1893
4344;1893;1893;1894
4345;1897;1894;1893
4346;1894;1895;1895
4347;1896;1895;1895
4348;1896;1895;1895
4349;1894;1896;1895
4350;1895;1895;1894
4351;1895;1895;1896
4352;1895;1895;1895
4353;1894;1894;1897
4354;1894;1895;1898
4355;1895;1895;1898
4356;1896;1895;1897
4357;1895;1896;1899
4358;1897;1896;1898
4359;1898;1897;1900
4360;1897;1898;1902
4361;1897;1898;1901
4362;1897;1899;1902
4363;1898;1899;1901
4364;1899;1898;1900
4365;1899;1899;1900
4366;1900;1900;1900
4367;1900;1900;1901
4368;1902;1899;1900
4369;1901;1900;1900
4370;1899;1901;1900
4371;1901;1901;1900
4372;1900;1901;1901
4373;1903;1901;1900
4374;1902;1901;1900
4375;1901;1900;1902
4376;1901;1901;1902
4377;1902;1901;1902
4378;1902;1902;1904
4379;1901;1903;1905
4380;1901;1903;1904
4381;1904;1903;1904
4382;1905;1903;1905
4383;1905;1904;1905
4384;1905;1904;1906
4385;1905;1905;1907
4386;1904;1906;1907
4387;1907;1905;1909
4388;1906;1906;1909
4389;1907;1907;1909
4390;1907;1908;1910
4391;1908;1908;1910
4392;1910;1908;1910
4393;1910;1909;1911
4394;1909;1909;1912
4395;1911;1908;1913
4396;1912;1908;1913
4397;1913;1909;1915
4398;1913;1910;1915
4399;1913;1910;1915
4400;1912;1911;1917
4401;1914;1912;1917
4402;1913;1912;1916
4403;1913;1914;1918
4404;1915;1914;1919
4405;1914;1914;1919
4406;1916;1914;1919
4407;1916;1916;1919
4408;1916;1916;1920
4409;1916;1916;1919
4410;1915;1917;1920
4411;1915;1917;1920
4412;1916;1918;1922
4413;1918;1918;1922
4414;1918;1918;1922
4415;1917;1919;1922
4416;1918;1919;1924
4417;1918;1919;1924
4418;1919;1919;1928
4419;1919;1919;1928
4420;1921;1920;1929
4421;1921;1921;1929
4422;1921;1922;1931
4423;1921;1922;1931
4424;1922;1923;1930
4425;1924;1922;1929
4426;1924;1923;1929
4427;1929;1924;1929
4428;1930;1925;1928
4429;1930;1926;1931
4430;1929;1927;1931
4431;1930;1928;1932
4432;1930;1929;1933
4433;1929;1929;1934
4434;1928;1930;1933
4435;1929;1930;1935
4436;1931;1929;1934
4437;1933;1930;1933
4438;1932;1931;1933
4439;1933;1932;1936
4440;1933;1933;1936
4441;1936;1933;1936
4442;1935;1934;1936
4443;1936;1935;1935
4444;1936;1936;1935
4445;1937;1936;1935
4446;1936;1937;1935
4447;1936;1937;1938
4448;1937;1938;1938
4449;1939;1938;1939
4450;1939;1939;1938
4451;1941;1939;1939
4452;1939;1940;1939
4453;1939;1940;1942
4454;1939;1940;1942
4455;1941;1940;1941
4456;1941;1941;1942
4457;1943;1941;1943
4458;1943;1941;1943
4459;1944;1941;1945
4460;1945;1942;1945
4461;1944;1943;1944
4462;1943;1944;1946
4463;1946;1944;1946
4464;1945;1945;1947
4465;1947;1946;1948
4466;1946;1947;1948
4467;1949;1947;1948
4468;1949;1948;1948
4469;1949;1948;1949
4470;1948;1949;1948
4471;1949;1949;1949
4472;1949;1950;1949
4473;1949;1949;1952
4474;1949;1950;1952
4475;1952;1950;1954
4476;1952;1951;1953
4477;1953;1952;1955
4478;1953;1953;1956
4479;1954;1954;1956
4480;1954;1955;1956
4481;1955;1955;1956
4482;1957;1955;1955
4483;1956;1956;1957
4484;1957;1956;1957
4485;1956;1956;1960
4486;1958;1956;1961
4487;1957;1957;1960
4488;1958;1957;1959
4489;1957;1957;1958
4490;1961;1956;1958
4491;1960;1956;1958
4492;1960;1958;1961
4493;1960;1958;1960
4494;1959;1959;1961
4495;1958;1960;1961
4496;1960;1960;1961
4497;1961;1961;1961
4498;1960;1961;1962
4499;1961;1961;1963
4500;1962;1962;1962
4501;1962;1962;1962
4502;1961;1963;1963
4503;1963;1962;1964
4504;1963;1964;1964
4505;1963;1965;1964
4506;1964;1964;1967
4507;1964;1965;1966
4508;1964;1964;1967
4509;1966;1964;1966
4510;1965;1966;1967
4511;1966;1966;1967
4512;1966;1967;1966
4513;1967;1967;1966
4514;1968;1967;1967
4515;1966;1968;1969
4516;1966;1968;1970
4517;1966;1967;1970
4518;1967;1968;1972
4519;1967;1968;1974
4520;1968;1968;1974
4521;1968;1969;1974
4522;1968;1969;1973
4523;1970;1968;1973
4524;1969;1970;1973
4525;1969;1971;1976
4526;1969;1970;1976
4527;1969;1970;1975
4528;1970;1970;1978
4529;1970;1970;1977
4530;1970;1972;1978
4531;1972;1972;1978
4532;1973;1972;1979
4533;1972;1973;1981
4534;1972;1973;1981
4535;1975;1973;1982
4536;1975;1974;1981
4537;1974;1975;1980
4538;1975;1974;1982
4539;1974;1975;1982
4540;1976;1975;1982
4541;1976;1976;1982
4542;1976;1976;1982
4543;1977;1976;1982
4544;1978;1977;1981
4545;1978;1978;1980
4546;1978;1978;1979
4547;1980;1979;1978
4548;1979;1978;1979
4549;1981;1979;1979
4550;1979;1980;1980
4551;1980;1980;1981
4552;1979;1980;1981
4553;1981;1980;1981
4554;1981;1981;1981
4555;1981;1981;1981
4556;1982;1981;1981
4557;1982;1982;1981
4558;1981;1982;1984
4559;1982;1982;1984
4560;1982;1982;1983
4561;1982;1982;1983
4562;1984;1982;1983
4563;1984;1983;1983
4564;1983;1984;1984
4565;1985;1984;1986
4566;1984;1985;1986
4567;1985;1985;1986
4568;1987;1986;1985
4569;1987;1986;1986
4570;1988;1986;1986
4571;1988;1987;1987
4572;1987;1988;1989
4573;1989;1988;1988
4574;1988;1988;1989
4575;1988;1988;1988
4576;1989;1988;1988
4577;1992;1988;1988
4578;1990;1989;1988
4579;1990;1990;1989
4580;1990;1991;1989
4581;1991;1990;1989
4582;1990;1991;1990
4583;1991;1990;1990
4584;1991;1991;1991
4585;1990;1991;1992
4586;1992;1991;1994
4587;1991;1992;1993
4588;1992;1992;1995
4589;1991;1993;1996
4590;1993;1993;1995
4591;1993;1993;1996
4592;1993;1994;1995
4593;1994;1994;1995
4594;1994;1994;1996
4595;1996;1994;1996
4596;1996;1995;1996
4597;1998;1996;1996
4598;1998;1997;1996
4599;2002;1997;1996
4600;2001;1998;1997
4601;2001;1999;1998
4602;2000;2000;2001
4603;2000;2000;2001
4604;2000;2000;2001
4605;2002;1999;2000
4606;2002;2000;2002
4607;2002;2001;2001
4608;2001;2002;2003
4609;2001;2003;2003
4610;2002;2003;2004
4611;2002;2003;2005
4612;2003;2003;2005
4613;2003;2003;2005
4614;2007;2003;2006
4615;2007;2004;2006
4616;2007;2005;2007
4617;2009;2006;2006
4618;2008;2007;2007
4619;2009;2008;2008
4620;2009;2008;2008
4621;2009;2009;2011
4622;2009;2009;2011
4623;2012;2010;2012
4624;2013;2011;2011
4625;2015;2012;2012
4626;2015;2013;2012
4627;2016;2014;2012
4628;2016;2014;2012
4629;2016;2015;2015
4630;2016;2017;2015
4631;2016;2017;2016
4632;2017;2017;2015
4633;2017;2017;2018
4634;2018;2017;2017
4635;2017;2017;2019
4636;2018;2017;2019
4637;2019;2018;2019
4638;2019;2019;2021
4639;2019;2020;2021
4640;2019;2020;2020
4641;2021;2020;2020
4642;2021;2021;2019
4643;2021;2022;2022
4644;2022;2022;2021
4645;2025;2021;2022
4646;2023;2022;2025
4647;2024;2023;2027
4648;2025;2024;2027
4649;2026;2025;2026
4650;2026;2026;2027
4651;2027;2027;2027
4652;2029;2026;2028
4653;2028;2027;2028
4654;2029;2028;2030
4655;2028;2029;2030
4656;2029;2029;2030
4657;2029;2029;2031
4658;2029;2029;2030
4659;2029;2031;2029
4660;2029;2030;2030
4661;2030;2029;2031
4662;2031;2029;2031
4663;2031;2030;2031
4664;2030;2031;2032
4665;2030;2032;2033
4666;2030;2032;2033
4667;2030;2032;2035
4668;2030;2033;2034
4669;2030;2033;2035
4670;2031;2033;2034
4671;2032;2033;2035
4672;2033;2033;2036
4673;2037;2034;2035
4674;2036;2034;2035
4675;2035;2035;2038
4676;2035;2035;2037
4677;2038;2036;2038
4678;2037;2037;2038
4679;2039;2038;2040
4680;2039;2039;2042
4681;2039;2040;2042
4682;2040;2040;2041
4683;2041;2041;2041
4684;2041;2041;2043
4685;2042;2042;2042
4686;2043;2042;2043
4687;2042;2043;2044
4688;2042;2044;2046
4689;2045;2045;2046
4690;2044;2046;2047
4691;2044;2046;2049
4692;2044;2046;2050
4693;2045;2046;2051
4694;2049;2047;2050
4695;2049;2048;2049
4696;2050;2049;2051
4697;2050;2050;2052
4698;2051;2051;2054
4699;2051;2051;2053
4700;2054;2051;2055
4701;2053;2052;2055
4702;2057;2053;2055
4703;2056;2054;2055
4704;2056;2055;2056
4705;2056;2056;2056
4706;2057;2056;2056
4707;2058;2055;2056
4708;2057;2055;2057
4709;2056;2055;2057
4710;2055;2055;2057
4711;2054;2056;2057
4712;2056;2055;2057
4713;2057;2057;2057
4714;2057;2058;2057
4715;2057;2058;2059
4716;2057;2058;2059
4717;2057;2058;2060
4718;2057;2058;2061
4719;2057;2058;2061
4720;2057;2058;2062
4721;2057;2058;2062
4722;2059;2059;2063
4723;2058;2060;2063
4724;2059;2060;2063
4725;2060;2060;2064
4726;2061;2061;2066
4727;2062;2061;2065
4728;2063;2062;2065
4729;2064;2063;2065
4730;2064;2064;2064
4731;2063;2065;2066
4732;2065;2065;2065
4733;2065;2065;2066
4734;2066;2065;2066
4735;2066;2066;2066
4736;2069;2066;2066
4737;2068;2067;2066
4738;2067;2068;2066
4739;2068;2067;2068
4740;2068;2068;2068
4741;2070;2068;2067
4742;2070;2069;2068
4743;2070;2068;2070
4744;2072;2069;2070
4745;2070;2070;2071
4746;2071;2070;2070
4747;2069;2071;2073
4748;2071;2071;2072
4749;2071;2072;2071
4750;2072;2072;2072
4751;2072;2073;2074
4752;2073;2073;2074
4753;2074;2074;2075
4754;2074;2075;2074
4755;2076;2075;2075
4756;2076;2076;2074
4757;2075;2076;2076
4758;2076;2076;2077
4759;2078;2076;2077
4760;2078;2077;2079
4761;2077;2078;2078
4762;2077;2078;2081
4763;2079;2078;2081
4764;2080;2079;2080
4765;2079;2079;2080
4766;2079;2079;2080
4767;2078;2080;2080
4768;2081;2080;2080
4769;2080;2081;2079
4770;2080;2081;2080
4771;2082;2080;2080
4772;2081;2081;2082
4773;2082;2081;2081
4774;2082;2082;2080
4775;2082;2082;2081
4776;2084;2082;2083
4777;2085;2083;2083
4778;2083;2084;2083
4779;2086;2084;2084
4780;2084;2085;2084
4781;2087;2085;2084
4782;2085;2086;2085
4783;2086;2086;2086
4784;2087;2085;2088
4785;2086;2086;2088
4786;2086;2085;2089
4787;2085;2086;2089
4788;2087;2086;2091
4789;2087;2087;2090
4790;2088;2086;2091
4791;2088;2087;2091
4792;2087;2087;2092
4793;2088;2087;2093
4794;2088;2088;2093
4795;2090;2088;2093
4796;2089;2088;2092
4797;2091;2089;2092
4798;2091;2090;2092
4799;2091;2091;2091
4800;2093;2091;2092
4801;2091;2092;2093
4802;2094;2092;2093
4803;2094;2094;2092
4804;2096;2094;2095
4805;2096;2095;2095
4806;2095;2096;2097
4807;2095;2095;2096
4808;2096;2095;2096
4809;2097;2096;2095
4810;2096;2096;2096
4811;2097;2096;2097
4812;2099;2097;2096
4813;2099;2097;2096
4814;2100;2098;2099
4815;2100;2098;2099
4816;2100;2100;2099
4817;2100;2100;2101
4818;2101;2100;2101
4819;2100;2101;2101
4820;2101;2101;2100
4821;2102;2101;2100
4822;2102;2102;2100
4823;2101;2102;2102
4824;2103;2102;2102
4825;2103;2103;2103
4826;2104;2104;2104
4827;2103;2104;2105
4828;2104;2104;2105
4829;2106;2105;2106
4830;2105;2106;2107
4831;2107;2106;2107
4832;2108;2107;2106
4833;2108;2107;2108
4834;2109;2108;2109
4835;2108;2109;2109
4836;2109;2109;2111
4837;2109;2110;2111
4838;2109;2110;2110
4839;2110;2110;2109
4840;2109;2110;2110
4841;2111;2110;2109
4842;2110;2110;2110
4843;2112;2110;2111
4844;2113;2111;2113
4845;2112;2112;2113
4846;2111;2113;2114
4847;2112;2113;2114
4848;2115;2114;2114
4849;2115;2115;2115
4850;2114;2115;2115
4851;2115;2114;2117
4852;2116;2115;2116
4853;2116;2116;2116
4854;2115;2116;2117
4855;2115;2115;2118
4856;2116;2115;2119
4857;2115;2116;2119
4858;2117;2115;2120
4859;2116;2117;2120
4860;2118;2117;2121
4861;2119;2118;2120
4862;2119;2118;2120
4863;2119;2119;2122
4864;2119;2120;2122
4865;2119;2120;2121
4866;2122;2120;2120
4867;2120;2121;2121
4868;2121;2121;2121
4869;2120;2121;2123
4870;2120;2121;2124
4871;2122;2120;2124
4872;2122;2121;2124
4873;2123;2123;2123
4874;2124;2124;2122
4875;2124;2124;2125
4876;2125;2125;2124
4877;2126;2125;2125
4878;2128;2126;2127
4879;2128;2127;2127
4880;2129;2127;2127
4881;2130;2128;2128
4882;2132;2129;2128
4883;2130;2130;2130
4884;2131;2129;2131
4885;2130;2130;2131
4886;2130;2131;2133
4887;2131;2131;2132
4888;2131;2132;2132
4889;2132;2132;2131
4890;2132;2132;2132
4891;2131;2133;2133
4892;2132;2132;2133
4893;2132;2134;2134
4894;2132;2134;2133
4895;2132;2133;2134
4896;2132;2133;2135
4897;2133;2133;2136
4898;2133;2134;2135
4899;2136;2134;2134
4900;2135;2135;2135
4901;2137;2134;2134
4902;2137;2135;2134
4903;2136;2137;2134
4904;2137;2136;2135
4905;2138;2136;2135
4906;2140;2137;2137
4907;2138;2138;2138
4908;2140;2138;2139
4909;2139;2139;2140
4910;2140;2139;2141
4911;2141;2140;2141
4912;2140;2140;2140
4913;2142;2139;2141
4914;2141;2141;2142
4915;2141;2141;2142
4916;2144;2141;2141
4917;2143;2142;2141
4918;2143;2143;2142
4919;2144;2143;2142
4920;2145;2143;2143
4921;2143;2143;2145
4922;2144;2144;2146
4923;2147;2144;2146
4924;2148;2145;2147
4925;2148;2146;2147
4926;2147;2147;2150
4927;2148;2148;2149
4928;2150;2148;2148
4929;2149;2149;2150
4930;2148;2150;2153
4931;2149;2150;2154
4932;2150;2151;2154
4933;2151;2151;2153
4934;2152;2151;2152
4935;2151;2152;2156
4936;2151;2152;2156
4937;2152;2152;2156
4938;2151;2153;2155
4939;2151;2153;2156
4940;2152;2153;2157
4941;2152;2153;2158
4942;2155;2154;2157
4943;2154;2154;2157
4944;2155;2154;2156
4945;2154;2155;2156
4946;2154;2155;2155
4947;2154;2155;2154
4948;2154;2155;2154
4949;2157;2155;2153
4950;2156;2156;2154
4951;2158;2156;2154
4952;2157;2157;2156
4953;2157;2157;2158
4954;2158;2157;2159
4955;2160;2158;2161
4956;2160;2159;2161
4957;2160;2160;2162
4958;2161;2160;2164
4959;2162;2161;2164
4960;2163;2162;2165
4961;2164;2163;2164
4962;2164;2164;2164
4963;2163;2164;2167
4964;2166;2164;2166
4965;2165;2165;2168
4966;2166;2166;2167
4967;2166;2167;2167
4968;2167;2167;2166
4969;2167;2167;2168
4970;2167;2167;2168
4971;2170;2166;2167
4972;2169;2167;2169
4973;2171;2167;2168
4974;2170;2168;2168
4975;2172;2168;2168
4976;2171;2169;2169
4977;2169;2170;2171
4978;2169;2170;2172
4979;2172;2170;2172
4980;2173;2171;2173
4981;2172;2172;2175
4982;2174;2172;2175
4983;2173;2173;2175
4984;2174;2173;2179
4985;2175;2174;2179
4986;2175;2175;2179
4987;2177;2174;2178
4988;2177;2175;2177
4989;2178;2176;2178
4990;2177;2177;2178
4991;2178;2177;2179
4992;2177;2178;2178
4993;2177;2178;2179
4994;2177;2178;2180
4995;2178;2178;2179
4996;2178;2179;2179
4997;2179;2180;2179
4998;2179;2179;2179
4999;2178;2179;2180
