e4;1;0.05;0.45;53;0.0106;0.1;2;0.01;0.1;0.01;176.698
e6;1;0.05;0.45;4;0.0008;0.1;2;0.001;0.1;0.01;151.25
e4;1;0.05;0.45;54;0.0108;0.1;2;0.0133333;0.1;0.0133333;179.722
e6;1;0.05;0.45;3;0.0006;0.1;2;0.00133333;0.1;0.0133333;153.667
e4;1;0.05;0.45;85;0.017;0.1;2;0.0166667;0.1;0.0166667;207.047
e6;1;0.05;0.45;5;0.001;0.1;2;0.00166667;0.1;0.0166667;150.8
e4;1;0.05;0.45;98;0.0196;0.1;2;0.02;0.1;0.02;207.98
e6;1;0.05;0.45;10;0.002;0.1;2;0.002;0.1;0.02;151.5
e4;1;0.05;0.45;112;0.0224;0.1;2;0.0233333;0.1;0.0233333;245.732
e6;1;0.05;0.45;19;0.0038;0.1;2;0.00233333;0.1;0.0233333;151.684
e4;1;0.05;0.45;128;0.0256;0.1;2;0.0266667;0.1;0.0266667;257.422
e6;1;0.05;0.45;8;0.0016;0.1;2;0.00266667;0.1;0.0266667;152.75
e4;1;0.05;0.45;153;0.0306;0.1;2;0.03;0.1;0.03;355.392
e6;1;0.05;0.45;18;0.0036;0.1;2;0.003;0.1;0.03;151.333
e4;1;0.05;0.45;154;0.0308;0.1;2;0.0333333;0.1;0.0333333;388.396
e6;1;0.05;0.45;14;0.0028;0.1;2;0.00333333;0.1;0.0333333;152.286
e4;1;0.05;0.45;166;0.0332;0.1;2;0.0366667;0.1;0.0366667;365.892
e6;1;0.05;0.45;8;0.0016;0.1;2;0.00366667;0.1;0.0366667;152
e4;1;0.05;0.45;185;0.037;0.1;2;0.04;0.1;0.04;628.914
e6;1;0.05;0.45;18;0.0036;0.1;2;0.004;0.1;0.04;150.833
e4;1;0.05;0.45;54;0.0108;0.1;2;0.01;0.25;0.01;198.222
e6;1;0.05;0.45;10;0.002;0.1;2;0.0025;0.25;0.01;150.9
e4;1;0.05;0.45;61;0.0122;0.1;2;0.0133333;0.25;0.0133333;189.508
e6;1;0.05;0.45;17;0.0034;0.1;2;0.00333333;0.25;0.0133333;152.294
e4;1;0.05;0.45;84;0.0168;0.1;2;0.0166667;0.25;0.0166667;207.048
e6;1;0.05;0.45;23;0.0046;0.1;2;0.00416667;0.25;0.0166667;150.783
e4;1;0.05;0.45;82;0.0164;0.1;2;0.02;0.25;0.02;207.378
e6;1;0.05;0.45;19;0.0038;0.1;2;0.005;0.25;0.02;152.211
e4;1;0.05;0.45;106;0.0212;0.1;2;0.0233333;0.25;0.0233333;199.613
e6;1;0.05;0.45;28;0.0056;0.1;2;0.00583333;0.25;0.0233333;151.464
e4;1;0.05;0.45;103;0.0206;0.1;2;0.0266667;0.25;0.0266667;249.223
e6;1;0.05;0.45;32;0.0064;0.1;2;0.00666667;0.25;0.0266667;151.25
e4;1;0.05;0.45;139;0.0278;0.1;2;0.03;0.25;0.03;284.612
e6;1;0.05;0.45;45;0.009;0.1;2;0.0075;0.25;0.03;151.689
e4;1;0.05;0.45;166;0.0332;0.1;2;0.0333333;0.25;0.0333333;362.795
e6;1;0.05;0.45;38;0.0076;0.1;2;0.00833333;0.25;0.0333333;151.632
e4;1;0.05;0.45;173;0.0346;0.1;2;0.0366667;0.25;0.0366667;529.006
e6;1;0.05;0.45;45;0.009;0.1;2;0.00916667;0.25;0.0366667;152.044
e4;1;0.05;0.45;166;0.0332;0.1;2;0.04;0.25;0.04;401.361
e6;1;0.05;0.45;48;0.0096;0.1;2;0.01;0.25;0.04;150.875
e4;1;0.05;0.45;55;0.011;0.1;2;0.01;0.5;0.01;183.782
e6;1;0.05;0.45;27;0.0054;0.1;2;0.005;0.5;0.01;151.815
e4;1;0.05;0.45;64;0.0128;0.1;2;0.0133333;0.5;0.0133333;184.109
e6;1;0.05;0.45;29;0.0058;0.1;2;0.00666667;0.5;0.0133333;151.276
e4;1;0.05;0.45;108;0.0216;0.1;2;0.0166667;0.5;0.0166667;230.63
e6;1;0.05;0.45;38;0.0076;0.1;2;0.00833333;0.5;0.0166667;151.132
e4;1;0.05;0.45;107;0.0214;0.1;2;0.02;0.5;0.02;241.71
e6;1;0.05;0.45;51;0.0102;0.1;2;0.01;0.5;0.02;151.02
e4;1;0.05;0.45;102;0.0204;0.1;2;0.0233333;0.5;0.0233333;215.5
e6;1;0.05;0.45;60;0.012;0.1;2;0.0116667;0.5;0.0233333;151.633
e4;1;0.05;0.45;135;0.027;0.1;2;0.0266667;0.5;0.0266667;271.881
e6;1;0.05;0.45;59;0.0118;0.1;2;0.0133333;0.5;0.0266667;151.932
e4;1;0.05;0.45;150;0.03;0.1;2;0.03;0.5;0.03;328.46
e6;1;0.05;0.45;65;0.013;0.1;2;0.015;0.5;0.03;151.231
e4;1;0.05;0.45;147;0.0294;0.1;2;0.0333333;0.5;0.0333333;340.694
e6;1;0.05;0.45;74;0.0148;0.1;2;0.0166667;0.5;0.0333333;151.581
e4;1;0.05;0.45;168;0.0336;0.1;2;0.0366667;0.5;0.0366667;460.179
e6;1;0.05;0.45;84;0.0168;0.1;2;0.0183333;0.5;0.0366667;151.536
e4;1;0.05;0.45;155;0.031;0.1;2;0.04;0.5;0.04;387.355
e6;1;0.05;0.45;95;0.019;0.1;2;0.02;0.5;0.04;151.126
e4;1;0.05;0.45;55;0.011;0.1;2;0.01;0.75;0.01;183.545
e6;1;0.05;0.45;34;0.0068;0.1;2;0.0075;0.75;0.01;152.647
e4;1;0.05;0.45;78;0.0156;0.1;2;0.0133333;0.75;0.0133333;211.346
e6;1;0.05;0.45;43;0.0086;0.1;2;0.01;0.75;0.0133333;151.256
e4;1;0.05;0.45;88;0.0176;0.1;2;0.0166667;0.75;0.0166667;203.25
e6;1;0.05;0.45;64;0.0128;0.1;2;0.0125;0.75;0.0166667;152.484
e4;1;0.05;0.45;81;0.0162;0.1;2;0.02;0.75;0.02;213.296
e6;1;0.05;0.45;80;0.016;0.1;2;0.015;0.75;0.02;151.4
e4;1;0.05;0.45;108;0.0216;0.1;2;0.0233333;0.75;0.0233333;223.065
e6;1;0.05;0.45;90;0.018;0.1;2;0.0175;0.75;0.0233333;151.689
e4;1;0.05;0.45;127;0.0254;0.1;2;0.0266667;0.75;0.0266667;276.362
e6;1;0.05;0.45;82;0.0164;0.1;2;0.02;0.75;0.0266667;151.841
e4;1;0.05;0.45;153;0.0306;0.1;2;0.03;0.75;0.03;308.954
e6;1;0.05;0.45;109;0.0218;0.1;2;0.0225;0.75;0.03;151.642
e4;1;0.05;0.45;166;0.0332;0.1;2;0.0333333;0.75;0.0333333;368.873
e6;1;0.05;0.45;116;0.0232;0.1;2;0.025;0.75;0.0333333;151.448
e4;1;0.05;0.45;169;0.0338;0.1;2;0.0366667;0.75;0.0366667;406.112
e6;1;0.05;0.45;125;0.025;0.1;2;0.0275;0.75;0.0366667;151.216
e4;1;0.05;0.45;165;0.033;0.1;2;0.04;0.75;0.04;368.861
e6;1;0.05;0.45;150;0.03;0.1;2;0.03;0.75;0.04;151.533
e4;1;0.05;0.45;58;0.0116;0.1;2;0.01;1;0.01;189.328
e6;1;0.05;0.45;44;0.0088;0.1;2;0.01;1;0.01;152.205
e4;1;0.05;0.45;79;0.0158;0.1;2;0.0133333;1;0.0133333;208.848
e6;1;0.05;0.45;62;0.0124;0.1;2;0.0133333;1;0.0133333;151.726
e4;1;0.05;0.45;71;0.0142;0.1;2;0.0166667;1;0.0166667;195.648
e6;1;0.05;0.45;84;0.0168;0.1;2;0.0166667;1;0.0166667;152.262
e4;1;0.05;0.45;107;0.0214;0.1;2;0.02;1;0.02;236.551
e6;1;0.05;0.45;87;0.0174;0.1;2;0.02;1;0.02;151.207
e4;1;0.05;0.45;111;0.0222;0.1;2;0.0233333;1;0.0233333;214.468
e6;1;0.05;0.45;129;0.0258;0.1;2;0.0233333;1;0.0233333;152.031
e4;1;0.05;0.45;117;0.0234;0.1;2;0.0266667;1;0.0266667;226.009
e6;1;0.05;0.45;121;0.0242;0.1;2;0.0266667;1;0.0266667;151.901
e4;1;0.05;0.45;133;0.0266;0.1;2;0.03;1;0.03;272.842
e6;1;0.05;0.45;140;0.028;0.1;2;0.03;1;0.03;151.614
e4;1;0.05;0.45;163;0.0326;0.1;2;0.0333333;1;0.0333333;399.798
e6;1;0.05;0.45;151;0.0302;0.1;2;0.0333333;1;0.0333333;150.927
e4;1;0.05;0.45;175;0.035;0.1;2;0.0366667;1;0.0366667;460.394
e6;1;0.05;0.45;161;0.0322;0.1;2;0.0366667;1;0.0366667;151.304
e4;1;0.05;0.45;171;0.0342;0.1;2;0.04;1;0.04;521.62
e6;1;0.05;0.45;209;0.0418;0.1;2;0.04;1;0.04;151.833
e4;1;0.05;0.45;50;0.01;0.1;2;0.01;2;0.01;199.5
e6;1;0.05;0.45;105;0.021;0.1;2;0.02;2;0.01;151.914
e4;1;0.05;0.45;67;0.0134;0.1;2;0.0133333;2;0.0133333;214.239
e6;1;0.05;0.45;121;0.0242;0.1;2;0.0266667;2;0.0133333;151.769
e4;1;0.05;0.45;77;0.0154;0.1;2;0.0166667;2;0.0166667;188.753
e6;1;0.05;0.45;191;0.0382;0.1;2;0.0333333;2;0.0166667;152.414
e4;1;0.05;0.45;89;0.0178;0.1;2;0.02;2;0.02;211.944
e6;1;0.05;0.45;183;0.0366;0.1;2;0.04;2;0.02;152.246
e4;1;0.05;0.45;142;0.0284;0.1;2;0.0233333;2;0.0233333;259.275
e6;1;0.05;0.45;215;0.043;0.1;2;0.0466667;2;0.0233333;151.772
e4;1;0.05;0.45;109;0.0218;0.1;2;0.0266667;2;0.0266667;214.881
e6;1;0.05;0.45;261;0.0522;0.1;2;0.0533333;2;0.0266667;152.061
e4;1;0.05;0.45;150;0.03;0.1;2;0.03;2;0.03;341.66
e6;1;0.05;0.45;301;0.0602;0.1;2;0.06;2;0.03;151.824
e4;1;0.05;0.45;156;0.0312;0.1;2;0.0333333;2;0.0333333;331.058
e6;1;0.05;0.45;309;0.0618;0.1;2;0.0666667;2;0.0333333;151.631
e4;1;0.05;0.45;180;0.036;0.1;2;0.0366667;2;0.0366667;593.922
e6;1;0.05;0.45;397;0.0794;0.1;2;0.0733333;2;0.0366667;151.929
e4;1;0.05;0.45;165;0.033;0.1;2;0.04;2;0.04;492.4
e6;1;0.05;0.45;377;0.0754;0.1;2;0.08;2;0.04;151.812
