e4;1;0.25;0.75;60;0.012;0.25;1;0.01;0.1;0.01;158
e6;1;0.25;0.75;5;0.001;0.25;1;0.001;0.1;0.01;151.6
e4;1;0.25;0.75;176;0.0352;0.25;1;0.0322222;0.1;0.0322222;159.631
e6;1;0.25;0.75;24;0.0048;0.25;1;0.00322222;0.1;0.0322222;151.292
e4;1;0.25;0.75;271;0.0542;0.25;1;0.0544444;0.1;0.0544444;159.572
e6;1;0.25;0.75;18;0.0036;0.25;1;0.00544444;0.1;0.0544444;150.889
e4;1;0.25;0.75;393;0.0786;0.25;1;0.0766667;0.1;0.0766667;161.667
e6;1;0.25;0.75;32;0.0064;0.25;1;0.00766667;0.1;0.0766667;150.656
e4;1;0.25;0.75;459;0.0918;0.25;1;0.0988889;0.1;0.0988889;163.782
e6;1;0.25;0.75;60;0.012;0.25;1;0.00988889;0.1;0.0988889;150.483
e4;1;0.25;0.75;604;0.1208;0.25;1;0.121111;0.1;0.121111;165.205
e6;1;0.25;0.75;61;0.0122;0.25;1;0.0121111;0.1;0.121111;150.262
e4;1;0.25;0.75;716;0.1432;0.25;1;0.143333;0.1;0.143333;170.853
e6;1;0.25;0.75;77;0.0154;0.25;1;0.0143333;0.1;0.143333;150.299
e4;1;0.25;0.75;752;0.1504;0.25;1;0.165556;0.1;0.165556;170.668
e6;1;0.25;0.75;85;0.017;0.25;1;0.0165556;0.1;0.165556;150.588
e4;1;0.25;0.75;894;0.1788;0.25;1;0.187778;0.1;0.187778;185.084
e6;1;0.25;0.75;90;0.018;0.25;1;0.0187778;0.1;0.187778;150.711
e4;1;0.25;0.75;1027;0.2054;0.25;1;0.21;0.1;0.21;304.721
e6;1;0.25;0.75;93;0.0186;0.25;1;0.021;0.1;0.21;150.548
e4;1;0.25;0.75;40;0.008;0.25;1;0.01;0.25;0.01;157.9
e6;1;0.25;0.75;10;0.002;0.25;1;0.0025;0.25;0.01;149.8
e4;1;0.25;0.75;142;0.0284;0.25;1;0.0322222;0.25;0.0322222;159.07
e6;1;0.25;0.75;53;0.0106;0.25;1;0.00805556;0.25;0.0322222;150.321
e4;1;0.25;0.75;271;0.0542;0.25;1;0.0544444;0.25;0.0544444;161.232
e6;1;0.25;0.75;62;0.0124;0.25;1;0.0136111;0.25;0.0544444;150.355
e4;1;0.25;0.75;372;0.0744;0.25;1;0.0766667;0.25;0.0766667;160.081
e6;1;0.25;0.75;68;0.0136;0.25;1;0.0191667;0.25;0.0766667;150.441
e4;1;0.25;0.75;464;0.0928;0.25;1;0.0988889;0.25;0.0988889;162.752
e6;1;0.25;0.75;111;0.0222;0.25;1;0.0247222;0.25;0.0988889;150.784
e4;1;0.25;0.75;557;0.1114;0.25;1;0.121111;0.25;0.121111;165.158
e6;1;0.25;0.75;129;0.0258;0.25;1;0.0302778;0.25;0.121111;150.465
e4;1;0.25;0.75;689;0.1378;0.25;1;0.143333;0.25;0.143333;169.856
e6;1;0.25;0.75;170;0.034;0.25;1;0.0358333;0.25;0.143333;150.688
e4;1;0.25;0.75;757;0.1514;0.25;1;0.165556;0.25;0.165556;176.058
e6;1;0.25;0.75;228;0.0456;0.25;1;0.0413889;0.25;0.165556;150.645
e4;1;0.25;0.75;900;0.18;0.25;1;0.187778;0.25;0.187778;182.922
e6;1;0.25;0.75;237;0.0474;0.25;1;0.0469444;0.25;0.187778;150.793
e4;1;0.25;0.75;910;0.182;0.25;1;0.21;0.25;0.21;191.052
e6;1;0.25;0.75;238;0.0476;0.25;1;0.0525;0.25;0.21;150.63
e4;1;0.25;0.75;55;0.011;0.25;1;0.01;0.5;0.01;157.691
e6;1;0.25;0.75;17;0.0034;0.25;1;0.005;0.5;0.01;150.471
e4;1;0.25;0.75;158;0.0316;0.25;1;0.0322222;0.5;0.0322222;158.411
e6;1;0.25;0.75;81;0.0162;0.25;1;0.0161111;0.5;0.0322222;150.481
e4;1;0.25;0.75;252;0.0504;0.25;1;0.0544444;0.5;0.0544444;159.147
e6;1;0.25;0.75;163;0.0326;0.25;1;0.0272222;0.5;0.0544444;150.613
e4;1;0.25;0.75;376;0.0752;0.25;1;0.0766667;0.5;0.0766667;161.955
e6;1;0.25;0.75;195;0.039;0.25;1;0.0383333;0.5;0.0766667;150.656
e4;1;0.25;0.75;451;0.0902;0.25;1;0.0988889;0.5;0.0988889;162.08
e6;1;0.25;0.75;236;0.0472;0.25;1;0.0494444;0.5;0.0988889;150.597
e4;1;0.25;0.75;597;0.1194;0.25;1;0.121111;0.5;0.121111;165.817
e6;1;0.25;0.75;265;0.053;0.25;1;0.0605556;0.5;0.121111;150.66
e4;1;0.25;0.75;649;0.1298;0.25;1;0.143333;0.5;0.143333;170.598
e6;1;0.25;0.75;360;0.072;0.25;1;0.0716667;0.5;0.143333;150.614
e4;1;0.25;0.75;807;0.1614;0.25;1;0.165556;0.5;0.165556;175.261
e6;1;0.25;0.75;380;0.076;0.25;1;0.0827778;0.5;0.165556;150.618
e4;1;0.25;0.75;859;0.1718;0.25;1;0.187778;0.5;0.187778;199.178
e6;1;0.25;0.75;460;0.092;0.25;1;0.0938889;0.5;0.187778;150.787
e4;1;0.25;0.75;981;0.1962;0.25;1;0.21;0.5;0.21;222.928
e6;1;0.25;0.75;520;0.104;0.25;1;0.105;0.5;0.21;150.794
e4;1;0.25;0.75;38;0.0076;0.25;1;0.01;0.75;0.01;156.447
e6;1;0.25;0.75;31;0.0062;0.25;1;0.0075;0.75;0.01;150.452
e4;1;0.25;0.75;148;0.0296;0.25;1;0.0322222;0.75;0.0322222;159.52
e6;1;0.25;0.75;123;0.0246;0.25;1;0.0241667;0.75;0.0322222;150.504
e4;1;0.25;0.75;233;0.0466;0.25;1;0.0544444;0.75;0.0544444;159.464
e6;1;0.25;0.75;192;0.0384;0.25;1;0.0408333;0.75;0.0544444;150.823
e4;1;0.25;0.75;373;0.0746;0.25;1;0.0766667;0.75;0.0766667;163.295
e6;1;0.25;0.75;245;0.049;0.25;1;0.0575;0.75;0.0766667;150.608
e4;1;0.25;0.75;100;0.02;0.25;1;0.0988889;0.75;0.0988889;162.15
e6;1;0.25;0.75;100;0.02;0.25;1;0.0741667;0.75;0.0988889;150.69
e4;1;0.25;0.75;587;0.1174;0.25;1;0.121111;0.75;0.121111;165.02
e6;1;0.25;0.75;471;0.0942;0.25;1;0.0908333;0.75;0.121111;150.641
e4;1;0.25;0.75;652;0.1304;0.25;1;0.143333;0.75;0.143333;168.877
e6;1;0.25;0.75;532;0.1064;0.25;1;0.1075;0.75;0.143333;150.855
e4;1;0.25;0.75;770;0.154;0.25;1;0.165556;0.75;0.165556;173.184
e6;1;0.25;0.75;626;0.1252;0.25;1;0.124167;0.75;0.165556;150.927
e4;1;0.25;0.75;820;0.164;0.25;1;0.187778;0.75;0.187778;181.105
e6;1;0.25;0.75;709;0.1418;0.25;1;0.140833;0.75;0.187778;150.961
e4;1;0.25;0.75;994;0.1988;0.25;1;0.21;0.75;0.21;213.55
e6;1;0.25;0.75;780;0.156;0.25;1;0.1575;0.75;0.21;151.185
e4;1;0.25;0.75;60;0.012;0.25;1;0.01;1;0.01;156.767
e6;1;0.25;0.75;41;0.0082;0.25;1;0.01;1;0.01;150.341
e4;1;0.25;0.75;172;0.0344;0.25;1;0.0322222;1;0.0322222;158.762
e6;1;0.25;0.75;136;0.0272;0.25;1;0.0322222;1;0.0322222;150.824
e4;1;0.25;0.75;252;0.0504;0.25;1;0.0544444;1;0.0544444;159.365
e6;1;0.25;0.75;273;0.0546;0.25;1;0.0544444;1;0.0544444;150.44
e4;1;0.25;0.75;359;0.0718;0.25;1;0.0766667;1;0.0766667;160.95
e6;1;0.25;0.75;370;0.074;0.25;1;0.0766667;1;0.0766667;150.611
e4;1;0.25;0.75;445;0.089;0.25;1;0.0988889;1;0.0988889;162.58
e6;1;0.25;0.75;433;0.0866;0.25;1;0.0988889;1;0.0988889;150.753
e4;1;0.25;0.75;557;0.1114;0.25;1;0.121111;1;0.121111;165.381
e6;1;0.25;0.75;569;0.1138;0.25;1;0.121111;1;0.121111;150.817
e4;1;0.25;0.75;652;0.1304;0.25;1;0.143333;1;0.143333;167.379
e6;1;0.25;0.75;665;0.133;0.25;1;0.143333;1;0.143333;151.059
e4;1;0.25;0.75;817;0.1634;0.25;1;0.165556;1;0.165556;177.289
e6;1;0.25;0.75;812;0.1624;0.25;1;0.165556;1;0.165556;151.014
e4;1;0.25;0.75;924;0.1848;0.25;1;0.187778;1;0.187778;193.501
e6;1;0.25;0.75;917;0.1834;0.25;1;0.187778;1;0.187778;151.27
e4;1;0.25;0.75;963;0.1926;0.25;1;0.21;1;0.21;209.788
e6;1;0.25;0.75;1010;0.202;0.25;1;0.21;1;0.21;151.075
e4;1;0.25;0.75;41;0.0082;0.25;1;0.01;2;0.01;157.902
e6;1;0.25;0.75;98;0.0196;0.25;1;0.02;2;0.01;150.724
e4;1;0.25;0.75;172;0.0344;0.25;1;0.0322222;2;0.0322222;158.233
e6;1;0.25;0.75;312;0.0624;0.25;1;0.0644444;2;0.0322222;150.875
e4;1;0.25;0.75;256;0.0512;0.25;1;0.0544444;2;0.0544444;159.812
e6;1;0.25;0.75;516;0.1032;0.25;1;0.108889;2;0.0544444;150.839
e4;1;0.25;0.75;370;0.074;0.25;1;0.0766667;2;0.0766667;161.468
e6;1;0.25;0.75;716;0.1432;0.25;1;0.153333;2;0.0766667;150.865
e4;1;0.25;0.75;471;0.0942;0.25;1;0.0988889;2;0.0988889;164.159
e6;1;0.25;0.75;929;0.1858;0.25;1;0.197778;2;0.0988889;151.326
e4;1;0.25;0.75;577;0.1154;0.25;1;0.121111;2;0.121111;163.501
e6;1;0.25;0.75;1149;0.2298;0.25;1;0.242222;2;0.121111;151.329
e4;1;0.25;0.75;658;0.1316;0.25;1;0.143333;2;0.143333;169.252
e6;1;0.25;0.75;1409;0.2818;0.25;1;0.286667;2;0.143333;151.695
e4;1;0.25;0.75;844;0.1688;0.25;1;0.165556;2;0.165556;188.175
e6;1;0.25;0.75;1661;0.3322;0.25;1;0.331111;2;0.165556;152.297
e4;1;0.25;0.75;897;0.1794;0.25;1;0.187778;2;0.187778;190.922
e6;1;0.25;0.75;1869;0.3738;0.25;1;0.375556;2;0.187778;152.343
e4;1;0.25;0.75;1006;0.2012;0.25;1;0.21;2;0.21;221.39
e6;1;0.25;0.75;2047;0.4094;0.25;1;0.42;2;0.21;153.263
