e4;1;0.25;0.75;47;0.0094;0.25;1;0.01;0.1;0.01;153.319
e6;1;0.25;0.75;2;0.0004;0.25;1;0.001;0.1;0.01;149
e4;1;0.25;0.75;161;0.0322;0.25;1;0.0322222;0.1;0.0322222;153.938
e6;1;0.25;0.75;18;0.0036;0.25;1;0.00322222;0.1;0.0322222;150.222
e4;1;0.25;0.75;207;0.0414;0.25;1;0.0544444;0.1;0.0544444;154.275
e6;1;0.25;0.75;29;0.0058;0.25;1;0.00544444;0.1;0.0544444;150.276
e4;1;0.25;0.75;370;0.074;0.25;1;0.0766667;0.1;0.0766667;155.835
e6;1;0.25;0.75;43;0.0086;0.25;1;0.00766667;0.1;0.0766667;150.186
e4;1;0.25;0.75;492;0.0984;0.25;1;0.0988889;0.1;0.0988889;156.921
e6;1;0.25;0.75;47;0.0094;0.25;1;0.00988889;0.1;0.0988889;150.213
e4;1;0.25;0.75;558;0.1116;0.25;1;0.121111;0.1;0.121111;157.891
e6;1;0.25;0.75;52;0.0104;0.25;1;0.0121111;0.1;0.121111;150.346
e4;1;0.25;0.75;698;0.1396;0.25;1;0.143333;0.1;0.143333;160.706
e6;1;0.25;0.75;76;0.0152;0.25;1;0.0143333;0.1;0.143333;150.395
e4;1;0.25;0.75;841;0.1682;0.25;1;0.165556;0.1;0.165556;166.208
e6;1;0.25;0.75;85;0.017;0.25;1;0.0165556;0.1;0.165556;150.388
e4;1;0.25;0.75;919;0.1838;0.25;1;0.187778;0.1;0.187778;177.187
e6;1;0.25;0.75;100;0.02;0.25;1;0.0187778;0.1;0.187778;150.52
e4;1;0.25;0.75;981;0.1962;0.25;1;0.21;0.1;0.21;177.27
e6;1;0.25;0.75;106;0.0212;0.25;1;0.021;0.1;0.21;150.16
e4;1;0.25;0.75;39;0.0078;0.25;1;0.01;0.25;0.01;155.308
e6;1;0.25;0.75;16;0.0032;0.25;1;0.0025;0.25;0.01;150.062
e4;1;0.25;0.75;153;0.0306;0.25;1;0.0322222;0.25;0.0322222;154.895
e6;1;0.25;0.75;40;0.008;0.25;1;0.00805556;0.25;0.0322222;150.15
e4;1;0.25;0.75;258;0.0516;0.25;1;0.0544444;0.25;0.0544444;155.38
e6;1;0.25;0.75;66;0.0132;0.25;1;0.0136111;0.25;0.0544444;149.97
e4;1;0.25;0.75;357;0.0714;0.25;1;0.0766667;0.25;0.0766667;155.602
e6;1;0.25;0.75;84;0.0168;0.25;1;0.0191667;0.25;0.0766667;150.036
e4;1;0.25;0.75;513;0.1026;0.25;1;0.0988889;0.25;0.0988889;156.998
e6;1;0.25;0.75;115;0.023;0.25;1;0.0247222;0.25;0.0988889;150.07
e4;1;0.25;0.75;585;0.117;0.25;1;0.121111;0.25;0.121111;158.374
e6;1;0.25;0.75;148;0.0296;0.25;1;0.0302778;0.25;0.121111;150.338
e4;1;0.25;0.75;710;0.142;0.25;1;0.143333;0.25;0.143333;160.173
e6;1;0.25;0.75;165;0.033;0.25;1;0.0358333;0.25;0.143333;150.273
e4;1;0.25;0.75;822;0.1644;0.25;1;0.165556;0.25;0.165556;167.495
e6;1;0.25;0.75;191;0.0382;0.25;1;0.0413889;0.25;0.165556;150.204
e4;1;0.25;0.75;952;0.1904;0.25;1;0.187778;0.25;0.187778;169.102
e6;1;0.25;0.75;241;0.0482;0.25;1;0.0469444;0.25;0.187778;150.461
e4;1;0.25;0.75;1061;0.2122;0.25;1;0.21;0.25;0.21;199.869
e6;1;0.25;0.75;261;0.0522;0.25;1;0.0525;0.25;0.21;150.307
e4;1;0.25;0.75;52;0.0104;0.25;1;0.01;0.5;0.01;153.731
e6;1;0.25;0.75;23;0.0046;0.25;1;0.005;0.5;0.01;150.435
e4;1;0.25;0.75;173;0.0346;0.25;1;0.0322222;0.5;0.0322222;154.162
e6;1;0.25;0.75;72;0.0144;0.25;1;0.0161111;0.5;0.0322222;150.25
e4;1;0.25;0.75;288;0.0576;0.25;1;0.0544444;0.5;0.0544444;155.403
e6;1;0.25;0.75;110;0.022;0.25;1;0.0272222;0.5;0.0544444;150.482
e4;1;0.25;0.75;366;0.0732;0.25;1;0.0766667;0.5;0.0766667;155.519
e6;1;0.25;0.75;172;0.0344;0.25;1;0.0383333;0.5;0.0766667;150.285
e4;1;0.25;0.75;489;0.0978;0.25;1;0.0988889;0.5;0.0988889;156.235
e6;1;0.25;0.75;257;0.0514;0.25;1;0.0494444;0.5;0.0988889;150.389
e4;1;0.25;0.75;609;0.1218;0.25;1;0.121111;0.5;0.121111;157.931
e6;1;0.25;0.75;283;0.0566;0.25;1;0.0605556;0.5;0.121111;150.339
e4;1;0.25;0.75;656;0.1312;0.25;1;0.143333;0.5;0.143333;160.005
e6;1;0.25;0.75;349;0.0698;0.25;1;0.0716667;0.5;0.143333;150.458
e4;1;0.25;0.75;822;0.1644;0.25;1;0.165556;0.5;0.165556;165.281
e6;1;0.25;0.75;436;0.0872;0.25;1;0.0827778;0.5;0.165556;150.459
e4;1;0.25;0.75;917;0.1834;0.25;1;0.187778;0.5;0.187778;167.172
e6;1;0.25;0.75;425;0.085;0.25;1;0.0938889;0.5;0.187778;150.442
e4;1;0.25;0.75;971;0.1942;0.25;1;0.21;0.5;0.21;204.472
e6;1;0.25;0.75;520;0.104;0.25;1;0.105;0.5;0.21;150.567
e4;1;0.25;0.75;52;0.0104;0.25;1;0.01;0.75;0.01;153.846
e6;1;0.25;0.75;31;0.0062;0.25;1;0.0075;0.75;0.01;149.774
e4;1;0.25;0.75;144;0.0288;0.25;1;0.0322222;0.75;0.0322222;154.125
e6;1;0.25;0.75;129;0.0258;0.25;1;0.0241667;0.75;0.0322222;150.217
e4;1;0.25;0.75;280;0.056;0.25;1;0.0544444;0.75;0.0544444;155.129
e6;1;0.25;0.75;175;0.035;0.25;1;0.0408333;0.75;0.0544444;150.069
e4;1;0.25;0.75;355;0.071;0.25;1;0.0766667;0.75;0.0766667;155.628
e6;1;0.25;0.75;272;0.0544;0.25;1;0.0575;0.75;0.0766667;150.21
e4;1;0.25;0.75;481;0.0962;0.25;1;0.0988889;0.75;0.0988889;157.653
e6;1;0.25;0.75;384;0.0768;0.25;1;0.0741667;0.75;0.0988889;150.406
e4;1;0.25;0.75;616;0.1232;0.25;1;0.121111;0.75;0.121111;157.985
e6;1;0.25;0.75;423;0.0846;0.25;1;0.0908333;0.75;0.121111;150.338
e4;1;0.25;0.75;716;0.1432;0.25;1;0.143333;0.75;0.143333;161.795
e6;1;0.25;0.75;558;0.1116;0.25;1;0.1075;0.75;0.143333;150.513
e4;1;0.25;0.75;815;0.163;0.25;1;0.165556;0.75;0.165556;165.252
e6;1;0.25;0.75;570;0.114;0.25;1;0.124167;0.75;0.165556;150.56
e4;1;0.25;0.75;963;0.1926;0.25;1;0.187778;0.75;0.187778;176.665
e6;1;0.25;0.75;709;0.1418;0.25;1;0.140833;0.75;0.187778;150.681
e4;1;0.25;0.75;979;0.1958;0.25;1;0.21;0.75;0.21;174.256
e6;1;0.25;0.75;807;0.1614;0.25;1;0.1575;0.75;0.21;150.672
e4;1;0.25;0.75;46;0.0092;0.25;1;0.01;1;0.01;154.674
e6;1;0.25;0.75;49;0.0098;0.25;1;0.01;1;0.01;150.204
e4;1;0.25;0.75;145;0.029;0.25;1;0.0322222;1;0.0322222;154.414
e6;1;0.25;0.75;147;0.0294;0.25;1;0.0322222;1;0.0322222;150.347
e4;1;0.25;0.75;252;0.0504;0.25;1;0.0544444;1;0.0544444;154.806
e6;1;0.25;0.75;259;0.0518;0.25;1;0.0544444;1;0.0544444;150.386
e4;1;0.25;0.75;361;0.0722;0.25;1;0.0766667;1;0.0766667;155.759
e6;1;0.25;0.75;386;0.0772;0.25;1;0.0766667;1;0.0766667;150.389
e4;1;0.25;0.75;502;0.1004;0.25;1;0.0988889;1;0.0988889;156.992
e6;1;0.25;0.75;489;0.0978;0.25;1;0.0988889;1;0.0988889;150.452
e4;1;0.25;0.75;607;0.1214;0.25;1;0.121111;1;0.121111;157.867
e6;1;0.25;0.75;583;0.1166;0.25;1;0.121111;1;0.121111;150.539
e4;1;0.25;0.75;659;0.1318;0.25;1;0.143333;1;0.143333;160.557
e6;1;0.25;0.75;702;0.1404;0.25;1;0.143333;1;0.143333;150.58
e4;1;0.25;0.75;786;0.1572;0.25;1;0.165556;1;0.165556;161.205
e6;1;0.25;0.75;847;0.1694;0.25;1;0.165556;1;0.165556;150.713
e4;1;0.25;0.75;893;0.1786;0.25;1;0.187778;1;0.187778;176.738
e6;1;0.25;0.75;926;0.1852;0.25;1;0.187778;1;0.187778;150.929
e4;1;0.25;0.75;1058;0.2116;0.25;1;0.21;1;0.21;235.731
e6;1;0.25;0.75;1035;0.207;0.25;1;0.21;1;0.21;150.861
e4;1;0.25;0.75;50;0.01;0.25;1;0.01;2;0.01;154.62
e6;1;0.25;0.75;92;0.0184;0.25;1;0.02;2;0.01;150.467
e4;1;0.25;0.75;138;0.0276;0.25;1;0.0322222;2;0.0322222;154.717
e6;1;0.25;0.75;342;0.0684;0.25;1;0.0644444;2;0.0322222;150.404
e4;1;0.25;0.75;284;0.0568;0.25;1;0.0544444;2;0.0544444;154.373
e6;1;0.25;0.75;578;0.1156;0.25;1;0.108889;2;0.0544444;150.505
e4;1;0.25;0.75;337;0.0674;0.25;1;0.0766667;2;0.0766667;155.994
e6;1;0.25;0.75;762;0.1524;0.25;1;0.153333;2;0.0766667;150.47
e4;1;0.25;0.75;493;0.0986;0.25;1;0.0988889;2;0.0988889;157.864
e6;1;0.25;0.75;1020;0.204;0.25;1;0.197778;2;0.0988889;150.737
e4;1;0.25;0.75;576;0.1152;0.25;1;0.121111;2;0.121111;157.844
e6;1;0.25;0.75;1156;0.2312;0.25;1;0.242222;2;0.121111;150.971
e4;1;0.25;0.75;670;0.134;0.25;1;0.143333;2;0.143333;160.201
e6;1;0.25;0.75;1350;0.27;0.25;1;0.286667;2;0.143333;151.227
e4;1;0.25;0.75;798;0.1596;0.25;1;0.165556;2;0.165556;164.346
e6;1;0.25;0.75;1627;0.3254;0.25;1;0.331111;2;0.165556;151.514
e4;1;0.25;0.75;853;0.1706;0.25;1;0.187778;2;0.187778;169.896
e6;1;0.25;0.75;1763;0.3526;0.25;1;0.375556;2;0.187778;152.031
e4;1;0.25;0.75;1014;0.2028;0.25;1;0.21;2;0.21;209.928
e6;1;0.25;0.75;2059;0.4118;0.25;1;0.42;2;0.21;153.138
