e4;0.5;0.1;0.9;56;0.0112;0.1;0.5;0.01;0.1;0.01;162.768
e6;0.5;0.1;0.9;5;0.001;0.1;0.5;0.001;0.1;0.01;149.4
e4;0.5;0.1;0.9;83;0.0166;0.1;0.5;0.0177778;0.1;0.0177778;162.687
e6;0.5;0.1;0.9;8;0.0016;0.1;0.5;0.00177778;0.1;0.0177778;150.125
e4;0.5;0.1;0.9;127;0.0254;0.1;0.5;0.0255556;0.1;0.0255556;164.425
e6;0.5;0.1;0.9;13;0.0026;0.1;0.5;0.00255556;0.1;0.0255556;150.846
e4;0.5;0.1;0.9;162;0.0324;0.1;0.5;0.0333333;0.1;0.0333333;166.086
e6;0.5;0.1;0.9;19;0.0038;0.1;0.5;0.00333333;0.1;0.0333333;151.789
e4;0.5;0.1;0.9;182;0.0364;0.1;0.5;0.0411111;0.1;0.0411111;167.511
e6;0.5;0.1;0.9;23;0.0046;0.1;0.5;0.00411111;0.1;0.0411111;151.391
e4;0.5;0.1;0.9;240;0.048;0.1;0.5;0.0488889;0.1;0.0488889;174.787
e6;0.5;0.1;0.9;12;0.0024;0.1;0.5;0.00488889;0.1;0.0488889;151.083
e4;0.5;0.1;0.9;273;0.0546;0.1;0.5;0.0566667;0.1;0.0566667;170.282
e6;0.5;0.1;0.9;23;0.0046;0.1;0.5;0.00566667;0.1;0.0566667;151.043
e4;0.5;0.1;0.9;284;0.0568;0.1;0.5;0.0644444;0.1;0.0644444;176.609
e6;0.5;0.1;0.9;35;0.007;0.1;0.5;0.00644444;0.1;0.0644444;151.543
e4;0.5;0.1;0.9;374;0.0748;0.1;0.5;0.0722222;0.1;0.0722222;201.182
e6;0.5;0.1;0.9;35;0.007;0.1;0.5;0.00722222;0.1;0.0722222;151.4
e4;0.5;0.1;0.9;387;0.0774;0.1;0.5;0.08;0.1;0.08;218.876
e6;0.5;0.1;0.9;38;0.0076;0.1;0.5;0.008;0.1;0.08;151.026
e4;0.5;0.1;0.9;40;0.008;0.1;0.5;0.01;0.25;0.01;166.2
e6;0.5;0.1;0.9;9;0.0018;0.1;0.5;0.0025;0.25;0.01;151.444
e4;0.5;0.1;0.9;90;0.018;0.1;0.5;0.0177778;0.25;0.0177778;162.511
e6;0.5;0.1;0.9;21;0.0042;0.1;0.5;0.00444444;0.25;0.0177778;151.429
e4;0.5;0.1;0.9;125;0.025;0.1;0.5;0.0255556;0.25;0.0255556;163.016
e6;0.5;0.1;0.9;40;0.008;0.1;0.5;0.00638889;0.25;0.0255556;150.6
e4;0.5;0.1;0.9;170;0.034;0.1;0.5;0.0333333;0.25;0.0333333;166.371
e6;0.5;0.1;0.9;43;0.0086;0.1;0.5;0.00833333;0.25;0.0333333;150.86
e4;0.5;0.1;0.9;191;0.0382;0.1;0.5;0.0411111;0.25;0.0411111;167.623
e6;0.5;0.1;0.9;57;0.0114;0.1;0.5;0.0102778;0.25;0.0411111;151.14
e4;0.5;0.1;0.9;252;0.0504;0.1;0.5;0.0488889;0.25;0.0488889;178.933
e6;0.5;0.1;0.9;69;0.0138;0.1;0.5;0.0122222;0.25;0.0488889;150.899
e4;0.5;0.1;0.9;257;0.0514;0.1;0.5;0.0566667;0.25;0.0566667;172.206
e6;0.5;0.1;0.9;64;0.0128;0.1;0.5;0.0141667;0.25;0.0566667;150.438
e4;0.5;0.1;0.9;321;0.0642;0.1;0.5;0.0644444;0.25;0.0644444;188.673
e6;0.5;0.1;0.9;72;0.0144;0.1;0.5;0.0161111;0.25;0.0644444;151.208
e4;0.5;0.1;0.9;329;0.0658;0.1;0.5;0.0722222;0.25;0.0722222;175.529
e6;0.5;0.1;0.9;99;0.0198;0.1;0.5;0.0180556;0.25;0.0722222;150.869
e4;0.5;0.1;0.9;370;0.074;0.1;0.5;0.08;0.25;0.08;191.516
e6;0.5;0.1;0.9;91;0.0182;0.1;0.5;0.02;0.25;0.08;151.352
e4;0.5;0.1;0.9;44;0.0088;0.1;0.5;0.01;0.5;0.01;161.205
e6;0.5;0.1;0.9;26;0.0052;0.1;0.5;0.005;0.5;0.01;150.308
e4;0.5;0.1;0.9;88;0.0176;0.1;0.5;0.0177778;0.5;0.0177778;161.239
e6;0.5;0.1;0.9;43;0.0086;0.1;0.5;0.00888889;0.5;0.0177778;150.907
e4;0.5;0.1;0.9;108;0.0216;0.1;0.5;0.0255556;0.5;0.0255556;164.63
e6;0.5;0.1;0.9;65;0.013;0.1;0.5;0.0127778;0.5;0.0255556;150.923
e4;0.5;0.1;0.9;160;0.032;0.1;0.5;0.0333333;0.5;0.0333333;166.262
e6;0.5;0.1;0.9;95;0.019;0.1;0.5;0.0166667;0.5;0.0333333;151.105
e4;0.5;0.1;0.9;192;0.0384;0.1;0.5;0.0411111;0.5;0.0411111;167.115
e6;0.5;0.1;0.9;112;0.0224;0.1;0.5;0.0205556;0.5;0.0411111;150.848
e4;0.5;0.1;0.9;257;0.0514;0.1;0.5;0.0488889;0.5;0.0488889;169.307
e6;0.5;0.1;0.9;105;0.021;0.1;0.5;0.0244444;0.5;0.0488889;151.152
e4;0.5;0.1;0.9;313;0.0626;0.1;0.5;0.0566667;0.5;0.0566667;185.115
e6;0.5;0.1;0.9;141;0.0282;0.1;0.5;0.0283333;0.5;0.0566667;151.766
e4;0.5;0.1;0.9;307;0.0614;0.1;0.5;0.0644444;0.5;0.0644444;174.156
e6;0.5;0.1;0.9;181;0.0362;0.1;0.5;0.0322222;0.5;0.0644444;151.591
e4;0.5;0.1;0.9;358;0.0716;0.1;0.5;0.0722222;0.5;0.0722222;183.246
e6;0.5;0.1;0.9;194;0.0388;0.1;0.5;0.0361111;0.5;0.0722222;151.619
e4;0.5;0.1;0.9;410;0.082;0.1;0.5;0.08;0.5;0.08;213.666
e6;0.5;0.1;0.9;188;0.0376;0.1;0.5;0.04;0.5;0.08;151.324
e4;0.5;0.1;0.9;49;0.0098;0.1;0.5;0.01;0.75;0.01;161.02
e6;0.5;0.1;0.9;32;0.0064;0.1;0.5;0.0075;0.75;0.01;150.719
e4;0.5;0.1;0.9;110;0.022;0.1;0.5;0.0177778;0.75;0.0177778;164.518
e6;0.5;0.1;0.9;71;0.0142;0.1;0.5;0.0133333;0.75;0.0177778;151.155
e4;0.5;0.1;0.9;132;0.0264;0.1;0.5;0.0255556;0.75;0.0255556;167.167
e6;0.5;0.1;0.9;85;0.017;0.1;0.5;0.0191667;0.75;0.0255556;151.071
e4;0.5;0.1;0.9;183;0.0366;0.1;0.5;0.0333333;0.75;0.0333333;167.339
e6;0.5;0.1;0.9;114;0.0228;0.1;0.5;0.025;0.75;0.0333333;151.035
e4;0.5;0.1;0.9;196;0.0392;0.1;0.5;0.0411111;0.75;0.0411111;173.173
e6;0.5;0.1;0.9;152;0.0304;0.1;0.5;0.0308333;0.75;0.0411111;151.355
e4;0.5;0.1;0.9;241;0.0482;0.1;0.5;0.0488889;0.75;0.0488889;173.622
e6;0.5;0.1;0.9;175;0.035;0.1;0.5;0.0366667;0.75;0.0488889;151.063
e4;0.5;0.1;0.9;303;0.0606;0.1;0.5;0.0566667;0.75;0.0566667;176.551
e6;0.5;0.1;0.9;209;0.0418;0.1;0.5;0.0425;0.75;0.0566667;151.531
e4;0.5;0.1;0.9;352;0.0704;0.1;0.5;0.0644444;0.75;0.0644444;182.991
e6;0.5;0.1;0.9;243;0.0486;0.1;0.5;0.0483333;0.75;0.0644444;151.774
e4;0.5;0.1;0.9;324;0.0648;0.1;0.5;0.0722222;0.75;0.0722222;189.117
e6;0.5;0.1;0.9;249;0.0498;0.1;0.5;0.0541667;0.75;0.0722222;151.478
e4;0.5;0.1;0.9;376;0.0752;0.1;0.5;0.08;0.75;0.08;189.202
e6;0.5;0.1;0.9;274;0.0548;0.1;0.5;0.06;0.75;0.08;151.617
e4;0.5;0.1;0.9;45;0.009;0.1;0.5;0.01;1;0.01;163.689
e6;0.5;0.1;0.9;47;0.0094;0.1;0.5;0.01;1;0.01;150.681
e4;0.5;0.1;0.9;95;0.019;0.1;0.5;0.0177778;1;0.0177778;160.632
e6;0.5;0.1;0.9;81;0.0162;0.1;0.5;0.0177778;1;0.0177778;151.037
e4;0.5;0.1;0.9;135;0.027;0.1;0.5;0.0255556;1;0.0255556;164.311
e6;0.5;0.1;0.9;122;0.0244;0.1;0.5;0.0255556;1;0.0255556;150.762
e4;0.5;0.1;0.9;161;0.0322;0.1;0.5;0.0333333;1;0.0333333;166.82
e6;0.5;0.1;0.9;146;0.0292;0.1;0.5;0.0333333;1;0.0333333;151.007
e4;0.5;0.1;0.9;100;0.02;0.1;0.5;0.0411111;1;0.0411111;166.52
e6;0.5;0.1;0.9;100;0.02;0.1;0.5;0.0411111;1;0.0411111;151.24
e4;0.5;0.1;0.9;100;0.02;0.1;0.5;0.0488889;1;0.0488889;165.2
e6;0.5;0.1;0.9;100;0.02;0.1;0.5;0.0488889;1;0.0488889;151.4
e4;0.5;0.1;0.9;297;0.0594;0.1;0.5;0.0566667;1;0.0566667;175.283
e6;0.5;0.1;0.9;288;0.0576;0.1;0.5;0.0566667;1;0.0566667;152.042
e4;0.5;0.1;0.9;330;0.066;0.1;0.5;0.0644444;1;0.0644444;185.685
e6;0.5;0.1;0.9;332;0.0664;0.1;0.5;0.0644444;1;0.0644444;151.627
e4;0.5;0.1;0.9;329;0.0658;0.1;0.5;0.0722222;1;0.0722222;190.805
e6;0.5;0.1;0.9;361;0.0722;0.1;0.5;0.0722222;1;0.0722222;151.748
e4;0.5;0.1;0.9;393;0.0786;0.1;0.5;0.08;1;0.08;186.743
e6;0.5;0.1;0.9;413;0.0826;0.1;0.5;0.08;1;0.08;151.86
e4;0.5;0.1;0.9;47;0.0094;0.1;0.5;0.01;2;0.01;162.362
e6;0.5;0.1;0.9;105;0.021;0.1;0.5;0.02;2;0.01;150.905
e4;0.5;0.1;0.9;71;0.0142;0.1;0.5;0.0177778;2;0.0177778;161.268
e6;0.5;0.1;0.9;167;0.0334;0.1;0.5;0.0355556;2;0.0177778;151.096
e4;0.5;0.1;0.9;117;0.0234;0.1;0.5;0.0255556;2;0.0255556;167.205
e6;0.5;0.1;0.9;213;0.0426;0.1;0.5;0.0511111;2;0.0255556;151.455
e4;0.5;0.1;0.9;159;0.0318;0.1;0.5;0.0333333;2;0.0333333;163.384
e6;0.5;0.1;0.9;311;0.0622;0.1;0.5;0.0666667;2;0.0333333;151.209
e4;0.5;0.1;0.9;228;0.0456;0.1;0.5;0.0411111;2;0.0411111;169.583
e6;0.5;0.1;0.9;396;0.0792;0.1;0.5;0.0822222;2;0.0411111;151.692
e4;0.5;0.1;0.9;245;0.049;0.1;0.5;0.0488889;2;0.0488889;169.755
e6;0.5;0.1;0.9;496;0.0992;0.1;0.5;0.0977778;2;0.0488889;151.839
e4;0.5;0.1;0.9;277;0.0554;0.1;0.5;0.0566667;2;0.0566667;180.357
e6;0.5;0.1;0.9;564;0.1128;0.1;0.5;0.113333;2;0.0566667;152.305
e4;0.5;0.1;0.9;311;0.0622;0.1;0.5;0.0644444;2;0.0644444;188.039
e6;0.5;0.1;0.9;609;0.1218;0.1;0.5;0.128889;2;0.0644444;152.465
e4;0.5;0.1;0.9;329;0.0658;0.1;0.5;0.0722222;2;0.0722222;180.292
e6;0.5;0.1;0.9;781;0.1562;0.1;0.5;0.144444;2;0.0722222;152.785
e4;0.5;0.1;0.9;376;0.0752;0.1;0.5;0.08;2;0.08;186.535
e6;0.5;0.1;0.9;750;0.15;0.1;0.5;0.16;2;0.08;153.156
