e4;0.5;0.25;0.75;56;0.0112;0.25;0.5;0.01;0.1;0.01;154.268
e6;0.5;0.25;0.75;4;0.0008;0.25;0.5;0.001;0.1;0.01;150
e4;0.5;0.25;0.75;140;0.028;0.25;0.5;0.0322222;0.1;0.0322222;155.007
e6;0.5;0.25;0.75;22;0.0044;0.25;0.5;0.00322222;0.1;0.0322222;151.364
e4;0.5;0.25;0.75;244;0.0488;0.25;0.5;0.0544444;0.1;0.0544444;155.439
e6;0.5;0.25;0.75;37;0.0074;0.25;0.5;0.00544444;0.1;0.0544444;151.243
e4;0.5;0.25;0.75;393;0.0786;0.25;0.5;0.0766667;0.1;0.0766667;155.959
e6;0.5;0.25;0.75;33;0.0066;0.25;0.5;0.00766667;0.1;0.0766667;150.636
e4;0.5;0.25;0.75;463;0.0926;0.25;0.5;0.0988889;0.1;0.0988889;156.752
e6;0.5;0.25;0.75;53;0.0106;0.25;0.5;0.00988889;0.1;0.0988889;151.321
e4;0.5;0.25;0.75;586;0.1172;0.25;0.5;0.121111;0.1;0.121111;158.898
e6;0.5;0.25;0.75;80;0.016;0.25;0.5;0.0121111;0.1;0.121111;151.6
e4;0.5;0.25;0.75;670;0.134;0.25;0.5;0.143333;0.1;0.143333;159.355
e6;0.5;0.25;0.75;70;0.014;0.25;0.5;0.0143333;0.1;0.143333;151.386
e4;0.5;0.25;0.75;810;0.162;0.25;0.5;0.165556;0.1;0.165556;166.775
e6;0.5;0.25;0.75;83;0.0166;0.25;0.5;0.0165556;0.1;0.165556;151.928
e4;0.5;0.25;0.75;919;0.1838;0.25;0.5;0.187778;0.1;0.187778;170.21
e6;0.5;0.25;0.75;91;0.0182;0.25;0.5;0.0187778;0.1;0.187778;151.604
e4;0.5;0.25;0.75;1021;0.2042;0.25;0.5;0.21;0.1;0.21;175.635
e6;0.5;0.25;0.75;116;0.0232;0.25;0.5;0.021;0.1;0.21;151.56
e4;0.5;0.25;0.75;42;0.0084;0.25;0.5;0.01;0.25;0.01;154.238
e6;0.5;0.25;0.75;9;0.0018;0.25;0.5;0.0025;0.25;0.01;150.556
e4;0.5;0.25;0.75;140;0.028;0.25;0.5;0.0322222;0.25;0.0322222;154.65
e6;0.5;0.25;0.75;30;0.006;0.25;0.5;0.00805556;0.25;0.0322222;150.667
e4;0.5;0.25;0.75;264;0.0528;0.25;0.5;0.0544444;0.25;0.0544444;155.799
e6;0.5;0.25;0.75;65;0.013;0.25;0.5;0.0136111;0.25;0.0544444;151.262
e4;0.5;0.25;0.75;381;0.0762;0.25;0.5;0.0766667;0.25;0.0766667;157
e6;0.5;0.25;0.75;86;0.0172;0.25;0.5;0.0191667;0.25;0.0766667;151.36
e4;0.5;0.25;0.75;529;0.1058;0.25;0.5;0.0988889;0.25;0.0988889;158.004
e6;0.5;0.25;0.75;109;0.0218;0.25;0.5;0.0247222;0.25;0.0988889;151.339
e4;0.5;0.25;0.75;600;0.12;0.25;0.5;0.121111;0.25;0.121111;159.377
e6;0.5;0.25;0.75;162;0.0324;0.25;0.5;0.0302778;0.25;0.121111;151.759
e4;0.5;0.25;0.75;681;0.1362;0.25;0.5;0.143333;0.25;0.143333;159.549
e6;0.5;0.25;0.75;167;0.0334;0.25;0.5;0.0358333;0.25;0.143333;151.874
e4;0.5;0.25;0.75;817;0.1634;0.25;0.5;0.165556;0.25;0.165556;165.87
e6;0.5;0.25;0.75;197;0.0394;0.25;0.5;0.0413889;0.25;0.165556;151.736
e4;0.5;0.25;0.75;976;0.1952;0.25;0.5;0.187778;0.25;0.187778;170.016
e6;0.5;0.25;0.75;216;0.0432;0.25;0.5;0.0469444;0.25;0.187778;152.301
e4;0.5;0.25;0.75;1009;0.2018;0.25;0.5;0.21;0.25;0.21;187.193
e6;0.5;0.25;0.75;273;0.0546;0.25;0.5;0.0525;0.25;0.21;151.908
e4;0.5;0.25;0.75;45;0.009;0.25;0.5;0.01;0.5;0.01;154.689
e6;0.5;0.25;0.75;22;0.0044;0.25;0.5;0.005;0.5;0.01;150.773
e4;0.5;0.25;0.75;142;0.0284;0.25;0.5;0.0322222;0.5;0.0322222;154.732
e6;0.5;0.25;0.75;63;0.0126;0.25;0.5;0.0161111;0.5;0.0322222;151.444
e4;0.5;0.25;0.75;258;0.0516;0.25;0.5;0.0544444;0.5;0.0544444;155.442
e6;0.5;0.25;0.75;135;0.027;0.25;0.5;0.0272222;0.5;0.0544444;151.215
e4;0.5;0.25;0.75;382;0.0764;0.25;0.5;0.0766667;0.5;0.0766667;157.058
e6;0.5;0.25;0.75;201;0.0402;0.25;0.5;0.0383333;0.5;0.0766667;151.701
e4;0.5;0.25;0.75;469;0.0938;0.25;0.5;0.0988889;0.5;0.0988889;157.574
e6;0.5;0.25;0.75;265;0.053;0.25;0.5;0.0494444;0.5;0.0988889;152.196
e4;0.5;0.25;0.75;560;0.112;0.25;0.5;0.121111;0.5;0.121111;158.305
e6;0.5;0.25;0.75;277;0.0554;0.25;0.5;0.0605556;0.5;0.121111;152.119
e4;0.5;0.25;0.75;668;0.1336;0.25;0.5;0.143333;0.5;0.143333;161.135
e6;0.5;0.25;0.75;319;0.0638;0.25;0.5;0.0716667;0.5;0.143333;152.135
e4;0.5;0.25;0.75;815;0.163;0.25;0.5;0.165556;0.5;0.165556;163.812
e6;0.5;0.25;0.75;382;0.0764;0.25;0.5;0.0827778;0.5;0.165556;152.484
e4;0.5;0.25;0.75;904;0.1808;0.25;0.5;0.187778;0.5;0.187778;171.884
e6;0.5;0.25;0.75;448;0.0896;0.25;0.5;0.0938889;0.5;0.187778;152.935
e4;0.5;0.25;0.75;1005;0.201;0.25;0.5;0.21;0.5;0.21;196.924
e6;0.5;0.25;0.75;555;0.111;0.25;0.5;0.105;0.5;0.21;152.897
e4;0.5;0.25;0.75;43;0.0086;0.25;0.5;0.01;0.75;0.01;154.605
e6;0.5;0.25;0.75;35;0.007;0.25;0.5;0.0075;0.75;0.01;151.343
e4;0.5;0.25;0.75;149;0.0298;0.25;0.5;0.0322222;0.75;0.0322222;155.456
e6;0.5;0.25;0.75;132;0.0264;0.25;0.5;0.0241667;0.75;0.0322222;151.591
e4;0.5;0.25;0.75;269;0.0538;0.25;0.5;0.0544444;0.75;0.0544444;156.186
e6;0.5;0.25;0.75;199;0.0398;0.25;0.5;0.0408333;0.75;0.0544444;151.789
e4;0.5;0.25;0.75;345;0.069;0.25;0.5;0.0766667;0.75;0.0766667;155.948
e6;0.5;0.25;0.75;267;0.0534;0.25;0.5;0.0575;0.75;0.0766667;151.869
e4;0.5;0.25;0.75;485;0.097;0.25;0.5;0.0988889;0.75;0.0988889;157.899
e6;0.5;0.25;0.75;352;0.0704;0.25;0.5;0.0741667;0.75;0.0988889;151.96
e4;0.5;0.25;0.75;608;0.1216;0.25;0.5;0.121111;0.75;0.121111;159.615
e6;0.5;0.25;0.75;444;0.0888;0.25;0.5;0.0908333;0.75;0.121111;152.709
e4;0.5;0.25;0.75;690;0.138;0.25;0.5;0.143333;0.75;0.143333;161.155
e6;0.5;0.25;0.75;511;0.1022;0.25;0.5;0.1075;0.75;0.143333;152.795
e4;0.5;0.25;0.75;776;0.1552;0.25;0.5;0.165556;0.75;0.165556;162.555
e6;0.5;0.25;0.75;612;0.1224;0.25;0.5;0.124167;0.75;0.165556;153.961
e4;0.5;0.25;0.75;883;0.1766;0.25;0.5;0.187778;0.75;0.187778;170.563
e6;0.5;0.25;0.75;695;0.139;0.25;0.5;0.140833;0.75;0.187778;154.247
e4;0.5;0.25;0.75;951;0.1902;0.25;0.5;0.21;0.75;0.21;181.46
e6;0.5;0.25;0.75;777;0.1554;0.25;0.5;0.1575;0.75;0.21;156.027
e4;0.5;0.25;0.75;48;0.0096;0.25;0.5;0.01;1;0.01;154.917
e6;0.5;0.25;0.75;38;0.0076;0.25;0.5;0.01;1;0.01;150.632
e4;0.5;0.25;0.75;157;0.0314;0.25;0.5;0.0322222;1;0.0322222;154.771
e6;0.5;0.25;0.75;162;0.0324;0.25;0.5;0.0322222;1;0.0322222;151.636
e4;0.5;0.25;0.75;265;0.053;0.25;0.5;0.0544444;1;0.0544444;156.068
e6;0.5;0.25;0.75;270;0.054;0.25;0.5;0.0544444;1;0.0544444;151.885
e4;0.5;0.25;0.75;372;0.0744;0.25;0.5;0.0766667;1;0.0766667;156.804
e6;0.5;0.25;0.75;390;0.078;0.25;0.5;0.0766667;1;0.0766667;152.231
e4;0.5;0.25;0.75;514;0.1028;0.25;0.5;0.0988889;1;0.0988889;158.566
e6;0.5;0.25;0.75;505;0.101;0.25;0.5;0.0988889;1;0.0988889;153.388
e4;0.5;0.25;0.75;608;0.1216;0.25;0.5;0.121111;1;0.121111;159.161
e6;0.5;0.25;0.75;604;0.1208;0.25;0.5;0.121111;1;0.121111;152.795
e4;0.5;0.25;0.75;667;0.1334;0.25;0.5;0.143333;1;0.143333;162.688
e6;0.5;0.25;0.75;723;0.1446;0.25;0.5;0.143333;1;0.143333;154.318
e4;0.5;0.25;0.75;779;0.1558;0.25;0.5;0.165556;1;0.165556;163.822
e6;0.5;0.25;0.75;776;0.1552;0.25;0.5;0.165556;1;0.165556;154.985
e4;0.5;0.25;0.75;897;0.1794;0.25;0.5;0.187778;1;0.187778;174.459
e6;0.5;0.25;0.75;881;0.1762;0.25;0.5;0.187778;1;0.187778;157.213
e4;0.5;0.25;0.75;1006;0.2012;0.25;0.5;0.21;1;0.21;200.997
e6;0.5;0.25;0.75;1028;0.2056;0.25;0.5;0.21;1;0.21;163.301
e4;0.5;0.25;0.75;40;0.008;0.25;0.5;0.01;2;0.01;154.15
e6;0.5;0.25;0.75;74;0.0148;0.25;0.5;0.02;2;0.01;151.054
e4;0.5;0.25;0.75;92;0.0184;0.25;0.5;0.0205556;2;0.0205556;155.38
e6;0.5;0.25;0.75;201;0.0402;0.25;0.5;0.0411111;2;0.0205556;151.284
e4;0.5;0.25;0.75;160;0.032;0.25;0.5;0.0311111;2;0.0311111;155.562
e6;0.5;0.25;0.75;314;0.0628;0.25;0.5;0.0622222;2;0.0311111;151.608
e4;0.5;0.25;0.75;199;0.0398;0.25;0.5;0.0416667;2;0.0416667;155.528
e6;0.5;0.25;0.75;398;0.0796;0.25;0.5;0.0833333;2;0.0416667;151.877
e4;0.5;0.25;0.75;259;0.0518;0.25;0.5;0.0522222;2;0.0522222;155.378
e6;0.5;0.25;0.75;531;0.1062;0.25;0.5;0.104444;2;0.0522222;152.051
e4;0.5;0.25;0.75;349;0.0698;0.25;0.5;0.0627778;2;0.0627778;156.736
e6;0.5;0.25;0.75;634;0.1268;0.25;0.5;0.125556;2;0.0627778;152.861
e4;0.5;0.25;0.75;336;0.0672;0.25;0.5;0.0733333;2;0.0733333;156.327
e6;0.5;0.25;0.75;721;0.1442;0.25;0.5;0.146667;2;0.0733333;153.856
e4;0.5;0.25;0.75;371;0.0742;0.25;0.5;0.0838889;2;0.0838889;156.725
e6;0.5;0.25;0.75;791;0.1582;0.25;0.5;0.167778;2;0.0838889;153.377
e4;0.5;0.25;0.75;479;0.0958;0.25;0.5;0.0944444;2;0.0944444;158.113
e6;0.5;0.25;0.75;958;0.1916;0.25;0.5;0.188889;2;0.0944444;154.49
e4;0.5;0.25;0.75;528;0.1056;0.25;0.5;0.105;2;0.105;158.924
e6;0.5;0.25;0.75;1012;0.2024;0.25;0.5;0.21;2;0.105;155.036
