e4;1;0.125;0.375;56;0.0112;0.25;2;0.01;0.1;0.01;168.339
e6;1;0.125;0.375;9;0.0018;0.25;2;0.001;0.1;0.01;152
e4;1;0.125;0.375;107;0.0214;0.25;2;0.0211111;0.1;0.0211111;161.28
e6;1;0.125;0.375;11;0.0022;0.25;2;0.00211111;0.1;0.0211111;151.727
e4;1;0.125;0.375;176;0.0352;0.25;2;0.0322222;0.1;0.0322222;167.943
e6;1;0.125;0.375;13;0.0026;0.25;2;0.00322222;0.1;0.0322222;151.923
e4;1;0.125;0.375;229;0.0458;0.25;2;0.0433333;0.1;0.0433333;167.624
e6;1;0.125;0.375;17;0.0034;0.25;2;0.00433333;0.1;0.0433333;151.882
e4;1;0.125;0.375;248;0.0496;0.25;2;0.0544444;0.1;0.0544444;166.923
e6;1;0.125;0.375;36;0.0072;0.25;2;0.00544444;0.1;0.0544444;151.778
e4;1;0.125;0.375;320;0.064;0.25;2;0.0655556;0.1;0.0655556;174.128
e6;1;0.125;0.375;30;0.006;0.25;2;0.00655556;0.1;0.0655556;151.5
e4;1;0.125;0.375;371;0.0742;0.25;2;0.0766667;0.1;0.0766667;176.639
e6;1;0.125;0.375;39;0.0078;0.25;2;0.00766667;0.1;0.0766667;151.154
e4;1;0.125;0.375;440;0.088;0.25;2;0.0877778;0.1;0.0877778;194.205
e6;1;0.125;0.375;31;0.0062;0.25;2;0.00877778;0.1;0.0877778;151.71
e4;1;0.125;0.375;471;0.0942;0.25;2;0.0988889;0.1;0.0988889;194.682
e6;1;0.125;0.375;47;0.0094;0.25;2;0.00988889;0.1;0.0988889;151.787
e4;1;0.125;0.375;540;0.108;0.25;2;0.11;0.1;0.11;210.219
e6;1;0.125;0.375;47;0.0094;0.25;2;0.011;0.1;0.11;151.404
e4;1;0.125;0.375;47;0.0094;0.25;2;0.01;0.25;0.01;162.936
e6;1;0.125;0.375;9;0.0018;0.25;2;0.0025;0.25;0.01;151.222
e4;1;0.125;0.375;97;0.0194;0.25;2;0.0211111;0.25;0.0211111;162.835
e6;1;0.125;0.375;21;0.0042;0.25;2;0.00527778;0.25;0.0211111;151.905
e4;1;0.125;0.375;180;0.036;0.25;2;0.0322222;0.25;0.0322222;164.333
e6;1;0.125;0.375;41;0.0082;0.25;2;0.00805556;0.25;0.0322222;151.122
e4;1;0.125;0.375;215;0.043;0.25;2;0.0433333;0.25;0.0433333;165.447
e6;1;0.125;0.375;45;0.009;0.25;2;0.0108333;0.25;0.0433333;151.711
e4;1;0.125;0.375;293;0.0586;0.25;2;0.0544444;0.25;0.0544444;172.191
e6;1;0.125;0.375;57;0.0114;0.25;2;0.0136111;0.25;0.0544444;151.772
e4;1;0.125;0.375;333;0.0666;0.25;2;0.0655556;0.25;0.0655556;175.568
e6;1;0.125;0.375;83;0.0166;0.25;2;0.0163889;0.25;0.0655556;151.627
e4;1;0.125;0.375;363;0.0726;0.25;2;0.0766667;0.25;0.0766667;181.912
e6;1;0.125;0.375;79;0.0158;0.25;2;0.0191667;0.25;0.0766667;151.861
e4;1;0.125;0.375;414;0.0828;0.25;2;0.0877778;0.25;0.0877778;184.478
e6;1;0.125;0.375;128;0.0256;0.25;2;0.0219444;0.25;0.0877778;152.234
e4;1;0.125;0.375;473;0.0946;0.25;2;0.0988889;0.25;0.0988889;190.019
e6;1;0.125;0.375;140;0.028;0.25;2;0.0247222;0.25;0.0988889;151.886
e4;1;0.125;0.375;509;0.1018;0.25;2;0.11;0.25;0.11;203.642
e6;1;0.125;0.375;136;0.0272;0.25;2;0.0275;0.25;0.11;151.735
e4;1;0.125;0.375;41;0.0082;0.25;2;0.01;0.5;0.01;163.122
e6;1;0.125;0.375;20;0.004;0.25;2;0.005;0.5;0.01;151.55
e4;1;0.125;0.375;97;0.0194;0.25;2;0.0211111;0.5;0.0211111;164.062
e6;1;0.125;0.375;43;0.0086;0.25;2;0.0105556;0.5;0.0211111;152.233
e4;1;0.125;0.375;165;0.033;0.25;2;0.0322222;0.5;0.0322222;163.636
e6;1;0.125;0.375;80;0.016;0.25;2;0.0161111;0.5;0.0322222;152.287
e4;1;0.125;0.375;207;0.0414;0.25;2;0.0433333;0.5;0.0433333;167.309
e6;1;0.125;0.375;106;0.0212;0.25;2;0.0216667;0.5;0.0433333;152.019
e4;1;0.125;0.375;264;0.0528;0.25;2;0.0544444;0.5;0.0544444;168.64
e6;1;0.125;0.375;135;0.027;0.25;2;0.0272222;0.5;0.0544444;152.052
e4;1;0.125;0.375;352;0.0704;0.25;2;0.0655556;0.5;0.0655556;172.668
e6;1;0.125;0.375;159;0.0318;0.25;2;0.0327778;0.5;0.0655556;151.824
e4;1;0.125;0.375;361;0.0722;0.25;2;0.0766667;0.5;0.0766667;176.59
e6;1;0.125;0.375;192;0.0384;0.25;2;0.0383333;0.5;0.0766667;151.99
e4;1;0.125;0.375;423;0.0846;0.25;2;0.0877778;0.5;0.0877778;182.915
e6;1;0.125;0.375;206;0.0412;0.25;2;0.0438889;0.5;0.0877778;152.364
e4;1;0.125;0.375;475;0.095;0.25;2;0.0988889;0.5;0.0988889;192.705
e6;1;0.125;0.375;228;0.0456;0.25;2;0.0494444;0.5;0.0988889;152.351
e4;1;0.125;0.375;508;0.1016;0.25;2;0.11;0.5;0.11;202.433
e6;1;0.125;0.375;272;0.0544;0.25;2;0.055;0.5;0.11;152.162
e4;1;0.125;0.375;40;0.008;0.25;2;0.01;0.75;0.01;164.675
e6;1;0.125;0.375;37;0.0074;0.25;2;0.0075;0.75;0.01;151.973
e4;1;0.125;0.375;100;0.02;0.25;2;0.0211111;0.75;0.0211111;163.94
e6;1;0.125;0.375;75;0.015;0.25;2;0.0158333;0.75;0.0211111;151.32
e4;1;0.125;0.375;164;0.0328;0.25;2;0.0322222;0.75;0.0322222;167.524
e6;1;0.125;0.375;103;0.0206;0.25;2;0.0241667;0.75;0.0322222;152.34
e4;1;0.125;0.375;209;0.0418;0.25;2;0.0433333;0.75;0.0433333;166.77
e6;1;0.125;0.375;177;0.0354;0.25;2;0.0325;0.75;0.0433333;152.203
e4;1;0.125;0.375;276;0.0552;0.25;2;0.0544444;0.75;0.0544444;173.112
e6;1;0.125;0.375;183;0.0366;0.25;2;0.0408333;0.75;0.0544444;152.213
e4;1;0.125;0.375;308;0.0616;0.25;2;0.0655556;0.75;0.0655556;171.669
e6;1;0.125;0.375;251;0.0502;0.25;2;0.0491667;0.75;0.0655556;152.235
e4;1;0.125;0.375;376;0.0752;0.25;2;0.0766667;0.75;0.0766667;177.396
e6;1;0.125;0.375;267;0.0534;0.25;2;0.0575;0.75;0.0766667;152.292
e4;1;0.125;0.375;389;0.0778;0.25;2;0.0877778;0.75;0.0877778;179.028
e6;1;0.125;0.375;323;0.0646;0.25;2;0.0658333;0.75;0.0877778;152.421
e4;1;0.125;0.375;508;0.1016;0.25;2;0.0988889;0.75;0.0988889;199.805
e6;1;0.125;0.375;353;0.0706;0.25;2;0.0741667;0.75;0.0988889;152.161
e4;1;0.125;0.375;533;0.1066;0.25;2;0.11;0.75;0.11;211.891
e6;1;0.125;0.375;368;0.0736;0.25;2;0.0825;0.75;0.11;153.057
e4;1;0.125;0.375;46;0.0092;0.25;2;0.01;1;0.01;159.261
e6;1;0.125;0.375;29;0.0058;0.25;2;0.01;1;0.01;152.069
e4;1;0.125;0.375;107;0.0214;0.25;2;0.0211111;1;0.0211111;162.308
e6;1;0.125;0.375;107;0.0214;0.25;2;0.0211111;1;0.0211111;152.411
e4;1;0.125;0.375;156;0.0312;0.25;2;0.0322222;1;0.0322222;163.141
e6;1;0.125;0.375;182;0.0364;0.25;2;0.0322222;1;0.0322222;152.115
e4;1;0.125;0.375;196;0.0392;0.25;2;0.0433333;1;0.0433333;168.337
e6;1;0.125;0.375;224;0.0448;0.25;2;0.0433333;1;0.0433333;152.058
e4;1;0.125;0.375;273;0.0546;0.25;2;0.0544444;1;0.0544444;169.557
e6;1;0.125;0.375;293;0.0586;0.25;2;0.0544444;1;0.0544444;152.403
e4;1;0.125;0.375;305;0.061;0.25;2;0.0655556;1;0.0655556;171.292
e6;1;0.125;0.375;325;0.065;0.25;2;0.0655556;1;0.0655556;152.443
e4;1;0.125;0.375;358;0.0716;0.25;2;0.0766667;1;0.0766667;179.243
e6;1;0.125;0.375;381;0.0762;0.25;2;0.0766667;1;0.0766667;152.651
e4;1;0.125;0.375;427;0.0854;0.25;2;0.0877778;1;0.0877778;184.532
e6;1;0.125;0.375;416;0.0832;0.25;2;0.0877778;1;0.0877778;152.75
e4;1;0.125;0.375;468;0.0936;0.25;2;0.0988889;1;0.0988889;207.254
e6;1;0.125;0.375;473;0.0946;0.25;2;0.0988889;1;0.0988889;152.755
e4;1;0.125;0.375;514;0.1028;0.25;2;0.11;1;0.11;211.572
e6;1;0.125;0.375;585;0.117;0.25;2;0.11;1;0.11;152.877
e4;1;0.125;0.375;43;0.0086;0.25;2;0.01;2;0.01;163.093
e6;1;0.125;0.375;92;0.0184;0.25;2;0.02;2;0.01;151.924
e4;1;0.125;0.375;111;0.0222;0.25;2;0.0211111;2;0.0211111;162.955
e6;1;0.125;0.375;211;0.0422;0.25;2;0.0422222;2;0.0211111;152.256
e4;1;0.125;0.375;154;0.0308;0.25;2;0.0322222;2;0.0322222;165.435
e6;1;0.125;0.375;288;0.0576;0.25;2;0.0644444;2;0.0322222;152.188
e4;1;0.125;0.375;206;0.0412;0.25;2;0.0433333;2;0.0433333;168.039
e6;1;0.125;0.375;450;0.09;0.25;2;0.0866667;2;0.0433333;152.673
e4;1;0.125;0.375;248;0.0496;0.25;2;0.0544444;2;0.0544444;167.73
e6;1;0.125;0.375;518;0.1036;0.25;2;0.108889;2;0.0544444;152.701
e4;1;0.125;0.375;342;0.0684;0.25;2;0.0655556;2;0.0655556;179.058
e6;1;0.125;0.375;622;0.1244;0.25;2;0.131111;2;0.0655556;153.35
e4;1;0.125;0.375;340;0.068;0.25;2;0.0766667;2;0.0766667;173.338
e6;1;0.125;0.375;734;0.1468;0.25;2;0.153333;2;0.0766667;153.764
e4;1;0.125;0.375;391;0.0782;0.25;2;0.0877778;2;0.0877778;178.153
e6;1;0.125;0.375;829;0.1658;0.25;2;0.175556;2;0.0877778;154.331
e4;1;0.125;0.375;462;0.0924;0.25;2;0.0988889;2;0.0988889;191.119
e6;1;0.125;0.375;946;0.1892;0.25;2;0.197778;2;0.0988889;154.094
e4;1;0.125;0.375;500;0.1;0.25;2;0.11;2;0.11;207.8
e6;1;0.125;0.375;1051;0.2102;0.25;2;0.22;2;0.11;156.373
