e4;0.5;0.5;0.5;63;0.0126;0.5;0.5;0.01;0.1;0.01;152.27
e6;0.5;0.5;0.5;5;0.001;0.5;0.5;0.001;0.1;0.01;151.6
e4;0.5;0.5;0.5;164;0.0328;0.5;0.5;0.0333333;0.1;0.0333333;152.823
e6;0.5;0.5;0.5;12;0.0024;0.5;0.5;0.00333333;0.1;0.0333333;151.167
e4;0.5;0.5;0.5;276;0.0552;0.5;0.5;0.0566667;0.1;0.0566667;152.507
e6;0.5;0.5;0.5;29;0.0058;0.5;0.5;0.00566667;0.1;0.0566667;151.931
e4;0.5;0.5;0.5;400;0.08;0.5;0.5;0.08;0.1;0.08;153.132
e6;0.5;0.5;0.5;43;0.0086;0.5;0.5;0.008;0.1;0.08;152.279
e4;0.5;0.5;0.5;499;0.0998;0.5;0.5;0.103333;0.1;0.103333;153.305
e6;0.5;0.5;0.5;57;0.0114;0.5;0.5;0.0103333;0.1;0.103333;152.158
e4;0.5;0.5;0.5;625;0.125;0.5;0.5;0.126667;0.1;0.126667;153.406
e6;0.5;0.5;0.5;58;0.0116;0.5;0.5;0.0126667;0.1;0.126667;152.19
e4;0.5;0.5;0.5;702;0.1404;0.5;0.5;0.15;0.1;0.15;153.877
e6;0.5;0.5;0.5;71;0.0142;0.5;0.5;0.015;0.1;0.15;152.085
e4;0.5;0.5;0.5;813;0.1626;0.5;0.5;0.173333;0.1;0.173333;154.124
e6;0.5;0.5;0.5;85;0.017;0.5;0.5;0.0173333;0.1;0.173333;151.918
e4;0.5;0.5;0.5;973;0.1946;0.5;0.5;0.196667;0.1;0.196667;154.726
e6;0.5;0.5;0.5;113;0.0226;0.5;0.5;0.0196667;0.1;0.196667;152
e4;0.5;0.5;0.5;1044;0.2088;0.5;0.5;0.22;0.1;0.22;155.54
e6;0.5;0.5;0.5;111;0.0222;0.5;0.5;0.022;0.1;0.22;152.099
e4;0.5;0.5;0.5;43;0.0086;0.5;0.5;0.01;0.25;0.01;152.326
e6;0.5;0.5;0.5;11;0.0022;0.5;0.5;0.0025;0.25;0.01;151.545
e4;0.5;0.5;0.5;172;0.0344;0.5;0.5;0.0333333;0.25;0.0333333;152.605
e6;0.5;0.5;0.5;36;0.0072;0.5;0.5;0.00833333;0.25;0.0333333;151.611
e4;0.5;0.5;0.5;282;0.0564;0.5;0.5;0.0566667;0.25;0.0566667;153
e6;0.5;0.5;0.5;73;0.0146;0.5;0.5;0.0141667;0.25;0.0566667;152.233
e4;0.5;0.5;0.5;353;0.0706;0.5;0.5;0.08;0.25;0.08;153.051
e6;0.5;0.5;0.5;106;0.0212;0.5;0.5;0.02;0.25;0.08;151.604
e4;0.5;0.5;0.5;483;0.0966;0.5;0.5;0.103333;0.25;0.103333;153.344
e6;0.5;0.5;0.5;138;0.0276;0.5;0.5;0.0258333;0.25;0.103333;152.072
e4;0.5;0.5;0.5;641;0.1282;0.5;0.5;0.126667;0.25;0.126667;154.123
e6;0.5;0.5;0.5;165;0.033;0.5;0.5;0.0316667;0.25;0.126667;152.758
e4;0.5;0.5;0.5;739;0.1478;0.5;0.5;0.15;0.25;0.15;154.372
e6;0.5;0.5;0.5;192;0.0384;0.5;0.5;0.0375;0.25;0.15;152.182
e4;0.5;0.5;0.5;867;0.1734;0.5;0.5;0.173333;0.25;0.173333;154.685
e6;0.5;0.5;0.5;207;0.0414;0.5;0.5;0.0433333;0.25;0.173333;152.063
e4;0.5;0.5;0.5;917;0.1834;0.5;0.5;0.196667;0.25;0.196667;155.144
e6;0.5;0.5;0.5;267;0.0534;0.5;0.5;0.0491667;0.25;0.196667;152.64
e4;0.5;0.5;0.5;1053;0.2106;0.5;0.5;0.22;0.25;0.22;155.828
e6;0.5;0.5;0.5;262;0.0524;0.5;0.5;0.055;0.25;0.22;152.569
e4;0.5;0.5;0.5;44;0.0088;0.5;0.5;0.01;0.5;0.01;152.114
e6;0.5;0.5;0.5;31;0.0062;0.5;0.5;0.005;0.5;0.01;151.839
e4;0.5;0.5;0.5;153;0.0306;0.5;0.5;0.0333333;0.5;0.0333333;152.575
e6;0.5;0.5;0.5;78;0.0156;0.5;0.5;0.0166667;0.5;0.0333333;151.333
e4;0.5;0.5;0.5;286;0.0572;0.5;0.5;0.0566667;0.5;0.0566667;152.661
e6;0.5;0.5;0.5;108;0.0216;0.5;0.5;0.0283333;0.5;0.0566667;152.009
e4;0.5;0.5;0.5;392;0.0784;0.5;0.5;0.08;0.5;0.08;153.5
e6;0.5;0.5;0.5;219;0.0438;0.5;0.5;0.04;0.5;0.08;152.164
e4;0.5;0.5;0.5;524;0.1048;0.5;0.5;0.103333;0.5;0.103333;153.74
e6;0.5;0.5;0.5;260;0.052;0.5;0.5;0.0516667;0.5;0.103333;152.854
e4;0.5;0.5;0.5;610;0.122;0.5;0.5;0.126667;0.5;0.126667;154.156
e6;0.5;0.5;0.5;297;0.0594;0.5;0.5;0.0633333;0.5;0.126667;152.347
e4;0.5;0.5;0.5;725;0.145;0.5;0.5;0.15;0.5;0.15;154.585
e6;0.5;0.5;0.5;356;0.0712;0.5;0.5;0.075;0.5;0.15;153.093
e4;0.5;0.5;0.5;797;0.1594;0.5;0.5;0.173333;0.5;0.173333;154.877
e6;0.5;0.5;0.5;400;0.08;0.5;0.5;0.0866667;0.5;0.173333;153.285
e4;0.5;0.5;0.5;948;0.1896;0.5;0.5;0.196667;0.5;0.196667;156.765
e6;0.5;0.5;0.5;495;0.099;0.5;0.5;0.0983333;0.5;0.196667;153.451
e4;0.5;0.5;0.5;1114;0.2228;0.5;0.5;0.22;0.5;0.22;159.783
e6;0.5;0.5;0.5;598;0.1196;0.5;0.5;0.11;0.5;0.22;154.284
e4;0.5;0.5;0.5;46;0.0092;0.5;0.5;0.01;0.75;0.01;152.522
e6;0.5;0.5;0.5;39;0.0078;0.5;0.5;0.0075;0.75;0.01;151.949
e4;0.5;0.5;0.5;133;0.0266;0.5;0.5;0.0333333;0.75;0.0333333;152.406
e6;0.5;0.5;0.5;104;0.0208;0.5;0.5;0.025;0.75;0.0333333;151.798
e4;0.5;0.5;0.5;279;0.0558;0.5;0.5;0.0566667;0.75;0.0566667;152.986
e6;0.5;0.5;0.5;202;0.0404;0.5;0.5;0.0425;0.75;0.0566667;152.025
e4;0.5;0.5;0.5;358;0.0716;0.5;0.5;0.08;0.75;0.08;153.494
e6;0.5;0.5;0.5;266;0.0532;0.5;0.5;0.06;0.75;0.08;152.485
e4;0.5;0.5;0.5;499;0.0998;0.5;0.5;0.103333;0.75;0.103333;153.826
e6;0.5;0.5;0.5;384;0.0768;0.5;0.5;0.0775;0.75;0.103333;152.669
e4;0.5;0.5;0.5;565;0.113;0.5;0.5;0.126667;0.75;0.126667;154.188
e6;0.5;0.5;0.5;449;0.0898;0.5;0.5;0.095;0.75;0.126667;152.944
e4;0.5;0.5;0.5;685;0.137;0.5;0.5;0.15;0.75;0.15;154.616
e6;0.5;0.5;0.5;554;0.1108;0.5;0.5;0.1125;0.75;0.15;154.016
e4;0.5;0.5;0.5;820;0.164;0.5;0.5;0.173333;0.75;0.173333;157.628
e6;0.5;0.5;0.5;665;0.133;0.5;0.5;0.13;0.75;0.173333;155.645
e4;0.5;0.5;0.5;990;0.198;0.5;0.5;0.196667;0.75;0.196667;161.324
e6;0.5;0.5;0.5;761;0.1522;0.5;0.5;0.1475;0.75;0.196667;156.796
e4;0.5;0.5;0.5;1035;0.207;0.5;0.5;0.22;0.75;0.22;160.1
e6;0.5;0.5;0.5;820;0.164;0.5;0.5;0.165;0.75;0.22;156.984
e4;0.5;0.5;0.5;45;0.009;0.5;0.5;0.01;1;0.01;152.089
e6;0.5;0.5;0.5;46;0.0092;0.5;0.5;0.01;1;0.01;152.5
e4;0.5;0.5;0.5;137;0.0274;0.5;0.5;0.0333333;1;0.0333333;152.387
e6;0.5;0.5;0.5;169;0.0338;0.5;0.5;0.0333333;1;0.0333333;152.024
e4;0.5;0.5;0.5;276;0.0552;0.5;0.5;0.0566667;1;0.0566667;153.449
e6;0.5;0.5;0.5;288;0.0576;0.5;0.5;0.0566667;1;0.0566667;152.42
e4;0.5;0.5;0.5;378;0.0756;0.5;0.5;0.08;1;0.08;153.333
e6;0.5;0.5;0.5;445;0.089;0.5;0.5;0.08;1;0.08;152.861
e4;0.5;0.5;0.5;482;0.0964;0.5;0.5;0.103333;1;0.103333;154.131
e6;0.5;0.5;0.5;560;0.112;0.5;0.5;0.103333;1;0.103333;153.236
e4;0.5;0.5;0.5;638;0.1276;0.5;0.5;0.126667;1;0.126667;155.155
e6;0.5;0.5;0.5;620;0.124;0.5;0.5;0.126667;1;0.126667;154.206
e4;0.5;0.5;0.5;743;0.1486;0.5;0.5;0.15;1;0.15;156.124
e6;0.5;0.5;0.5;745;0.149;0.5;0.5;0.15;1;0.15;155.949
e4;0.5;0.5;0.5;880;0.176;0.5;0.5;0.173333;1;0.173333;157.861
e6;0.5;0.5;0.5;857;0.1714;0.5;0.5;0.173333;1;0.173333;157.929
e4;0.5;0.5;0.5;940;0.188;0.5;0.5;0.196667;1;0.196667;158.728
e6;0.5;0.5;0.5;895;0.179;0.5;0.5;0.196667;1;0.196667;159.045
e4;0.5;0.5;0.5;1061;0.2122;0.5;0.5;0.22;1;0.22;173.054
e6;0.5;0.5;0.5;1039;0.2078;0.5;0.5;0.22;1;0.22;166.831
e4;0.5;0.5;0.5;38;0.0076;0.5;0.5;0.01;2;0.01;152.158
e6;0.5;0.5;0.5;90;0.018;0.5;0.5;0.02;2;0.01;152.067
e4;0.5;0.5;0.5;106;0.0212;0.5;0.5;0.0211111;2;0.0211111;152.689
e6;0.5;0.5;0.5;209;0.0418;0.5;0.5;0.0422222;2;0.0211111;152.23
e4;0.5;0.5;0.5;151;0.0302;0.5;0.5;0.0322222;2;0.0322222;152.536
e6;0.5;0.5;0.5;290;0.058;0.5;0.5;0.0644444;2;0.0322222;152.328
e4;0.5;0.5;0.5;223;0.0446;0.5;0.5;0.0433333;2;0.0433333;153.045
e6;0.5;0.5;0.5;402;0.0804;0.5;0.5;0.0866667;2;0.0433333;152.438
e4;0.5;0.5;0.5;280;0.056;0.5;0.5;0.0544444;2;0.0544444;153.271
e6;0.5;0.5;0.5;612;0.1224;0.5;0.5;0.108889;2;0.0544444;153.126
e4;0.5;0.5;0.5;353;0.0706;0.5;0.5;0.0655556;2;0.0655556;153.725
e6;0.5;0.5;0.5;650;0.13;0.5;0.5;0.131111;2;0.0655556;153.562
e4;0.5;0.5;0.5;362;0.0724;0.5;0.5;0.0766667;2;0.0766667;153.644
e6;0.5;0.5;0.5;683;0.1366;0.5;0.5;0.153333;2;0.0766667;153.754
e4;0.5;0.5;0.5;457;0.0914;0.5;0.5;0.0877778;2;0.0877778;154.186
e6;0.5;0.5;0.5;844;0.1688;0.5;0.5;0.175556;2;0.0877778;155.387
e4;0.5;0.5;0.5;442;0.0884;0.5;0.5;0.0988889;2;0.0988889;154.299
e6;0.5;0.5;0.5;964;0.1928;0.5;0.5;0.197778;2;0.0988889;156.229
e4;0.5;0.5;0.5;566;0.1132;0.5;0.5;0.11;2;0.11;154.92
e6;0.5;0.5;0.5;1111;0.2222;0.5;0.5;0.22;2;0.11;159.368
