e4;1;0.5;0.5;44;0.0088;0.5;1;0.01;0.1;0.01;152.932
e6;1;0.5;0.5;5;0.001;0.5;1;0.001;0.1;0.01;150.6
e4;1;0.5;0.5;287;0.0574;0.5;1;0.0555556;0.1;0.0555556;153.321
e6;1;0.5;0.5;28;0.0056;0.5;1;0.00555556;0.1;0.0555556;152.071
e4;1;0.5;0.5;510;0.102;0.5;1;0.101111;0.1;0.101111;154.453
e6;1;0.5;0.5;48;0.0096;0.5;1;0.0101111;0.1;0.101111;151.583
e4;1;0.5;0.5;690;0.138;0.5;1;0.146667;0.1;0.146667;156.932
e6;1;0.5;0.5;73;0.0146;0.5;1;0.0146667;0.1;0.146667;151.712
e4;1;0.5;0.5;915;0.183;0.5;1;0.192222;0.1;0.192222;160.128
e6;1;0.5;0.5;96;0.0192;0.5;1;0.0192222;0.1;0.192222;151.781
e4;1;0.5;0.5;1114;0.2228;0.5;1;0.237778;0.1;0.237778;192.553
e6;1;0.5;0.5;121;0.0242;0.5;1;0.0237778;0.1;0.237778;151.273
e4;1;0.5;0.5;1162;0.2324;0.5;1;0.283333;0.1;0.283333;182.412
e6;1;0.5;0.5;145;0.029;0.5;1;0.0283333;0.1;0.283333;151.524
e4;1;0.5;0.5;1211;0.2422;0.5;1;0.328889;0.1;0.328889;179.641
e6;1;0.5;0.5;180;0.036;0.5;1;0.0328889;0.1;0.328889;151.65
e4;1;0.5;0.5;1206;0.2412;0.5;1;0.374444;0.1;0.374444;168.936
e6;1;0.5;0.5;189;0.0378;0.5;1;0.0374444;0.1;0.374444;151.73
e4;1;0.5;0.5;1170;0.234;0.5;1;0.42;0.1;0.42;167.195
e6;1;0.5;0.5;208;0.0416;0.5;1;0.042;0.1;0.42;151.428
e4;1;0.5;0.5;51;0.0102;0.5;1;0.01;0.25;0.01;153.216
e6;1;0.5;0.5;12;0.0024;0.5;1;0.0025;0.25;0.01;152
e4;1;0.5;0.5;264;0.0528;0.5;1;0.0555556;0.25;0.0555556;153.17
e6;1;0.5;0.5;57;0.0114;0.5;1;0.0138889;0.25;0.0555556;152.14
e4;1;0.5;0.5;499;0.0998;0.5;1;0.101111;0.25;0.101111;155.198
e6;1;0.5;0.5;125;0.025;0.5;1;0.0252778;0.25;0.101111;151.672
e4;1;0.5;0.5;741;0.1482;0.5;1;0.146667;0.25;0.146667;156.337
e6;1;0.5;0.5;169;0.0338;0.5;1;0.0366667;0.25;0.146667;151.811
e4;1;0.5;0.5;952;0.1904;0.5;1;0.192222;0.25;0.192222;164.6
e6;1;0.5;0.5;208;0.0416;0.5;1;0.0480556;0.25;0.192222;151.447
e4;1;0.5;0.5;1152;0.2304;0.5;1;0.237778;0.25;0.237778;190.089
e6;1;0.5;0.5;286;0.0572;0.5;1;0.0594444;0.25;0.237778;151.962
e4;1;0.5;0.5;1227;0.2454;0.5;1;0.283333;0.25;0.283333;189.785
e6;1;0.5;0.5;360;0.072;0.5;1;0.0708333;0.25;0.283333;152.158
e4;1;0.5;0.5;1246;0.2492;0.5;1;0.328889;0.25;0.328889;187.065
e6;1;0.5;0.5;366;0.0732;0.5;1;0.0822222;0.25;0.328889;152.112
e4;1;0.5;0.5;1246;0.2492;0.5;1;0.374444;0.25;0.374444;174.23
e6;1;0.5;0.5;445;0.089;0.5;1;0.0936111;0.25;0.374444;152.16
e4;1;0.5;0.5;1232;0.2464;0.5;1;0.42;0.25;0.42;175.692
e6;1;0.5;0.5;519;0.1038;0.5;1;0.105;0.25;0.42;152.21
e4;1;0.5;0.5;43;0.0086;0.5;1;0.01;0.5;0.01;153.14
e6;1;0.5;0.5;29;0.0058;0.5;1;0.005;0.5;0.01;151.621
e4;1;0.5;0.5;253;0.0506;0.5;1;0.0555556;0.5;0.0555556;152.929
e6;1;0.5;0.5;130;0.026;0.5;1;0.0277778;0.5;0.0555556;151.654
e4;1;0.5;0.5;502;0.1004;0.5;1;0.101111;0.5;0.101111;154.414
e6;1;0.5;0.5;253;0.0506;0.5;1;0.0505556;0.5;0.101111;152.091
e4;1;0.5;0.5;754;0.1508;0.5;1;0.146667;0.5;0.146667;158.134
e6;1;0.5;0.5;335;0.067;0.5;1;0.0733333;0.5;0.146667;152.099
e4;1;0.5;0.5;982;0.1964;0.5;1;0.192222;0.5;0.192222;161.831
e6;1;0.5;0.5;473;0.0946;0.5;1;0.0961111;0.5;0.192222;152.693
e4;1;0.5;0.5;1176;0.2352;0.5;1;0.237778;0.5;0.237778;187.498
e6;1;0.5;0.5;567;0.1134;0.5;1;0.118889;0.5;0.237778;152.559
e4;1;0.5;0.5;1251;0.2502;0.5;1;0.283333;0.5;0.283333;217.088
e6;1;0.5;0.5;712;0.1424;0.5;1;0.141667;0.5;0.283333;153.413
e4;1;0.5;0.5;1263;0.2526;0.5;1;0.328889;0.5;0.328889;198.051
e6;1;0.5;0.5;787;0.1574;0.5;1;0.164444;0.5;0.328889;154.108
e4;1;0.5;0.5;1288;0.2576;0.5;1;0.374444;0.5;0.374444;193.773
e6;1;0.5;0.5;919;0.1838;0.5;1;0.187222;0.5;0.374444;155.429
e4;1;0.5;0.5;1310;0.262;0.5;1;0.42;0.5;0.42;192.175
e6;1;0.5;0.5;1015;0.203;0.5;1;0.21;0.5;0.42;157.729
e4;1;0.5;0.5;38;0.0076;0.5;1;0.01;0.75;0.01;152.5
e6;1;0.5;0.5;29;0.0058;0.5;1;0.0075;0.75;0.01;151.345
e4;1;0.5;0.5;301;0.0602;0.5;1;0.0555556;0.75;0.0555556;153.086
e6;1;0.5;0.5;213;0.0426;0.5;1;0.0416667;0.75;0.0555556;151.991
e4;1;0.5;0.5;464;0.0928;0.5;1;0.101111;0.75;0.101111;154.297
e6;1;0.5;0.5;405;0.081;0.5;1;0.0758333;0.75;0.101111;152.716
e4;1;0.5;0.5;708;0.1416;0.5;1;0.146667;0.75;0.146667;156.136
e6;1;0.5;0.5;557;0.1114;0.5;1;0.11;0.75;0.146667;154.061
e4;1;0.5;0.5;945;0.189;0.5;1;0.192222;0.75;0.192222;159.821
e6;1;0.5;0.5;693;0.1386;0.5;1;0.144167;0.75;0.192222;154.46
e4;1;0.5;0.5;1160;0.232;0.5;1;0.237778;0.75;0.237778;188.37
e6;1;0.5;0.5;841;0.1682;0.5;1;0.178333;0.75;0.237778;153.893
e4;1;0.5;0.5;1305;0.261;0.5;1;0.283333;0.75;0.283333;226.144
e6;1;0.5;0.5;1041;0.2082;0.5;1;0.2125;0.75;0.283333;156.814
e4;1;0.5;0.5;1353;0.2706;0.5;1;0.328889;0.75;0.328889;208.745
e6;1;0.5;0.5;1185;0.237;0.5;1;0.246667;0.75;0.328889;158.544
e4;1;0.5;0.5;1427;0.2854;0.5;1;0.374444;0.75;0.374444;226.13
e6;1;0.5;0.5;1368;0.2736;0.5;1;0.280833;0.75;0.374444;168.305
e4;1;0.5;0.5;1606;0.3212;0.5;1;0.42;0.75;0.42;239.262
e6;1;0.5;0.5;1497;0.2994;0.5;1;0.315;0.75;0.42;188.693
e4;1;0.5;0.5;39;0.0078;0.5;1;0.01;1;0.01;152.462
e6;1;0.5;0.5;48;0.0096;0.5;1;0.01;1;0.01;151.708
e4;1;0.5;0.5;243;0.0486;0.5;1;0.0555556;1;0.0555556;153.156
e6;1;0.5;0.5;253;0.0506;0.5;1;0.0555556;1;0.0555556;152.403
e4;1;0.5;0.5;461;0.0922;0.5;1;0.101111;1;0.101111;153.816
e6;1;0.5;0.5;471;0.0942;0.5;1;0.101111;1;0.101111;153.465
e4;1;0.5;0.5;706;0.1412;0.5;1;0.146667;1;0.146667;155.854
e6;1;0.5;0.5;660;0.132;0.5;1;0.146667;1;0.146667;154.047
e4;1;0.5;0.5;100;0.02;0.5;1;0.192222;1;0.192222;154.94
e6;1;0.5;0.5;100;0.02;0.5;1;0.192222;1;0.192222;153.15
e4;1;0.5;0.5;1184;0.2368;0.5;1;0.237778;1;0.237778;190.456
e6;1;0.5;0.5;1183;0.2366;0.5;1;0.237778;1;0.237778;171.221
e4;1;0.5;0.5;1415;0.283;0.5;1;0.283333;1;0.283333;241.283
e6;1;0.5;0.5;1371;0.2742;0.5;1;0.283333;1;0.283333;177.414
e4;1;0.5;0.5;1636;0.3272;0.5;1;0.328889;1;0.328889;262.82
e6;1;0.5;0.5;1550;0.31;0.5;1;0.328889;1;0.328889;208.474
e4;1;0.5;0.5;1710;0.342;0.5;1;0.374444;1;0.374444;236.512
e6;1;0.5;0.5;1799;0.3598;0.5;1;0.374444;1;0.374444;245.078
e4;1;0.5;0.5;1951;0.3902;0.5;1;0.42;1;0.42;274.427
e6;1;0.5;0.5;2082;0.4164;0.5;1;0.42;1;0.42;294.686
e4;1;0.5;0.5;41;0.0082;0.5;1;0.01;2;0.01;152.39
e6;1;0.5;0.5;91;0.0182;0.5;1;0.02;2;0.01;151.923
e4;1;0.5;0.5;161;0.0322;0.5;1;0.0333333;2;0.0333333;153.28
e6;1;0.5;0.5;321;0.0642;0.5;1;0.0666667;2;0.0333333;152.614
e4;1;0.5;0.5;256;0.0512;0.5;1;0.0566667;2;0.0566667;153.566
e6;1;0.5;0.5;521;0.1042;0.5;1;0.113333;2;0.0566667;153.685
e4;1;0.5;0.5;375;0.075;0.5;1;0.08;2;0.08;153.133
e6;1;0.5;0.5;757;0.1514;0.5;1;0.16;2;0.08;157.291
e4;1;0.5;0.5;470;0.094;0.5;1;0.103333;2;0.103333;153.666
e6;1;0.5;0.5;1035;0.207;0.5;1;0.206667;2;0.103333;164.588
e4;1;0.5;0.5;618;0.1236;0.5;1;0.126667;2;0.126667;153.67
e6;1;0.5;0.5;1186;0.2372;0.5;1;0.253333;2;0.126667;171.053
e4;1;0.5;0.5;759;0.1518;0.5;1;0.15;2;0.15;154.221
e6;1;0.5;0.5;1324;0.2648;0.5;1;0.3;2;0.15;191.41
e4;1;0.5;0.5;853;0.1706;0.5;1;0.173333;2;0.173333;155.538
e6;1;0.5;0.5;1324;0.2648;0.5;1;0.346667;2;0.173333;196.081
e4;1;0.5;0.5;913;0.1826;0.5;1;0.196667;2;0.196667;155.679
e6;1;0.5;0.5;1325;0.265;0.5;1;0.393333;2;0.196667;183.054
e4;1;0.5;0.5;1055;0.211;0.5;1;0.22;2;0.22;158.233
e6;1;0.5;0.5;1369;0.2738;0.5;1;0.44;2;0.22;187.753
