e4;1;0.05;0.45;50;0.01;0.1;2;0.01;0.1;0.01;189.96
e6;1;0.05;0.45;5;0.001;0.1;2;0.001;0.1;0.01;150.4
e4;1;0.05;0.45;53;0.0106;0.1;2;0.0133333;0.1;0.0133333;175.811
e6;1;0.05;0.45;8;0.0016;0.1;2;0.00133333;0.1;0.0133333;150.875
e4;1;0.05;0.45;87;0.0174;0.1;2;0.0166667;0.1;0.0166667;176.103
e6;1;0.05;0.45;5;0.001;0.1;2;0.00166667;0.1;0.0166667;149.6
e4;1;0.05;0.45;94;0.0188;0.1;2;0.02;0.1;0.02;184.128
e6;1;0.05;0.45;8;0.0016;0.1;2;0.002;0.1;0.02;150.5
e4;1;0.05;0.45;117;0.0234;0.1;2;0.0233333;0.1;0.0233333;185.974
e6;1;0.05;0.45;6;0.0012;0.1;2;0.00233333;0.1;0.0233333;150.333
e4;1;0.05;0.45;123;0.0246;0.1;2;0.0266667;0.1;0.0266667;190.789
e6;1;0.05;0.45;7;0.0014;0.1;2;0.00266667;0.1;0.0266667;150.714
e4;1;0.05;0.45;156;0.0312;0.1;2;0.03;0.1;0.03;191.679
e6;1;0.05;0.45;11;0.0022;0.1;2;0.003;0.1;0.03;150.818
e4;1;0.05;0.45;136;0.0272;0.1;2;0.0333333;0.1;0.0333333;201.779
e6;1;0.05;0.45;12;0.0024;0.1;2;0.00333333;0.1;0.0333333;151.25
e4;1;0.05;0.45;171;0.0342;0.1;2;0.0366667;0.1;0.0366667;209.749
e6;1;0.05;0.45;21;0.0042;0.1;2;0.00366667;0.1;0.0366667;150.762
e4;1;0.05;0.45;198;0.0396;0.1;2;0.04;0.1;0.04;242.051
e6;1;0.05;0.45;18;0.0036;0.1;2;0.004;0.1;0.04;151.056
e4;1;0.05;0.45;49;0.0098;0.1;2;0.01;0.25;0.01;182.429
e6;1;0.05;0.45;11;0.0022;0.1;2;0.0025;0.25;0.01;149.909
e4;1;0.05;0.45;68;0.0136;0.1;2;0.0133333;0.25;0.0133333;173.926
e6;1;0.05;0.45;16;0.0032;0.1;2;0.00333333;0.25;0.0133333;150.938
e4;1;0.05;0.45;76;0.0152;0.1;2;0.0166667;0.25;0.0166667;185.921
e6;1;0.05;0.45;19;0.0038;0.1;2;0.00416667;0.25;0.0166667;151.211
e4;1;0.05;0.45;109;0.0218;0.1;2;0.02;0.25;0.02;185.009
e6;1;0.05;0.45;23;0.0046;0.1;2;0.005;0.25;0.02;151.435
e4;1;0.05;0.45;101;0.0202;0.1;2;0.0233333;0.25;0.0233333;180.98
e6;1;0.05;0.45;27;0.0054;0.1;2;0.00583333;0.25;0.0233333;150.593
e4;1;0.05;0.45;145;0.029;0.1;2;0.0266667;0.25;0.0266667;212.083
e6;1;0.05;0.45;33;0.0066;0.1;2;0.00666667;0.25;0.0266667;151.485
e4;1;0.05;0.45;153;0.0306;0.1;2;0.03;0.25;0.03;219.242
e6;1;0.05;0.45;30;0.006;0.1;2;0.0075;0.25;0.03;150.9
e4;1;0.05;0.45;154;0.0308;0.1;2;0.0333333;0.25;0.0333333;195.11
e6;1;0.05;0.45;43;0.0086;0.1;2;0.00833333;0.25;0.0333333;150.907
e4;1;0.05;0.45;166;0.0332;0.1;2;0.0366667;0.25;0.0366667;199.669
e6;1;0.05;0.45;47;0.0094;0.1;2;0.00916667;0.25;0.0366667;151.064
e4;1;0.05;0.45;180;0.036;0.1;2;0.04;0.25;0.04;225.556
e6;1;0.05;0.45;66;0.0132;0.1;2;0.01;0.25;0.04;151.394
e4;1;0.05;0.45;49;0.0098;0.1;2;0.01;0.5;0.01;172.857
e6;1;0.05;0.45;16;0.0032;0.1;2;0.005;0.5;0.01;150.875
e4;1;0.05;0.45;64;0.0128;0.1;2;0.0133333;0.5;0.0133333;177.734
e6;1;0.05;0.45;19;0.0038;0.1;2;0.00666667;0.5;0.0133333;150.895
e4;1;0.05;0.45;71;0.0142;0.1;2;0.0166667;0.5;0.0166667;185.268
e6;1;0.05;0.45;39;0.0078;0.1;2;0.00833333;0.5;0.0166667;151.179
e4;1;0.05;0.45;101;0.0202;0.1;2;0.02;0.5;0.02;182.743
e6;1;0.05;0.45;54;0.0108;0.1;2;0.01;0.5;0.02;151.056
e4;1;0.05;0.45;107;0.0214;0.1;2;0.0233333;0.5;0.0233333;185.925
e6;1;0.05;0.45;75;0.015;0.1;2;0.0116667;0.5;0.0233333;150.933
e4;1;0.05;0.45;131;0.0262;0.1;2;0.0266667;0.5;0.0266667;191.275
e6;1;0.05;0.45;55;0.011;0.1;2;0.0133333;0.5;0.0266667;151.327
e4;1;0.05;0.45;148;0.0296;0.1;2;0.03;0.5;0.03;193.351
e6;1;0.05;0.45;63;0.0126;0.1;2;0.015;0.5;0.03;151.317
e4;1;0.05;0.45;149;0.0298;0.1;2;0.0333333;0.5;0.0333333;197.255
e6;1;0.05;0.45;98;0.0196;0.1;2;0.0166667;0.5;0.0333333;151.092
e4;1;0.05;0.45;149;0.0298;0.1;2;0.0366667;0.5;0.0366667;202.779
e6;1;0.05;0.45;78;0.0156;0.1;2;0.0183333;0.5;0.0366667;150.974
e4;1;0.05;0.45;193;0.0386;0.1;2;0.04;0.5;0.04;224.72
e6;1;0.05;0.45;99;0.0198;0.1;2;0.02;0.5;0.04;150.909
e4;1;0.05;0.45;69;0.0138;0.1;2;0.01;0.75;0.01;174.768
e6;1;0.05;0.45;47;0.0094;0.1;2;0.0075;0.75;0.01;150.936
e4;1;0.05;0.45;74;0.0148;0.1;2;0.0133333;0.75;0.0133333;173.932
e6;1;0.05;0.45;46;0.0092;0.1;2;0.01;0.75;0.0133333;150.913
e4;1;0.05;0.45;96;0.0192;0.1;2;0.0166667;0.75;0.0166667;189.427
e6;1;0.05;0.45;54;0.0108;0.1;2;0.0125;0.75;0.0166667;150.741
e4;1;0.05;0.45;104;0.0208;0.1;2;0.02;0.75;0.02;175.798
e6;1;0.05;0.45;72;0.0144;0.1;2;0.015;0.75;0.02;151.181
e4;1;0.05;0.45;116;0.0232;0.1;2;0.0233333;0.75;0.0233333;187.078
e6;1;0.05;0.45;91;0.0182;0.1;2;0.0175;0.75;0.0233333;150.923
e4;1;0.05;0.45;134;0.0268;0.1;2;0.0266667;0.75;0.0266667;207.381
e6;1;0.05;0.45;103;0.0206;0.1;2;0.02;0.75;0.0266667;151.049
e4;1;0.05;0.45;132;0.0264;0.1;2;0.03;0.75;0.03;197.076
e6;1;0.05;0.45;93;0.0186;0.1;2;0.0225;0.75;0.03;150.849
e4;1;0.05;0.45;149;0.0298;0.1;2;0.0333333;0.75;0.0333333;194.242
e6;1;0.05;0.45;125;0.025;0.1;2;0.025;0.75;0.0333333;150.848
e4;1;0.05;0.45;205;0.041;0.1;2;0.0366667;0.75;0.0366667;370.785
e6;1;0.05;0.45;138;0.0276;0.1;2;0.0275;0.75;0.0366667;151.043
e4;1;0.05;0.45;204;0.0408;0.1;2;0.04;0.75;0.04;272.431
e6;1;0.05;0.45;161;0.0322;0.1;2;0.03;0.75;0.04;151.273
e4;1;0.05;0.45;55;0.011;0.1;2;0.01;1;0.01;175.127
e6;1;0.05;0.45;48;0.0096;0.1;2;0.01;1;0.01;151.938
e4;1;0.05;0.45;49;0.0098;0.1;2;0.0133333;1;0.0133333;179.755
e6;1;0.05;0.45;75;0.015;0.1;2;0.0133333;1;0.0133333;151
e4;1;0.05;0.45;83;0.0166;0.1;2;0.0166667;1;0.0166667;182.313
e6;1;0.05;0.45;89;0.0178;0.1;2;0.0166667;1;0.0166667;151.124
e4;1;0.05;0.45;108;0.0216;0.1;2;0.02;1;0.02;187.176
e6;1;0.05;0.45;77;0.0154;0.1;2;0.02;1;0.02;150.74
e4;1;0.05;0.45;121;0.0242;0.1;2;0.0233333;1;0.0233333;195.669
e6;1;0.05;0.45;119;0.0238;0.1;2;0.0233333;1;0.0233333;151.479
e4;1;0.05;0.45;121;0.0242;0.1;2;0.0266667;1;0.0266667;203.207
e6;1;0.05;0.45;134;0.0268;0.1;2;0.0266667;1;0.0266667;150.91
e4;1;0.05;0.45;149;0.0298;0.1;2;0.03;1;0.03;206.383
e6;1;0.05;0.45;144;0.0288;0.1;2;0.03;1;0.03;151.056
e4;1;0.05;0.45;152;0.0304;0.1;2;0.0333333;1;0.0333333;215.237
e6;1;0.05;0.45;194;0.0388;0.1;2;0.0333333;1;0.0333333;151.253
e4;1;0.05;0.45;169;0.0338;0.1;2;0.0366667;1;0.0366667;254.716
e6;1;0.05;0.45;177;0.0354;0.1;2;0.0366667;1;0.0366667;151.006
e4;1;0.05;0.45;189;0.0378;0.1;2;0.04;1;0.04;260.921
e6;1;0.05;0.45;202;0.0404;0.1;2;0.04;1;0.04;151.282
e4;1;0.05;0.45;54;0.0108;0.1;2;0.01;2;0.01;173.444
e6;1;0.05;0.45;102;0.0204;0.1;2;0.02;2;0.01;150.873
e4;1;0.05;0.45;49;0.0098;0.1;2;0.0133333;2;0.0133333;180.122
e6;1;0.05;0.45;130;0.026;0.1;2;0.0266667;2;0.0133333;151.115
e4;1;0.05;0.45;74;0.0148;0.1;2;0.0166667;2;0.0166667;179.473
e6;1;0.05;0.45;163;0.0326;0.1;2;0.0333333;2;0.0166667;151.067
e4;1;0.05;0.45;104;0.0208;0.1;2;0.02;2;0.02;185.856
e6;1;0.05;0.45;193;0.0386;0.1;2;0.04;2;0.02;151.238
e4;1;0.05;0.45;114;0.0228;0.1;2;0.0233333;2;0.0233333;196.07
e6;1;0.05;0.45;226;0.0452;0.1;2;0.0466667;2;0.0233333;151.15
e4;1;0.05;0.45;120;0.024;0.1;2;0.0266667;2;0.0266667;184.367
e6;1;0.05;0.45;276;0.0552;0.1;2;0.0533333;2;0.0266667;151.17
e4;1;0.05;0.45;147;0.0294;0.1;2;0.03;2;0.03;209.102
e6;1;0.05;0.45;280;0.056;0.1;2;0.06;2;0.03;151.211
e4;1;0.05;0.45;131;0.0262;0.1;2;0.0333333;2;0.0333333;195.496
e6;1;0.05;0.45;326;0.0652;0.1;2;0.0666667;2;0.0333333;151.31
e4;1;0.05;0.45;176;0.0352;0.1;2;0.0366667;2;0.0366667;222.699
e6;1;0.05;0.45;374;0.0748;0.1;2;0.0733333;2;0.0366667;151.591
e4;1;0.05;0.45;181;0.0362;0.1;2;0.04;2;0.04;218.177
e6;1;0.05;0.45;374;0.0748;0.1;2;0.08;2;0.04;151.639
