e4;0.1;0;1;0;0;0;0.1;1
e6;0.1;0;1;454;0.0908;0;0.1;1
e4;0.25;0;1;0;0;0;0.25;1
e6;0.25;0;1;1129;0.2258;0;0.25;1
e4;0.5;0;1;0;0;0;0.5;1
e6;0.5;0;1;2134;0.4268;0;0.5;1
e4;0.75;0;1;0;0;0;0.75;1
e6;0.75;0;1;3252;0.6504;0;0.75;1
e4;1;0;1;0;0;0;1;1
e6;1;0;1;4364;0.8728;0;1;1
e4;1;0;0.8;0;0;0;1.25;1
e6;1;0;0.8;3536;0.7072;0;1.25;1
e4;1;0;0.666667;0;0;0;1.5;1
e6;1;0;0.666667;2944;0.5888;0;1.5;1
e4;1;0;0.571429;0;0;0;1.75;1
e6;1;0;0.571429;2523;0.5046;0;1.75;1
e4;1;0;0.5;0;0;0;2;1
e6;1;0;0.5;2244;0.4488;0;2;1
e4;1;0;0.4;0;0;0;2.5;1
e6;1;0;0.4;1755;0.351;0;2.5;1
e4;1;0;0.333333;0;0;0;3;1
e6;1;0;0.333333;1448;0.2896;0;3;1
e4;1;0;0.285714;0;0;0;3.5;1
e6;1;0;0.285714;1252;0.2504;0;3.5;1
e4;1;0;0.25;0;0;0;4;1
e6;1;0;0.25;1113;0.2226;0;4;1
e4;1;0;0.222222;0;0;0;4.5;1
e6;1;0;0.222222;1005;0.201;0;4.5;1
e4;1;0;0.2;0;0;0;5;1
e6;1;0;0.2;854;0.1708;0;5;1
e4;0.1;0.1;0.9;148;0.0296;0.1;0.1;1
e6;0.1;0.1;0.9;273;0.0546;0.1;0.1;1
e4;0.25;0.1;0.9;249;0.0498;0.1;0.25;1
e6;0.25;0.1;0.9;829;0.1658;0.1;0.25;1
e4;0.5;0.1;0.9;335;0.067;0.1;0.5;1
e6;0.5;0.1;0.9;1834;0.3668;0.1;0.5;1
e4;0.75;0.1;0.9;396;0.0792;0.1;0.75;1
e6;0.75;0.1;0.9;2834;0.5668;0.1;0.75;1
e4;1;0.1;0.9;437;0.0874;0.1;1;1
e6;1;0.1;0.9;3865;0.773;0.1;1;1
e4;1;0.08;0.72;319;0.0638;0.1;1.25;1
e6;1;0.08;0.72;3185;0.637;0.1;1.25;1
e4;1;0.0666667;0.6;284;0.0568;0.1;1.5;1
e6;1;0.0666667;0.6;2637;0.5274;0.1;1.5;1
e4;1;0.0571429;0.514286;265;0.053;0.1;1.75;1
e6;1;0.0571429;0.514286;2307;0.4614;0.1;1.75;1
e4;1;0.05;0.45;218;0.0436;0.1;2;1
e6;1;0.05;0.45;2003;0.4006;0.1;2;1
e4;1;0.04;0.36;188;0.0376;0.1;2.5;1
e6;1;0.04;0.36;1559;0.3118;0.1;2.5;1
e4;1;0.0333333;0.3;137;0.0274;0.1;3;1
e6;1;0.0333333;0.3;1295;0.259;0.1;3;1
e4;1;0.0285714;0.257143;143;0.0286;0.1;3.5;1
e6;1;0.0285714;0.257143;1167;0.2334;0.1;3.5;1
e4;1;0.025;0.225;118;0.0236;0.1;4;1
e6;1;0.025;0.225;968;0.1936;0.1;4;1
e4;1;0.0222222;0.2;89;0.0178;0.1;4.5;1
e6;1;0.0222222;0.2;840;0.168;0.1;4.5;1
e4;1;0.02;0.18;101;0.0202;0.1;5;1
e6;1;0.02;0.18;775;0.155;0.1;5;1
e4;0.1;0.25;0.75;214;0.0428;0.25;0.1;1
e6;0.1;0.25;0.75;241;0.0482;0.25;0.1;1
e4;0.25;0.25;0.75;403;0.0806;0.25;0.25;1
e6;0.25;0.25;0.75;694;0.1388;0.25;0.25;1
e4;0.5;0.25;0.75;648;0.1296;0.25;0.5;1
e6;0.5;0.25;0.75;1545;0.309;0.25;0.5;1
e4;0.75;0.25;0.75;874;0.1748;0.25;0.75;1
e6;0.75;0.25;0.75;2468;0.4936;0.25;0.75;1
e4;1;0.25;0.75;1073;0.2146;0.25;1;1
e6;1;0.25;0.75;3219;0.6438;0.25;1;1
e4;1;0.2;0.6;944;0.1888;0.25;1.25;1
e6;1;0.2;0.6;2554;0.5108;0.25;1.25;1
e4;1;0.166667;0.5;698;0.1396;0.25;1.5;1
e6;1;0.166667;0.5;2219;0.4438;0.25;1.5;1
e4;1;0.142857;0.428571;672;0.1344;0.25;1.75;1
e6;1;0.142857;0.428571;1872;0.3744;0.25;1.75;1
e4;1;0.125;0.375;570;0.114;0.25;2;1
e6;1;0.125;0.375;1675;0.335;0.25;2;1
e4;1;0.1;0.3;411;0.0822;0.25;2.5;1
e6;1;0.1;0.3;1267;0.2534;0.25;2.5;1
e4;1;0.0833333;0.25;367;0.0734;0.25;3;1
e6;1;0.0833333;0.25;1075;0.215;0.25;3;1
e4;1;0.0714286;0.214286;340;0.068;0.25;3.5;1
e6;1;0.0714286;0.214286;982;0.1964;0.25;3.5;1
e4;1;0.0625;0.1875;284;0.0568;0.25;4;1
e6;1;0.0625;0.1875;786;0.1572;0.25;4;1
e4;1;0.0555556;0.166667;218;0.0436;0.25;4.5;1
e6;1;0.0555556;0.166667;704;0.1408;0.25;4.5;1
e4;1;0.05;0.15;224;0.0448;0.25;5;1
e6;1;0.05;0.15;668;0.1336;0.25;5;1
e4;0.1;0.5;0.5;239;0.0478;0.5;0.1;1
e6;0.1;0.5;0.5;222;0.0444;0.5;0.1;1
e4;0.25;0.5;0.5;542;0.1084;0.5;0.25;1
e6;0.25;0.5;0.5;565;0.113;0.5;0.25;1
e4;0.5;0.5;0.5;1116;0.2232;0.5;0.5;1
e6;0.5;0.5;0.5;1142;0.2284;0.5;0.5;1
e4;0.75;0.5;0.5;1657;0.3314;0.5;0.75;1
e6;0.75;0.5;0.5;1607;0.3214;0.5;0.75;1
e4;1;0.5;0.5;2100;0.42;0.5;1;1
e6;1;0.5;0.5;2200;0.44;0.5;1;1
e4;1;0.4;0.4;1717;0.3434;0.5;1.25;1
e6;1;0.4;0.4;1794;0.3588;0.5;1.25;1
e4;1;0.333333;0.333333;1491;0.2982;0.5;1.5;1
e6;1;0.333333;0.333333;1448;0.2896;0.5;1.5;1
e4;1;0.285714;0.285714;1275;0.255;0.5;1.75;1
e6;1;0.285714;0.285714;1228;0.2456;0.5;1.75;1
e4;1;0.25;0.25;1100;0.22;0.5;2;1
e6;1;0.25;0.25;1060;0.212;0.5;2;1
e4;1;0.2;0.2;854;0.1708;0.5;2.5;1
e6;1;0.2;0.2;867;0.1734;0.5;2.5;1
e4;1;0.166667;0.166667;686;0.1372;0.5;3;1
e6;1;0.166667;0.166667;754;0.1508;0.5;3;1
e4;1;0.142857;0.142857;664;0.1328;0.5;3.5;1
e6;1;0.142857;0.142857;639;0.1278;0.5;3.5;1
e4;1;0.125;0.125;532;0.1064;0.5;4;1
e6;1;0.125;0.125;533;0.1066;0.5;4;1
e4;1;0.111111;0.111111;480;0.096;0.5;4.5;1
e6;1;0.111111;0.111111;483;0.0966;0.5;4.5;1
e4;1;0.1;0.1;459;0.0918;0.5;5;1
e6;1;0.1;0.1;427;0.0854;0.5;5;1
e4;0.1;0.75;0.25;209;0.0418;0.75;0.1;1
e6;0.1;0.75;0.25;178;0.0356;0.75;0.1;1
e4;0.25;0.75;0.25;641;0.1282;0.75;0.25;1
e6;0.25;0.75;0.25;407;0.0814;0.75;0.25;1
e4;0.5;0.75;0.25;1573;0.3146;0.75;0.5;1
e6;0.5;0.75;0.25;670;0.134;0.75;0.5;1
e4;0.75;0.75;0.25;2459;0.4918;0.75;0.75;1
e6;0.75;0.75;0.25;832;0.1664;0.75;0.75;1
e4;1;0.75;0.25;3248;0.6496;0.75;1;1
e6;1;0.75;0.25;1052;0.2104;0.75;1;1
e4;1;0.6;0.2;2600;0.52;0.75;1.25;1
e6;1;0.6;0.2;877;0.1754;0.75;1.25;1
e4;1;0.5;0.166667;2249;0.4498;0.75;1.5;1
e6;1;0.5;0.166667;735;0.147;0.75;1.5;1
e4;1;0.428571;0.142857;1832;0.3664;0.75;1.75;1
e6;1;0.428571;0.142857;674;0.1348;0.75;1.75;1
e4;1;0.375;0.125;1653;0.3306;0.75;2;1
e6;1;0.375;0.125;530;0.106;0.75;2;1
e4;1;0.3;0.1;1386;0.2772;0.75;2.5;1
e6;1;0.3;0.1;438;0.0876;0.75;2.5;1
e4;1;0.25;0.0833333;1110;0.222;0.75;3;1
e6;1;0.25;0.0833333;369;0.0738;0.75;3;1
e4;1;0.214286;0.0714286;883;0.1766;0.75;3.5;1
e6;1;0.214286;0.0714286;311;0.0622;0.75;3.5;1
e4;1;0.1875;0.0625;782;0.1564;0.75;4;1
e6;1;0.1875;0.0625;270;0.054;0.75;4;1
e4;1;0.166667;0.0555556;757;0.1514;0.75;4.5;1
e6;1;0.166667;0.0555556;219;0.0438;0.75;4.5;1
e4;1;0.15;0.05;663;0.1326;0.75;5;1
e6;1;0.15;0.05;197;0.0394;0.75;5;1
e4;0.1;1;0;417;0.0834;1;0.1;1
e6;0.1;1;0;0;0;1;0.1;1
e4;0.25;1;0;1132;0.2264;1;0.25;1
e6;0.25;1;0;0;0;1;0.25;1
e4;0.5;1;0;2256;0.4512;1;0.5;1
e6;0.5;1;0;0;0;1;0.5;1
e4;0.75;1;0;3256;0.6512;1;0.75;1
e6;0.75;1;0;0;0;1;0.75;1
e4;1;1;0;4363;0.8726;1;1;1
e6;1;1;0;0;0;1;1;1
e4;1;0.8;0;3525;0.705;1;1.25;1
e6;1;0.8;0;0;0;1;1.25;1
e4;1;0.666667;0;2954;0.5908;1;1.5;1
e6;1;0.666667;0;0;0;1;1.5;1
e4;1;0.571429;0;2522;0.5044;1;1.75;1
e6;1;0.571429;0;0;0;1;1.75;1
e4;1;0.5;0;2212;0.4424;1;2;1
e6;1;0.5;0;0;0;1;2;1
e4;1;0.4;0;1732;0.3464;1;2.5;1
e6;1;0.4;0;0;0;1;2.5;1
e4;1;0.333333;0;1440;0.288;1;3;1
e6;1;0.333333;0;0;0;1;3;1
e4;1;0.285714;0;1270;0.254;1;3.5;1
e6;1;0.285714;0;0;0;1;3.5;1
e4;1;0.25;0;1125;0.225;1;4;1
e6;1;0.25;0;0;0;1;4;1
e4;1;0.222222;0;980;0.196;1;4.5;1
e6;1;0.222222;0;0;0;1;4.5;1
e4;1;0.2;0;883;0.1766;1;5;1
e6;1;0.2;0;0;0;1;5;1
