e4;0.1;0;1;0;0;0;0.1;1
e6;0.1;0;1;227;0.0454;0;0.1;1
e4;0.25;0;1;0;0;0;0.25;1
e6;0.25;0;1;564;0.1128;0;0.25;1
e4;0.5;0;1;0;0;0;0.5;1
e6;0.5;0;1;1067;0.2134;0;0.5;1
e4;0.75;0;1;0;0;0;0.75;1
e6;0.75;0;1;1626;0.3252;0;0.75;1
e4;1;0;1;0;0;0;1;1
e6;1;0;1;2184;0.4368;0;1;1
e4;1;0;0.8;0;0;0;1.25;1
e6;1;0;0.8;2188;0.4376;0;1.25;1
e4;1;0;0.666667;0;0;0;1.5;1
e6;1;0;0.666667;2189;0.4378;0;1.5;1
e4;1;0;0.571429;0;0;0;1.75;1
e6;1;0;0.571429;2189;0.4378;0;1.75;1
e4;1;0;0.5;0;0;0;2;1
e6;1;0;0.5;2181;0.4362;0;2;1
e4;1;0;0.4;0;0;0;2.5;1
e6;1;0;0.4;1755;0.351;0;2.5;1
e4;1;0;0.333333;0;0;0;3;1
e6;1;0;0.333333;1445;0.289;0;3;1
e4;1;0;0.285714;0;0;0;3.5;1
e6;1;0;0.285714;1251;0.2502;0;3.5;1
e4;1;0;0.25;0;0;0;4;1
e6;1;0;0.25;1113;0.2226;0;4;1
e4;1;0;0.222222;0;0;0;4.5;1
e6;1;0;0.222222;1005;0.201;0;4.5;1
e4;1;0;0.2;0;0;0;5;1
e6;1;0;0.2;854;0.1708;0;5;1
e4;0.1;0.1;0.9;209;0.0418;0.1;0.1;1
e6;0.1;0.1;0.9;210;0.042;0.1;0.1;1
e4;0.25;0.1;0.9;438;0.0876;0.1;0.25;1
e6;0.25;0.1;0.9;539;0.1078;0.1;0.25;1
e4;0.5;0.1;0.9;440;0.088;0.1;0.5;1
e6;0.5;0.1;0.9;1084;0.2168;0.1;0.5;1
e4;0.75;0.1;0.9;452;0.0904;0.1;0.75;1
e6;0.75;0.1;0.9;1618;0.3236;0.1;0.75;1
e4;1;0.1;0.9;458;0.0916;0.1;1;1
e6;1;0.1;0.9;2183;0.4366;0.1;1;1
e4;1;0.08;0.72;321;0.0642;0.1;1.25;1
e6;1;0.08;0.72;2184;0.4368;0.1;1.25;1
e4;1;0.0666667;0.6;284;0.0568;0.1;1.5;1
e6;1;0.0666667;0.6;2187;0.4374;0.1;1.5;1
e4;1;0.0571429;0.514286;265;0.053;0.1;1.75;1
e6;1;0.0571429;0.514286;2178;0.4356;0.1;1.75;1
e4;1;0.05;0.45;218;0.0436;0.1;2;1
e6;1;0.05;0.45;2004;0.4008;0.1;2;1
e4;1;0.04;0.36;188;0.0376;0.1;2.5;1
e6;1;0.04;0.36;1558;0.3116;0.1;2.5;1
e4;1;0.0333333;0.3;137;0.0274;0.1;3;1
e6;1;0.0333333;0.3;1295;0.259;0.1;3;1
e4;1;0.0285714;0.257143;143;0.0286;0.1;3.5;1
e6;1;0.0285714;0.257143;1167;0.2334;0.1;3.5;1
e4;1;0.025;0.225;118;0.0236;0.1;4;1
e6;1;0.025;0.225;968;0.1936;0.1;4;1
e4;1;0.0222222;0.2;89;0.0178;0.1;4.5;1
e6;1;0.0222222;0.2;840;0.168;0.1;4.5;1
e4;1;0.02;0.18;101;0.0202;0.1;5;1
e6;1;0.02;0.18;775;0.155;0.1;5;1
e4;0.1;0.25;0.75;227;0.0454;0.25;0.1;1
e6;0.1;0.25;0.75;227;0.0454;0.25;0.1;1
e4;0.25;0.25;0.75;549;0.1098;0.25;0.25;1
e6;0.25;0.25;0.75;548;0.1096;0.25;0.25;1
e4;0.5;0.25;0.75;1096;0.2192;0.25;0.5;1
e6;0.5;0.25;0.75;1097;0.2194;0.25;0.5;1
e4;0.75;0.25;0.75;1090;0.218;0.25;0.75;1
e6;0.75;0.25;0.75;1681;0.3362;0.25;0.75;1
e4;1;0.25;0.75;1098;0.2196;0.25;1;1
e6;1;0.25;0.75;2183;0.4366;0.25;1;1
e4;1;0.2;0.6;944;0.1888;0.25;1.25;1
e6;1;0.2;0.6;2190;0.438;0.25;1.25;1
e4;1;0.166667;0.5;698;0.1396;0.25;1.5;1
e6;1;0.166667;0.5;2178;0.4356;0.25;1.5;1
e4;1;0.142857;0.428571;673;0.1346;0.25;1.75;1
e6;1;0.142857;0.428571;1879;0.3758;0.25;1.75;1
e4;1;0.125;0.375;570;0.114;0.25;2;1
e6;1;0.125;0.375;1676;0.3352;0.25;2;1
e4;1;0.1;0.3;411;0.0822;0.25;2.5;1
e6;1;0.1;0.3;1267;0.2534;0.25;2.5;1
e4;1;0.0833333;0.25;367;0.0734;0.25;3;1
e6;1;0.0833333;0.25;1076;0.2152;0.25;3;1
e4;1;0.0714286;0.214286;340;0.068;0.25;3.5;1
e6;1;0.0714286;0.214286;981;0.1962;0.25;3.5;1
e4;1;0.0625;0.1875;284;0.0568;0.25;4;1
e6;1;0.0625;0.1875;786;0.1572;0.25;4;1
e4;1;0.0555556;0.166667;218;0.0436;0.25;4.5;1
e6;1;0.0555556;0.166667;704;0.1408;0.25;4.5;1
e4;1;0.05;0.15;224;0.0448;0.25;5;1
e6;1;0.05;0.15;669;0.1338;0.25;5;1
e4;0.1;0.5;0.5;231;0.0462;0.5;0.1;1
e6;0.1;0.5;0.5;230;0.046;0.5;0.1;1
e4;0.25;0.5;0.5;554;0.1108;0.5;0.25;1
e6;0.25;0.5;0.5;553;0.1106;0.5;0.25;1
e4;0.5;0.5;0.5;1129;0.2258;0.5;0.5;1
e6;0.5;0.5;0.5;1130;0.226;0.5;0.5;1
e4;0.75;0.5;0.5;1639;0.3278;0.5;0.75;1
e6;0.75;0.5;0.5;1637;0.3274;0.5;0.75;1
e4;1;0.5;0.5;2127;0.4254;0.5;1;1
e6;1;0.5;0.5;2177;0.4354;0.5;1;1
e4;1;0.4;0.4;1719;0.3438;0.5;1.25;1
e6;1;0.4;0.4;1797;0.3594;0.5;1.25;1
e4;1;0.333333;0.333333;1493;0.2986;0.5;1.5;1
e6;1;0.333333;0.333333;1451;0.2902;0.5;1.5;1
e4;1;0.285714;0.285714;1284;0.2568;0.5;1.75;1
e6;1;0.285714;0.285714;1229;0.2458;0.5;1.75;1
e4;1;0.25;0.25;1100;0.22;0.5;2;1
e6;1;0.25;0.25;1059;0.2118;0.5;2;1
e4;1;0.2;0.2;854;0.1708;0.5;2.5;1
e6;1;0.2;0.2;867;0.1734;0.5;2.5;1
e4;1;0.166667;0.166667;686;0.1372;0.5;3;1
e6;1;0.166667;0.166667;753;0.1506;0.5;3;1
e4;1;0.142857;0.142857;664;0.1328;0.5;3.5;1
e6;1;0.142857;0.142857;638;0.1276;0.5;3.5;1
e4;1;0.125;0.125;532;0.1064;0.5;4;1
e6;1;0.125;0.125;533;0.1066;0.5;4;1
e4;1;0.111111;0.111111;480;0.096;0.5;4.5;1
e6;1;0.111111;0.111111;483;0.0966;0.5;4.5;1
e4;1;0.1;0.1;459;0.0918;0.5;5;1
e6;1;0.1;0.1;427;0.0854;0.5;5;1
e4;0.1;0.75;0.25;194;0.0388;0.75;0.1;1
e6;0.1;0.75;0.25;193;0.0386;0.75;0.1;1
e4;0.25;0.75;0.25;524;0.1048;0.75;0.25;1
e6;0.25;0.75;0.25;524;0.1048;0.75;0.25;1
e4;0.5;0.75;0.25;1122;0.2244;0.75;0.5;1
e6;0.5;0.75;0.25;1077;0.2154;0.75;0.5;1
e4;0.75;0.75;0.25;1646;0.3292;0.75;0.75;1
e6;0.75;0.75;0.25;1076;0.2152;0.75;0.75;1
e4;1;0.75;0.25;2183;0.4366;0.75;1;1
e6;1;0.75;0.25;1077;0.2154;0.75;1;1
e4;1;0.6;0.2;2190;0.438;0.75;1.25;1
e6;1;0.6;0.2;887;0.1774;0.75;1.25;1
e4;1;0.5;0.166667;2173;0.4346;0.75;1.5;1
e6;1;0.5;0.166667;735;0.147;0.75;1.5;1
e4;1;0.428571;0.142857;1832;0.3664;0.75;1.75;1
e6;1;0.428571;0.142857;674;0.1348;0.75;1.75;1
e4;1;0.375;0.125;1654;0.3308;0.75;2;1
e6;1;0.375;0.125;530;0.106;0.75;2;1
e4;1;0.3;0.1;1386;0.2772;0.75;2.5;1
e6;1;0.3;0.1;438;0.0876;0.75;2.5;1
e4;1;0.25;0.0833333;1110;0.222;0.75;3;1
e6;1;0.25;0.0833333;369;0.0738;0.75;3;1
e4;1;0.214286;0.0714286;883;0.1766;0.75;3.5;1
e6;1;0.214286;0.0714286;311;0.0622;0.75;3.5;1
e4;1;0.1875;0.0625;782;0.1564;0.75;4;1
e6;1;0.1875;0.0625;270;0.054;0.75;4;1
e4;1;0.166667;0.0555556;757;0.1514;0.75;4.5;1
e6;1;0.166667;0.0555556;219;0.0438;0.75;4.5;1
e4;1;0.15;0.05;663;0.1326;0.75;5;1
e6;1;0.15;0.05;197;0.0394;0.75;5;1
e4;0.1;1;0;209;0.0418;1;0.1;1
e6;0.1;1;0;0;0;1;0.1;1
e4;0.25;1;0;566;0.1132;1;0.25;1
e6;0.25;1;0;0;0;1;0.25;1
e4;0.5;1;0;1128;0.2256;1;0.5;1
e6;0.5;1;0;0;0;1;0.5;1
e4;0.75;1;0;1628;0.3256;1;0.75;1
e6;0.75;1;0;0;0;1;0.75;1
e4;1;1;0;2183;0.4366;1;1;1
e6;1;1;0;0;0;1;1;1
e4;1;0.8;0;2198;0.4396;1;1.25;1
e6;1;0.8;0;0;0;1;1.25;1
e4;1;0.666667;0;2193;0.4386;1;1.5;1
e6;1;0.666667;0;0;0;1;1.5;1
e4;1;0.571429;0;2195;0.439;1;1.75;1
e6;1;0.571429;0;0;0;1;1.75;1
e4;1;0.5;0;2187;0.4374;1;2;1
e6;1;0.5;0;0;0;1;2;1
e4;1;0.4;0;1732;0.3464;1;2.5;1
e6;1;0.4;0;0;0;1;2.5;1
e4;1;0.333333;0;1440;0.288;1;3;1
e6;1;0.333333;0;0;0;1;3;1
e4;1;0.285714;0;1267;0.2534;1;3.5;1
e6;1;0.285714;0;0;0;1;3.5;1
e4;1;0.25;0;1125;0.225;1;4;1
e6;1;0.25;0;0;0;1;4;1
e4;1;0.222222;0;980;0.196;1;4.5;1
e6;1;0.222222;0;0;0;1;4.5;1
e4;1;0.2;0;883;0.1766;1;5;1
e6;1;0.2;0;0;0;1;5;1
