e4;0.25;0;1;0;0;0;0.25;0
e6;0.25;0;1;532;0.1064;0;0.25;0.09
e4;0.25;0.25;0.75;576;0.1152;0.25;0.25;0.11
e6;0.25;0.25;0.75;521;0.1042;0.25;0.25;0.1
e4;0.25;0.1;0.9;436;0.0872;0.1;0.25;0.08
e6;0.25;0.1;0.9;481;0.0962;0.1;0.25;0.1
e4;0.25;0.75;0.25;449;0.0898;0.75;0.25;0.1
e6;0.25;0.75;0.25;599;0.1198;0.75;0.25;0.1
e4;0.25;1;0;626;0.1252;1;0.25;0.1
e6;0.25;1;0;0;0;1;0.25;0
e4;0.25;0.5;0.5;512;0.1024;0.5;0.25;0.12
e6;0.25;0.5;0.5;595;0.119;0.5;0.25;0.09
e4;0.5;0;1;0;0;0;0.5;0
e6;0.5;0;1;992;0.1984;0;0.5;0.18
e4;0.5;0.25;0.75;999;0.1998;0.25;0.5;0.21
e6;0.5;0.25;0.75;1148;0.2296;0.25;0.5;0.21
e4;0.5;0.1;0.9;440;0.088;0.1;0.5;0.08
e6;0.5;0.1;0.9;1177;0.2354;0.1;0.5;0.19
e4;0.5;0.75;0.25;1126;0.2252;0.75;0.5;0.21
e6;0.5;0.75;0.25;1078;0.2156;0.75;0.5;0.21
e4;0.5;1;0;1061;0.2122;1;0.5;0.23
e6;0.5;1;0;0;0;1;0.5;0
e4;0.5;0.5;0.5;1178;0.2356;0.5;0.5;0.23
e6;0.5;0.5;0.5;1081;0.2162;0.5;0.5;0.21
e4;1;0;0.5;0;0;0;2;0
e6;1;0;0.5;2214;0.4428;0;2;0.41
e4;1;0.125;0.375;570;0.114;0.25;2;0.11
e6;1;0.125;0.375;1658;0.3316;0.25;2;0.33
e4;1;0.05;0.45;218;0.0436;0.1;2;0.04
e6;1;0.05;0.45;1983;0.3966;0.1;2;0.4
e4;1;0.375;0.125;1653;0.3306;0.75;2;0.33
e6;1;0.375;0.125;530;0.106;0.75;2;0.1
e4;1;0.5;0;2099;0.4198;1;2;0.41
e6;1;0.5;0;0;0;1;2;0
e4;1;0.25;0.25;1100;0.22;0.5;2;0.22
e6;1;0.25;0.25;1061;0.2122;0.5;2;0.21
e4;1;0;0.333333;0;0;0;3;0
e6;1;0;0.333333;1438;0.2876;0;3;0.28
e4;1;0.0833333;0.25;367;0.0734;0.25;3;0.07
e6;1;0.0833333;0.25;1076;0.2152;0.25;3;0.21
e4;1;0.0333333;0.3;137;0.0274;0.1;3;0.02
e6;1;0.0333333;0.3;1295;0.259;0.1;3;0.25
e4;1;0.25;0.0833333;1110;0.222;0.75;3;0.22
e6;1;0.25;0.0833333;369;0.0738;0.75;3;0.07
e4;1;0.333333;0;1440;0.288;1;3;0.28
e6;1;0.333333;0;0;0;1;3;0
e4;1;0.166667;0.166667;686;0.1372;0.5;3;0.13
e6;1;0.166667;0.166667;753;0.1506;0.5;3;0.15
e4;1;0;0.25;0;0;0;4;0
e6;1;0;0.25;1113;0.2226;0;4;0.22
e4;1;0.0625;0.1875;284;0.0568;0.25;4;0.05
e6;1;0.0625;0.1875;786;0.1572;0.25;4;0.15
e4;1;0.025;0.225;118;0.0236;0.1;4;0.02
e6;1;0.025;0.225;968;0.1936;0.1;4;0.19
e4;1;0.1875;0.0625;782;0.1564;0.75;4;0.15
e6;1;0.1875;0.0625;270;0.054;0.75;4;0.05
e4;1;0.25;0;1125;0.225;1;4;0.22
e6;1;0.25;0;0;0;1;4;0
e4;1;0.125;0.125;532;0.1064;0.5;4;0.1
e6;1;0.125;0.125;533;0.1066;0.5;4;0.1
e4;0.1;0;1;0;0;0;0.1;0
e6;0.1;0;1;199;0.0398;0;0.1;0.05
e4;0.1;0.25;0.75;257;0.0514;0.25;0.1;0.03
e6;0.1;0.25;0.75;197;0.0394;0.25;0.1;0.05
e4;0.1;0.1;0.9;217;0.0434;0.1;0.1;0.04
e6;0.1;0.1;0.9;197;0.0394;0.1;0.1;0.03
e4;0.1;0.75;0.25;191;0.0382;0.75;0.1;0.03
e6;0.1;0.75;0.25;196;0.0392;0.75;0.1;0.03
e4;0.1;1;0;198;0.0396;1;0.1;0.04
e6;0.1;1;0;0;0;1;0.1;0
e4;0.1;0.5;0.5;264;0.0528;0.5;0.1;0.05
e6;0.1;0.5;0.5;197;0.0394;0.5;0.1;0.03
e4;1;0;0.8;0;0;0;1.25;0
e6;1;0;0.8;2261;0.4522;0;1.25;0.45
e4;1;0.2;0.6;944;0.1888;0.25;1.25;0.18
e6;1;0.2;0.6;2092;0.4184;0.25;1.25;0.42
e4;1;0.08;0.72;321;0.0642;0.1;1.25;0.06
e6;1;0.08;0.72;2254;0.4508;0.1;1.25;0.45
e4;1;0.6;0.2;2156;0.4312;0.75;1.25;0.43
e6;1;0.6;0.2;887;0.1774;0.75;1.25;0.17
e4;1;0.8;0;2199;0.4398;1;1.25;0.39
e6;1;0.8;0;0;0;1;1.25;0
e4;1;0.4;0.4;1705;0.341;0.5;1.25;0.34
e6;1;0.4;0.4;1795;0.359;0.5;1.25;0.35
e4;1;0;1;0;0;0;1;0
e6;1;0;1;2095;0.419;0;1;0.41
e4;1;0.25;0.75;1098;0.2196;0.25;1;0.21
e6;1;0.25;0.75;2197;0.4394;0.25;1;0.42
e4;1;0.1;0.9;458;0.0916;0.1;1;0.09
e6;1;0.1;0.9;2199;0.4398;0.1;1;0.4
e4;1;0.75;0.25;2099;0.4198;0.75;1;0.43
e6;1;0.75;0.25;1076;0.2152;0.75;1;0.21
e4;1;1;0;2099;0.4198;1;1;0.41
e6;1;1;0;0;0;1;1;0
e4;1;0.5;0.5;1995;0.399;0.5;1;0.41
e6;1;0.5;0.5;2199;0.4398;0.5;1;0.43
e4;1;0;0.2;0;0;0;5;0
e6;1;0;0.2;854;0.1708;0;5;0.17
e4;1;0.05;0.15;224;0.0448;0.25;5;0.04
e6;1;0.05;0.15;669;0.1338;0.25;5;0.13
e4;1;0.02;0.18;101;0.0202;0.1;5;0.02
e6;1;0.02;0.18;775;0.155;0.1;5;0.15
e4;1;0.15;0.05;662;0.1324;0.75;5;0.13
e6;1;0.15;0.05;197;0.0394;0.75;5;0.03
e4;1;0.2;0;883;0.1766;1;5;0.17
e6;1;0.2;0;0;0;1;5;0
e4;1;0.1;0.1;459;0.0918;0.5;5;0.09
e6;1;0.1;0.1;427;0.0854;0.5;5;0.08
e4;1;0;0.571429;0;0;0;1.75;0
e6;1;0;0.571429;2192;0.4384;0;1.75;0.43
e4;1;0.142857;0.428571;673;0.1346;0.25;1.75;0.13
e6;1;0.142857;0.428571;1861;0.3722;0.25;1.75;0.37
e4;1;0.0571429;0.514286;265;0.053;0.1;1.75;0.05
e6;1;0.0571429;0.514286;1999;0.3998;0.1;1.75;0.43
e4;1;0.428571;0.142857;1797;0.3594;0.75;1.75;0.36
e6;1;0.428571;0.142857;674;0.1348;0.75;1.75;0.13
e4;1;0.571429;0;2251;0.4502;1;1.75;0.45
e6;1;0.571429;0;0;0;1;1.75;0
e4;1;0.285714;0.285714;1284;0.2568;0.5;1.75;0.25
e6;1;0.285714;0.285714;1229;0.2458;0.5;1.75;0.24
e4;1;0;0.285714;0;0;0;3.5;0
e6;1;0;0.285714;1251;0.2502;0;3.5;0.25
e4;1;0.0714286;0.214286;340;0.068;0.25;3.5;0.06
e6;1;0.0714286;0.214286;981;0.1962;0.25;3.5;0.19
e4;1;0.0285714;0.257143;143;0.0286;0.1;3.5;0.02
e6;1;0.0285714;0.257143;1167;0.2334;0.1;3.5;0.23
e4;1;0.214286;0.0714286;883;0.1766;0.75;3.5;0.17
e6;1;0.214286;0.0714286;311;0.0622;0.75;3.5;0.06
e4;1;0.285714;0;1265;0.253;1;3.5;0.25
e6;1;0.285714;0;0;0;1;3.5;0
e4;1;0.142857;0.142857;664;0.1328;0.5;3.5;0.13
e6;1;0.142857;0.142857;638;0.1276;0.5;3.5;0.12
e4;1;0;0.222222;0;0;0;4.5;0
e6;1;0;0.222222;1005;0.201;0;4.5;0.2
e4;1;0.0555556;0.166667;218;0.0436;0.25;4.5;0.04
e6;1;0.0555556;0.166667;704;0.1408;0.25;4.5;0.14
e4;1;0.0222222;0.2;89;0.0178;0.1;4.5;0.01
e6;1;0.0222222;0.2;840;0.168;0.1;4.5;0.16
e4;1;0.166667;0.0555556;757;0.1514;0.75;4.5;0.15
e6;1;0.166667;0.0555556;219;0.0438;0.75;4.5;0.04
e4;1;0.222222;0;980;0.196;1;4.5;0.19
e6;1;0.222222;0;0;0;1;4.5;0
e4;1;0.111111;0.111111;480;0.096;0.5;4.5;0.09
e6;1;0.111111;0.111111;483;0.0966;0.5;4.5;0.09
e4;1;0;0.666667;0;0;0;1.5;0
e6;1;0;0.666667;2049;0.4098;0;1.5;0.41
e4;1;0.166667;0.5;698;0.1396;0.25;1.5;0.13
e6;1;0.166667;0.5;2203;0.4406;0.25;1.5;0.4
e4;1;0.0666667;0.6;284;0.0568;0.1;1.5;0.05
e6;1;0.0666667;0.6;2194;0.4388;0.1;1.5;0.44
e4;1;0.5;0.166667;2139;0.4278;0.75;1.5;0.44
e6;1;0.5;0.166667;735;0.147;0.75;1.5;0.14
e4;1;0.666667;0;2197;0.4394;1;1.5;0.44
e6;1;0.666667;0;0;0;1;1.5;0
e4;1;0.333333;0.333333;1493;0.2986;0.5;1.5;0.29
e6;1;0.333333;0.333333;1451;0.2902;0.5;1.5;0.29
e4;1;0;0.4;0;0;0;2.5;0
e6;1;0;0.4;1733;0.3466;0;2.5;0.34
e4;1;0.1;0.3;411;0.0822;0.25;2.5;0.08
e6;1;0.1;0.3;1267;0.2534;0.25;2.5;0.25
e4;1;0.04;0.36;188;0.0376;0.1;2.5;0.03
e6;1;0.04;0.36;1557;0.3114;0.1;2.5;0.31
e4;1;0.3;0.1;1386;0.2772;0.75;2.5;0.27
e6;1;0.3;0.1;438;0.0876;0.75;2.5;0.08
e4;1;0.4;0;1723;0.3446;1;2.5;0.34
e6;1;0.4;0;0;0;1;2.5;0
e4;1;0.2;0.2;854;0.1708;0.5;2.5;0.17
e6;1;0.2;0.2;867;0.1734;0.5;2.5;0.17
e4;0.75;0;1;0;0;0;0.75;0
e6;0.75;0;1;1693;0.3386;0;0.75;0.31
e4;0.75;0.25;0.75;1089;0.2178;0.25;0.75;0.21
e6;0.75;0.25;0.75;1603;0.3206;0.25;0.75;0.33
e4;0.75;0.1;0.9;452;0.0904;0.1;0.75;0.09
e6;0.75;0.1;0.9;1538;0.3076;0.1;0.75;0.32
e4;0.75;0.75;0.25;1696;0.3392;0.75;0.75;0.33
e6;0.75;0.75;0.25;1074;0.2148;0.75;0.75;0.21
e4;0.75;1;0;1469;0.2938;1;0.75;0.35
e6;0.75;1;0;0;0;1;0.75;0
e4;0.75;0.5;0.5;1699;0.3398;0.5;0.75;0.33
e6;0.75;0.5;0.5;1560;0.312;0.5;0.75;0.31
