e4;0.1;0;1;0;0;0;0.1;1
e6;0.1;0;1;256;0.0512;0;0.1;1
e4;0.25;0;1;0;0;0;0.25;1
e6;0.25;0;1;498;0.0996;0;0.25;1
e4;0.5;0;1;0;0;0;0.5;1
e6;0.5;0;1;936;0.1872;0;0.5;1
e4;0.75;0;1;0;0;0;0.75;1
e6;0.75;0;1;1598;0.3196;0;0.75;1
e4;1;0;1;0;0;0;1;1
e6;1;0;1;2096;0.4192;0;1;1
e4;1;0;0.8;0;0;0;1.25;1
e6;1;0;0.8;2262;0.4524;0;1.25;1
e4;1;0;0.666667;0;0;0;1.5;1
e6;1;0;0.666667;2097;0.4194;0;1.5;1
e4;1;0;0.571429;0;0;0;1.75;1
e6;1;0;0.571429;2199;0.4398;0;1.75;1
e4;1;0;0.5;0;0;0;2;1
e6;1;0;0.5;2057;0.4114;0;2;1
e4;1;0;0.4;0;0;0;2.5;1
e6;1;0;0.4;1744;0.3488;0;2.5;1
e4;1;0;0.333333;0;0;0;3;1
e6;1;0;0.333333;1445;0.289;0;3;1
e4;1;0;0.285714;0;0;0;3.5;1
e6;1;0;0.285714;1252;0.2504;0;3.5;1
e4;1;0;0.25;0;0;0;4;1
e6;1;0;0.25;1113;0.2226;0;4;1
e4;1;0;0.222222;0;0;0;4.5;1
e6;1;0;0.222222;1005;0.201;0;4.5;1
e4;1;0;0.2;0;0;0;5;1
e6;1;0;0.2;854;0.1708;0;5;1
e4;0.1;0.1;0.9;217;0.0434;0.1;0.1;1
e6;0.1;0.1;0.9;197;0.0394;0.1;0.1;1
e4;0.25;0.1;0.9;428;0.0856;0.1;0.25;1
e6;0.25;0.1;0.9;503;0.1006;0.1;0.25;1
e4;0.5;0.1;0.9;440;0.088;0.1;0.5;1
e6;0.5;0.1;0.9;999;0.1998;0.1;0.5;1
e4;0.75;0.1;0.9;452;0.0904;0.1;0.75;1
e6;0.75;0.1;0.9;1638;0.3276;0.1;0.75;1
e4;1;0.1;0.9;458;0.0916;0.1;1;1
e6;1;0.1;0.9;2018;0.4036;0.1;1;1
e4;1;0.08;0.72;320;0.064;0.1;1.25;1
e6;1;0.08;0.72;2293;0.4586;0.1;1.25;1
e4;1;0.0666667;0.6;284;0.0568;0.1;1.5;1
e6;1;0.0666667;0.6;2248;0.4496;0.1;1.5;1
e4;1;0.0571429;0.514286;265;0.053;0.1;1.75;1
e6;1;0.0571429;0.514286;2183;0.4366;0.1;1.75;1
e4;1;0.05;0.45;218;0.0436;0.1;2;1
e6;1;0.05;0.45;2007;0.4014;0.1;2;1
e4;1;0.04;0.36;188;0.0376;0.1;2.5;1
e6;1;0.04;0.36;1557;0.3114;0.1;2.5;1
e4;1;0.0333333;0.3;137;0.0274;0.1;3;1
e6;1;0.0333333;0.3;1295;0.259;0.1;3;1
e4;1;0.0285714;0.257143;143;0.0286;0.1;3.5;1
e6;1;0.0285714;0.257143;1167;0.2334;0.1;3.5;1
e4;1;0.025;0.225;118;0.0236;0.1;4;1
e6;1;0.025;0.225;966;0.1932;0.1;4;1
e4;1;0.0222222;0.2;89;0.0178;0.1;4.5;1
e6;1;0.0222222;0.2;840;0.168;0.1;4.5;1
e4;1;0.02;0.18;101;0.0202;0.1;5;1
e6;1;0.02;0.18;775;0.155;0.1;5;1
e4;0.1;0.25;0.75;199;0.0398;0.25;0.1;1
e6;0.1;0.25;0.75;256;0.0512;0.25;0.1;1
e4;0.25;0.25;0.75;590;0.118;0.25;0.25;1
e6;0.25;0.25;0.75;503;0.1006;0.25;0.25;1
e4;0.5;0.25;0.75;1092;0.2184;0.25;0.5;1
e6;0.5;0.25;0.75;1094;0.2188;0.25;0.5;1
e4;0.75;0.25;0.75;1089;0.2178;0.25;0.75;1
e6;0.75;0.25;0.75;1683;0.3366;0.25;0.75;1
e4;1;0.25;0.75;1098;0.2196;0.25;1;1
e6;1;0.25;0.75;2109;0.4218;0.25;1;1
e4;1;0.2;0.6;944;0.1888;0.25;1.25;1
e6;1;0.2;0.6;2129;0.4258;0.25;1.25;1
e4;1;0.166667;0.5;698;0.1396;0.25;1.5;1
e6;1;0.166667;0.5;2042;0.4084;0.25;1.5;1
e4;1;0.142857;0.428571;672;0.1344;0.25;1.75;1
e6;1;0.142857;0.428571;1878;0.3756;0.25;1.75;1
e4;1;0.125;0.375;570;0.114;0.25;2;1
e6;1;0.125;0.375;1675;0.335;0.25;2;1
e4;1;0.1;0.3;411;0.0822;0.25;2.5;1
e6;1;0.1;0.3;1267;0.2534;0.25;2.5;1
e4;1;0.0833333;0.25;367;0.0734;0.25;3;1
e6;1;0.0833333;0.25;1076;0.2152;0.25;3;1
e4;1;0.0714286;0.214286;340;0.068;0.25;3.5;1
e6;1;0.0714286;0.214286;981;0.1962;0.25;3.5;1
e4;1;0.0625;0.1875;284;0.0568;0.25;4;1
e6;1;0.0625;0.1875;786;0.1572;0.25;4;1
e4;1;0.0555556;0.166667;218;0.0436;0.25;4.5;1
e6;1;0.0555556;0.166667;704;0.1408;0.25;4.5;1
e4;1;0.05;0.15;224;0.0448;0.25;5;1
e6;1;0.05;0.15;669;0.1338;0.25;5;1
e4;0.1;0.5;0.5;263;0.0526;0.5;0.1;1
e6;0.1;0.5;0.5;198;0.0396;0.5;0.1;1
e4;0.25;0.5;0.5;608;0.1216;0.5;0.25;1
e6;0.25;0.5;0.5;499;0.0998;0.5;0.25;1
e4;0.5;0.5;0.5;1155;0.231;0.5;0.5;1
e6;0.5;0.5;0.5;1098;0.2196;0.5;0.5;1
e4;0.75;0.5;0.5;1679;0.3358;0.5;0.75;1
e6;0.75;0.5;0.5;1595;0.319;0.5;0.75;1
e4;1;0.5;0.5;2095;0.419;0.5;1;1
e6;1;0.5;0.5;2162;0.4324;0.5;1;1
e4;1;0.4;0.4;1715;0.343;0.5;1.25;1
e6;1;0.4;0.4;1797;0.3594;0.5;1.25;1
e4;1;0.333333;0.333333;1493;0.2986;0.5;1.5;1
e6;1;0.333333;0.333333;1451;0.2902;0.5;1.5;1
e4;1;0.285714;0.285714;1284;0.2568;0.5;1.75;1
e6;1;0.285714;0.285714;1229;0.2458;0.5;1.75;1
e4;1;0.25;0.25;1100;0.22;0.5;2;1
e6;1;0.25;0.25;1057;0.2114;0.5;2;1
e4;1;0.2;0.2;853;0.1706;0.5;2.5;1
e6;1;0.2;0.2;867;0.1734;0.5;2.5;1
e4;1;0.166667;0.166667;686;0.1372;0.5;3;1
e6;1;0.166667;0.166667;755;0.151;0.5;3;1
e4;1;0.142857;0.142857;664;0.1328;0.5;3.5;1
e6;1;0.142857;0.142857;639;0.1278;0.5;3.5;1
e4;1;0.125;0.125;532;0.1064;0.5;4;1
e6;1;0.125;0.125;533;0.1066;0.5;4;1
e4;1;0.111111;0.111111;480;0.096;0.5;4.5;1
e6;1;0.111111;0.111111;483;0.0966;0.5;4.5;1
e4;1;0.1;0.1;459;0.0918;0.5;5;1
e6;1;0.1;0.1;427;0.0854;0.5;5;1
e4;0.1;0.75;0.25;196;0.0392;0.75;0.1;1
e6;0.1;0.75;0.25;191;0.0382;0.75;0.1;1
e4;0.25;0.75;0.25;521;0.1042;0.75;0.25;1
e6;0.25;0.75;0.25;527;0.1054;0.75;0.25;1
e4;0.5;0.75;0.25;1051;0.2102;0.75;0.5;1
e6;0.5;0.75;0.25;1074;0.2148;0.75;0.5;1
e4;0.75;0.75;0.25;1696;0.3392;0.75;0.75;1
e6;0.75;0.75;0.25;1076;0.2152;0.75;0.75;1
e4;1;0.75;0.25;2156;0.4312;0.75;1;1
e6;1;0.75;0.25;1077;0.2154;0.75;1;1
e4;1;0.6;0.2;2155;0.431;0.75;1.25;1
e6;1;0.6;0.2;887;0.1774;0.75;1.25;1
e4;1;0.5;0.166667;2239;0.4478;0.75;1.5;1
e6;1;0.5;0.166667;735;0.147;0.75;1.5;1
e4;1;0.428571;0.142857;1830;0.366;0.75;1.75;1
e6;1;0.428571;0.142857;674;0.1348;0.75;1.75;1
e4;1;0.375;0.125;1652;0.3304;0.75;2;1
e6;1;0.375;0.125;530;0.106;0.75;2;1
e4;1;0.3;0.1;1386;0.2772;0.75;2.5;1
e6;1;0.3;0.1;438;0.0876;0.75;2.5;1
e4;1;0.25;0.0833333;1110;0.222;0.75;3;1
e6;1;0.25;0.0833333;369;0.0738;0.75;3;1
e4;1;0.214286;0.0714286;883;0.1766;0.75;3.5;1
e6;1;0.214286;0.0714286;311;0.0622;0.75;3.5;1
e4;1;0.1875;0.0625;782;0.1564;0.75;4;1
e6;1;0.1875;0.0625;270;0.054;0.75;4;1
e4;1;0.166667;0.0555556;757;0.1514;0.75;4.5;1
e6;1;0.166667;0.0555556;219;0.0438;0.75;4.5;1
e4;1;0.15;0.05;663;0.1326;0.75;5;1
e6;1;0.15;0.05;197;0.0394;0.75;5;1
e4;0.1;1;0;219;0.0438;1;0.1;1
e6;0.1;1;0;0;0;1;0.1;1
e4;0.25;1;0;544;0.1088;1;0.25;1
e6;0.25;1;0;0;0;1;0.25;1
e4;0.5;1;0;1157;0.2314;1;0.5;1
e6;0.5;1;0;0;0;1;0.5;1
e4;0.75;1;0;1772;0.3544;1;0.75;1
e6;0.75;1;0;0;0;1;0.75;1
e4;1;1;0;2098;0.4196;1;1;1
e6;1;1;0;0;0;1;1;1
e4;1;0.8;0;1998;0.3996;1;1.25;1
e6;1;0.8;0;0;0;1;1.25;1
e4;1;0.666667;0;2201;0.4402;1;1.5;1
e6;1;0.666667;0;0;0;1;1.5;1
e4;1;0.571429;0;2254;0.4508;1;1.75;1
e6;1;0.571429;0;0;0;1;1.75;1
e4;1;0.5;0;2069;0.4138;1;2;1
e6;1;0.5;0;0;0;1;2;1
e4;1;0.4;0;1732;0.3464;1;2.5;1
e6;1;0.4;0;0;0;1;2.5;1
e4;1;0.333333;0;1440;0.288;1;3;1
e6;1;0.333333;0;0;0;1;3;1
e4;1;0.285714;0;1264;0.2528;1;3.5;1
e6;1;0.285714;0;0;0;1;3.5;1
e4;1;0.25;0;1125;0.225;1;4;1
e6;1;0.25;0;0;0;1;4;1
e4;1;0.222222;0;980;0.196;1;4.5;1
e6;1;0.222222;0;0;0;1;4.5;1
e4;1;0.2;0;883;0.1766;1;5;1
e6;1;0.2;0;0;0;1;5;1
