1 RR d2 3521 318.763 0.7042
1 RR d3 3528 315.318 0.7056
1 RR d1 1444 252.639 0.28881
1 MCF d2 0 0 0
1 MCF d3 3640 299.069 0.728
1 MCF d1 3571 255.858 0.7142
1 MMF d2 2301 324.758 0.4602
1 MMF d3 2388 361.861 0.4776
1 MMF d1 2313 261.703 0.4626
2 RR d2 2094 311.475 0.4188
2 RR d3 2152 313.586 0.4304
2 RR d1 2114 267.249 0.4228
2 MCF d2 0 0 0
2 MCF d3 4202 311.133 0.8404
2 MCF d1 4254 266.201 0.8508
2 MMF d2 2043 324.714 0.4086
2 MMF d3 2071 354.995 0.4142
2 MMF d1 2112 324.423 0.4224
3 RR d2 3530 318.476 0.706
3 RR d3 3528 315.33 0.7056
3 RR d1 1438 252.566 0.2876
3 MCF d2 0 0 0
3 MCF d3 3539 299.384 0.7078
3 MCF d1 3656 256.483 0.7312
3 MMF d2 2111 316.991 0.4222
3 MMF d3 2130 306.261 0.426
3 MMF d1 2395 262.954 0.479
