d2;RR;infinite;0.0;global;143945;24060.685748;0.479818266061
d3;RR;infinite;0.0;global;97418;27083.1705948;0.324727749092
d1;RR;infinite;0.0;global;124252;20308.3244857;0.414174713916
d2;RR;infinite;0.0;local;143945;24060.685748;0.479818266061
d3;RR;infinite;0.0;local;97418;27083.1705948;0.324727749092
d1;RR;infinite;0.0;local;124252;20308.3244857;0.414174713916
d2;RR;infinite;0.05;global;122145;27040.9218388;0.407151357171
d3;RR;infinite;0.05;global;75318;30115.5670756;0.251060836869
d1;RR;infinite;0.05;global;105503;21168.1206885;0.351677838926
d2;RR;infinite;0.05;local;136129;25052.8040388;0.453764845883
d3;RR;infinite;0.05;local;91812;28253.7569925;0.306041020137
d1;RR;infinite;0.05;local;117937;21065.052952;0.393124643749
d2;RR;infinite;0.1;global;101199;30595.4315359;0.337331124437
d3;RR;infinite;0.1;global;57718;33463.3229149;0.192393974647
d1;RR;infinite;0.1;global;89337;22045.2774438;0.297790992637
d2;RR;infinite;0.1;local;128156;26954.0436967;0.427188090627
d3;RR;infinite;0.1;local;86444;29529.360453;0.288147627159
d1;RR;infinite;0.1;local;111269;21909.2616991;0.370897902993
d2;RR;infinite;0.15;global;83390;35456.9304113;0.277967593225
d3;RR;infinite;0.15;global;43876;37073.7950588;0.146253820846
d1;RR;infinite;0.15;global;75042;23034.0883772;0.250140833803
d2;RR;infinite;0.15;local;120690;28082.1701964;0.402301341004
d3;RR;infinite;0.15;local;81040;30944.9809847;0.270134233781
d1;RR;infinite;0.15;local;104930;22851.0333365;0.349767832559
d2;RR;infinite;0.2;global;65789;40991.2860357;0.219297397658
d3;RR;infinite;0.2;global;32763;41067.4406495;0.109210364035
d1;RR;infinite;0.2;global;62803;24153.7797876;0.209344031147
d2;RR;infinite;0.2;local;112594;29077.4403165;0.375314584382
d3;RR;infinite;0.2;local;75616;32589.4745821;0.252054173514
d1;RR;infinite;0.2;local;98545;23895.2519965;0.328484428281
d2;RR;infinite;0.25;global;50229;46987.7489896;0.167430558102
d3;RR;infinite;0.25;global;24101;45850.8141986;0.0803369344564
d1;RR;infinite;0.25;global;52141;25319.4419171;0.17380391268
d2;RR;infinite;0.25;local;104787;30684.7987918;0.349291164304
d3;RR;infinite;0.25;local;70297;34360.8182995;0.234324114414
d1;RR;infinite;0.25;local;91964;25120.0647101;0.306547688492
d2;RR;infinite;0.3;global;37992;54075.098705;0.126640422135
d3;RR;infinite;0.3;global;17185;50445.3682281;0.0572835242784
d1;RR;infinite;0.3;global;42020;26354.9151119;0.140067133557
d2;RR;infinite;0.3;local;97400;32466.2886242;0.324667748892
d3;RR;infinite;0.3;local;65050;36444.3731745;0.216834056114
d1;RR;infinite;0.3;local;85320;26400.6832044;0.284400948003
d2;RR;infinite;0.35;global;28571;62188.066886;0.0952369841233
d3;RR;infinite;0.35;global;12140;56586.442916;0.040466801556
d1;RR;infinite;0.35;global;33482;27386.0520578;0.11160703869
d2;RR;infinite;0.35;local;89419;34180.6729107;0.298064326881
d3;RR;infinite;0.35;local;59560;38850.2252686;0.198533995113
d1;RR;infinite;0.35;local;78883;27914.5585487;0.262944209814
d2;RR;infinite;0.4;global;20807;72322.8683135;0.0693568978563
d3;RR;infinite;0.4;global;8342;63249.7746344;0.0278067593559
d1;RR;infinite;0.4;global;26470;28728.224405;0.0882336274454
d2;RR;infinite;0.4;local;81870;37145.3096861;0.27290090967
d3;RR;infinite;0.4;local;54504;41490.3172428;0.181680605602
d1;RR;infinite;0.4;local;72430;29654.8577109;0.241434138114
d2;RR;infinite;0.45;global;14913;83357.9455509;0.0497101657006
d3;RR;infinite;0.45;global;5523;70403.4055767;0.0184100613669
d1;RR;infinite;0.45;global;20984;29958.4922322;0.069946899823
d2;RR;infinite;0.45;local;74166;40323.3229782;0.247220824069
d3;RR;infinite;0.45;local;49032;44771.0574115;0.163440544802
d1;RR;infinite;0.45;local;65590;32519.5026833;0.218634062114
d2;RR;infinite;0.5;global;10618;96125.5475607;0.0353934513115
d3;RR;infinite;0.5;global;3654;79313.9573071;0.0121800406001
d1;RR;infinite;0.5;global;16059;31808.0796438;0.0535301784339
d2;RR;infinite;0.5;local;66385;44046.1883106;0.221284070947
d3;RR;infinite;0.5;local;44021;48565.559801;0.146737155791
d1;RR;infinite;0.5;local;59638;35978.8100875;0.19879399598
d2;RR;infinite;0.55;global;7286;108018.770793;0.0242867476225
d3;RR;infinite;0.55;global;2277;90606.7773386;0.00759002530008
d1;RR;infinite;0.55;global;12208;34015.7129751;0.0406934689782
d2;RR;infinite;0.55;local;58631;49322.9747062;0.195437318124
d3;RR;infinite;0.55;local;38688;53074.8187552;0.128960429868
d1;RR;infinite;0.55;local;52510;39685.0389831;0.17503391678
d2;RR;infinite;0.6;global;4890;124450.67137;0.0163000543335
d3;RR;infinite;0.6;global;1333;101659.819205;0.00444334814449
d1;RR;infinite;0.6;global;9201;36798.0984676;0.0306701022337
d2;RR;infinite;0.6;local;51463;54589.2202748;0.171543905146
d3;RR;infinite;0.6;local;33500;58685.0661194;0.11166703889
d1;RR;infinite;0.6;local;46016;43909.951908;0.153387177957
d2;RR;infinite;0.65;global;3186;134800.605775;0.0106200354001
d3;RR;infinite;0.65;global;669;113361.095665;0.00223000743336
d1;RR;infinite;0.65;global;6566;40429.8192202;0.0218867396225
d2;RR;infinite;0.65;local;43882;60867.6192516;0.146273820913
d3;RR;infinite;0.65;local;28618;65673.3238521;0.0953936513122
d1;RR;infinite;0.65;local;39727;48496.4740605;0.132423774746
d2;RR;infinite;0.7;global;1887;139174.841017;0.00629002096674
d3;RR;infinite;0.7;global;333;117718.72973;0.00111000370001
d1;RR;infinite;0.7;global;4483;45791.9025206;0.0149433831446
d2;RR;infinite;0.7;local;36189;67514.9662881;0.120630402101
d3;RR;infinite;0.7;local;23245;75220.7000645;0.077483591612
d1;RR;infinite;0.7;local;32888;54285.3107212;0.10962703209
d2;RR;infinite;0.75;global;998;149729.559118;0.00332667775559
d3;RR;infinite;0.75;global;156;136999.391026;0.000520001733339
d1;RR;infinite;0.75;global;3044;53944.6540736;0.010146700489
d2;RR;infinite;0.75;local;28799;75801.9956596;0.0959969866566
d3;RR;infinite;0.75;local;18000;87768.4522222;0.0600002000007
d1;RR;infinite;0.75;local;26330;61277.6528295;0.0877669592232
d2;MCF;infinite;0.0;global;193712;21401.0121624;0.645708819029
d3;MCF;infinite;0.0;global;35146;27722.3048427;0.117153723846
d1;MCF;infinite;0.0;global;238149;14840.5550223;0.793832646109
d2;MCF;infinite;0.0;local;193723;21398.6957099;0.645745485818
d3;MCF;infinite;0.0;local;35107;27597.3857066;0.117023723412
d1;MCF;infinite;0.0;local;238161;14844.9675598;0.793872646242
d2;MCF;infinite;0.05;global;163138;23917.3751303;0.543795145984
d3;MCF;infinite;0.05;global;0;0;0.0
d1;MCF;infinite;0.05;global;240218;16013.3516431;0.800729335764
d2;MCF;infinite;0.05;local;183075;22428.8675734;0.610252034173
d3;MCF;infinite;0.05;local;33181;28755.7410566;0.110603702012
d1;MCF;infinite;0.05;local;225905;15647.7599788;0.753019176731
d2;MCF;infinite;0.1;global;127997;27445.1997859;0.42665808886
d3;MCF;infinite;0.1;global;0;0;0.0
d1;MCF;infinite;0.1;global;210447;17194.0425713;0.701492338308
d2;MCF;infinite;0.1;local;172870;23788.1672644;0.576235254118
d3;MCF;infinite;0.1;local;31413;30487.2152612;0.104710349034
d1;MCF;infinite;0.1;local;213367;16387.0523886;0.711225704086
d2;MCF;infinite;0.15;global;105694;31275.2985411;0.352314507715
d3;MCF;infinite;0.15;global;0;0;0.0
d1;MCF;infinite;0.15;global;182294;18535.5948962;0.607648692162
d2;MCF;infinite;0.15;local;187220;26883.5291315;0.624068746896
d3;MCF;infinite;0.15;local;12888;37596.0509777;0.0429601432005
d1;MCF;infinite;0.15;local;191001;17854.187931;0.63667212224
d2;MCF;infinite;0.2;global;91353;36462.7948289;0.304511015037
d3;MCF;infinite;0.2;global;0;0;0.0
d1;MCF;infinite;0.2;global;156715;20096.2639952;0.522385074617
d2;MCF;infinite;0.2;local;151405;26176.5510386;0.504685015617
d3;MCF;infinite;0.2;local;27498;32737.8507164;0.0916603055344
d1;MCF;infinite;0.2;local;188815;18004.0668114;0.629385431285
d2;MCF;infinite;0.25;global;70802;41924.2030734;0.236007453358
d3;MCF;infinite;0.25;global;0;0;0.0
d1;MCF;infinite;0.25;global;135269;21736.6629309;0.450898169661
d2;MCF;infinite;0.25;local;141663;29224.8883971;0.472211574039
d3;MCF;infinite;0.25;local;25632;33843.6940153;0.0854402848009
d1;MCF;infinite;0.25;local;177145;18727.4863756;0.590485301618
d2;MCF;infinite;0.3;global;52318;50599.1859207;0.174393914646
d3;MCF;infinite;0.3;global;0;0;0.0
d1;MCF;infinite;0.3;global;114751;23800.30642;0.382504608349
d2;MCF;infinite;0.3;local;131106;32143.7829314;0.437021456738
d3;MCF;infinite;0.3;local;23743;36478.9529124;0.0791435971453
d1;MCF;infinite;0.3;local;164367;19769.9612331;0.547891826306
d2;MCF;infinite;0.35;global;35823;62511.9763001;0.119410398035
d3;MCF;infinite;0.35;global;0;0;0.0
d1;MCF;infinite;0.35;global;96875;26165.9054865;0.322917743059
d2;MCF;infinite;0.35;local;120607;35632.1056075;0.402024673416
d3;MCF;infinite;0.35;local;21960;38135.5870674;0.0732002440008
d1;MCF;infinite;0.35;local;151803;20579.1463015;0.506011686706
d2;MCF;infinite;0.4;global;30467;65561.5026422;0.10155700519
d3;MCF;infinite;0.4;global;0;0;0.0
d1;MCF;infinite;0.4;global;82387;28565.3799993;0.274624248747
d2;MCF;infinite;0.4;local;127157;40637.4062694;0.423858079527
d3;MCF;infinite;0.4;local;8634;47872.0388001;0.0287800959337
d1;MCF;infinite;0.4;local;131969;22990.1004175;0.439898132994
d2;MCF;infinite;0.45;global;21132;78118.2219383;0.0704402348008
d3;MCF;infinite;0.45;global;0;0;0.0
d1;MCF;infinite;0.45;global;67584;31239.2891957;0.225280750936
d2;MCF;infinite;0.45;local;100914;41141.2503221;0.33638112127
d3;MCF;infinite;0.45;local;18099;43231.7923642;0.0603302011007
d1;MCF;infinite;0.45;local;126794;23309.140606;0.422648075494
d2;MCF;infinite;0.5;global;14111;92107.8919991;0.0470368234561
d3;MCF;infinite;0.5;global;0;0;0.0
d1;MCF;infinite;0.5;global;54242;34484.2586003;0.180807269358
d2;MCF;infinite;0.5;local;90279;45047.8242005;0.300931003103
d3;MCF;infinite;0.5;local;16294;48703.4966245;0.0543135143784
d1;MCF;infinite;0.5;local;115286;25431.1452475;0.384287947626
d2;MCF;infinite;0.55;global;9791;103459.93014;0.0326367754559
d3;MCF;infinite;0.55;global;0;0;0.0
d1;MCF;infinite;0.55;global;42742;38532.5758505;0.142473808246
d2;MCF;infinite;0.55;local;80379;48173.4767788;0.267930893103
d3;MCF;infinite;0.55;local;14355;57599.2906304;0.0478501595005
d1;MCF;infinite;0.55;local;102291;28538.3108778;0.34097113657
d2;MCF;infinite;0.6;global;6519;115453.188066;0.0217300724336
d3;MCF;infinite;0.6;global;0;0;0.0
d1;MCF;infinite;0.6;global;32894;42881.872834;0.109647032157
d2;MCF;infinite;0.6;local;69379;52406.3322475;0.231264104214
d3;MCF;infinite;0.6;local;12542;63420.850582;0.0418068060227
d1;MCF;infinite;0.6;local;90586;32222.1579494;0.301954339848
d2;MCF;infinite;0.65;global;4286;126893.750817;0.014286714289
d3;MCF;infinite;0.65;global;0;0;0.0
d1;MCF;infinite;0.65;global;24822;49087.3314801;0.0827402758009
d2;MCF;infinite;0.65;local;59835;56838.4944096;0.199450664836
d3;MCF;infinite;0.65;local;10681;70905.7062073;0.0356034520115
d1;MCF;infinite;0.65;local;77839;34670.2545254;0.259464198214
d2;MCF;infinite;0.7;global;2630;134933.919392;0.00876669588899
d3;MCF;infinite;0.7;global;0;0;0.0
d1;MCF;infinite;0.7;global;18006;56613.9216372;0.0600202000673
d2;MCF;infinite;0.7;local;56040;66985.6584761;0.186800622669
d3;MCF;infinite;0.7;local;3675;106243.171156;0.0122500408335
d1;MCF;infinite;0.7;local;62286;41281.8049642;0.207620692069
d2;MCF;infinite;0.75;global;1437;149150.922756;0.00479001596672
d3;MCF;infinite;0.75;global;0;0;0.0
d1;MCF;infinite;0.75;global;12146;66846.0013996;0.0404868016227
d2;MCF;infinite;0.75;local;39606;70193.6051861;0.132020440068
d3;MCF;infinite;0.75;local;6918;90700.2640937;0.0230600768669
d1;MCF;infinite;0.75;local;52719;45341.9995637;0.175730585769
d2;MMF;infinite;0.0;global;151949;19738.2122423;0.506498354995
d3;MMF;infinite;0.0;global;151471;26543.1409115;0.50490501635
d1;MMF;infinite;0.0;global;158120;15067.614508;0.527068423561
d2;MMF;infinite;0.0;local;151852;19719.4524339;0.506175020583
d3;MMF;infinite;0.0;local;151669;26485.6452472;0.50556501855
d1;MMF;infinite;0.0;local;158165;15078.2915373;0.527218424061
d2;MMF;infinite;0.05;global;130594;21902.0691762;0.435314784383
d3;MMF;infinite;0.05;global;123592;27915.0040537;0.411974706582
d1;MMF;infinite;0.05;global;135833;16487.0051755;0.452778175927
d2;MMF;infinite;0.05;local;143598;20347.7142579;0.478661595539
d3;MMF;infinite;0.05;local;144027;28001.259743;0.480091600305
d1;MMF;infinite;0.05;local;149766;15742.726954;0.499221664072
d2;MMF;infinite;0.1;global;111802;24793.9106277;0.372674575582
d3;MMF;infinite;0.1;global;98642;31814.7865615;0.328807762693
d1;MMF;infinite;0.1;global;115963;18048.7119857;0.386544621815
d2;MMF;infinite;0.1;local;134623;21194.6261189;0.448744829149
d3;MMF;infinite;0.1;local;133135;30202.7530702;0.443784812616
d1;MMF;infinite;0.1;local;144142;17829.0069307;0.480474934916
d2;MMF;infinite;0.15;global;95201;28415.186164;0.317337724459
d3;MMF;infinite;0.15;global;77032;38425.1434339;0.256774189247
d1;MMF;infinite;0.15;global;97336;18655.9535013;0.324454414848
d2;MMF;infinite;0.15;local;127139;22235.6544491;0.423798079327
d3;MMF;infinite;0.15;local;127359;31695.3882647;0.424531415105
d1;MMF;infinite;0.15;local;135180;16690.4866326;0.450601502005
d2;MMF;infinite;0.2;global;78297;33097.3242781;0.26099086997
d3;MMF;infinite;0.2;global;60953;45337.5923909;0.203177343924
d1;MMF;infinite;0.2;global;81213;19847.9994828;0.27071090237
d2;MMF;infinite;0.2;local;119433;23705.244656;0.398111327038
d3;MMF;infinite;0.2;local;118892;33100.1948491;0.396307987693
d1;MMF;infinite;0.2;local;125466;17659.6976631;0.418221394071
d2;MMF;infinite;0.25;global;61349;35714.8401115;0.204497348324
d3;MMF;infinite;0.25;global;46998;53399.1434104;0.156660522202
d1;MMF;infinite;0.25;global;67217;20377.8243897;0.224057413525
d2;MMF;infinite;0.25;local;111309;27768.4806799;0.371031236771
d3;MMF;infinite;0.25;local;111153;34392.9861722;0.370511235037
d1;MMF;infinite;0.25;local;116882;18632.0538577;0.38960796536
d2;MMF;infinite;0.3;global;43352;36879.4399797;0.144507148357
d3;MMF;infinite;0.3;global;36940;64534.1743368;0.123133743779
d1;MMF;infinite;0.3;global;52988;21913.5314411;0.176627255424
d2;MMF;infinite;0.3;local;102577;30345.9708609;0.341924473082
d3;MMF;infinite;0.3;local;98764;37633.2663825;0.329214430715
d1;MMF;infinite;0.3;local;111333;19467.6863823;0.371111237037
d2;MMF;infinite;0.35;global;35738;44218.6441603;0.119127063757
d3;MMF;infinite;0.35;global;27582;80632.5576825;0.0919403064677
d1;MMF;infinite;0.35;global;42555;22250.7009517;0.141850472835
d2;MMF;infinite;0.35;local;94681;33910.3925708;0.315604385348
d3;MMF;infinite;0.35;local;95070;38265.8321553;0.316901056337
d1;MMF;infinite;0.35;local;100748;20742.7328483;0.335827786093
d2;MMF;infinite;0.4;global;24072;51074.1850282;0.0802402674676
d3;MMF;infinite;0.4;global;19303;93149.6759571;0.0643435478118
d1;MMF;infinite;0.4;global;34505;25440.7606724;0.115017050057
d2;MMF;infinite;0.4;local;86667;36232.7899316;0.28889096297
d3;MMF;infinite;0.4;local;86142;42247.0415129;0.287140957137
d1;MMF;infinite;0.4;local;93895;21421.1532563;0.312984376615
d2;MMF;infinite;0.45;global;17471;57077.0578101;0.0582368607895
d3;MMF;infinite;0.45;global;13452;108171.497398;0.0448401494672
d1;MMF;infinite;0.45;global;25896;25131.2703892;0.0863202877343
d2;MMF;infinite;0.45;local;78618;39208.1097204;0.262060873536
d3;MMF;infinite;0.45;local;79080;40773.5479135;0.26360087867
d1;MMF;infinite;0.45;local;82251;30277.1732988;0.274170913903
d2;MMF;infinite;0.5;global;13689;69566.8308131;0.0456301521005
d3;MMF;infinite;0.5;global;8867;119440.709823;0.0295567651892
d1;MMF;infinite;0.5;global;20638;29565.6049036;0.0687935626452
d2;MMF;infinite;0.5;local;70695;41827.6462126;0.235650785503
d3;MMF;infinite;0.5;local;70598;46469.6920309;0.235327451092
d1;MMF;infinite;0.5;local;76254;28548.2888766;0.254180847269
d2;MMF;infinite;0.55;global;10836;53802.9272794;0.0361201204004
d3;MMF;infinite;0.55;global;5623;130888.5618;0.0187433958113
d1;MMF;infinite;0.55;global;15533;29655.3920041;0.0517768392561
d2;MMF;infinite;0.55;local;62625;45823.5898124;0.208750695836
d3;MMF;infinite;0.55;local;61995;52466.9810791;0.206650688836
d1;MMF;infinite;0.55;local;69423;28955.074399;0.231410771369
d2;MMF;infinite;0.6;global;10938;88175.5543061;0.0364601215337
d3;MMF;infinite;0.6;global;3326;138871.634997;0.0110867036223
d1;MMF;infinite;0.6;global;11563;32491.7840526;0.0385434618115
d2;MMF;infinite;0.6;local;53095;51187.4730954;0.17698392328
d3;MMF;infinite;0.6;local;50150;53059.1457228;0.167167223891
d1;MMF;infinite;0.6;local;57625;47319.6905857;0.192083973613
d2;MMF;infinite;0.65;global;6539;107999.170515;0.0217967393225
d3;MMF;infinite;0.65;global;1819;147432.682793;0.00606335354451
d1;MMF;infinite;0.65;global;8231;38925.2280403;0.0274367581225
d2;MMF;infinite;0.65;local;46413;54716.9594079;0.154710515702
d3;MMF;infinite;0.65;local;45484;64225.285441;0.151613838713
d1;MMF;infinite;0.65;local;50966;37297.0991053;0.169887232957
d2;MMF;infinite;0.7;global;4261;123343.609481;0.0142033806779
d3;MMF;infinite;0.7;global;1030;150921.345631;0.00343334477782
d1;MMF;infinite;0.7;global;5180;43935.6034749;0.0172667242224
d2;MMF;infinite;0.7;local;39641;59196.9694508;0.132137107124
d3;MMF;infinite;0.7;local;37475;71362.8188125;0.124917083057
d1;MMF;infinite;0.7;local;43058;42333.9316736;0.14352714509
d2;MMF;infinite;0.75;global;1173;138900.226769;0.00391001303338
d3;MMF;infinite;0.75;global;461;104053.872017;0.00153667178891
d1;MMF;infinite;0.75;global;3659;51407.0792566;0.0121967073224
d2;MMF;infinite;0.75;local;31237;68091.3013414;0.104123680412
d3;MMF;infinite;0.75;local;30041;80232.0086216;0.100137000457
d1;MMF;infinite;0.75;local;33486;56296.0558741;0.111620372068
