step;d2;d3;d1
1;0;0;0
2;0;0;0
3;0;0;0
4;0;0;0
5;0;0;0
6;0;0;0
7;0;0;0
8;0;0;0
9;0;0;0
10;0;0;0
11;0;0;0
12;0;0;0
13;0;0;0
14;0;0;0
15;0;0;0
16;0;0;0
17;0;0;0
18;0;0;0
19;0;0;0
20;0;0;0
21;0;0;0
22;0;0;0
23;0;0;0
24;0;0;0
25;0;0;0
26;0;0;0
27;0;0;0
28;0;0;0
29;0;0;0
30;0;0;0
31;0;0;0
32;0;0;0
33;0;0;0
34;0;0;0
35;0;0;0
36;0;0;0
37;0;0;0
38;0;0;0
39;0;0;0
40;0;0;0
41;0;0;0
42;0;0;0
43;0;0;0
44;0;0;0
45;0;0;0
46;0;0;0
47;0;0;0
48;0;0;0
49;0;0;0
50;0;0;0
51;0;0;0
52;0;0;0
53;0;0;0
54;0;0;0
55;0;0;0
56;0;0;0
57;0;0;0
58;0;0;0
59;0;0;0
60;0;0;0
61;0;0;0
62;0;0;0
63;0;0;0
64;0;0;0
65;0;0;0
66;0;0;0
67;0;0;0
68;0;0;0
69;0;0;0
70;0;0;0
71;0;0;0
72;0;0;0
73;0;1;0
74;0;0;0
75;0;1;0
76;0;1;0
77;0;0;0
78;1;1;0
79;0;1;0
80;1;1;0
81;0;0;1
82;0;0;0
83;0;0;0
84;1;0;0
85;1;0;0
86;0;1;0
87;0;1;1
88;0;1;0
89;1;1;1
90;0;1;2
91;1;1;1
92;1;0;1
93;1;1;1
94;0;1;1
95;0;1;1
96;1;1;0
97;0;0;0
98;1;0;1
99;0;0;2
100;2;0;1
101;1;0;1
102;1;0;0
103;0;1;1
104;0;0;1
105;0;0;0
106;0;0;1
107;1;0;0
108;0;0;0
109;0;0;1
110;1;0;1
111;0;0;1
112;1;1;1
113;1;1;1
114;3;1;1
115;2;2;1
116;1;3;1
117;1;3;0
118;0;3;1
119;0;2;0
120;0;2;0
121;1;2;0
122;0;1;1
123;1;1;0
124;1;0;0
125;0;0;0
126;0;0;0
127;0;1;1
128;1;0;0
129;2;0;0
130;1;0;0
131;0;1;1
132;0;0;0
133;0;1;1
134;0;1;0
135;1;0;0
136;0;1;1
137;0;1;0
138;0;1;0
139;2;1;0
140;1;0;0
141;1;0;0
142;1;1;1
143;1;1;0
144;1;1;0
145;0;0;0
146;0;1;0
147;0;0;1
148;0;1;0
149;1;0;1
150;0;1;1
151;1;1;0
152;2;1;1
153;1;1;2
154;2;1;1
155;1;1;1
156;1;1;0
157;1;2;1
158;2;2;0
159;1;2;1
160;1;2;1
161;1;2;2
162;1;3;2
163;1;3;2
164;2;2;2
165;1;2;2
166;2;1;1
167;2;1;1
168;2;0;0
169;1;0;2
170;2;1;1
171;1;1;2
172;1;2;1
173;0;2;1
174;1;2;0
175;0;1;0
176;0;1;0
177;1;2;1
178;1;1;1
179;1;0;1
180;1;1;2
181;1;0;1
182;1;1;2
183;2;2;1
184;1;2;2
185;2;1;1
186;1;1;1
187;1;1;1
188;0;0;1
189;2;1;0
190;1;1;1
191;1;1;0
192;0;0;1
193;0;0;1
194;0;0;2
195;0;0;2
196;2;1;1
197;2;1;1
198;1;1;3
199;1;1;3
200;0;1;3
201;0;1;3
202;1;1;2
203;1;0;2
204;0;1;3
205;0;0;2
206;0;0;1
207;0;1;2
208;0;0;1
209;1;0;1
210;1;0;2
211;1;0;2
212;2;1;2
213;1;1;3
214;1;1;2
215;1;0;3
216;1;0;3
217;0;0;4
218;1;0;3
219;1;0;3
220;1;1;3
221;1;1;3
222;1;1;2
223;0;1;2
224;0;1;1
225;1;1;0
226;1;1;1
227;0;0;2
228;1;0;1
229;0;1;1
230;1;0;0
231;0;1;1
232;1;0;0
233;0;0;1
234;1;0;0
235;0;0;0
236;0;0;0
237;1;1;1
238;1;0;0
239;0;0;0
240;1;0;1
241;1;1;0
242;0;0;1
243;1;0;0
244;1;0;1
245;1;0;1
246;0;0;1
247;1;1;0
248;1;1;0
249;1;1;1
250;1;0;1
251;2;1;1
252;1;0;1
253;2;1;0
254;1;1;0
255;1;1;1
256;1;0;1
257;2;0;1
258;2;0;0
259;1;0;1
260;2;0;0
261;2;0;0
262;1;1;0
263;0;0;1
264;0;0;0
265;1;0;0
266;0;0;0
267;0;1;0
268;0;1;0
269;0;0;1
270;1;0;1
271;0;0;1
272;0;0;1
273;0;0;1
274;0;0;1
275;1;0;0
276;0;1;0
277;2;1;0
278;2;1;1
279;1;1;1
280;2;1;1
281;2;0;1
282;2;0;2
283;3;1;2
284;3;0;2
285;2;1;2
286;2;0;1
287;2;0;1
288;2;0;1
289;3;0;1
290;2;0;1
291;2;0;1
292;2;1;1
293;2;1;0
294;1;0;1
295;1;0;1
296;1;1;1
297;1;1;1
298;1;1;1
299;1;1;0
300;1;1;1
301;1;1;0
302;2;1;1
303;1;1;2
304;1;1;1
305;1;1;2
306;1;1;1
307;0;1;2
308;1;1;1
309;0;1;2
310;0;0;1
311;0;1;1
312;1;1;0
313;0;1;1
314;0;1;0
315;0;1;0
316;1;0;0
317;1;0;0
318;0;1;0
319;1;1;1
320;1;0;0
321;1;1;1
322;1;1;1
323;1;1;0
324;1;0;0
325;0;2;0
326;0;3;1
327;1;3;1
328;0;3;1
329;0;2;0
330;1;2;0
331;1;1;1
332;1;1;0
333;0;1;1
334;0;2;1
335;0;2;1
336;1;2;1
337;2;3;1
338;1;3;1
339;0;3;2
340;0;2;1
341;1;2;1
342;1;2;1
343;1;1;1
344;1;0;1
345;1;1;0
346;1;1;0
347;0;1;1
348;0;1;1
349;0;1;1
350;1;1;0
351;1;0;1
352;1;1;1
353;1;1;0
354;0;1;0
355;1;1;1
356;1;1;0
357;1;1;1
358;0;1;1
359;1;0;1
360;0;0;1
361;1;0;1
362;1;0;1
363;1;1;1
364;1;1;1
365;1;0;0
366;1;1;1
367;1;2;1
368;1;2;1
369;1;2;1
370;1;2;1
371;1;2;1
372;2;2;1
373;1;1;2
374;2;2;1
375;1;3;1
376;1;2;1
377;0;2;1
378;1;2;2
379;1;1;2
380;1;1;2
381;1;0;2
382;0;1;2
383;1;1;2
384;1;0;2
385;1;1;2
386;1;1;2
387;1;1;2
388;1;1;2
389;1;2;1
390;0;1;2
391;0;2;2
392;0;2;1
393;1;2;0
394;1;1;0
395;0;1;1
396;1;1;0
397;0;1;1
398;0;0;0
399;1;0;0
400;0;0;0
401;1;2;1
402;1;2;0
403;0;1;0
404;1;1;1
405;1;2;0
406;2;2;0
407;1;2;1
408;1;1;2
409;2;1;2
410;3;0;1
411;3;0;2
412;3;1;2
413;3;1;2
414;3;0;2
415;2;0;2
416;2;0;2
417;2;0;2
418;2;1;2
419;2;1;3
420;3;2;2
421;2;1;2
422;2;1;2
423;1;1;2
424;2;1;2
425;2;1;2
426;2;0;3
427;2;0;3
428;3;0;3
429;2;0;3
430;3;0;2
431;2;1;3
432;3;1;2
433;2;1;2
434;2;1;2
435;2;1;3
436;3;0;2
437;2;0;3
438;3;0;2
439;2;0;2
440;3;0;2
441;2;0;3
442;2;0;2
443;2;0;3
444;2;0;2
445;2;1;3
446;2;0;2
447;1;1;2
448;2;1;3
449;2;0;3
450;2;0;3
451;2;0;3
452;2;1;3
453;2;0;2
454;1;0;3
455;2;1;2
456;1;0;2
457;2;1;2
458;1;0;2
459;2;0;2
460;1;1;2
461;2;2;2
462;2;2;3
463;2;2;3
464;2;2;3
465;2;3;3
466;2;2;3
467;1;2;3
468;1;2;2
469;1;2;2
470;1;2;2
471;0;1;2
472;1;1;2
473;1;0;2
474;1;1;1
475;0;0;2
476;0;1;1
477;1;0;1
478;0;0;1
479;0;0;1
480;1;1;0
481;0;1;1
482;0;1;0
483;0;1;1
484;0;1;1
485;1;1;1
486;0;1;1
487;0;0;0
488;1;1;0
489;0;1;1
490;0;0;0
491;1;1;1
492;1;1;1
493;1;1;2
494;2;0;1
495;1;1;1
496;2;1;1
497;1;1;1
498;2;1;2
499;2;0;2
500;2;0;2
501;2;1;1
502;2;0;1
503;2;0;1
504;2;0;1
505;2;0;0
506;1;0;1
507;2;1;1
508;2;1;1
509;1;2;1
510;2;1;0
511;1;1;0
512;0;0;0
513;1;1;1
514;1;1;1
515;1;1;1
516;1;1;1
517;1;1;1
518;1;1;0
519;1;0;1
520;0;0;1
521;0;0;1
522;1;0;0
523;0;1;0
524;0;1;0
525;0;0;1
526;0;0;1
527;0;1;0
528;1;1;0
529;0;1;0
530;0;0;1
531;1;0;0
532;0;1;0
533;0;1;1
534;0;0;0
535;1;1;0
536;1;2;1
537;1;1;0
538;1;2;0
539;0;2;1
540;0;1;0
541;1;0;0
542;0;1;0
543;0;2;0
544;0;1;1
545;1;0;0
546;1;0;1
547;0;1;1
548;0;0;1
549;0;1;1
550;0;0;0
551;1;0;0
552;0;1;0
553;1;0;0
554;0;0;0
555;0;1;1
556;0;1;1
557;0;1;1
558;0;1;0
559;0;1;0
560;0;1;1
561;0;1;1
562;1;0;1
563;1;1;1
564;0;0;1
565;0;1;0
566;1;0;0
567;0;0;0
568;1;0;1
569;1;1;1
570;1;1;1
571;1;0;1
572;0;1;1
573;1;0;0
574;0;1;0
575;0;0;1
576;1;1;0
577;0;2;1
578;0;1;0
579;1;1;0
580;0;0;0
581;0;0;1
582;1;1;0
583;1;2;1
584;2;2;1
585;1;0;2
586;1;0;1
587;0;0;2
588;0;0;1
589;1;1;0
590;1;1;1
591;1;0;1
592;0;0;2
593;1;1;1
594;0;0;1
595;0;1;2
596;0;1;1
597;0;1;1
598;1;0;1
599;0;1;2
600;1;0;1
601;0;1;2
602;1;0;1
603;0;1;2
604;0;0;1
605;1;1;1
606;1;2;1
607;0;2;2
608;1;2;1
609;0;3;2
610;1;3;1
611;0;2;2
612;1;3;1
613;0;3;2
614;0;3;1
615;0;3;1
616;0;3;0
617;1;3;0
618;0;3;1
619;1;2;0
620;0;2;0
621;0;3;0
622;0;3;1
623;1;2;0
624;0;2;0
625;0;1;0
626;0;1;0
627;0;2;0
628;0;1;0
629;1;1;1
630;1;1;0
631;1;1;0
632;0;2;0
633;1;2;1
634;1;2;0
635;1;1;1
636;1;0;1
637;2;0;0
638;1;0;0
639;1;0;0
640;0;0;0
641;0;1;0
642;0;0;1
643;0;1;0
644;0;1;1
645;0;1;0
646;1;1;0
647;1;1;0
648;0;1;1
649;0;0;0
650;1;1;1
651;2;1;1
652;1;1;1
653;2;2;1
654;1;2;1
655;2;2;1
656;1;2;2
657;2;2;1
658;1;1;1
659;1;0;0
660;0;1;0
661;0;2;0
662;1;0;1
663;1;0;1
664;2;0;1
665;1;0;2
666;2;0;1
667;1;0;2
668;1;0;1
669;1;0;2
670;2;0;2
671;2;0;1
672;1;1;2
673;2;1;1
674;1;1;2
675;1;1;1
676;1;0;2
677;2;0;1
678;2;0;2
679;2;0;2
680;2;2;1
681;1;1;2
682;1;0;1
683;0;0;1
684;0;2;1
685;0;3;0
686;0;2;1
687;0;2;0
688;1;2;1
689;0;2;1
690;1;2;0
691;0;1;1
692;0;2;0
693;1;2;1
694;1;3;1
695;1;4;1
696;1;4;1
697;1;5;0
698;0;5;1
699;1;5;0
700;1;5;1
701;1;5;1
702;1;5;1
703;0;5;1
704;0;5;0
705;1;5;0
706;0;4;1
707;1;4;0
708;0;4;1
709;1;3;0
710;1;3;0
711;0;3;0
712;0;3;0
713;1;3;1
714;1;3;0
715;0;3;1
716;1;2;0
717;0;1;1
718;0;0;0
719;1;0;1
720;1;1;1
721;1;1;0
722;1;1;1
723;1;0;1
724;1;0;0
725;1;0;0
726;0;1;1
727;0;1;0
728;1;0;0
729;1;0;0
730;1;1;0
731;1;1;0
732;1;2;1
733;1;1;1
734;2;1;0
735;1;0;1
736;2;1;0
737;2;1;1
738;2;1;1
739;2;1;1
740;1;0;1
741;2;1;0
742;2;1;1
743;2;1;1
744;2;0;1
745;2;0;1
746;2;1;1
747;2;1;1
748;1;1;1
749;1;0;0
750;1;1;0
751;0;1;1
752;1;0;0
753;0;0;0
754;0;1;0
755;0;1;1
756;0;1;0
757;1;0;0
758;0;0;0
759;0;0;0
760;1;0;1
761;1;1;0
762;1;1;0
763;0;0;1
764;1;1;0
765;0;1;0
766;1;2;1
767;1;1;0
768;1;0;1
769;1;0;1
770;1;1;1
771;1;2;0
772;1;2;0
773;0;2;0
774;0;2;0
775;1;2;0
776;0;3;1
777;1;3;0
778;0;3;1
779;0;1;1
780;0;0;0
781;1;0;0
782;1;0;1
783;1;1;0
784;0;0;1
785;0;0;0
786;1;1;0
787;0;0;1
788;1;0;0
789;0;1;1
790;1;1;0
791;0;0;1
792;1;0;0
793;0;0;0
794;1;1;1
795;1;0;1
796;1;1;1
797;1;1;0
798;0;2;0
799;1;1;0
800;0;1;1
801;0;1;0
802;1;1;0
803;1;1;1
804;1;1;0
805;0;1;1
806;0;1;0
807;0;0;0
808;0;0;1
809;0;1;1
810;1;0;0
811;0;0;0
812;1;0;1
813;0;0;1
814;0;0;1
815;1;0;1
816;0;1;1
817;0;1;0
818;1;0;0
819;0;0;0
820;0;0;1
821;0;0;0
822;1;0;1
823;1;1;1
824;1;1;0
825;0;1;0
826;1;0;1
827;1;0;0
828;1;0;0
829;0;1;1
830;1;1;0
831;0;1;0
832;1;2;1
833;1;2;1
834;0;2;1
835;1;1;1
836;0;1;1
837;1;1;0
838;0;0;0
839;0;0;0
840;1;1;2
841;1;1;2
842;1;1;2
843;1;1;2
844;1;0;2
845;1;1;2
846;0;1;2
847;0;0;1
848;1;0;0
849;0;0;0
850;0;0;1
851;1;0;1
852;0;1;2
853;0;1;2
854;1;0;1
855;0;0;2
856;1;0;1
857;0;0;2
858;1;1;1
859;0;1;1
860;1;1;1
861;0;1;2
862;1;1;1
863;0;0;1
864;1;0;1
865;0;0;1
866;1;0;1
867;1;1;2
868;1;0;2
869;1;0;3
870;1;0;2
871;0;1;2
872;0;1;1
873;1;1;1
874;1;1;1
875;0;0;2
876;0;1;1
877;1;1;0
878;1;0;1
879;0;1;1
880;0;1;1
881;1;1;0
882;0;1;0
883;1;1;1
884;0;0;2
885;0;2;1
886;1;2;1
887;0;2;1
888;0;2;1
889;1;2;0
890;0;1;1
891;0;1;0
892;1;1;0
893;0;2;1
894;1;1;0
895;0;0;0
896;0;1;0
897;0;1;1
898;1;0;0
899;0;0;1
900;1;1;0
901;0;1;0
902;0;1;1
903;1;1;0
904;0;0;1
905;0;0;0
906;1;0;0
907;0;1;1
908;1;2;0
909;0;1;1
910;0;0;0
911;1;1;0
912;1;1;0
913;0;1;0
914;0;1;1
915;0;0;0
916;0;0;0
917;1;1;0
918;0;1;1
919;0;1;0
920;0;1;0
921;0;1;1
922;1;1;0
923;0;0;1
924;0;0;1
925;1;0;0
926;0;0;0
927;1;0;1
928;1;1;0
929;1;1;1
930;1;0;1
931;1;1;1
932;1;1;0
933;0;1;1
934;1;1;1
935;1;0;1
936;1;1;1
937;1;0;1
938;0;0;1
939;1;0;1
940;1;0;1
941;1;0;0
942;0;0;1
943;0;0;1
944;2;1;0
945;1;1;0
946;0;1;1
947;1;1;0
948;0;1;0
949;1;0;1
950;1;0;1
951;1;0;1
952;1;0;1
953;1;0;1
954;0;1;1
955;0;2;0
956;0;2;0
957;1;2;1
958;0;2;1
959;0;2;1
960;1;2;1
961;1;1;1
962;0;1;2
963;1;0;1
964;0;1;2
965;0;2;1
966;1;2;1
967;2;1;1
968;1;1;2
969;0;2;2
970;0;2;2
971;1;2;1
972;0;2;2
973;0;3;2
974;1;2;1
975;0;2;2
976;0;2;1
977;0;1;0
978;0;1;1
979;1;2;0
980;0;1;0
981;1;1;1
982;0;1;2
983;1;0;1
984;0;0;2
985;1;1;1
986;0;0;2
987;1;1;1
988;0;1;1
989;1;1;1
990;0;0;1
991;1;0;1
992;0;1;1
993;1;1;0
994;0;0;0
995;0;0;1
996;0;1;0
997;0;2;0
998;0;2;1
999;1;2;0
1000;0;1;1
1001;0;1;0
1002;0;0;0
1003;1;1;0
1004;0;1;1
1005;1;0;1
1006;0;0;1
1007;1;1;0
1008;2;0;1
1009;2;0;1
1010;1;0;2
1011;2;0;1
1012;1;1;1
1013;1;1;1
1014;1;0;1
1015;1;1;1
1016;0;1;1
1017;1;0;0
1018;1;0;1
1019;1;0;0
1020;0;0;1
1021;1;1;0
1022;1;0;1
1023;1;1;0
1024;0;0;0
1025;0;1;1
1026;1;0;0
1027;0;1;0
1028;0;0;1
1029;0;1;2
1030;1;1;1
1031;0;1;1
1032;1;1;1
1033;0;1;1
1034;0;1;1
1035;1;1;0
1036;0;1;0
1037;0;1;0
1038;1;1;0
1039;1;1;1
1040;1;0;1
1041;1;1;1
1042;1;0;2
1043;1;0;2
1044;2;0;2
1045;2;0;2
1046;2;0;2
1047;2;1;2
1048;2;0;1
1049;2;0;2
1050;2;1;2
1051;2;0;2
1052;2;0;2
1053;1;0;2
1054;2;1;2
1055;2;3;2
1056;2;3;2
1057;1;2;2
1058;2;2;1
1059;2;3;1
1060;2;3;0
1061;1;3;0
1062;1;3;0
1063;0;3;0
1064;0;3;1
1065;1;2;0
1066;0;2;0
1067;1;2;0
1068;0;2;1
1069;0;2;0
1070;1;2;1
1071;2;1;0
1072;1;0;1
1073;2;1;0
1074;1;1;0
1075;0;1;0
1076;1;1;0
1077;1;0;0
1078;0;1;1
1079;0;0;0
1080;1;1;0
1081;0;1;0
1082;1;1;1
1083;1;2;1
1084;0;2;1
1085;1;1;1
1086;1;0;1
1087;1;1;0
1088;0;0;1
1089;1;1;0
1090;0;0;0
1091;1;1;1
1092;1;0;1
1093;1;1;1
1094;1;2;0
1095;1;2;1
1096;1;1;1
1097;0;1;1
1098;1;1;1
1099;1;1;1
1100;1;1;0
1101;1;1;0
1102;0;0;1
1103;0;1;0
1104;0;1;0
1105;1;1;0
1106;1;1;1
1107;2;0;0
1108;1;1;1
1109;2;1;0
1110;1;1;0
1111;0;1;1
1112;1;1;0
1113;0;2;1
1114;1;1;1
1115;1;1;0
1116;1;0;1
1117;1;0;1
1118;1;0;0
1119;1;1;0
1120;1;1;1
1121;1;0;0
1122;1;1;1
1123;2;1;1
1124;2;0;1
1125;2;1;0
1126;2;1;1
1127;2;1;1
1128;2;1;1
1129;2;1;0
1130;2;1;1
1131;2;1;2
1132;3;1;1
1133;2;1;1
1134;2;0;1
1135;1;1;2
1136;1;0;1
1137;1;1;1
1138;1;1;1
1139;1;1;1
1140;1;1;1
1141;2;1;1
1142;1;0;2
1143;2;0;1
1144;1;0;1
1145;1;0;0
1146;1;1;1
1147;1;0;1
1148;1;0;1
1149;1;1;0
1150;0;1;1
1151;0;1;1
1152;1;1;0
1153;1;1;1
1154;1;1;1
1155;1;1;0
1156;1;0;0
1157;0;1;1
1158;1;1;0
1159;0;1;1
1160;0;1;1
1161;1;1;0
1162;1;1;1
1163;1;0;1
1164;2;1;0
1165;1;0;1
1166;1;1;0
1167;1;1;0
1168;0;1;1
1169;0;2;0
1170;1;3;0
1171;1;3;1
1172;1;3;1
1173;1;3;1
1174;1;4;0
1175;1;4;0
1176;0;3;0
1177;0;4;1
1178;0;3;0
1179;0;2;0
1180;0;3;0
1181;0;3;1
1182;0;2;0
1183;0;2;0
1184;1;1;0
1185;0;1;1
1186;0;1;0
1187;1;0;0
1188;0;1;0
1189;1;2;0
1190;0;1;0
1191;1;1;0
1192;1;1;0
1193;0;1;1
1194;0;2;1
1195;0;2;0
1196;1;1;1
1197;1;0;1
1198;1;0;1
1199;0;0;1
1200;1;0;0
1201;0;1;1
1202;0;0;0
1203;1;1;1
1204;1;0;1
1205;1;0;1
1206;0;1;1
1207;0;1;0
1208;0;1;1
1209;0;0;0
1210;0;1;1
1211;1;0;0
1212;0;1;1
1213;0;0;0
1214;1;1;1
1215;0;2;1
1216;0;1;0
1217;1;0;1
1218;1;0;1
1219;1;1;1
1220;1;1;1
1221;1;2;1
1222;1;1;0
1223;0;1;0
1224;0;1;1
1225;0;1;0
1226;1;1;1
1227;1;0;1
1228;1;1;1
1229;0;1;1
1230;0;1;1
1231;0;0;0
1232;1;0;1
1233;1;1;1
1234;1;0;0
1235;1;0;0
1236;0;1;0
1237;1;1;1
1238;2;0;0
1239;1;0;0
1240;1;0;0
1241;0;0;0
1242;1;1;1
1243;1;1;1
1244;0;0;1
1245;1;1;1
1246;1;1;1
1247;1;1;0
1248;0;1;0
1249;1;0;0
1250;0;1;0
1251;1;1;1
1252;1;0;1
1253;0;1;1
1254;0;1;0
1255;0;0;0
1256;0;1;0
1257;1;2;1
1258;0;1;1
1259;1;1;0
1260;0;1;1
1261;1;1;0
1262;0;1;0
1263;0;1;0
1264;0;1;0
1265;1;0;1
1266;2;1;0
1267;1;0;1
1268;1;1;0
1269;1;1;0
1270;0;1;1
1271;0;1;0
1272;1;1;0
1273;1;0;1
1274;1;1;1
1275;2;1;0
1276;1;2;0
1277;1;2;0
1278;0;3;1
1279;0;3;0
1280;0;2;0
1281;1;2;1
1282;2;2;0
1283;1;2;0
1284;0;2;0
1285;0;2;1
1286;0;2;0
1287;1;2;0
1288;1;2;0
1289;0;3;0
1290;1;3;1
1291;1;3;0
1292;1;3;1
1293;2;3;0
1294;2;3;1
1295;2;3;0
1296;2;3;1
1297;1;3;1
1298;2;3;1
1299;3;4;1
1300;2;3;2
1301;3;3;1
1302;2;2;2
1303;3;1;1
1304;2;1;1
1305;2;0;1
1306;1;0;1
1307;2;1;0
1308;1;0;1
1309;1;1;2
1310;2;0;2
1311;2;1;2
1312;1;3;2
1313;2;3;1
1314;1;3;2
1315;2;3;1
1316;1;3;2
1317;2;3;1
1318;1;2;1
1319;1;2;1
1320;1;3;1
1321;1;4;1
1322;1;3;1
1323;1;1;1
1324;0;0;1
1325;1;0;1
1326;0;1;1
1327;1;1;1
1328;1;1;1
1329;1;0;1
1330;1;0;1
1331;1;1;1
1332;0;2;1
1333;0;1;0
1334;0;1;0
1335;0;0;0
1336;0;0;0
1337;1;0;0
1338;2;1;0
1339;1;0;0
1340;1;0;1
1341;1;0;1
1342;2;0;0
1343;1;0;0
1344;1;1;1
1345;1;1;1
1346;2;0;0
1347;1;0;0
1348;0;1;1
1349;0;1;0
1350;0;2;1
1351;1;1;0
1352;0;1;0
1353;0;1;1
1354;1;1;0
1355;1;1;0
1356;1;0;1
1357;2;0;0
1358;1;1;1
1359;2;1;1
1360;2;1;1
1361;2;1;1
1362;2;1;1
1363;2;1;1
1364;2;1;2
1365;2;2;1
1366;2;2;2
1367;2;1;1
1368;2;1;2
1369;3;1;1
1370;2;1;1
1371;2;1;0
1372;2;1;0
1373;2;1;1
1374;2;1;1
1375;3;1;0
1376;2;0;1
1377;3;1;0
1378;2;1;0
1379;1;0;0
1380;1;0;1
1381;1;0;0
1382;2;0;1
1383;2;1;0
1384;1;0;1
1385;1;0;1
1386;2;0;0
1387;1;1;1
1388;2;1;0
1389;1;1;1
1390;2;1;0
1391;1;0;1
1392;2;1;0
1393;2;1;1
1394;2;1;1
1395;2;1;0
1396;1;1;0
1397;0;0;0
1398;0;1;1
1399;1;1;0
1400;0;1;0
1401;1;1;0
1402;1;0;1
1403;2;1;0
1404;1;1;1
1405;2;0;1
1406;2;1;1
1407;1;2;1
1408;1;1;0
1409;1;1;0
1410;1;1;0
1411;0;1;1
1412;1;1;0
1413;1;1;0
1414;2;0;1
1415;2;0;1
1416;2;0;1
1417;2;1;2
1418;3;0;1
1419;2;1;2
1420;3;1;1
1421;2;0;1
1422;2;1;0
1423;1;2;0
1424;1;2;1
1425;2;1;0
1426;1;1;1
1427;1;0;0
1428;1;0;1
1429;1;1;0
1430;1;0;1
1431;1;2;1
1432;2;2;0
1433;1;1;1
1434;1;0;1
1435;1;0;0
1436;0;0;0
1437;1;1;0
1438;0;1;1
1439;0;1;0
1440;1;0;1
1441;2;0;1
1442;2;1;0
1443;2;1;1
1444;2;0;1
1445;2;1;0
1446;2;1;1
1447;2;0;1
1448;2;1;1
1449;2;1;0
1450;1;1;1
1451;2;0;0
1452;2;1;1
1453;2;1;0
1454;1;0;1
1455;2;0;1
1456;1;1;1
1457;2;1;1
1458;1;1;1
1459;2;1;1
1460;2;1;1
1461;1;0;1
1462;2;1;0
1463;1;1;0
1464;1;1;0
1465;0;1;0
1466;0;1;1
1467;1;1;0
1468;0;0;1
1469;1;1;0
1470;0;0;0
1471;0;1;1
1472;0;1;1
1473;1;2;1
1474;0;3;2
1475;1;3;1
1476;0;2;1
1477;1;2;1
1478;0;1;1
1479;0;0;0
1480;0;1;1
1481;1;0;1
1482;0;1;1
1483;1;1;1
1484;1;0;1
1485;0;1;2
1486;1;1;1
1487;0;1;2
1488;1;1;1
1489;0;1;2
1490;1;0;1
1491;0;1;2
1492;0;1;1
1493;1;1;1
1494;0;1;1
1495;1;0;0
1496;0;0;1
1497;0;1;0
1498;1;1;1
1499;0;1;1
1500;0;1;0
1501;0;0;1
1502;0;0;2
1503;1;0;2
1504;0;1;3
1505;1;0;2
1506;0;0;3
1507;0;1;2
1508;1;1;2
1509;0;1;2
1510;1;1;2
1511;1;2;2
1512;0;1;3
1513;1;0;2
1514;0;1;3
1515;0;1;2
1516;1;1;2
1517;1;2;2
1518;0;2;2
1519;0;2;2
1520;1;3;1
1521;1;2;1
1522;1;2;1
1523;0;2;1
1524;0;2;1
1525;0;1;1
1526;0;1;0
1527;1;1;0
1528;1;0;1
1529;1;1;1
1530;1;0;1
1531;1;1;1
1532;0;1;1
1533;0;0;0
1534;1;1;0
1535;0;1;0
1536;1;1;0
1537;0;1;1
1538;0;0;1
1539;1;1;1
1540;1;2;0
1541;1;1;0
1542;1;1;1
1543;1;1;0
1544;1;0;1
1545;1;0;0
1546;0;1;1
1547;1;1;0
1548;0;1;0
1549;1;1;1
1550;1;1;0
1551;0;0;0
1552;1;1;1
1553;1;1;0
1554;0;0;0
1555;0;1;1
1556;1;1;1
1557;0;1;1
1558;0;1;0
1559;0;1;1
1560;0;2;1
1561;1;2;0
1562;0;1;1
1563;1;2;0
1564;0;2;0
1565;1;2;1
1566;0;2;2
1567;0;2;1
1568;1;2;0
1569;0;2;0
1570;1;2;0
1571;1;2;1
1572;0;2;1
1573;1;2;1
1574;1;1;1
1575;1;1;2
1576;1;0;1
1577;1;1;1
1578;1;1;1
1579;1;0;1
1580;1;1;0
1581;1;2;1
1582;1;2;2
1583;2;1;1
1584;1;1;1
1585;2;1;1
1586;1;1;2
1587;2;2;1
1588;1;3;2
1589;1;3;1
1590;1;2;2
1591;2;3;1
1592;1;3;1
1593;2;3;1
1594;1;3;1
1595;1;3;0
1596;1;3;1
1597;1;3;0
1598;1;4;1
1599;1;4;0
1600;0;3;1
1601;1;2;1
1602;1;2;1
1603;1;2;1
1604;0;2;1
1605;1;2;0
1606;1;2;1
1607;1;2;0
1608;0;2;1
1609;1;2;0
1610;2;2;0
1611;1;1;1
1612;2;1;1
1613;1;1;2
1614;2;1;1
1615;1;1;1
1616;1;1;1
1617;0;1;1
1618;0;1;0
1619;0;0;0
1620;0;1;1
1621;0;1;1
1622;0;1;0
1623;2;0;0
1624;3;1;1
1625;2;1;1
1626;3;0;1
1627;2;1;2
1628;2;1;1
1629;2;1;2
1630;2;0;1
1631;1;0;1
1632;1;0;1
1633;0;0;1
1634;1;1;0
1635;1;1;0
1636;0;1;1
1637;0;1;0
1638;1;1;1
1639;2;2;0
1640;1;2;1
1641;2;1;0
1642;1;0;1
1643;1;1;0
1644;1;1;1
1645;1;1;0
1646;1;1;0
1647;0;1;1
1648;1;0;0
1649;0;1;0
1650;0;0;1
1651;1;1;1
1652;2;0;1
1653;1;1;2
1654;2;0;1
1655;1;0;1
1656;2;1;1
1657;2;2;1
1658;1;2;1
1659;2;1;1
1660;1;1;1
1661;1;1;0
1662;0;2;0
1663;0;3;1
1664;1;3;0
1665;0;3;0
1666;1;2;0
1667;0;2;1
1668;1;2;0
1669;0;1;1
1670;1;0;0
1671;0;0;1
1672;1;0;0
1673;0;1;0
1674;1;1;0
1675;1;0;0
1676;1;1;0
1677;0;2;1
1678;0;3;0
1679;1;2;0
1680;1;1;0
1681;0;1;0
1682;0;1;1
1683;0;1;0
1684;1;1;0
1685;1;1;0
1686;1;1;0
1687;1;0;1
1688;1;0;1
1689;2;0;0
1690;1;0;0
1691;1;0;1
1692;1;1;2
1693;1;1;1
1694;1;0;0
1695;0;0;0
1696;1;0;0
1697;0;1;0
1698;1;1;1
1699;1;2;1
1700;1;1;1
1701;1;0;1
1702;0;0;1
1703;1;0;0
1704;1;0;1
1705;1;0;1
1706;0;1;1
1707;1;0;0
1708;0;0;1
1709;1;1;1
1710;1;1;2
1711;2;1;1
1712;1;0;1
1713;2;0;0
1714;1;1;0
1715;1;0;1
1716;1;0;1
1717;2;0;0
1718;1;1;1
1719;2;0;0
1720;1;1;0
1721;0;1;1
1722;0;1;1
1723;0;1;0
1724;0;1;0
1725;1;1;1
1726;2;0;0
1727;1;0;1
1728;2;1;0
1729;2;1;0
1730;1;1;0
1731;1;1;1
1732;1;0;1
1733;2;1;0
1734;1;0;0
1735;0;0;1
1736;0;1;1
1737;1;0;0
1738;1;0;0
1739;1;1;0
1740;1;0;1
1741;2;1;0
1742;2;1;1
1743;1;1;1
1744;1;0;1
1745;0;0;1
1746;1;0;0
1747;0;1;1
1748;1;0;1
1749;1;0;1
1750;1;1;1
1751;0;1;1
1752;1;1;0
1753;0;0;1
1754;1;0;1
1755;1;1;1
1756;1;1;1
1757;1;0;1
1758;1;1;0
1759;1;0;1
1760;1;1;2
1761;1;1;1
1762;1;1;1
1763;1;0;1
1764;1;0;1
1765;1;0;1
1766;1;0;2
1767;2;0;1
1768;1;0;1
1769;2;0;2
1770;2;2;1
1771;1;1;1
1772;2;1;1
1773;1;0;2
1774;2;1;1
1775;1;1;2
1776;2;1;1
1777;1;1;2
1778;2;0;1
1779;1;1;2
1780;2;1;2
1781;2;0;2
1782;1;1;2
1783;2;0;1
1784;1;1;2
1785;2;1;2
1786;1;0;2
1787;2;0;1
1788;2;1;1
1789;2;1;3
1790;2;0;2
1791;2;1;2
1792;2;0;2
1793;3;0;2
1794;2;0;2
1795;2;0;1
1796;2;0;1
1797;2;0;1
1798;2;1;2
1799;2;1;1
1800;2;1;1
1801;2;1;0
1802;1;1;1
1803;1;1;0
1804;2;0;0
1805;2;2;0
1806;2;1;0
1807;1;0;0
1808;0;1;1
1809;0;2;0
1810;1;3;2
1811;1;2;1
1812;1;4;2
1813;1;4;1
1814;1;3;2
1815;2;3;1
1816;1;2;2
1817;2;2;1
1818;1;2;2
1819;2;1;1
1820;1;1;1
1821;1;0;1
1822;1;0;1
1823;1;1;1
1824;1;1;1
1825;1;1;1
1826;0;1;1
1827;1;1;0
1828;1;1;1
1829;1;1;1
1830;0;1;1
1831;1;1;1
1832;0;2;1
1833;0;1;0
1834;1;0;1
1835;0;1;1
1836;1;0;1
1837;0;1;1
1838;0;0;0
1839;0;0;1
1840;0;1;1
1841;0;0;0
1842;1;1;0
1843;0;2;1
1844;1;2;0
1845;0;2;0
1846;0;2;1
1847;0;2;1
1848;1;2;1
1849;0;2;1
1850;0;2;1
1851;0;3;0
1852;0;2;0
1853;0;2;1
1854;0;1;0
1855;0;1;0
1856;1;1;0
1857;0;0;1
1858;1;1;0
1859;0;1;0
1860;0;1;1
1861;0;1;0
1862;1;1;1
1863;0;2;1
1864;0;2;1
1865;1;1;1
1866;0;0;1
1867;1;1;0
1868;0;1;1
1869;1;1;1
1870;0;1;2
1871;1;1;1
1872;0;0;2
1873;1;1;1
1874;0;1;2
1875;1;1;1
1876;0;0;2
1877;0;1;1
1878;0;0;1
1879;1;1;0
1880;1;1;1
1881;0;1;1
1882;0;0;1
1883;1;1;0
1884;0;1;1
1885;1;1;0
1886;0;1;1
1887;1;0;0
1888;0;0;0
1889;1;1;1
1890;0;1;1
1891;0;1;1
1892;1;1;1
1893;1;1;1
1894;0;0;1
1895;1;0;1
1896;0;1;1
1897;1;1;1
1898;0;0;2
1899;1;1;2
1900;1;1;2
1901;0;2;2
1902;1;2;2
1903;1;2;2
1904;1;1;1
1905;0;0;2
1906;1;0;1
1907;0;0;1
1908;0;0;0
1909;0;1;1
1910;1;0;0
1911;0;0;0
1912;0;1;1
1913;0;1;0
1914;1;1;0
1915;0;2;1
1916;1;1;0
1917;0;0;0
1918;0;1;1
1919;0;0;0
1920;0;1;0
1921;1;2;1
1922;1;2;1
1923;1;2;1
1924;1;2;1
1925;1;2;2
1926;2;2;1
1927;1;1;2
1928;2;1;1
1929;1;0;1
1930;1;1;0
1931;1;1;0
1932;0;1;1
1933;1;1;1
1934;1;0;1
1935;1;0;0
1936;1;1;0
1937;0;1;1
1938;1;0;0
1939;0;1;0
1940;0;0;1
1941;1;1;0
1942;1;0;1
1943;1;0;1
1944;0;1;1
1945;0;2;0
1946;1;2;1
1947;0;2;1
1948;1;1;1
1949;0;1;2
1950;1;1;1
1951;0;1;1
1952;0;0;1
1953;1;1;0
1954;0;0;0
1955;0;1;0
1956;0;0;1
1957;1;1;0
1958;0;2;0
1959;0;1;1
1960;0;0;0
1961;0;0;0
1962;1;1;1
1963;0;1;2
1964;0;0;1
1965;1;0;1
1966;0;1;2
1967;0;1;2
1968;0;1;1
1969;1;0;0
1970;0;1;1
1971;1;1;0
1972;0;0;0
1973;0;1;1
1974;0;1;1
1975;1;0;0
1976;0;0;0
1977;0;1;0
1978;1;1;1
1979;0;1;1
1980;1;1;0
1981;1;2;0
1982;0;2;1
1983;0;1;0
1984;1;1;1
1985;1;1;0
1986;0;1;0
1987;1;0;0
1988;0;1;1
1989;0;1;0
1990;1;0;0
1991;1;0;0
1992;0;0;1
1993;1;0;0
1994;0;0;1
1995;0;0;2
1996;1;1;1
1997;1;1;2
1998;1;0;1
1999;0;1;1
2000;0;2;1
2001;0;1;1
2002;0;0;0
2003;2;0;0
2004;1;1;1
2005;2;0;0
2006;1;0;1
2007;2;1;0
2008;1;1;0
2009;0;2;1
2010;1;1;0
2011;1;0;1
2012;1;0;1
2013;1;0;0
2014;1;1;0
2015;1;1;0
2016;0;1;1
2017;1;1;0
2018;1;0;1
2019;2;1;0
2020;1;1;0
2021;2;0;1
2022;2;1;0
2023;1;0;1
2024;1;1;0
2025;1;0;1
2026;2;0;0
2027;1;0;0
2028;0;0;0
2029;1;0;0
2030;1;0;1
2031;1;1;0
2032;1;1;1
2033;2;1;1
2034;2;1;0
2035;1;1;1
2036;2;1;0
2037;2;1;0
2038;1;2;0
2039;1;2;1
2040;1;1;0
2041;0;1;1
2042;0;1;0
2043;0;1;1
2044;0;1;1
2045;1;0;1
2046;1;1;1
2047;1;0;1
2048;0;1;1
2049;1;0;1
2050;0;0;1
2051;0;0;0
2052;0;0;1
2053;1;0;0
2054;1;0;0
2055;1;0;1
2056;1;1;1
2057;0;0;1
2058;0;0;0
2059;1;1;1
2060;0;1;1
2061;0;0;0
2062;1;1;1
2063;0;0;2
2064;0;1;1
2065;1;0;0
2066;1;1;1
2067;0;1;2
2068;1;2;1
2069;0;2;2
2070;1;1;1
2071;1;1;2
2072;1;0;2
2073;1;0;2
2074;0;1;2
2075;0;0;2
2076;1;0;1
2077;0;0;2
2078;0;1;1
2079;1;1;1
2080;1;1;1
2081;0;0;1
2082;1;1;1
2083;0;1;1
2084;0;0;1
2085;1;0;1
2086;1;1;1
2087;0;1;1
2088;0;1;1
2089;0;0;1
2090;1;1;0
2091;0;1;0
2092;1;0;1
2093;1;1;1
2094;1;1;2
2095;1;1;2
2096;0;1;2
2097;1;1;2
2098;1;0;2
2099;1;1;1
2100;1;1;2
2101;1;1;2
2102;0;0;2
2103;1;1;1
2104;0;1;2
2105;1;0;1
2106;0;0;2
2107;0;1;1
2108;0;1;1
2109;0;1;0
2110;0;1;0
2111;0;1;0
2112;1;1;1
2113;1;1;1
2114;1;1;0
2115;1;0;1
2116;1;0;0
2117;1;1;1
2118;1;1;1
2119;2;1;1
2120;1;1;1
2121;2;1;1
2122;1;0;1
2123;1;0;0
2124;0;1;1
2125;1;0;0
2126;0;0;0
2127;0;1;0
2128;0;1;0
2129;0;1;1
2130;0;0;0
2131;1;0;0
2132;0;1;0
2133;1;1;1
2134;1;1;0
2135;1;1;0
2136;0;0;1
2137;1;1;0
2138;0;0;1
2139;0;1;0
2140;1;1;0
2141;0;0;1
2142;0;0;0
2143;1;0;1
2144;1;1;0
2145;1;1;0
2146;1;1;1
2147;1;2;0
2148;0;0;1
2149;1;0;0
2150;0;1;0
2151;1;2;1
2152;1;1;0
2153;0;0;1
2154;1;1;1
2155;1;0;1
2156;1;0;1
2157;1;0;0
2158;0;0;1
2159;1;1;0
2160;0;1;1
2161;0;1;0
2162;1;1;0
2163;1;1;1
2164;1;1;0
2165;1;1;1
2166;1;1;1
2167;1;0;1
2168;1;0;1
2169;1;1;1
2170;1;1;1
2171;1;0;1
2172;1;1;0
2173;1;1;0
2174;1;1;1
2175;1;1;0
2176;0;1;0
2177;0;2;1
2178;1;0;1
2179;1;1;1
2180;1;2;0
2181;0;2;1
2182;1;2;0
2183;0;2;0
2184;0;1;1
2185;0;0;0
2186;0;1;0
2187;0;1;1
2188;1;0;1
2189;0;0;2
2190;1;1;1
2191;0;0;2
2192;0;0;1
2193;0;0;1
2194;0;0;0
2195;1;0;0
2196;2;0;1
2197;1;0;2
2198;1;0;1
2199;2;1;1
2200;1;1;2
2201;1;0;1
2202;1;0;2
2203;2;0;1
2204;1;0;2
2205;1;1;1
2206;0;1;2
2207;1;1;2
2208;1;0;1
2209;1;0;2
2210;0;0;2
2211;1;0;1
2212;1;1;2
2213;1;1;1
2214;1;0;2
2215;1;1;1
2216;1;0;2
2217;1;1;2
2218;1;0;1
2219;0;0;2
2220;0;1;1
2221;1;0;0
2222;0;0;0
2223;0;0;0
2224;1;1;1
2225;1;1;1
2226;1;1;1
2227;0;0;1
2228;0;0;1
2229;1;1;0
2230;0;1;0
2231;1;0;1
2232;0;1;2
2233;0;2;1
2234;0;2;0
2235;1;3;1
2236;1;1;1
2237;1;0;1
2238;0;0;1
2239;0;0;0
2240;1;0;1
2241;1;1;1
2242;1;0;0
2243;1;1;1
2244;1;1;1
2245;1;1;1
2246;1;1;0
2247;1;1;1
2248;2;1;1
2249;2;1;1
2250;1;1;2
2251;2;1;2
2252;2;1;2
2253;2;1;2
2254;2;1;1
2255;2;1;2
2256;2;1;2
2257;2;1;2
2258;2;1;2
2259;3;1;2
2260;2;0;3
2261;3;1;2
2262;2;0;3
2263;2;0;2
2264;2;1;3
2265;3;1;2
2266;2;1;2
2267;2;0;1
2268;1;0;1
2269;1;1;2
2270;2;1;2
2271;2;0;2
2272;1;1;2
2273;2;1;2
2274;1;2;2
2275;2;2;2
2276;3;2;2
2277;2;2;3
2278;3;2;2
2279;2;2;3
2280;3;2;2
2281;2;2;2
2282;2;2;2
2283;2;2;3
2284;2;2;2
2285;1;2;2
2286;1;2;2
2287;0;2;2
2288;1;1;1
2289;0;1;1
2290;0;1;1
2291;0;0;0
2292;1;0;0
2293;0;0;0
2294;1;0;0
2295;1;1;0
2296;1;0;1
2297;1;0;1
2298;1;0;1
2299;1;0;1
2300;1;0;1
2301;1;1;1
2302;1;0;1
2303;0;1;2
2304;0;1;1
2305;1;0;0
2306;1;0;1
2307;0;1;2
2308;0;1;2
2309;1;2;2
2310;0;1;2
2311;1;1;2
2312;1;2;2
2313;1;2;2
2314;1;2;2
2315;1;1;2
2316;2;0;2
2317;1;0;3
2318;2;0;2
2319;1;1;2
2320;2;0;1
2321;1;0;1
2322;1;0;1
2323;1;0;2
2324;1;0;1
2325;1;0;1
2326;1;0;0
2327;0;0;1
2328;1;0;0
2329;0;1;1
2330;1;2;0
2331;0;2;1
2332;1;2;0
2333;0;2;0
2334;0;3;1
2335;0;3;0
2336;1;3;1
2337;1;3;1
2338;1;3;0
2339;1;3;1
2340;1;2;0
2341;0;2;1
2342;0;1;0
2343;0;1;1
2344;1;1;0
2345;0;1;1
2346;1;0;0
2347;0;0;1
2348;0;0;0
2349;1;1;1
2350;0;0;1
2351;1;0;0
2352;0;0;1
2353;1;0;0
2354;0;1;1
2355;0;1;0
2356;1;1;1
2357;1;1;1
2358;1;0;1
2359;1;1;1
2360;1;0;0
2361;1;1;0
2362;0;1;1
2363;0;1;0
2364;0;1;0
2365;0;1;0
2366;1;1;0
2367;0;1;1
2368;0;0;1
2369;1;0;1
2370;1;0;0
2371;1;0;0
2372;0;0;0
2373;1;1;0
2374;1;1;1
2375;2;0;0
2376;2;0;1
2377;1;1;1
2378;1;1;1
2379;1;0;1
2380;1;0;0
2381;0;1;0
2382;1;1;0
2383;0;1;0
2384;1;1;1
2385;1;1;0
2386;1;0;1
2387;1;0;2
2388;2;0;1
2389;1;0;2
2390;1;0;1
2391;2;1;1
2392;1;0;1
2393;1;1;0
2394;1;2;0
2395;0;2;1
2396;0;2;1
2397;1;1;0
2398;0;1;1
2399;1;1;1
2400;1;1;1
2401;1;1;1
2402;1;1;0
2403;1;0;0
2404;1;0;1
2405;2;0;0
2406;1;1;1
2407;1;2;0
2408;1;2;0
2409;0;1;0
2410;0;1;0
2411;0;1;0
2412;0;0;0
2413;1;1;1
2414;1;0;0
2415;1;0;1
2416;1;1;0
2417;1;0;1
2418;1;1;1
2419;1;0;0
2420;0;1;1
2421;1;0;0
2422;1;0;1
2423;1;0;1
2424;1;0;1
2425;1;0;1
2426;1;0;0
2427;2;0;0
2428;1;0;1
2429;1;0;0
2430;1;1;1
2431;2;0;0
2432;1;1;1
2433;2;1;0
2434;1;0;1
2435;1;1;0
2436;1;0;0
2437;0;0;0
2438;1;0;1
2439;1;1;1
2440;2;0;0
2441;1;0;1
2442;1;0;0
2443;0;0;0
2444;1;0;1
2445;2;0;0
2446;1;1;0
2447;1;1;1
2448;1;1;1
2449;2;1;0
2450;1;1;0
2451;1;1;1
2452;1;1;0
2453;1;1;0
2454;0;1;0
2455;0;1;0
2456;1;0;0
2457;0;0;1
2458;0;0;0
2459;1;1;0
2460;1;1;1
2461;2;1;1
2462;1;0;1
2463;1;1;0
2464;1;0;1
2465;1;0;1
2466;1;1;0
2467;0;1;1
2468;0;0;0
2469;0;1;1
2470;0;1;0
2471;0;0;0
2472;0;1;0
2473;1;1;0
2474;0;1;0
2475;1;1;0
2476;0;0;1
2477;0;1;1
2478;0;1;0
2479;1;1;1
2480;1;0;1
2481;1;0;2
2482;2;1;1
2483;1;0;1
2484;2;0;1
2485;1;0;2
2486;2;0;1
2487;1;1;1
2488;1;2;1
2489;1;2;2
2490;2;2;1
2491;1;2;1
2492;2;2;1
2493;1;1;1
2494;2;0;1
2495;1;0;2
2496;2;0;1
2497;1;1;2
2498;2;0;1
2499;1;1;2
2500;1;1;1
2501;1;1;2
2502;1;1;2
2503;2;1;2
2504;1;0;2
2505;2;1;1
2506;2;2;1
2507;2;2;1
2508;2;1;1
2509;2;1;2
2510;2;1;1
2511;2;0;1
2512;2;1;0
2513;2;1;1
2514;3;1;0
2515;2;1;1
2516;2;1;0
2517;2;1;1
2518;2;1;0
2519;2;0;1
2520;2;1;0
2521;3;0;1
2522;2;0;1
2523;3;1;1
2524;3;0;1
2525;3;1;0
2526;3;1;1
2527;3;1;1
2528;3;1;1
2529;3;1;0
2530;3;1;1
2531;3;1;0
2532;3;1;1
2533;3;1;1
2534;2;0;1
2535;2;0;0
2536;2;1;1
2537;3;1;0
2538;3;0;0
2539;2;1;1
2540;3;1;0
2541;2;0;0
2542;2;0;1
2543;3;0;0
2544;3;1;0
2545;2;1;1
2546;3;0;0
2547;2;0;1
2548;2;1;0
2549;2;0;1
2550;2;1;0
2551;2;0;0
2552;1;1;1
2553;2;0;0
2554;1;0;0
2555;0;1;1
2556;1;1;0
2557;0;0;1
2558;1;0;0
2559;0;1;1
2560;0;1;0
2561;1;1;0
2562;0;0;0
2563;1;0;0
2564;1;0;0
2565;0;0;1
2566;0;1;0
2567;1;1;0
2568;0;0;1
2569;0;0;0
2570;0;1;0
2571;0;0;1
2572;1;1;0
2573;0;0;1
2574;1;1;0
2575;0;1;1
2576;1;1;1
2577;1;0;1
2578;0;1;1
2579;1;1;0
2580;0;1;0
2581;0;0;0
2582;1;0;1
2583;2;1;0
2584;1;0;0
2585;1;1;1
2586;1;1;1
2587;1;1;0
2588;0;0;1
2589;0;1;0
2590;1;0;0
2591;1;0;1
2592;0;1;1
2593;1;0;0
2594;0;1;0
2595;1;1;0
2596;0;1;1
2597;0;0;0
2598;1;0;1
2599;1;1;0
2600;1;0;1
2601;2;1;0
2602;1;1;0
2603;1;2;0
2604;0;2;1
2605;1;1;0
2606;0;0;1
2607;0;1;0
2608;1;1;1
2609;1;1;1
2610;2;2;1
2611;2;2;1
2612;2;3;2
2613;3;4;1
2614;2;4;1
2615;3;3;1
2616;2;3;2
2617;3;2;1
2618;2;1;2
2619;3;1;2
2620;3;1;1
2621;2;2;2
2622;2;0;2
2623;1;1;2
2624;1;1;1
2625;2;0;1
2626;2;0;1
2627;2;1;1
2628;2;1;1
2629;2;1;1
2630;2;0;1
2631;2;1;1
2632;3;0;1
2633;2;0;1
2634;2;1;0
2635;2;2;1
2636;3;2;0
2637;2;1;1
2638;2;0;0
2639;2;0;0
2640;2;1;1
2641;2;0;1
2642;2;1;0
2643;2;0;1
2644;2;1;0
2645;2;0;0
2646;1;0;1
2647;2;0;0
2648;1;0;0
2649;1;1;1
2650;1;0;0
2651;2;0;1
2652;2;1;0
2653;1;0;1
2654;2;0;0
2655;2;1;0
2656;1;0;1
2657;2;1;0
2658;1;1;1
2659;1;0;0
2660;0;0;0
2661;1;1;0
2662;0;0;1
2663;1;1;0
2664;0;1;0
2665;0;1;1
2666;1;0;0
2667;0;0;1
2668;1;0;0
2669;1;1;0
2670;0;0;0
2671;0;0;1
2672;0;0;0
2673;1;0;0
2674;1;0;0
2675;0;1;1
2676;0;0;0
2677;1;1;1
2678;1;0;0
2679;1;1;2
2680;1;0;1
2681;1;0;2
2682;1;0;2
2683;1;0;2
2684;2;1;2
2685;2;1;2
2686;2;1;2
2687;2;1;2
2688;2;1;3
2689;3;1;2
2690;2;1;3
2691;2;0;2
2692;2;1;2
2693;2;1;1
2694;1;1;2
2695;1;1;1
2696;1;0;1
2697;1;0;1
2698;2;1;2
2699;2;0;2
2700;1;1;2
2701;2;1;1
2702;1;1;2
2703;2;0;1
2704;1;2;2
2705;1;2;1
2706;0;1;1
2707;1;1;1
2708;0;1;1
2709;1;0;0
2710;0;1;1
2711;1;0;0
2712;0;0;0
2713;1;1;0
2714;0;0;1
2715;1;0;0
2716;1;0;0
2717;1;1;0
2718;0;1;1
2719;0;0;0
2720;1;0;0
2721;0;1;1
2722;1;1;0
2723;0;1;0
2724;1;1;0
2725;0;0;0
2726;1;1;1
2727;1;1;0
2728;0;1;1
2729;1;0;0
2730;0;1;0
2731;1;0;0
2732;0;0;1
2733;0;0;0
2734;0;1;1
2735;0;1;0
2736;1;1;1
2737;0;1;1
2738;1;1;2
2739;1;1;2
2740;2;2;2
2741;2;2;2
2742;2;2;1
2743;1;1;1
2744;1;2;0
2745;0;2;1
2746;1;2;0
2747;1;2;1
2748;1;1;0
2749;0;2;1
2750;1;2;0
2751;0;1;1
2752;0;1;0
2753;0;1;0
2754;1;1;0
2755;0;0;0
2756;0;1;1
2757;0;1;0
2758;1;1;1
2759;0;0;1
2760;0;1;0
2761;1;0;1
2762;0;1;2
2763;1;1;2
2764;1;1;2
2765;0;1;2
2766;1;1;2
2767;0;2;2
2768;1;2;2
2769;1;2;2
2770;1;2;2
2771;0;2;2
2772;1;2;1
2773;0;2;1
2774;1;2;1
2775;1;1;2
2776;0;1;2
2777;1;1;2
2778;2;1;2
2779;1;1;3
2780;1;1;2
2781;0;1;3
2782;1;0;2
2783;0;2;3
2784;0;1;2
2785;1;1;2
2786;1;1;2
2787;0;1;3
2788;1;1;2
2789;1;1;2
2790;0;1;2
2791;1;1;2
2792;0;1;3
2793;0;0;2
2794;1;1;2
2795;0;0;2
2796;0;0;2
2797;1;1;2
2798;0;1;2
2799;1;2;1
2800;0;1;2
2801;1;0;1
2802;0;0;2
2803;0;0;1
2804;1;0;0
2805;1;1;1
2806;1;0;1
2807;0;2;2
2808;1;2;2
2809;1;2;2
2810;1;3;2
2811;1;2;2
2812;1;2;1
2813;0;1;2
2814;0;2;2
2815;0;0;1
2816;0;0;0
2817;1;0;0
2818;0;1;0
2819;0;1;1
2820;0;1;0
2821;0;0;0
2822;1;0;1
2823;0;2;2
2824;2;2;2
2825;2;2;1
2826;2;2;2
2827;2;1;2
2828;1;1;2
2829;1;0;2
2830;0;0;2
2831;1;0;1
2832;0;0;1
2833;0;1;1
2834;1;1;0
2835;0;1;1
2836;0;1;0
2837;1;1;1
2838;0;1;1
2839;1;0;0
2840;1;1;1
2841;1;0;0
2842;0;0;1
2843;1;1;0
2844;1;1;0
2845;0;1;0
2846;0;0;1
2847;0;0;0
2848;1;1;1
2849;2;0;1
2850;2;0;1
2851;2;0;1
2852;2;0;1
2853;1;0;1
2854;2;1;0
2855;1;1;1
2856;1;0;0
2857;1;0;0
2858;2;1;1
2859;2;0;1
2860;2;1;1
2861;2;2;1
2862;2;2;1
2863;2;1;1
2864;1;1;1
2865;2;0;2
2866;2;0;1
2867;1;1;2
2868;2;1;1
2869;1;1;1
2870;1;1;1
2871;1;1;1
2872;1;1;0
2873;0;0;0
2874;1;1;1
2875;1;0;2
2876;2;0;1
2877;2;0;2
2878;1;0;2
2879;2;0;3
2880;3;0;2
2881;2;1;3
2882;2;0;2
2883;1;1;3
2884;1;1;2
2885;1;1;2
2886;2;1;1
2887;1;1;1
2888;1;1;2
2889;1;1;2
2890;1;1;2
2891;0;1;2
2892;0;1;3
2893;0;1;2
2894;1;0;1
2895;0;0;1
2896;0;1;1
2897;0;1;0
2898;0;0;0
2899;1;1;1
2900;0;0;2
2901;0;0;1
2902;0;1;1
2903;0;0;0
2904;0;0;0
2905;1;0;0
2906;0;0;1
2907;0;1;0
2908;1;0;0
2909;0;0;1
2910;1;1;1
2911;1;1;1
2912;0;0;1
2913;0;0;1
2914;1;1;1
2915;0;1;2
2916;1;1;1
2917;1;1;2
2918;2;0;2
2919;1;0;3
2920;2;0;2
2921;1;0;3
2922;2;0;2
2923;1;0;3
2924;2;0;3
2925;2;1;3
2926;2;2;3
2927;2;1;3
2928;1;2;3
2929;2;0;2
2930;1;1;2
2931;1;0;2
2932;2;1;3
2933;1;1;4
2934;2;1;3
2935;1;1;4
2936;2;1;3
2937;1;1;4
2938;2;1;3
2939;1;1;4
2940;2;0;3
2941;1;1;3
2942;2;0;3
2943;1;0;4
2944;1;0;3
2945;0;0;3
2946;1;0;4
2947;2;0;3
2948;1;1;4
2949;1;1;3
2950;1;0;3
2951;1;1;2
2952;2;2;3
2953;2;2;3
2954;2;1;3
2955;2;1;3
2956;2;1;3
2957;1;2;3
2958;2;3;3
2959;2;3;3
2960;2;2;2
2961;1;2;3
2962;2;2;2
2963;1;1;3
2964;1;0;2
2965;1;0;2
2966;2;1;1
2967;1;0;2
2968;1;1;2
2969;1;2;3
2970;2;1;2
2971;1;0;3
2972;1;0;2
2973;1;0;2
2974;1;0;2
2975;1;2;2
2976;1;1;1
2977;0;0;1
2978;0;0;1
2979;1;0;0
2980;0;1;0
2981;0;1;1
2982;1;1;1
2983;1;1;1
2984;0;0;2
2985;0;1;1
2986;1;0;0
2987;1;1;0
2988;0;1;1
2989;0;1;1
2990;1;0;0
2991;1;1;1
2992;1;1;1
2993;1;0;2
2994;1;0;1
2995;0;0;1
2996;1;0;1
2997;1;1;0
2998;1;0;1
2999;1;0;1
3000;1;0;1
3001;1;1;2
3002;2;1;1
3003;1;0;2
3004;2;1;1
3005;1;1;2
3006;2;0;2
3007;2;1;2
3008;2;0;2
3009;2;0;2
3010;1;0;2
3011;2;1;2
3012;2;1;2
3013;2;1;2
3014;2;0;2
3015;2;0;2
3016;2;1;2
3017;2;0;2
3018;1;1;2
3019;1;0;1
3020;1;1;1
3021;2;0;1
3022;1;0;1
3023;2;0;0
3024;2;0;1
3025;2;0;1
3026;2;0;1
3027;2;0;1
3028;2;0;0
3029;2;0;0
3030;1;0;0
3031;1;0;1
3032;1;0;0
3033;0;1;1
3034;1;0;0
3035;0;1;1
3036;0;1;0
3037;0;1;1
3038;1;1;0
3039;1;1;1
3040;1;1;1
3041;1;0;1
3042;1;0;1
3043;1;1;0
3044;0;0;1
3045;1;1;0
3046;0;1;1
3047;0;1;0
3048;1;1;0
3049;0;1;0
3050;0;1;0
3051;1;2;1
3052;1;1;1
3053;0;1;1
3054;1;1;0
3055;1;1;1
3056;1;1;1
3057;1;1;0
3058;1;1;1
3059;1;1;1
3060;0;0;1
3061;1;0;1
3062;1;0;1
3063;1;0;1
3064;1;0;0
3065;1;1;0
3066;0;0;0
3067;0;0;1
3068;0;1;0
3069;2;0;1
3070;1;0;1
3071;2;0;1
3072;1;0;2
3073;1;0;1
3074;1;1;2
3075;2;1;1
3076;1;0;1
3077;2;0;1
3078;1;1;1
3079;1;1;1
3080;1;1;2
3081;1;0;1
3082;1;1;2
3083;1;1;1
3084;1;1;1
3085;1;1;0
3086;0;1;0
3087;0;1;0
3088;1;1;0
3089;1;1;0
3090;0;2;0
3091;0;3;1
3092;1;3;0
3093;0;2;1
3094;0;2;1
3095;1;2;1
3096;1;2;0
3097;2;2;0
3098;1;2;0
3099;0;1;1
3100;1;1;0
3101;0;1;1
3102;1;1;0
3103;0;2;1
3104;0;2;0
3105;1;2;0
3106;2;3;0
3107;1;3;1
3108;1;3;1
3109;2;3;1
3110;1;3;1
3111;1;3;0
3112;0;3;1
3113;1;3;1
3114;1;2;1
3115;0;2;1
3116;1;2;1
3117;1;2;1
3118;0;2;1
3119;1;2;0
3120;1;2;0
3121;0;3;1
3122;1;3;1
3123;1;3;0
3124;1;2;0
3125;0;2;0
3126;1;2;0
3127;0;2;1
3128;1;1;0
3129;1;0;1
3130;2;1;0
3131;1;1;1
3132;2;1;0
3133;1;1;0
3134;0;1;1
3135;1;1;1
3136;1;1;0
3137;0;1;1
3138;1;3;0
3139;0;3;0
3140;1;3;1
3141;1;3;1
3142;1;2;1
3143;1;3;1
3144;1;3;1
3145;1;2;0
3146;1;1;1
3147;1;1;1
3148;1;2;1
3149;1;1;1
3150;1;0;1
3151;1;0;0
3152;0;1;1
3153;1;0;1
3154;1;1;1
3155;1;1;1
3156;0;1;1
3157;1;0;1
3158;0;0;1
3159;1;0;1
3160;1;1;1
3161;1;1;1
3162;1;0;1
3163;1;1;2
3164;2;0;2
3165;2;1;2
3166;2;0;2
3167;2;1;2
3168;2;0;2
3169;2;0;1
3170;2;2;2
3171;2;2;2
3172;2;2;2
3173;2;1;2
3174;1;1;2
3175;1;0;1
3176;0;1;1
3177;0;0;1
3178;1;1;0
3179;1;1;1
3180;1;1;1
3181;0;1;2
3182;1;1;1
3183;0;1;1
3184;1;0;0
3185;0;1;0
3186;0;0;1
3187;1;0;0
3188;1;1;1
3189;1;0;1
3190;0;1;1
3191;1;1;0
3192;0;1;1
3193;1;1;0
3194;1;0;1
3195;1;1;1
3196;1;1;2
3197;2;1;1
3198;1;1;1
3199;1;2;0
3200;1;1;0
3201;1;1;0
3202;0;1;1
3203;1;1;0
3204;0;0;1
3205;0;0;0
3206;1;0;1
3207;1;1;0
3208;1;0;0
3209;1;0;0
3210;0;0;1
3211;0;1;0
3212;1;1;1
3213;1;1;0
3214;1;2;0
3215;1;2;0
3216;0;1;2
3217;1;1;1
3218;1;0;1
3219;0;0;1
3220;1;1;1
3221;1;1;0
3222;0;1;1
3223;1;0;0
3224;0;0;1
3225;1;0;1
3226;0;0;1
3227;1;0;1
3228;1;0;1
3229;1;0;0
3230;0;1;1
3231;1;0;1
3232;1;1;1
3233;1;1;0
3234;0;1;1
3235;0;0;0
3236;0;1;1
3237;0;2;0
3238;1;3;1
3239;1;3;1
3240;1;3;2
3241;1;2;2
3242;1;2;2
3243;0;2;2
3244;1;1;2
3245;0;0;2
3246;1;1;1
3247;0;0;2
3248;1;1;2
3249;1;0;2
3250;1;0;3
3251;2;0;2
3252;1;1;2
3253;2;1;2
3254;1;1;2
3255;2;0;2
3256;1;1;3
3257;1;0;2
3258;1;1;2
3259;1;0;1
3260;0;0;1
3261;0;0;0
3262;0;0;0
3263;1;1;1
3264;0;0;1
3265;1;1;2
3266;2;1;1
3267;1;0;2
3268;1;0;1
3269;0;1;1
3270;1;0;1
3271;0;1;2
3272;1;1;1
3273;0;0;2
3274;1;1;1
3275;0;1;1
3276;1;0;2
3277;1;1;2
3278;1;0;2
3279;1;1;2
3280;1;1;2
3281;1;0;2
3282;1;1;2
3283;1;1;2
3284;0;1;2
3285;0;0;2
3286;1;1;1
3287;0;1;1
3288;0;1;1
3289;0;2;1
3290;0;2;0
3291;1;1;0
3292;0;1;0
3293;0;0;1
3294;1;2;0
3295;1;3;0
3296;0;4;1
3297;0;3;1
3298;0;3;1
3299;1;3;0
3300;0;2;1
3301;1;1;0
3302;0;1;1
3303;1;1;0
3304;0;1;0
3305;1;0;1
3306;0;0;1
3307;1;1;1
3308;0;1;2
3309;0;1;1
3310;1;0;0
3311;0;1;1
3312;1;0;0
3313;0;1;1
3314;1;0;0
3315;0;1;0
3316;0;1;1
3317;1;1;1
3318;0;1;1
3319;0;0;1
3320;1;0;1
3321;0;1;1
3322;0;1;0
3323;0;2;0
3324;0;2;0
3325;0;2;1
3326;0;2;0
3327;1;1;0
3328;0;1;1
3329;1;0;0
3330;0;0;1
3331;1;1;0
3332;1;1;1
3333;1;0;1
3334;1;0;1
3335;1;1;1
3336;1;0;0
3337;1;0;1
3338;1;1;1
3339;0;1;1
3340;1;0;1
3341;1;0;1
3342;1;1;0
3343;1;1;1
3344;1;0;1
3345;0;1;1
3346;1;1;1
3347;1;1;1
3348;1;1;1
3349;1;1;0
3350;0;0;0
3351;0;1;0
3352;0;1;0
3353;1;1;0
3354;0;2;0
3355;1;2;0
3356;0;2;1
3357;0;2;0
3358;0;2;0
3359;0;2;1
3360;0;2;0
3361;0;1;1
3362;0;0;0
3363;1;1;1
3364;0;1;1
3365;1;0;1
3366;0;1;1
3367;1;1;0
3368;1;1;1
3369;1;2;1
3370;1;0;1
3371;1;1;1
3372;1;1;1
3373;1;1;1
3374;1;2;0
3375;1;2;1
3376;1;2;0
3377;0;2;1
3378;0;2;0
3379;0;2;0
3380;0;2;1
3381;0;2;0
3382;1;2;0
3383;0;3;0
3384;1;2;0
3385;0;2;0
3386;1;2;1
3387;1;2;0
3388;0;1;1
3389;0;2;0
3390;0;2;0
3391;0;2;1
3392;1;1;0
3393;0;0;1
3394;1;1;0
3395;0;1;0
3396;0;1;1
3397;0;1;0
3398;0;1;0
3399;0;0;1
3400;1;0;0
3401;0;1;1
3402;0;2;0
3403;1;1;0
3404;0;1;1
3405;0;0;1
3406;0;1;0
3407;0;0;1
3408;0;1;0
3409;1;1;0
3410;1;1;1
3411;1;1;1
3412;1;1;1
3413;1;1;2
3414;2;1;1
3415;1;1;1
3416;1;0;2
3417;1;0;1
3418;1;1;2
3419;2;0;2
3420;2;0;2
3421;2;0;2
3422;1;0;2
3423;2;0;3
3424;2;1;2
3425;2;1;2
3426;2;1;1
3427;1;1;2
3428;1;0;1
3429;1;0;2
3430;2;1;1
3431;2;1;2
3432;1;1;2
3433;2;1;3
3434;3;1;2
3435;2;1;3
3436;3;0;2
3437;3;0;3
3438;2;1;3
3439;3;1;3
3440;3;1;3
3441;3;1;3
3442;2;1;3
3443;2;1;3
3444;2;0;3
3445;2;0;3
3446;2;1;3
3447;2;2;3
3448;2;2;3
3449;1;2;3
3450;2;3;2
3451;1;2;3
3452;2;2;2
3453;1;2;3
3454;2;2;2
3455;1;2;3
3456;1;1;3
3457;2;0;3
3458;2;1;3
3459;2;0;3
3460;3;1;4
3461;3;0;5
3462;3;0;4
3463;3;0;4
3464;3;0;3
3465;2;0;3
3466;2;1;3
3467;1;1;3
3468;2;1;2
3469;1;1;3
3470;2;1;3
3471;2;1;3
3472;2;0;2
3473;2;1;3
3474;2;1;3
3475;1;1;3
3476;2;0;2
3477;2;0;3
3478;2;0;3
3479;1;1;3
3480;2;0;4
3481;3;0;3
3482;2;1;4
3483;2;0;3
3484;2;1;4
3485;3;0;3
3486;2;1;3
3487;3;0;2
3488;2;0;3
3489;2;0;2
3490;1;1;3
3491;1;0;2
3492;1;1;2
3493;1;0;1
3494;0;0;1
3495;0;1;0
3496;0;0;0
3497;1;0;1
3498;0;0;2
3499;1;1;1
3500;0;0;2
3501;0;0;1
3502;1;0;0
3503;1;1;0
3504;0;1;0
3505;1;2;1
3506;1;2;0
3507;0;2;0
3508;1;2;0
3509;1;2;1
3510;2;1;1
3511;2;0;1
3512;2;0;0
3513;1;1;1
3514;2;2;1
3515;1;1;1
3516;2;1;1
3517;1;1;1
3518;2;0;1
3519;2;0;1
3520;2;1;0
3521;1;1;0
3522;0;0;1
3523;0;0;0
3524;0;1;0
3525;0;0;1
3526;1;0;0
3527;0;2;1
3528;1;1;0
3529;0;0;1
3530;0;0;0
3531;0;1;0
3532;0;0;1
3533;1;1;0
3534;0;2;0
3535;1;1;0
3536;0;0;1
3537;0;1;0
3538;1;1;1
3539;1;1;1
3540;1;1;0
3541;0;1;1
3542;1;1;0
3543;1;1;1
3544;1;0;1
3545;1;0;1
3546;0;1;1
3547;1;0;0
3548;0;1;1
3549;1;0;0
3550;0;1;1
3551;0;0;0
3552;1;1;0
3553;0;2;1
3554;1;2;0
3555;0;1;0
3556;0;0;1
3557;0;0;0
3558;0;0;1
3559;1;1;0
3560;0;0;1
3561;0;1;0
3562;1;2;0
3563;1;1;0
3564;0;1;2
3565;1;1;1
3566;0;0;2
3567;0;0;1
3568;1;0;1
3569;0;1;1
3570;1;0;0
3571;0;0;0
3572;0;1;1
3573;0;0;0
3574;1;1;1
3575;1;0;1
3576;1;0;0
3577;1;1;1
3578;0;0;2
3579;1;1;1
3580;0;1;1
3581;0;0;2
3582;1;0;1
3583;0;1;1
3584;1;1;2
3585;1;0;1
3586;1;0;1
3587;1;1;1
3588;0;0;1
3589;1;0;1
3590;1;0;1
3591;1;0;0
3592;0;1;0
3593;1;1;0
3594;1;0;0
3595;0;0;0
3596;0;0;1
3597;1;0;0
3598;0;1;1
3599;1;1;0
3600;1;0;1
3601;1;1;1
3602;1;1;1
3603;1;1;1
3604;1;0;1
3605;2;0;1
3606;1;1;2
3607;2;0;1
3608;1;0;2
3609;2;0;1
3610;1;0;2
3611;2;0;1
3612;1;0;2
3613;2;0;1
3614;1;0;1
3615;1;0;0
3616;0;0;1
3617;0;1;0
3618;0;1;0
3619;1;0;1
3620;0;0;1
3621;0;1;0
3622;0;1;0
3623;0;1;1
3624;0;1;1
3625;1;1;1
3626;0;2;1
3627;0;2;0
3628;1;1;0
3629;0;1;0
3630;1;0;1
3631;1;1;0
3632;1;0;0
3633;0;1;0
3634;0;1;0
3635;0;0;1
3636;0;1;0
3637;1;0;1
3638;1;0;1
3639;1;1;0
3640;0;1;1
3641;1;0;1
3642;1;0;0
3643;0;0;1
3644;0;0;0
3645;1;0;0
3646;1;0;0
3647;0;1;1
3648;0;1;0
3649;0;1;1
3650;0;0;1
3651;1;1;0
3652;1;1;1
3653;0;2;1
3654;1;0;2
3655;1;0;2
3656;2;0;1
3657;1;0;2
3658;2;0;1
3659;1;1;2
3660;2;1;1
3661;1;0;2
3662;2;0;1
3663;1;0;2
3664;1;1;1
3665;1;1;1
3666;1;1;1
3667;0;1;1
3668;0;1;1
3669;1;1;1
3670;1;1;2
3671;1;0;1
3672;2;1;1
3673;1;0;1
3674;2;1;0
3675;2;1;1
3676;2;1;1
3677;3;0;1
3678;2;1;1
3679;2;0;1
3680;1;1;2
3681;2;1;1
3682;2;1;1
3683;3;1;1
3684;3;1;1
3685;2;0;2
3686;3;1;1
3687;2;1;2
3688;2;1;1
3689;2;1;1
3690;2;1;0
3691;2;0;1
3692;2;0;1
3693;2;1;1
3694;1;1;1
3695;2;1;1
3696;2;1;1
3697;2;2;1
3698;2;2;1
3699;2;1;0
3700;1;1;1
3701;2;1;0
3702;1;1;1
3703;1;1;0
3704;1;0;1
3705;1;1;0
3706;0;0;1
3707;1;0;1
3708;1;1;1
3709;0;1;2
3710;1;2;1
3711;0;1;2
3712;1;1;1
3713;0;0;1
3714;1;0;1
3715;0;1;1
3716;0;2;0
3717;1;2;0
3718;1;2;0
3719;0;2;0
3720;1;2;1
3721;1;2;0
3722;1;1;1
3723;1;1;1
3724;1;1;0
3725;0;1;1
3726;1;0;0
3727;0;0;0
3728;1;0;0
3729;0;0;1
3730;1;1;1
3731;1;0;0
3732;1;1;1
3733;1;1;1
3734;1;1;0
3735;1;1;0
3736;0;1;1
3737;0;1;0
3738;0;1;0
3739;0;0;0
3740;0;1;1
3741;0;1;0
3742;1;1;1
3743;1;0;1
3744;0;0;1
3745;0;1;1
3746;1;1;0
3747;0;1;0
3748;1;1;0
3749;1;0;1
3750;1;0;1
3751;1;0;1
3752;0;0;1
3753;1;1;0
3754;0;1;1
3755;0;0;0
3756;1;1;1
3757;0;1;1
3758;0;1;0
3759;1;0;0
3760;2;1;0
3761;1;1;0
3762;0;2;2
3763;0;2;1
3764;1;2;1
3765;1;2;1
3766;1;2;1
3767;0;3;1
3768;1;3;1
3769;1;3;1
3770;1;3;1
3771;1;2;1
3772;1;2;1
3773;1;2;1
3774;1;1;1
3775;2;2;1
3776;1;2;1
3777;2;2;1
3778;1;2;2
3779;2;2;1
3780;1;3;1
3781;1;2;2
3782;2;2;1
3783;1;2;2
3784;2;2;1
3785;1;1;1
3786;1;0;1
3787;1;0;2
3788;2;0;1
3789;1;1;1
3790;2;1;0
3791;1;1;1
3792;1;1;0
3793;1;1;0
3794;0;0;0
3795;1;1;0
3796;0;1;0
3797;1;1;1
3798;1;1;0
3799;0;1;0
3800;1;2;1
3801;1;1;0
3802;1;1;1
3803;2;2;0
3804;1;2;1
3805;1;2;0
3806;2;1;0
3807;1;1;0
3808;1;0;1
3809;1;1;1
3810;2;0;0
3811;1;0;0
3812;1;1;1
3813;1;1;1
3814;1;0;0
3815;1;0;0
3816;0;0;1
3817;0;1;0
3818;1;1;1
3819;1;1;0
3820;1;0;1
3821;2;1;0
3822;1;1;0
3823;0;1;0
3824;0;0;0
3825;1;1;0
3826;1;0;0
3827;0;0;1
3828;1;0;0
3829;0;0;0
3830;0;1;1
3831;0;0;0
3832;1;1;0
3833;1;1;0
3834;0;1;1
3835;1;0;0
3836;0;0;1
3837;1;0;1
3838;1;0;0
3839;0;0;1
3840;1;0;0
3841;0;0;1
3842;0;0;0
3843;1;0;1
3844;2;0;0
3845;1;0;0
3846;0;1;1
3847;1;0;0
3848;0;0;1
3849;1;0;0
3850;0;0;1
3851;0;0;0
3852;1;0;0
3853;0;0;0
3854;0;0;0
3855;1;0;1
3856;1;1;1
3857;1;0;1
3858;1;0;0
3859;0;1;1
3860;1;1;0
3861;0;1;1
3862;1;0;0
3863;0;1;0
3864;0;1;0
3865;1;1;0
3866;0;0;1
3867;0;0;0
3868;0;1;0
3869;1;1;1
3870;1;0;1
3871;1;0;1
3872;1;0;1
3873;0;0;1
3874;1;0;0
3875;1;1;1
3876;1;1;1
3877;1;1;0
3878;1;1;0
3879;0;2;1
3880;1;2;0
3881;0;1;0
3882;0;0;0
3883;0;0;1
3884;1;0;0
3885;0;1;0
3886;1;1;1
3887;2;0;1
3888;1;0;1
3889;1;1;1
3890;0;1;1
3891;1;1;1
3892;1;0;1
3893;1;0;1
3894;0;0;1
3895;1;0;1
3896;1;1;1
3897;1;2;1
3898;0;2;1
3899;1;2;0
3900;1;2;1
3901;1;3;0
3902;1;4;1
3903;1;3;0
3904;2;3;1
3905;1;3;1
3906;2;2;0
3907;1;2;0
3908;1;1;0
3909;0;1;1
3910;1;0;0
3911;0;1;1
3912;1;1;0
3913;0;1;0
3914;0;0;0
3915;0;1;1
3916;0;1;1
3917;1;0;0
3918;0;1;1
3919;1;0;0
3920;1;0;1
3921;1;0;1
3922;1;0;0
3923;0;1;1
3924;1;1;1
3925;1;2;1
3926;2;3;2
3927;2;3;2
3928;2;3;2
3929;1;3;2
3930;2;3;1
3931;1;3;1
3932;2;3;1
3933;2;4;1
3934;1;3;1
3935;1;3;0
3936;1;2;0
3937;0;3;0
3938;0;2;0
3939;1;2;0
3940;0;2;0
3941;1;2;1
3942;1;2;0
3943;1;1;0
3944;0;0;1
3945;1;1;0
3946;0;0;1
3947;0;0;0
3948;0;1;1
3949;0;1;0
3950;1;1;1
3951;0;0;1
3952;1;1;0
3953;0;1;0
3954;0;1;1
3955;1;1;1
3956;2;0;1
3957;1;0;1
3958;1;0;0
3959;1;0;1
3960;1;0;1
3961;2;1;0
3962;1;0;0
3963;0;1;0
3964;1;0;0
3965;0;0;1
3966;1;0;0
3967;0;0;1
3968;1;1;0
3969;0;1;1
3970;1;1;0
3971;0;0;1
3972;0;1;0
3973;1;0;1
3974;2;1;0
3975;1;0;0
3976;0;0;1
3977;0;0;0
3978;2;0;1
3979;2;1;0
3980;2;0;1
3981;2;0;1
3982;2;0;1
3983;2;0;0
3984;2;0;0
3985;2;0;0
3986;2;1;1
3987;2;0;1
3988;2;1;0
3989;2;0;0
3990;1;1;0
3991;1;1;0
3992;1;0;0
3993;0;1;1
3994;0;1;0
3995;1;1;0
3996;1;1;1
3997;1;0;1
3998;1;1;0
3999;1;1;1
4000;1;0;0
4001;1;0;1
4002;2;0;0
4003;1;0;0
4004;1;1;1
4005;1;0;1
4006;2;1;0
4007;1;1;0
4008;1;1;1
4009;1;1;0
4010;1;2;1
4011;1;2;1
4012;2;2;0
4013;1;1;0
4014;1;2;1
4015;1;2;0
4016;0;2;1
4017;1;2;0
4018;0;1;0
4019;1;0;1
4020;1;1;0
4021;0;1;0
4022;1;0;1
4023;1;0;0
4024;0;1;1
4025;0;1;0
4026;1;1;0
4027;0;2;0
4028;1;2;1
4029;1;2;1
4030;1;3;1
4031;1;2;0
4032;1;3;0
4033;0;3;1
4034;0;3;0
4035;1;2;0
4036;0;2;0
4037;0;0;1
4038;0;1;0
4039;1;1;1
4040;1;0;1
4041;1;0;1
4042;0;1;1
4043;1;0;0
4044;0;0;1
4045;0;0;0
4046;1;2;1
4047;0;1;1
4048;0;0;1
4049;1;0;1
4050;0;0;2
4051;0;1;1
4052;0;1;1
4053;0;1;0
4054;1;1;0
4055;1;1;1
4056;1;1;1
4057;1;1;1
4058;1;1;1
4059;1;2;1
4060;1;2;1
4061;0;2;1
4062;1;1;0
4063;0;0;1
4064;1;0;0
4065;0;0;0
4066;0;0;1
4067;0;0;1
4068;0;1;0
4069;0;0;0
4070;0;1;1
4071;0;1;1
4072;0;1;0
4073;0;1;0
4074;0;1;1
4075;0;1;1
4076;1;2;0
4077;0;1;0
4078;0;1;1
4079;0;1;1
4080;2;1;0
4081;1;1;0
4082;1;0;1
4083;1;0;1
4084;1;0;1
4085;1;1;0
4086;1;1;1
4087;1;1;0
4088;1;2;1
4089;1;1;0
4090;0;1;1
4091;1;0;1
4092;0;0;1
4093;0;1;0
4094;0;0;1
4095;1;1;0
4096;0;1;0
4097;1;1;1
4098;0;1;1
4099;0;1;1
4100;1;1;0
4101;1;0;1
4102;0;0;2
4103;0;1;1
4104;0;1;1
4105;0;1;0
4106;1;1;1
4107;0;1;1
4108;0;0;0
4109;0;0;0
4110;0;0;0
4111;0;1;1
4112;1;1;1
4113;1;0;1
4114;0;1;1
4115;0;1;2
4116;1;2;1
4117;1;1;2
4118;1;1;2
4119;1;2;1
4120;0;2;2
4121;1;2;1
4122;0;1;1
4123;1;1;0
4124;0;1;1
4125;0;1;0
4126;0;0;1
4127;1;1;0
4128;0;0;1
4129;1;0;0
4130;1;1;1
4131;0;1;1
4132;1;0;0
4133;1;1;1
4134;0;1;1
4135;1;0;1
4136;1;1;1
4137;1;0;1
4138;1;1;0
4139;0;1;1
4140;0;1;2
4141;0;1;1
4142;1;1;1
4143;2;1;2
4144;1;0;2
4145;1;0;2
4146;1;0;2
4147;2;0;1
4148;1;0;2
4149;1;1;2
4150;2;1;1
4151;3;1;1
4152;2;1;2
4153;2;0;2
4154;2;1;3
4155;3;0;2
4156;2;0;3
4157;3;0;3
4158;3;0;3
4159;3;1;3
4160;3;1;3
4161;4;0;3
4162;3;1;4
4163;4;0;3
4164;3;0;3
4165;3;0;3
4166;2;0;4
4167;2;1;3
4168;2;0;4
4169;2;1;3
4170;2;1;3
4171;2;1;3
4172;2;1;3
4173;1;1;4
4174;2;1;4
4175;2;1;3
4176;1;1;3
4177;2;0;2
4178;1;1;3
4179;1;1;2
4180;2;1;3
4181;2;1;3
4182;2;1;4
4183;2;0;3
4184;1;1;3
4185;2;1;4
4186;2;1;3
4187;3;1;3
4188;3;0;4
4189;3;1;4
4190;2;1;4
4191;3;1;3
4192;3;0;4
4193;3;1;3
4194;2;1;4
4195;3;1;3
4196;2;0;4
4197;3;1;3
4198;2;1;4
4199;3;0;3
4200;2;1;4
4201;3;0;3
4202;2;1;4
4203;3;0;3
4204;2;1;4
4205;3;1;3
4206;2;1;4
4207;3;0;3
4208;2;0;4
4209;3;0;3
4210;2;1;3
4211;3;1;3
4212;2;1;3
4213;2;1;3
4214;1;1;3
4215;1;1;3
4216;1;2;3
4217;1;2;2
4218;0;3;3
4219;1;2;2
4220;1;2;3
4221;1;1;3
4222;1;0;3
4223;0;0;3
4224;1;0;3
4225;0;1;3
4226;1;1;2
4227;0;0;3
4228;1;0;2
4229;0;1;3
4230;1;0;2
4231;0;1;2
4232;0;1;1
4233;1;0;1
4234;2;1;1
4235;1;0;1
4236;0;1;2
4237;1;0;1
4238;1;0;2
4239;1;0;1
4240;0;1;2
4241;1;0;2
4242;0;0;2
4243;0;1;2
4244;1;0;1
4245;0;0;2
4246;1;2;1
4247;0;2;1
4248;1;2;1
4249;0;1;1
4250;1;1;1
4251;0;0;1
4252;0;1;1
4253;0;1;1
4254;0;1;0
4255;0;0;0
4256;1;1;1
4257;1;1;1
4258;0;0;2
4259;1;1;1
4260;0;0;2
4261;1;0;1
4262;0;1;2
4263;0;1;1
4264;0;0;0
4265;0;0;0
4266;1;1;1
4267;0;1;2
4268;1;0;1
4269;0;1;1
4270;0;1;1
4271;0;0;0
4272;0;1;1
4273;1;1;1
4274;0;1;1
4275;1;0;1
4276;0;0;2
4277;1;0;1
4278;1;1;2
4279;0;1;2
4280;0;0;1
4281;0;1;0
4282;0;1;1
4283;0;1;0
4284;1;1;0
4285;2;1;0
4286;1;1;1
4287;2;1;1
4288;2;1;0
4289;1;1;0
4290;0;1;1
4291;1;0;0
4292;0;1;1
4293;1;1;0
4294;0;1;1
4295;0;1;0
4296;1;0;0
4297;0;1;1
4298;1;0;0
4299;0;1;1
4300;1;1;0
4301;0;0;0
4302;1;0;1
4303;1;1;0
4304;2;2;0
4305;1;1;1
4306;1;1;0
4307;1;0;0
4308;0;0;0
4309;1;0;1
4310;1;1;1
4311;0;1;1
4312;1;1;0
4313;1;1;0
4314;0;0;1
4315;0;0;1
4316;1;0;0
4317;0;0;1
4318;0;0;1
4319;1;1;1
4320;0;1;1
4321;0;0;1
4322;0;1;0
4323;1;1;0
4324;0;1;1
4325;1;1;0
4326;0;2;0
4327;0;2;1
4328;1;2;0
4329;0;2;0
4330;1;1;1
4331;1;1;0
4332;1;0;1
4333;1;0;0
4334;1;1;1
4335;1;1;0
4336;0;1;1
4337;0;1;1
4338;0;2;1
4339;2;1;0
4340;1;1;1
4341;1;0;1
4342;1;1;0
4343;1;1;1
4344;1;1;1
4345;0;1;1
4346;1;0;0
4347;0;1;1
4348;0;0;0
4349;1;0;1
4350;1;0;1
4351;1;0;1
4352;1;1;1
4353;1;0;1
4354;1;0;1
4355;1;1;0
4356;0;0;0
4357;1;1;0
4358;0;0;1
4359;1;1;0
4360;0;1;0
4361;0;0;1
4362;1;0;0
4363;0;1;1
4364;1;0;0
4365;0;1;0
4366;0;1;0
4367;1;1;0
4368;1;0;1
4369;1;0;1
4370;1;1;1
4371;1;1;1
4372;0;1;1
4373;1;1;0
4374;1;2;1
4375;1;2;0
4376;0;2;1
4377;0;2;0
4378;1;2;0
4379;1;2;0
4380;0;1;1
4381;1;0;0
4382;0;1;1
4383;1;1;0
4384;0;1;0
4385;1;0;1
4386;1;1;1
4387;1;0;1
4388;1;1;2
4389;1;1;1
4390;1;1;2
4391;1;1;1
4392;1;1;2
4393;2;2;1
4394;2;2;1
4395;2;2;2
4396;2;1;3
4397;2;1;2
4398;1;0;2
4399;2;0;1
4400;2;0;1
4401;2;0;0
4402;2;1;1
4403;2;0;2
4404;3;1;1
4405;2;0;2
4406;3;0;1
4407;2;0;1
4408;3;1;0
4409;2;1;0
4410;3;1;0
4411;2;1;1
4412;3;1;0
4413;2;0;0
4414;2;1;1
4415;2;1;0
4416;1;2;1
4417;2;1;0
4418;1;1;1
4419;2;0;0
4420;1;2;1
4421;1;2;0
4422;1;3;0
4423;0;2;1
4424;1;2;0
4425;0;1;1
4426;0;1;0
4427;1;0;1
4428;2;1;0
4429;2;1;1
4430;2;1;1
4431;2;1;1
4432;2;1;1
4433;2;0;0
4434;2;0;1
4435;2;0;0
4436;1;0;0
4437;0;1;0
4438;0;1;1
4439;0;1;0
4440;1;0;1
4441;1;1;0
4442;1;0;0
4443;1;1;0
4444;0;1;2
4445;0;1;1
4446;1;0;0
4447;1;1;1
4448;1;1;1
4449;1;1;1
4450;1;1;1
4451;1;1;1
4452;1;1;1
4453;1;1;1
4454;1;0;0
4455;1;0;0
4456;0;0;1
4457;0;1;0
4458;0;1;0
4459;1;1;1
4460;1;1;0
4461;1;1;1
4462;2;1;0
4463;1;1;0
4464;0;1;1
4465;1;1;0
4466;0;1;0
4467;1;0;1
4468;1;1;1
4469;1;0;1
4470;1;1;1
4471;1;1;1
4472;1;2;0
4473;0;1;1
4474;1;0;0
4475;0;1;1
4476;1;2;0
4477;0;2;0
4478;1;2;1
4479;1;2;0
4480;1;2;1
4481;1;2;1
4482;1;1;1
4483;1;1;1
4484;1;0;1
4485;1;1;0
4486;1;1;1
4487;1;1;1
4488;0;1;1
4489;1;1;1
4490;0;1;1
4491;0;0;0
4492;0;1;1
4493;1;1;1
4494;0;0;2
4495;1;0;1
4496;0;1;1
4497;1;1;1
4498;0;1;1
4499;0;1;1
4500;0;0;0
4501;1;0;0
4502;1;1;0
4503;0;1;0
4504;1;1;1
4505;1;1;1
4506;0;1;1
4507;0;2;0
4508;0;3;1
4509;0;4;0
4510;1;4;1
4511;1;5;1
4512;1;5;1
4513;1;5;0
4514;0;5;0
4515;0;5;0
4516;1;6;1
4517;1;6;1
4518;0;6;1
4519;1;5;1
4520;1;4;1
4521;1;4;0
4522;0;4;1
4523;1;4;0
4524;0;3;1
4525;0;3;1
4526;1;3;2
4527;1;3;2
4528;0;3;2
4529;0;3;1
4530;1;3;0
4531;0;2;0
4532;1;2;2
4533;0;3;2
4534;1;3;2
4535;1;3;2
4536;1;2;2
4537;1;1;2
4538;1;1;2
4539;0;0;2
4540;1;1;2
4541;1;1;2
4542;1;1;1
4543;1;1;2
4544;1;1;1
4545;0;1;2
4546;1;0;1
4547;0;1;1
4548;1;0;0
4549;0;0;1
4550;1;0;0
4551;0;1;1
4552;0;1;0
4553;1;1;1
4554;0;2;1
4555;1;2;1
4556;2;1;0
4557;1;0;1
4558;2;1;0
4559;1;1;1
4560;1;0;0
4561;1;1;1
4562;2;1;0
4563;1;1;1
4564;2;1;0
4565;1;0;0
4566;0;1;1
4567;0;0;1
4568;0;1;0
4569;1;1;0
4570;0;1;1
4571;0;1;0
4572;1;0;0
4573;1;1;0
4574;1;0;0
4575;0;1;1
4576;1;1;0
4577;0;1;1
4578;0;1;0
4579;1;1;1
4580;1;1;0
4581;0;1;1
4582;1;1;0
4583;0;0;0
4584;0;0;0
4585;1;0;1
4586;1;0;0
4587;1;0;0
4588;0;0;1
4589;1;1;0
4590;0;0;1
4591;0;0;0
4592;1;1;1
4593;2;0;0
4594;1;0;1
4595;2;1;0
4596;1;0;0
4597;1;0;1
4598;1;0;1
4599;2;0;0
4600;2;1;0
4601;1;1;0
4602;0;1;1
4603;1;2;1
4604;1;2;1
4605;2;1;0
4606;1;1;0
4607;0;1;1
4608;0;1;0
4609;1;2;1
4610;1;1;1
4611;2;2;1
4612;1;2;2
4613;1;1;2
4614;1;1;2
4615;2;1;2
4616;1;1;2
4617;1;2;2
4618;0;2;2
4619;1;2;2
4620;0;2;3
4621;1;3;2
4622;0;3;2
4623;1;2;2
4624;0;1;3
4625;1;1;2
4626;1;0;3
4627;0;0;3
4628;0;1;2
4629;1;0;1
4630;0;1;1
4631;1;2;0
4632;0;2;1
4633;1;1;0
4634;0;1;1
4635;0;1;0
4636;0;1;1
4637;0;1;0
4638;1;0;1
4639;1;0;1
4640;1;0;0
4641;0;0;0
4642;0;0;1
4643;0;1;0
4644;0;1;1
4645;1;1;0
4646;0;1;1
4647;0;1;0
4648;0;1;1
4649;1;0;1
4650;0;1;1
4651;0;1;1
4652;0;0;0
4653;1;1;1
4654;1;1;1
4655;1;1;0
4656;0;1;1
4657;1;1;2
4658;2;1;1
4659;2;1;2
4660;1;0;1
4661;0;1;1
4662;1;1;0
4663;1;1;1
4664;1;0;0
4665;1;0;1
4666;1;0;1
4667;1;0;1
4668;1;0;1
4669;0;0;1
4670;0;1;0
4671;1;1;1
4672;0;0;1
4673;0;0;1
4674;1;1;1
4675;1;1;1
4676;0;2;1
4677;0;2;0
4678;1;2;1
4679;0;1;1
4680;0;1;1
4681;1;0;0
4682;0;1;1
4683;0;1;0
4684;1;1;1
4685;0;0;1
4686;1;1;0
4687;0;1;0
4688;1;0;0
4689;0;0;0
4690;0;0;0
4691;1;0;1
4692;2;1;0
4693;1;0;0
4694;0;0;1
4695;0;0;1
4696;0;0;1
4697;0;1;1
4698;1;0;0
4699;1;1;0
4700;0;2;0
4701;1;2;1
4702;1;3;0
4703;1;3;1
4704;1;2;1
4705;1;1;1
4706;1;0;1
4707;0;0;1
4708;0;0;1
4709;0;0;0
4710;1;1;1
4711;0;1;1
4712;0;1;0
4713;0;0;1
4714;0;0;0
4715;0;1;1
4716;1;1;1
4717;1;2;1
4718;0;2;1
4719;1;3;0
4720;0;2;1
4721;1;2;0
4722;1;1;0
4723;1;0;0
4724;0;0;1
4725;0;1;0
4726;1;1;0
4727;0;1;0
4728;1;2;0
4729;0;1;1
4730;1;0;0
4731;0;1;1
4732;0;1;0
4733;1;0;0
4734;0;0;1
4735;0;1;0
4736;1;1;0
4737;1;2;1
4738;1;1;1
4739;2;1;0
4740;1;2;1
4741;2;2;0
4742;2;1;0
4743;1;1;1
4744;1;0;0
4745;1;0;0
4746;0;1;0
4747;1;2;0
4748;0;1;1
4749;1;1;0
4750;0;1;0
4751;0;1;1
4752;1;1;1
4753;1;0;2
4754;1;1;2
4755;2;0;2
4756;2;0;2
4757;1;1;2
4758;2;1;2
4759;1;1;2
4760;2;0;2
4761;1;1;3
4762;2;0;2
4763;1;0;3
4764;2;0;2
4765;1;1;2
4766;2;1;2
4767;1;0;2
4768;1;2;1
4769;0;2;1
4770;1;2;2
4771;1;3;3
4772;2;2;2
4773;1;2;2
4774;2;2;1
4775;1;1;2
4776;1;1;1
4777;1;1;2
4778;2;0;1
4779;2;1;1
4780;2;1;1
4781;2;1;0
4782;3;1;0
4783;2;0;1
4784;3;1;1
4785;3;1;1
4786;3;1;1
4787;3;2;1
4788;3;1;1
4789;3;1;1
4790;3;1;1
4791;3;1;0
4792;2;1;1
4793;3;1;0
4794;3;1;0
4795;2;2;1
4796;2;3;0
4797;1;2;1
4798;2;2;0
4799;1;2;0
4800;1;2;0
4801;0;1;0
4802;1;1;0
4803;0;0;1
4804;0;1;0
4805;1;2;0
4806;1;2;0
4807;1;2;0
4808;1;2;1
4809;1;1;0
4810;0;1;0
4811;0;1;0
4812;1;0;1
4813;1;1;0
4814;1;0;1
4815;1;0;0
4816;0;0;1
4817;1;0;1
4818;1;1;1
4819;0;0;1
4820;0;0;0
4821;0;1;1
4822;0;0;1
4823;1;0;0
4824;0;0;1
4825;1;0;0
4826;0;0;0
4827;0;0;1
4828;1;1;0
4829;0;1;1
4830;0;1;0
4831;1;1;0
4832;0;0;0
4833;1;1;1
4834;1;1;0
4835;0;1;1
4836;0;0;0
4837;1;0;0
4838;1;0;1
4839;1;0;1
4840;0;0;1
4841;1;0;1
4842;0;1;1
4843;0;0;0
4844;1;1;1
4845;0;1;1
4846;1;0;1
4847;0;0;2
4848;1;0;1
4849;0;0;1
4850;1;0;1
4851;0;0;1
4852;1;1;1
4853;1;1;1
4854;1;0;2
4855;1;1;2
4856;1;2;2
4857;0;1;2
4858;1;2;1
4859;1;2;1
4860;1;2;1
4861;0;1;2
4862;1;0;2
4863;1;0;2
4864;1;0;2
4865;0;0;2
4866;1;1;2
4867;0;0;2
4868;1;1;2
4869;1;1;2
4870;1;0;2
4871;0;0;2
4872;1;0;2
4873;0;1;2
4874;1;0;1
4875;0;2;2
4876;0;2;1
4877;1;1;1
4878;0;1;1
4879;1;1;0
4880;0;1;1
4881;0;1;1
4882;1;1;1
4883;2;1;2
4884;1;0;3
4885;1;1;3
4886;1;0;2
4887;1;1;2
4888;1;0;2
4889;1;0;2
4890;1;0;1
4891;1;1;1
4892;1;1;1
4893;0;0;1
4894;0;1;0
4895;0;1;0
4896;1;0;0
4897;1;0;1
4898;1;1;1
4899;0;1;1
4900;0;1;1
4901;0;0;0
4902;1;0;1
4903;1;0;1
4904;1;0;2
4905;2;1;1
4906;1;1;1
4907;1;2;1
4908;0;2;2
4909;0;2;1
4910;2;2;1
4911;2;2;1
4912;1;1;2
4913;1;1;1
4914;0;1;2
4915;1;0;1
4916;1;0;2
4917;0;1;2
4918;1;1;1
4919;0;0;1
4920;0;0;1
4921;1;0;1
4922;1;1;1
4923;1;1;2
4924;0;1;2
4925;1;2;1
4926;1;0;2
4927;1;1;1
4928;1;0;2
4929;1;1;3
4930;2;0;2
4931;1;1;2
4932;2;0;1
4933;1;1;2
4934;1;1;1
4935;2;1;2
4936;2;1;2
4937;2;1;2
4938;1;1;2
4939;2;1;1
4940;2;1;1
4941;2;1;1
4942;2;1;1
4943;2;1;1
4944;3;1;1
4945;2;1;2
4946;2;2;1
4947;2;1;1
4948;3;1;1
4949;2;1;2
4950;2;1;1
4951;2;0;2
4952;3;1;1
4953;2;1;1
4954;2;0;1
4955;2;0;2
4956;3;1;2
4957;3;1;2
4958;3;0;2
4959;3;1;3
4960;3;0;2
4961;3;1;2
4962;3;0;1
4963;2;1;2
4964;3;0;2
4965;2;0;2
4966;2;0;1
4967;1;0;1
4968;2;0;2
4969;2;0;1
4970;1;0;1
4971;1;1;0
4972;1;0;0
4973;2;0;0
4974;1;1;1
4975;1;0;0
4976;0;0;0
4977;0;1;0
4978;1;1;1
4979;1;0;1
4980;1;1;1
4981;1;1;1
4982;0;0;1
4983;1;1;1
4984;1;0;1
4985;1;1;0
4986;1;0;1
4987;1;0;0
4988;0;0;1
4989;0;0;1
4990;0;0;0
4991;1;0;1
4992;2;0;1
4993;1;0;1
4994;2;1;1
4995;1;0;1
4996;1;0;0
4997;0;1;1
4998;1;0;0
4999;0;0;0
