step;d2;d3;d1
1;0;0;0
2;0;0;0
3;0;0;0
4;0;0;0
5;0;0;0
6;0;0;0
7;0;0;0
8;0;0;0
9;0;0;0
10;0;0;0
11;0;0;0
12;0;0;0
13;0;0;0
14;0;0;0
15;0;0;0
16;0;0;0
17;0;0;0
18;0;0;0
19;0;0;0
20;0;0;0
21;0;0;0
22;0;0;0
23;0;0;0
24;0;0;0
25;0;0;0
26;0;0;0
27;0;0;0
28;0;0;0
29;0;0;0
30;0;0;0
31;0;0;0
32;0;0;0
33;0;0;0
34;0;0;0
35;0;0;0
36;0;0;0
37;0;0;0
38;0;0;0
39;0;0;0
40;0;0;0
41;0;0;0
42;0;0;0
43;0;0;0
44;0;0;0
45;0;0;0
46;0;0;0
47;0;0;0
48;0;0;0
49;0;0;0
50;0;0;0
51;0;0;0
52;0;0;0
53;0;0;0
54;0;0;0
55;0;0;0
56;0;0;0
57;0;0;0
58;0;0;0
59;0;0;0
60;0;0;0
61;0;0;0
62;0;0;0
63;0;0;0
64;0;0;0
65;0;0;0
66;0;0;0
67;0;0;0
68;0;0;0
69;0;0;0
70;0;0;0
71;0;0;0
72;0;0;0
73;0;1;0
74;0;0;0
75;0;0;0
76;0;0;0
77;0;0;0
78;0;1;1
79;0;1;0
80;1;1;0
81;0;2;0
82;0;3;0
83;0;2;0
84;0;2;1
85;1;1;0
86;0;1;0
87;1;2;0
88;0;3;0
89;0;3;2
90;1;3;1
91;1;3;0
92;2;2;0
93;2;1;1
94;1;1;0
95;2;0;0
96;1;0;1
97;1;0;0
98;2;0;1
99;2;0;1
100;1;0;2
101;1;1;1
102;1;0;0
103;1;1;1
104;2;1;0
105;1;2;0
106;1;3;0
107;1;2;1
108;1;2;0
109;1;1;1
110;1;0;2
111;0;0;1
112;1;1;1
113;1;1;1
114;1;1;3
115;1;1;3
116;1;1;2
117;0;1;2
118;0;1;2
119;0;1;1
120;0;2;0
121;0;1;1
122;0;2;0
123;1;3;0
124;1;4;0
125;1;5;0
126;0;5;0
127;1;5;0
128;1;5;0
129;1;6;1
130;1;6;0
131;2;6;0
132;1;6;0
133;2;6;0
134;2;5;0
135;1;5;1
136;1;5;1
137;1;5;0
138;0;5;0
139;1;5;1
140;0;5;0
141;0;5;1
142;1;4;1
143;0;5;0
144;0;4;1
145;0;4;1
146;0;5;1
147;1;5;0
148;0;5;0
149;1;4;1
150;0;5;0
151;0;5;1
152;2;5;1
153;2;5;1
154;2;5;1
155;1;6;0
156;0;7;0
157;0;8;2
158;0;9;2
159;0;10;2
160;0;11;2
161;1;11;2
162;2;11;1
163;2;11;0
164;1;12;1
165;0;13;0
166;1;13;0
167;2;13;0
168;2;12;0
169;1;12;2
170;1;12;1
171;2;12;0
172;2;12;0
173;1;12;0
174;1;12;0
175;0;12;0
176;0;12;0
177;0;12;2
178;0;11;2
179;0;11;2
180;0;11;2
181;0;10;1
182;1;11;0
183;1;11;1
184;1;10;1
185;0;10;0
186;0;9;0
187;1;8;0
188;0;8;0
189;0;8;0
190;0;7;1
191;0;7;0
192;0;6;1
193;0;6;1
194;2;6;0
195;2;6;0
196;3;6;0
197;3;6;1
198;4;5;1
199;4;5;1
200;4;4;0
201;3;4;1
202;3;4;0
203;2;5;1
204;2;6;0
205;1;7;0
206;1;6;0
207;0;7;2
208;0;6;1
209;0;7;1
210;1;7;0
211;1;7;0
212;2;7;1
213;3;7;0
214;2;8;0
215;3;7;1
216;4;8;0
217;2;9;1
218;2;10;0
219;1;10;1
220;1;10;0
221;2;10;0
222;1;11;0
223;1;11;0
224;0;12;0
225;0;13;1
226;1;12;0
227;0;12;1
228;0;12;0
229;0;12;0
230;0;11;0
231;0;11;0
232;1;10;0
233;1;10;0
234;2;10;0
235;1;10;0
236;0;10;0
237;2;9;0
238;1;9;0
239;1;10;0
240;1;10;1
241;1;10;0
242;1;11;0
243;2;11;0
244;2;11;1
245;2;11;0
246;1;11;0
247;0;12;1
248;0;12;1
249;2;12;0
250;2;11;0
251;3;11;0
252;3;10;0
253;3;11;0
254;2;12;0
255;3;12;1
256;3;12;1
257;4;12;1
258;3;13;0
259;4;13;0
260;5;12;0
261;4;12;0
262;4;12;0
263;4;13;0
264;4;13;0
265;5;12;0
266;5;11;0
267;4;12;0
268;3;12;0
269;3;11;1
270;4;11;1
271;4;10;0
272;3;10;1
273;3;9;1
274;4;9;0
275;5;8;0
276;4;8;0
277;4;9;1
278;4;9;1
279;3;9;0
280;3;8;2
281;4;7;1
282;5;6;1
283;6;7;1
284;6;7;0
285;6;8;0
286;5;9;0
287;5;9;1
288;5;10;0
289;5;9;1
290;5;8;0
291;6;7;0
292;5;8;1
293;4;8;0
294;3;8;1
295;4;7;0
296;4;6;1
297;3;6;0
298;4;6;0
299;4;6;0
300;4;7;0
301;3;8;0
302;2;9;0
303;2;10;0
304;2;10;0
305;4;9;0
306;4;9;0
307;4;10;1
308;4;10;0
309;3;11;1
310;2;11;0
311;2;10;0
312;2;10;1
313;3;10;0
314;3;11;0
315;3;11;0
316;3;11;1
317;4;12;0
318;4;11;0
319;4;11;2
320;4;10;1
321;3;11;2
322;3;10;2
323;3;9;1
324;2;9;0
325;1;10;0
326;1;11;1
327;2;11;0
328;1;11;0
329;1;10;0
330;2;10;0
331;2;10;1
332;1;11;0
333;0;12;1
334;1;13;0
335;1;13;0
336;1;13;1
337;1;14;2
338;0;14;1
339;1;14;0
340;1;13;0
341;1;12;1
342;0;12;1
343;0;11;1
344;0;11;1
345;0;12;0
346;0;12;1
347;0;12;1
348;0;11;1
349;0;10;1
350;0;10;1
351;0;9;2
352;1;9;1
353;1;9;0
354;1;9;0
355;1;10;1
356;1;10;0
357;0;11;1
358;0;11;0
359;0;10;1
360;0;9;0
361;1;9;1
362;2;8;0
363;2;9;0
364;2;10;0
365;2;9;0
366;3;10;1
367;3;11;0
368;3;11;1
369;4;11;0
370;5;11;0
371;5;12;0
372;5;13;0
373;5;14;0
374;5;14;1
375;5;15;0
376;6;14;0
377;6;14;0
378;6;15;1
379;7;15;0
380;7;16;0
381;7;16;0
382;7;16;0
383;8;16;1
384;8;17;0
385;9;18;0
386;9;18;1
387;9;19;0
388;10;19;0
389;10;20;0
390;9;20;1
391;10;21;0
392;9;22;0
393;9;21;1
394;8;21;1
395;7;22;1
396;7;21;1
397;8;21;0
398;8;20;0
399;8;20;0
400;8;19;0
401;9;19;1
402;9;18;0
403;9;17;0
404;10;17;0
405;9;19;0
406;9;19;1
407;9;20;0
408;9;20;0
409;9;20;1
410;9;20;0
411;9;20;1
412;9;21;0
413;9;21;0
414;9;20;1
415;9;21;0
416;8;21;1
417;9;20;0
418;9;19;0
419;9;19;0
420;9;19;1
421;8;19;0
422;8;19;0
423;7;20;0
424;8;19;1
425;9;18;0
426;9;18;1
427;8;19;1
428;9;18;1
429;8;19;0
430;8;19;1
431;8;20;0
432;7;21;1
433;6;22;0
434;7;21;0
435;7;20;2
436;6;20;2
437;7;19;1
438;7;18;1
439;7;17;0
440;7;16;2
441;6;16;2
442;6;15;1
443;6;15;2
444;6;16;1
445;8;16;0
446;8;15;0
447;8;15;0
448;9;15;0
449;9;14;1
450;10;14;0
451;9;13;1
452;10;13;0
453;9;13;0
454;10;13;0
455;11;13;0
456;10;13;0
457;10;13;2
458;10;12;1
459;10;11;2
460;10;11;1
461;10;12;1
462;11;11;1
463;11;11;1
464;11;11;0
465;11;11;1
466;9;12;1
467;9;11;0
468;8;11;0
469;7;11;1
470;7;12;1
471;7;12;0
472;8;12;0
473;8;13;0
474;8;13;0
475;8;13;0
476;7;14;0
477;7;14;1
478;6;14;0
479;5;14;1
480;5;15;0
481;6;15;0
482;5;16;0
483;4;17;1
484;3;18;1
485;2;18;2
486;1;19;1
487;1;19;0
488;1;19;1
489;0;20;1
490;0;20;0
491;1;21;1
492;1;20;1
493;1;19;2
494;1;19;1
495;0;20;0
496;1;20;1
497;1;19;0
498;0;19;2
499;1;19;1
500;1;20;0
501;1;20;0
502;0;20;1
503;1;19;0
504;1;18;1
505;0;18;0
506;1;18;0
507;1;19;1
508;1;19;0
509;1;20;0
510;0;21;1
511;0;22;0
512;0;22;0
513;0;23;2
514;1;23;1
515;2;23;0
516;1;24;1
517;1;25;0
518;0;26;0
519;1;25;0
520;1;24;0
521;1;23;1
522;1;24;0
523;1;24;0
524;0;25;0
525;1;24;0
526;1;23;1
527;0;24;0
528;0;24;1
529;0;24;0
530;1;24;0
531;1;23;1
532;1;23;0
533;2;23;0
534;1;23;0
535;1;24;1
536;3;24;0
537;2;24;0
538;2;25;1
539;1;26;1
540;0;26;0
541;1;26;0
542;1;26;0
543;1;27;0
544;0;28;1
545;0;28;1
546;1;28;1
547;1;27;0
548;0;28;0
549;1;29;0
550;0;29;0
551;1;30;0
552;0;31;0
553;0;31;1
554;0;32;0
555;1;33;0
556;1;33;1
557;1;34;0
558;0;35;0
559;0;35;0
560;0;36;1
561;0;37;1
562;0;36;2
563;0;35;2
564;0;34;1
565;0;34;0
566;1;33;0
567;1;32;0
568;2;31;1
569;2;32;1
570;2;33;0
571;2;32;1
572;2;32;0
573;2;31;1
574;1;32;0
575;2;31;0
576;1;31;1
577;2;31;0
578;1;31;0
579;0;31;1
580;0;30;0
581;0;30;1
582;1;31;0
583;1;32;1
584;1;33;2
585;0;33;2
586;0;32;1
587;1;32;0
588;0;33;0
589;0;34;1
590;1;35;1
591;1;35;0
592;2;34;0
593;2;34;1
594;2;33;0
595;1;33;1
596;0;33;0
597;1;32;0
598;1;32;0
599;2;32;0
600;1;32;1
601;1;32;1
602;1;33;0
603;2;33;0
604;1;33;0
605;0;33;2
606;0;33;2
607;1;34;1
608;1;34;1
609;1;35;1
610;1;35;1
611;1;34;1
612;2;35;0
613;2;35;1
614;2;35;0
615;2;36;0
616;1;37;0
617;1;37;1
618;1;38;0
619;1;37;1
620;1;37;0
621;1;38;0
622;0;39;1
623;1;38;0
624;1;38;0
625;1;38;0
626;0;39;0
627;0;40;0
628;0;41;0
629;2;41;0
630;1;42;0
631;0;43;1
632;0;44;0
633;1;44;1
634;0;44;0
635;1;43;1
636;1;42;1
637;1;43;0
638;0;44;0
639;0;44;1
640;0;44;0
641;0;45;0
642;0;44;1
643;0;44;0
644;0;44;1
645;0;45;0
646;0;46;1
647;0;47;1
648;0;46;1
649;0;46;0
650;0;47;2
651;1;47;2
652;1;47;1
653;1;48;2
654;1;47;1
655;3;47;0
656;3;46;1
657;3;47;0
658;3;47;0
659;3;46;0
660;2;47;0
661;2;48;0
662;2;47;1
663;3;46;0
664;2;46;1
665;1;46;1
666;2;46;0
667;1;46;1
668;1;45;0
669;2;44;1
670;1;45;2
671;1;45;1
672;1;46;1
673;1;46;0
674;2;45;0
675;1;45;0
676;0;45;2
677;1;45;1
678;1;44;2
679;2;44;1
680;2;44;0
681;1;44;1
682;0;44;0
683;0;44;0
684;0;44;1
685;0;45;0
686;1;44;0
687;1;44;0
688;2;44;1
689;1;44;0
690;2;43;0
691;3;42;0
692;2;43;0
693;2;42;2
694;2;43;2
695;2;43;1
696;2;43;1
697;2;43;0
698;3;42;0
699;2;43;1
700;3;42;1
701;3;43;0
702;3;44;0
703;2;44;0
704;2;43;0
705;1;43;1
706;1;43;0
707;2;43;0
708;2;43;0
709;1;43;1
710;0;44;1
711;0;44;0
712;0;44;0
713;1;44;1
714;0;44;0
715;1;43;0
716;2;43;0
717;2;43;0
718;1;43;0
719;0;43;2
720;0;44;2
721;0;43;1
722;2;43;0
723;2;41;0
724;2;41;0
725;3;41;0
726;4;41;0
727;3;42;0
728;3;41;1
729;2;42;1
730;1;43;1
731;1;43;1
732;3;43;0
733;3;43;1
734;3;44;0
735;3;44;1
736;2;45;1
737;3;45;1
738;3;45;0
739;4;45;0
740;3;45;0
741;3;44;1
742;5;43;0
743;4;44;1
744;4;44;1
745;4;44;0
746;5;43;0
747;5;43;1
748;5;43;0
749;4;43;0
750;5;43;0
751;5;44;0
752;5;45;0
753;5;45;0
754;4;46;0
755;4;46;1
756;4;46;0
757;4;46;1
758;4;46;0
759;4;45;0
760;4;44;2
761;4;44;1
762;4;44;1
763;4;43;1
764;4;44;0
765;3;45;0
766;3;46;2
767;2;47;1
768;2;47;2
769;2;47;2
770;3;47;1
771;3;48;0
772;3;48;0
773;2;49;0
774;2;49;0
775;3;49;0
776;4;50;0
777;4;49;1
778;4;49;1
779;2;49;1
780;2;48;0
781;3;48;0
782;3;47;2
783;3;47;1
784;3;46;1
785;2;47;0
786;2;46;1
787;1;46;1
788;1;46;0
789;1;46;1
790;1;47;0
791;1;46;1
792;1;46;0
793;0;46;0
794;0;46;2
795;0;45;2
796;1;44;1
797;0;45;0
798;0;46;0
799;0;46;1
800;0;45;1
801;0;45;0
802;0;45;1
803;2;45;0
804;1;46;0
805;1;47;0
806;1;47;0
807;0;48;0
808;1;49;0
809;1;49;0
810;1;49;1
811;1;49;0
812;1;48;2
813;0;49;1
814;1;50;0
815;1;50;2
816;1;49;1
817;0;49;0
818;1;48;0
819;0;48;0
820;1;48;0
821;0;48;0
822;0;48;2
823;0;48;2
824;0;48;1
825;0;48;0
826;1;48;1
827;1;48;0
828;2;48;0
829;1;49;1
830;2;49;0
831;2;49;0
832;4;50;0
833;3;50;1
834;2;50;0
835;3;49;1
836;3;49;0
837;4;49;0
838;3;49;0
839;2;49;0
840;1;50;3
841;1;50;3
842;2;50;2
843;1;51;2
844;2;50;1
845;3;50;0
846;2;50;0
847;2;49;0
848;2;48;1
849;1;49;0
850;1;50;0
851;1;49;1
852;1;50;0
853;0;51;0
854;0;51;1
855;1;51;0
856;1;50;1
857;1;49;1
858;0;50;1
859;0;49;0
860;2;48;0
861;1;48;1
862;1;49;0
863;0;49;0
864;0;49;2
865;0;49;1
866;0;49;2
867;1;48;2
868;1;49;1
869;0;49;2
870;0;49;1
871;0;50;0
872;0;51;0
873;1;52;1
874;0;53;1
875;1;53;0
876;1;53;0
877;2;53;0
878;1;53;2
879;1;53;1
880;1;54;0
881;2;54;0
882;1;54;0
883;0;54;2
884;1;53;1
885;0;54;0
886;0;54;1
887;0;54;0
888;1;54;0
889;1;55;0
890;1;55;1
891;1;55;0
892;0;56;1
893;1;57;0
894;1;56;1
895;0;56;0
896;0;57;0
897;0;57;1
898;1;58;0
899;2;57;0
900;1;58;1
901;1;59;0
902;1;59;1
903;2;59;0
904;1;59;1
905;1;59;0
906;1;58;1
907;1;58;1
908;0;59;1
909;0;59;1
910;0;59;0
911;0;59;1
912;1;59;0
913;1;60;0
914;2;60;0
915;1;61;0
916;0;62;0
917;1;63;0
918;1;63;0
919;0;64;0
920;0;64;0
921;0;64;1
922;1;64;0
923;1;63;1
924;0;63;1
925;0;63;1
926;0;63;0
927;2;63;0
928;1;63;0
929;1;63;1
930;2;63;0
931;3;62;0
932;3;62;0
933;4;61;0
934;5;60;1
935;4;61;1
936;4;62;0
937;3;62;0
938;3;61;0
939;3;61;1
940;3;61;1
941;3;60;0
942;2;60;1
943;3;59;0
944;4;59;1
945;3;59;0
946;3;59;1
947;2;60;1
948;2;59;0
949;3;58;1
950;3;57;1
951;3;57;0
952;3;56;1
953;2;56;1
954;1;56;0
955;1;57;0
956;1;56;0
957;1;56;2
958;1;56;1
959;2;56;0
960;2;57;1
961;2;56;1
962;1;57;1
963;0;58;1
964;0;59;1
965;0;60;0
966;1;60;1
967;1;59;1
968;0;59;1
969;0;59;0
970;1;59;0
971;2;58;0
972;2;58;0
973;2;58;0
974;3;57;0
975;4;56;0
976;4;56;0
977;3;56;0
978;2;58;1
979;3;58;0
980;3;57;0
981;3;57;1
982;4;58;0
983;4;59;0
984;5;58;0
985;5;58;0
986;6;57;0
987;6;58;1
988;6;58;0
989;5;59;1
990;5;58;0
991;7;59;0
992;7;60;0
993;8;61;0
994;6;61;0
995;6;60;1
996;6;60;0
997;6;61;0
998;5;62;1
999;6;63;0
1000;6;64;0
1001;6;64;0
1002;5;64;0
1003;5;65;0
1004;5;65;1
1005;5;65;1
1006;5;64;0
1007;5;63;1
1008;6;62;2
1009;5;62;2
1010;5;62;1
1011;4;63;1
1012;3;64;0
1013;4;64;0
1014;5;63;0
1015;6;63;0
1016;5;64;0
1017;4;64;1
1018;4;63;2
1019;4;62;1
1020;5;62;0
1021;5;63;1
1022;4;63;2
1023;3;64;1
1024;3;63;0
1025;3;63;1
1026;3;63;0
1027;2;64;0
1028;2;63;1
1029;3;62;1
1030;4;61;0
1031;3;61;0
1032;4;60;1
1033;3;60;0
1034;3;60;1
1035;3;60;1
1036;2;61;0
1037;2;61;0
1038;2;61;0
1039;1;61;2
1040;1;61;1
1041;2;61;0
1042;1;61;1
1043;1;61;1
1044;1;61;1
1045;2;60;0
1046;3;59;0
1047;2;59;1
1048;1;59;0
1049;2;60;1
1050;2;60;0
1051;3;60;0
1052;3;60;1
1053;3;59;0
1054;4;59;1
1055;5;60;0
1056;5;60;1
1057;4;60;0
1058;4;61;1
1059;5;62;0
1060;5;62;0
1061;5;62;0
1062;4;63;1
1063;4;63;0
1064;4;63;1
1065;3;63;1
1066;3;63;0
1067;3;64;0
1068;3;65;0
1069;3;65;0
1070;4;65;1
1071;3;65;1
1072;2;65;1
1073;1;66;1
1074;1;66;0
1075;0;67;0
1076;0;68;1
1077;1;67;0
1078;1;68;0
1079;1;67;0
1080;1;68;1
1081;0;69;0
1082;0;70;2
1083;0;71;2
1084;0;71;1
1085;2;71;0
1086;1;72;1
1087;1;72;0
1088;1;72;0
1089;1;73;0
1090;1;72;0
1091;2;72;1
1092;2;73;0
1093;1;74;1
1094;1;75;0
1095;2;75;1
1096;1;76;1
1097;0;77;0
1098;1;78;1
1099;2;78;0
1100;1;79;0
1101;1;78;1
1102;2;77;0
1103;1;77;0
1104;1;77;0
1105;2;77;0
1106;2;78;0
1107;2;77;1
1108;1;78;1
1109;1;78;1
1110;1;78;0
1111;1;78;1
1112;2;78;0
1113;3;79;0
1114;3;79;0
1115;2;80;0
1116;3;81;0
1117;4;80;0
1118;3;81;0
1119;4;81;0
1120;4;82;1
1121;4;81;0
1122;3;81;1
1123;4;82;0
1124;4;81;1
1125;3;81;0
1126;2;81;2
1127;2;80;2
1128;3;80;1
1129;2;81;0
1130;3;81;1
1131;3;82;1
1132;2;83;1
1133;2;83;0
1134;2;83;0
1135;2;84;0
1136;2;83;0
1137;2;83;1
1138;2;83;1
1139;2;83;1
1140;2;84;0
1141;3;84;0
1142;3;83;1
1143;3;83;0
1144;2;84;0
1145;2;84;0
1146;3;84;1
1147;3;83;1
1148;2;84;1
1149;2;84;0
1150;1;85;1
1151;1;85;1
1152;1;86;0
1153;3;86;0
1154;3;86;1
1155;3;86;0
1156;4;85;0
1157;3;86;1
1158;3;86;1
1159;3;87;0
1160;2;88;0
1161;2;88;1
1162;2;89;1
1163;2;89;0
1164;2;90;0
1165;3;89;0
1166;3;89;0
1167;3;90;0
1168;3;91;0
1169;3;92;0
1170;4;93;0
1171;5;93;1
1172;5;92;1
1173;6;92;0
1174;6;92;0
1175;5;92;1
1176;4;91;0
1177;5;92;0
1178;4;92;0
1179;4;91;0
1180;3;93;0
1181;4;94;0
1182;3;95;0
1183;2;96;0
1184;1;96;1
1185;2;96;0
1186;2;96;0
1187;2;96;0
1188;2;97;0
1189;2;98;1
1190;1;99;0
1191;1;99;1
1192;0;100;1
1193;0;100;1
1194;1;101;0
1195;1;101;0
1196;2;101;1
1197;2;100;1
1198;2;99;1
1199;2;99;0
1200;2;99;0
1201;2;100;0
1202;1;101;0
1203;0;102;2
1204;0;102;2
1205;0;101;2
1206;0;101;1
1207;0;102;0
1208;0;102;1
1209;0;101;0
1210;0;101;1
1211;0;100;1
1212;1;100;0
1213;1;100;0
1214;1;101;1
1215;1;101;0
1216;1;100;0
1217;0;100;2
1218;1;101;1
1219;0;102;1
1220;1;102;0
1221;1;102;0
1222;1;101;0
1223;0;102;0
1224;1;102;0
1225;1;103;0
1226;2;104;0
1227;2;104;0
1228;2;104;0
1229;2;104;0
1230;1;105;1
1231;1;104;0
1232;2;104;1
1233;3;104;0
1234;3;104;0
1235;3;104;0
1236;2;105;0
1237;2;105;2
1238;3;105;1
1239;3;106;0
1240;3;106;1
1241;3;106;0
1242;3;107;1
1243;4;107;0
1244;4;107;0
1245;5;107;1
1246;6;107;0
1247;6;107;0
1248;6;107;0
1249;6;107;0
1250;6;107;0
1251;7;107;0
1252;6;107;1
1253;5;108;0
1254;5;108;0
1255;5;107;0
1256;4;108;0
1257;6;108;0
1258;6;106;0
1259;6;107;0
1260;6;107;1
1261;7;107;0
1262;6;108;0
1263;5;109;0
1264;5;109;0
1265;6;108;1
1266;6;109;0
1267;6;108;1
1268;5;109;0
1269;5;110;0
1270;5;110;1
1271;4;111;0
1272;5;111;0
1273;5;111;1
1274;5;112;0
1275;5;113;0
1276;5;114;0
1277;5;115;0
1278;6;116;0
1279;5;117;0
1280;5;116;0
1281;7;116;0
1282;8;116;0
1283;7;117;0
1284;7;117;0
1285;8;117;0
1286;8;117;0
1287;9;117;0
1288;9;118;0
1289;9;119;0
1290;10;120;0
1291;10;120;0
1292;11;120;0
1293;11;120;1
1294;11;120;2
1295;10;121;1
1296;11;121;1
1297;11;121;0
1298;11;122;0
1299;13;123;0
1300;13;122;1
1301;13;122;0
1302;14;121;0
1303;14;120;1
1304;14;120;0
1305;14;120;0
1306;13;120;0
1307;12;121;1
1308;11;121;1
1309;12;121;1
1310;12;121;1
1311;12;122;0
1312;12;124;0
1313;11;125;1
1314;10;126;1
1315;10;127;0
1316;10;128;0
1317;10;129;0
1318;9;129;0
1319;9;130;0
1320;10;131;0
1321;11;131;0
1322;11;130;1
1323;11;129;0
1324;11;128;0
1325;10;129;2
1326;9;130;1
1327;10;130;1
1328;10;131;0
1329;11;130;0
1330;11;130;0
1331;12;130;0
1332;12;130;0
1333;10;131;0
1334;10;131;0
1335;10;131;0
1336;10;130;0
1337;10;130;1
1338;10;131;1
1339;9;132;0
1340;10;132;1
1341;10;131;1
1342;10;131;0
1343;10;131;0
1344;10;131;2
1345;9;132;2
1346;9;132;1
1347;9;133;0
1348;10;134;0
1349;9;134;0
1350;9;135;1
1351;7;136;1
1352;7;135;0
1353;6;136;1
1354;5;137;1
1355;6;137;0
1356;6;136;1
1357;7;136;0
1358;7;135;1
1359;8;135;1
1360;8;136;0
1361;8;136;1
1362;9;136;0
1363;9;136;1
1364;10;136;1
1365;10;137;0
1366;10;137;1
1367;9;138;0
1368;11;137;0
1369;11;137;0
1370;11;137;0
1371;10;137;0
1372;10;137;1
1373;11;137;1
1374;11;137;1
1375;12;137;0
1376;12;136;1
1377;11;137;1
1378;10;138;0
1379;10;137;0
1380;12;136;0
1381;12;135;0
1382;13;134;1
1383;13;134;0
1384;13;134;0
1385;12;134;0
1386;11;134;1
1387;12;134;0
1388;12;134;1
1389;12;135;0
1390;11;136;1
1391;11;136;0
1392;11;137;1
1393;11;137;2
1394;10;138;2
1395;10;137;1
1396;10;137;0
1397;10;136;0
1398;9;137;1
1399;10;137;0
1400;9;138;0
1401;10;138;0
1402;11;137;0
1403;11;138;0
1404;11;138;1
1405;11;138;2
1406;10;139;2
1407;10;140;1
1408;9;141;0
1409;9;142;0
1410;9;142;1
1411;9;143;0
1412;9;144;0
1413;9;145;0
1414;10;145;0
1415;10;145;1
1416;10;145;1
1417;9;146;2
1418;9;146;1
1419;8;147;1
1420;9;147;0
1421;9;146;0
1422;9;146;0
1423;9;147;0
1424;10;147;1
1425;10;146;1
1426;9;147;1
1427;9;146;0
1428;10;146;0
1429;9;147;0
1430;10;146;1
1431;10;147;1
1432;10;146;1
1433;11;145;0
1434;10;145;0
1435;9;146;0
1436;9;145;0
1437;10;146;0
1438;10;147;0
1439;10;147;0
1440;10;148;1
1441;9;148;2
1442;9;148;1
1443;8;149;2
1444;9;148;1
1445;9;148;0
1446;9;149;1
1447;9;148;1
1448;9;149;0
1449;8;150;0
1450;7;151;1
1451;7;150;1
1452;7;150;2
1453;7;150;1
1454;8;150;0
1455;8;150;1
1456;8;151;0
1457;7;152;2
1458;7;152;1
1459;7;152;2
1460;6;153;2
1461;6;152;1
1462;7;152;0
1463;6;152;0
1464;6;152;0
1465;6;151;0
1466;6;152;0
1467;5;153;1
1468;6;152;0
1469;5;153;1
1470;4;153;0
1471;4;154;0
1472;3;155;1
1473;4;155;1
1474;5;155;0
1475;6;154;0
1476;5;155;0
1477;5;155;1
1478;5;154;0
1479;5;153;0
1480;5;152;1
1481;6;151;1
1482;5;152;0
1483;6;152;1
1484;7;152;0
1485;8;152;0
1486;9;153;0
1487;9;154;0
1488;8;155;1
1489;7;156;1
1490;8;155;0
1491;9;155;0
1492;8;156;0
1493;7;157;2
1494;7;156;1
1495;7;156;0
1496;7;156;0
1497;6;157;0
1498;7;158;0
1499;6;159;0
1500;5;159;0
1501;6;158;0
1502;5;159;1
1503;5;160;2
1504;6;159;1
1505;5;159;1
1506;6;158;0
1507;6;158;0
1508;7;159;0
1509;7;159;0
1510;8;159;1
1511;7;161;1
1512;7;161;0
1513;8;160;0
1514;7;161;1
1515;7;161;0
1516;7;162;1
1517;8;163;0
1518;7;164;0
1519;7;164;1
1520;7;165;1
1521;6;165;1
1522;7;165;0
1523;6;166;0
1524;7;166;0
1525;7;165;1
1526;7;165;0
1527;7;166;0
1528;8;165;1
1529;9;165;0
1530;10;164;0
1531;10;164;1
1532;10;163;0
1533;9;163;0
1534;9;163;0
1535;8;163;0
1536;9;163;0
1537;9;163;1
1538;9;162;1
1539;9;161;2
1540;9;162;1
1541;9;161;1
1542;11;160;0
1543;10;160;0
1544;11;159;1
1545;11;158;0
1546;11;157;1
1547;11;157;0
1548;10;158;0
1549;11;159;0
1550;11;159;0
1551;11;158;0
1552;13;158;0
1553;13;158;0
1554;13;157;0
1555;13;156;1
1556;13;157;1
1557;13;157;0
1558;12;158;0
1559;11;159;1
1560;11;160;1
1561;11;160;1
1562;12;159;0
1563;11;161;1
1564;10;162;0
1565;11;162;1
1566;10;163;1
1567;9;164;0
1568;9;164;1
1569;8;165;0
1570;8;166;0
1571;8;167;0
1572;7;168;0
1573;8;167;1
1574;7;167;1
1575;7;167;2
1576;7;166;1
1577;7;167;0
1578;8;166;0
1579;8;166;0
1580;7;167;0
1581;9;168;0
1582;10;168;0
1583;8;169;1
1584;8;169;0
1585;9;169;1
1586;10;169;0
1587;10;170;1
1588;11;171;0
1589;11;171;0
1590;12;171;0
1591;12;172;1
1592;11;173;0
1593;11;173;2
1594;10;174;1
1595;10;174;0
1596;11;174;1
1597;10;175;0
1598;11;176;1
1599;11;175;0
1600;12;174;0
1601;13;173;1
1602;13;174;0
1603;13;173;1
1604;12;174;0
1605;12;175;0
1606;12;175;1
1607;12;174;0
1608;13;174;0
1609;13;174;1
1610;13;173;2
1611;13;172;2
1612;14;171;2
1613;14;170;2
1614;14;171;1
1615;14;170;0
1616;13;170;1
1617;13;169;0
1618;12;169;0
1619;12;168;0
1620;12;168;1
1621;11;169;1
1622;10;170;0
1623;11;169;1
1624;12;169;2
1625;12;169;1
1626;13;168;1
1627;13;167;1
1628;12;168;0
1629;13;168;1
1630;12;168;0
1631;11;168;0
1632;11;168;1
1633;10;167;0
1634;11;167;0
1635;11;167;1
1636;11;168;0
1637;11;168;0
1638;11;169;1
1639;11;170;1
1640;12;170;0
1641;12;169;1
1642;11;169;1
1643;11;169;0
1644;12;169;1
1645;11;170;0
1646;12;170;0
1647;11;171;1
1648;10;172;1
1649;9;173;0
1650;9;172;1
1651;9;173;1
1652;9;172;2
1653;9;172;1
1654;8;172;1
1655;7;172;0
1656;7;172;1
1657;7;173;1
1658;6;174;0
1659;7;174;0
1660;6;175;0
1661;5;176;0
1662;5;177;0
1663;5;178;1
1664;5;178;1
1665;5;178;0
1666;6;177;0
1667;6;177;0
1668;6;177;1
1669;5;178;1
1670;5;177;1
1671;6;176;0
1672;6;176;1
1673;6;177;0
1674;6;178;0
1675;5;178;0
1676;4;179;1
1677;5;179;0
1678;5;179;0
1679;4;179;1
1680;3;179;1
1681;3;178;0
1682;4;178;0
1683;4;178;0
1684;5;177;0
1685;6;178;0
1686;6;177;0
1687;7;177;1
1688;6;177;1
1689;7;178;0
1690;7;178;0
1691;8;178;1
1692;8;177;2
1693;8;176;1
1694;7;176;0
1695;6;176;0
1696;6;177;0
1697;5;177;0
1698;7;176;0
1699;7;177;1
1700;8;176;0
1701;8;176;1
1702;7;176;0
1703;6;176;1
1704;8;176;0
1705;7;176;1
1706;6;177;0
1707;5;178;1
1708;6;177;0
1709;7;178;0
1710;6;177;1
1711;6;178;0
1712;5;178;0
1713;5;178;0
1714;5;178;0
1715;6;178;1
1716;6;178;0
1717;6;179;1
1718;6;179;1
1719;6;179;0
1720;5;180;0
1721;5;180;1
1722;5;180;1
1723;5;180;0
1724;5;179;0
1725;7;180;0
1726;6;180;1
1727;6;181;0
1728;7;181;0
1729;7;181;0
1730;7;182;0
1731;6;182;2
1732;5;182;2
1733;4;183;2
1734;4;182;1
1735;5;182;0
1736;5;183;0
1737;6;182;0
1738;6;181;0
1739;6;181;0
1740;8;180;0
1741;8;179;1
1742;7;180;2
1743;6;180;1
1744;6;179;1
1745;6;178;0
1746;6;178;0
1747;7;178;0
1748;8;178;1
1749;7;178;1
1750;7;179;1
1751;6;178;0
1752;7;177;0
1753;6;177;1
1754;6;176;2
1755;6;176;2
1756;6;177;1
1757;5;177;1
1758;4;178;0
1759;5;178;1
1760;5;179;1
1761;5;179;0
1762;5;180;0
1763;5;181;0
1764;5;182;0
1765;4;182;1
1766;6;182;0
1767;6;182;0
1768;5;182;0
1769;7;181;0
1770;7;181;0
1771;6;181;0
1772;6;180;2
1773;6;181;1
1774;5;182;1
1775;5;183;1
1776;5;184;0
1777;5;183;1
1778;5;183;1
1779;5;183;1
1780;4;184;2
1781;3;184;2
1782;3;184;1
1783;3;183;1
1784;3;184;1
1785;5;185;0
1786;5;184;0
1787;5;184;0
1788;5;184;1
1789;6;184;2
1790;5;184;1
1791;5;184;1
1792;5;183;1
1793;5;183;2
1794;4;183;1
1795;4;183;0
1796;3;184;0
1797;3;184;1
1798;4;184;0
1799;4;184;0
1800;4;184;1
1801;3;184;0
1802;3;184;0
1803;3;184;0
1804;3;184;1
1805;3;184;1
1806;2;184;1
1807;2;183;0
1808;3;184;0
1809;3;185;0
1810;6;186;0
1811;6;185;0
1812;6;187;2
1813;5;189;1
1814;5;188;2
1815;6;188;1
1816;6;188;0
1817;5;189;1
1818;5;190;0
1819;6;189;0
1820;6;189;0
1821;6;190;0
1822;6;191;0
1823;5;192;1
1824;6;192;0
1825;6;192;1
1826;6;192;0
1827;6;192;1
1828;7;193;0
1829;7;193;1
1830;7;193;0
1831;7;193;2
1832;7;194;1
1833;7;194;0
1834;6;194;2
1835;6;194;1
1836;6;194;1
1837;6;194;0
1838;6;193;0
1839;5;193;1
1840;5;194;1
1841;5;192;0
1842;4;193;1
1843;4;194;1
1844;3;195;1
1845;3;195;0
1846;3;196;0
1847;3;196;1
1848;3;196;2
1849;2;197;1
1850;1;198;1
1851;1;199;0
1852;0;200;0
1853;0;200;1
1854;0;200;0
1855;0;201;0
1856;1;201;0
1857;1;200;1
1858;1;199;1
1859;0;200;0
1860;1;200;0
1861;1;199;0
1862;2;200;0
1863;2;200;0
1864;1;200;1
1865;2;200;1
1866;2;200;0
1867;2;199;1
1868;2;199;1
1869;3;198;1
1870;2;199;1
1871;3;198;0
1872;2;198;1
1873;1;199;1
1874;2;199;0
1875;2;200;0
1876;2;199;1
1877;1;200;0
1878;1;200;0
1879;1;199;1
1880;1;200;1
1881;1;199;0
1882;1;199;0
1883;0;199;1
1884;0;200;1
1885;1;199;0
1886;0;200;1
1887;1;200;0
1888;0;200;0
1889;1;200;1
1890;1;200;0
1891;1;201;0
1892;2;200;1
1893;3;199;0
1894;2;199;0
1895;2;200;1
1896;2;199;0
1897;3;200;0
1898;3;200;0
1899;2;200;1
1900;2;199;1
1901;2;199;0
1902;3;199;1
1903;2;199;1
1904;1;199;0
1905;0;199;1
1906;0;199;1
1907;0;199;0
1908;0;198;0
1909;1;198;0
1910;0;198;1
1911;0;198;0
1912;1;199;0
1913;1;199;0
1914;2;199;0
1915;2;199;1
1916;1;199;1
1917;0;200;0
1918;0;201;1
1919;0;202;0
1920;0;202;0
1921;2;203;0
1922;1;204;1
1923;2;204;0
1924;2;204;0
1925;3;204;1
1926;3;204;1
1927;2;205;1
1928;1;206;1
1929;1;205;0
1930;1;206;0
1931;0;207;1
1932;1;207;0
1933;2;207;0
1934;1;208;0
1935;0;208;0
1936;1;209;0
1937;0;210;1
1938;1;209;0
1939;1;209;0
1940;0;209;1
1941;1;210;0
1942;1;210;1
1943;1;211;0
1944;1;212;0
1945;1;213;0
1946;3;213;0
1947;2;214;0
1948;3;214;1
1949;3;214;1
1950;3;213;1
1951;2;214;0
1952;2;214;0
1953;2;214;1
1954;1;214;0
1955;0;214;0
1956;0;213;1
1957;1;213;0
1958;1;212;0
1959;1;213;0
1960;1;212;0
1961;0;212;0
1962;1;211;1
1963;1;212;1
1964;1;211;0
1965;1;210;1
1966;2;210;0
1967;3;210;0
1968;2;211;0
1969;1;212;1
1970;1;212;1
1971;0;213;1
1972;0;212;0
1973;0;212;1
1974;0;212;1
1975;0;211;1
1976;0;212;0
1977;0;212;0
1978;1;213;1
1979;1;212;0
1980;2;211;0
1981;2;211;1
1982;2;211;0
1983;2;210;0
1984;3;210;1
1985;3;210;0
1986;2;211;0
1987;3;210;0
1988;4;211;0
1989;3;212;0
1990;3;212;1
1991;3;211;1
1992;2;211;1
1993;2;211;1
1994;3;210;0
1995;2;211;1
1996;1;212;1
1997;1;213;1
1998;1;212;0
1999;0;213;0
2000;1;214;0
2001;1;214;1
2002;1;214;0
2003;2;214;1
2004;1;215;1
2005;0;215;1
2006;0;215;1
2007;0;215;1
2008;0;215;0
2009;0;216;1
2010;0;215;1
2011;0;215;2
2012;0;215;2
2013;0;215;1
2014;0;216;1
2015;0;217;1
2016;1;218;0
2017;1;218;1
2018;1;217;2
2019;0;218;2
2020;0;219;1
2021;0;220;3
2022;0;220;2
2023;0;220;2
2024;0;221;1
2025;1;222;1
2026;1;223;1
2027;0;223;0
2028;0;224;0
2029;0;224;1
2030;1;222;1
2031;1;222;0
2032;3;222;0
2033;3;222;1
2034;3;221;0
2035;2;222;1
2036;3;222;0
2037;2;222;1
2038;2;223;0
2039;2;223;2
2040;2;223;1
2041;2;223;1
2042;1;224;0
2043;0;225;1
2044;0;226;1
2045;1;226;1
2046;1;226;0
2047;1;225;1
2048;1;225;0
2049;3;224;0
2050;3;223;0
2051;3;222;0
2052;3;222;0
2053;4;223;0
2054;3;223;1
2055;3;223;2
2056;3;223;1
2057;3;222;0
2058;2;223;0
2059;2;224;1
2060;2;224;0
2061;2;224;0
2062;4;224;0
2063;5;223;0
2064;4;223;0
2065;3;223;1
2066;4;223;0
2067;3;224;1
2068;4;224;0
2069;4;225;1
2070;4;226;0
2071;4;226;1
2072;5;225;0
2073;5;225;0
2074;5;224;0
2075;5;223;1
2076;6;222;0
2077;6;222;1
2078;6;222;0
2079;7;222;1
2080;7;222;1
2081;6;222;0
2082;6;223;1
2083;5;224;0
2084;5;224;1
2085;5;224;1
2086;6;224;0
2087;5;226;0
2088;6;226;0
2089;6;226;0
2090;7;226;0
2091;7;226;0
2092;8;225;1
2093;7;226;1
2094;8;226;1
2095;7;226;1
2096;7;226;0
2097;7;227;1
2098;6;227;1
2099;5;228;0
2100;5;229;1
2101;5;229;1
2102;4;229;0
2103;4;230;1
2104;4;230;0
2105;4;230;0
2106;4;229;1
2107;4;228;0
2108;4;228;0
2109;3;228;0
2110;2;228;0
2111;2;228;0
2112;1;228;2
2113;0;229;2
2114;0;230;1
2115;1;230;1
2116;0;231;0
2117;0;232;2
2118;0;233;2
2119;0;233;3
2120;0;234;2
2121;0;235;3
2122;0;235;2
2123;0;236;1
2124;1;236;0
2125;2;235;0
2126;2;234;0
2127;2;233;0
2128;2;232;0
2129;1;233;1
2130;1;232;0
2131;1;232;1
2132;1;232;0
2133;2;232;1
2134;2;232;0
2135;3;232;0
2136;3;232;0
2137;3;232;1
2138;3;232;0
2139;3;232;0
2140;2;232;1
2141;2;231;1
2142;1;232;0
2143;2;231;1
2144;2;231;0
2145;1;232;1
2146;2;232;1
2147;2;233;0
2148;0;233;1
2149;0;233;1
2150;0;233;0
2151;2;233;0
2152;0;234;0
2153;1;235;0
2154;1;234;1
2155;0;235;1
2156;1;235;0
2157;1;236;0
2158;0;236;1
2159;0;235;1
2160;0;235;1
2161;0;235;0
2162;1;236;0
2163;1;236;2
2164;1;236;1
2165;1;237;1
2166;1;238;0
2167;2;238;0
2168;3;237;0
2169;2;237;1
2170;3;236;0
2171;3;236;1
2172;3;236;0
2173;3;235;0
2174;4;236;0
2175;3;237;0
2176;3;237;0
2177;4;238;0
2178;4;236;2
2179;4;237;1
2180;4;238;0
2181;4;238;0
2182;4;238;0
2183;3;239;0
2184;3;239;0
2185;2;240;0
2186;2;240;0
2187;1;241;1
2188;0;241;2
2189;0;242;2
2190;1;242;1
2191;0;242;1
2192;0;242;0
2193;0;242;1
2194;0;243;0
2195;0;241;1
2196;0;241;3
2197;0;240;3
2198;0;240;2
2199;0;240;3
2200;1;240;2
2201;0;241;1
2202;2;241;0
2203;2;241;1
2204;2;241;1
2205;2;241;0
2206;2;242;0
2207;3;242;0
2208;3;242;0
2209;4;242;0
2210;3;242;0
2211;4;242;0
2212;4;242;2
2213;4;241;1
2214;4;241;1
2215;4;241;0
2216;4;241;0
2217;4;240;1
2218;4;239;0
2219;3;240;1
2220;3;240;0
2221;3;240;0
2222;3;240;0
2223;3;240;0
2224;4;240;1
2225;5;240;0
2226;5;240;1
2227;5;239;0
2228;5;239;0
2229;5;240;0
2230;4;241;0
2231;4;241;1
2232;5;240;0
2233;5;240;0
2234;5;240;0
2235;6;241;1
2236;6;240;0
2237;6;241;0
2238;6;241;0
2239;6;240;0
2240;5;240;2
2241;6;239;1
2242;6;238;0
2243;7;238;1
2244;7;239;0
2245;7;239;1
2246;6;239;0
2247;6;238;1
2248;7;237;1
2249;7;237;1
2250;8;237;0
2251;9;236;0
2252;9;236;0
2253;9;236;1
2254;9;236;0
2255;9;236;2
2256;8;235;2
2257;8;235;1
2258;8;235;1
2259;8;236;2
2260;8;236;2
2261;7;237;2
2262;6;238;2
2263;5;238;1
2264;5;239;2
2265;5;239;2
2266;5;238;1
2267;5;237;0
2268;4;237;0
2269;4;236;1
2270;5;235;1
2271;6;234;0
2272;6;233;0
2273;6;233;1
2274;6;233;0
2275;6;234;1
2276;6;235;1
2277;7;235;0
2278;6;236;1
2279;6;237;0
2280;5;238;1
2281;5;237;0
2282;4;237;1
2283;6;236;0
2284;5;236;0
2285;4;237;0
2286;4;236;1
2287;4;236;0
2288;4;235;1
2289;3;235;0
2290;3;235;1
2291;2;235;0
2292;2;235;0
2293;2;235;0
2294;3;234;0
2295;3;235;0
2296;3;235;2
2297;2;236;2
2298;2;236;1
2299;2;236;1
2300;1;237;1
2301;0;238;1
2302;0;238;1
2303;1;239;0
2304;1;238;0
2305;1;238;1
2306;1;239;1
2307;2;240;0
2308;2;241;0
2309;3;242;1
2310;1;243;0
2311;2;243;1
2312;2;244;1
2313;2;244;1
2314;2;244;1
2315;1;245;1
2316;1;244;2
2317;1;245;1
2318;2;245;0
2319;2;244;0
2320;2;244;0
2321;1;244;0
2322;2;243;0
2323;3;242;1
2324;3;242;0
2325;4;242;0
2326;4;241;0
2327;4;240;1
2328;5;239;0
2329;6;239;0
2330;6;240;1
2331;7;240;0
2332;6;241;1
2333;6;241;0
2334;7;242;0
2335;7;242;0
2336;6;243;2
2337;7;243;1
2338;6;244;0
2339;6;244;1
2340;5;245;0
2341;6;244;0
2342;6;243;0
2343;7;242;0
2344;8;241;0
2345;8;241;1
2346;7;241;1
2347;7;241;0
2348;7;240;0
2349;7;241;1
2350;6;241;0
2351;7;242;0
2352;6;242;1
2353;6;242;0
2354;6;242;1
2355;6;242;0
2356;7;242;1
2357;7;243;1
2358;6;243;1
2359;7;243;0
2360;6;243;0
2361;7;244;0
2362;6;244;1
2363;5;245;0
2364;5;244;0
2365;5;243;0
2366;6;243;0
2367;7;243;0
2368;7;242;0
2369;8;242;1
2370;8;241;0
2371;8;241;0
2372;8;241;0
2373;8;241;0
2374;7;241;1
2375;6;241;1
2376;7;241;1
2377;7;240;0
2378;7;240;1
2379;7;239;1
2380;7;238;0
2381;7;238;0
2382;7;237;1
2383;7;237;0
2384;6;238;2
2385;6;238;1
2386;5;239;2
2387;6;240;2
2388;6;240;2
2389;5;239;2
2390;5;238;1
2391;5;239;1
2392;5;239;0
2393;5;239;0
2394;5;240;1
2395;4;241;1
2396;4;242;0
2397;3;243;1
2398;3;244;1
2399;3;245;2
2400;2;246;2
2401;1;247;2
2402;1;247;1
2403;2;247;0
2404;1;247;1
2405;0;247;1
2406;0;246;1
2407;0;247;0
2408;1;248;0
2409;1;247;0
2410;1;247;0
2411;0;247;0
2412;0;247;0
2413;1;247;1
2414;1;246;0
2415;1;246;2
2416;1;246;1
2417;1;247;1
2418;1;247;1
2419;0;248;0
2420;0;248;1
2421;0;248;1
2422;2;249;0
2423;2;248;1
2424;2;247;1
2425;2;246;1
2426;2;246;0
2427;2;246;0
2428;3;246;0
2429;2;246;0
2430;3;246;0
2431;3;245;1
2432;2;246;1
2433;2;246;1
2434;3;246;0
2435;2;246;0
2436;2;246;0
2437;2;245;0
2438;2;246;1
2439;2;247;0
2440;1;247;1
2441;1;247;1
2442;0;248;0
2443;0;249;0
2444;2;249;0
2445;2;249;0
2446;2;248;0
2447;2;249;2
2448;3;249;1
2449;2;250;1
2450;2;250;0
2451;3;249;0
2452;2;249;0
2453;2;249;1
2454;1;250;0
2455;1;250;0
2456;2;249;0
2457;2;249;0
2458;2;250;0
2459;2;250;1
2460;3;250;1
2461;4;249;1
2462;3;250;0
2463;2;251;0
2464;3;251;1
2465;2;251;1
2466;1;251;0
2467;1;252;0
2468;0;252;0
2469;0;252;1
2470;0;252;0
2471;0;252;0
2472;0;252;0
2473;0;252;1
2474;0;251;0
2475;1;250;0
2476;0;250;1
2477;1;249;0
2478;0;249;0
2479;0;249;2
2480;0;248;2
2481;0;248;3
2482;1;249;2
2483;1;249;1
2484;1;248;2
2485;2;248;1
2486;2;248;1
2487;2;248;0
2488;3;249;0
2489;4;248;1
2490;4;248;0
2491;3;249;0
2492;3;249;1
2493;3;248;0
2494;2;249;2
2495;3;249;1
2496;3;249;1
2497;3;250;0
2498;3;249;1
2499;4;249;0
2500;4;249;0
2501;4;250;2
2502;4;250;2
2503;6;251;1
2504;6;250;0
2505;6;250;1
2506;6;251;1
2507;6;251;1
2508;6;250;1
2509;7;250;1
2510;6;251;0
2511;6;250;1
2512;6;250;0
2513;5;251;2
2514;5;252;1
2515;4;252;1
2516;3;253;0
2517;3;252;2
2518;3;252;1
2519;3;251;2
2520;3;250;1
2521;4;249;2
2522;4;248;1
2523;3;248;2
2524;4;247;1
2525;4;247;0
2526;5;247;1
2527;6;246;0
2528;6;245;1
2529;6;244;0
2530;7;244;0
2531;7;243;0
2532;7;243;1
2533;8;243;0
2534;7;243;0
2535;6;243;0
2536;7;243;1
2537;7;243;0
2538;7;242;0
2539;6;243;1
2540;6;243;0
2541;5;243;0
2542;5;243;1
2543;6;243;0
2544;6;243;0
2545;5;243;1
2546;6;242;0
2547;5;243;1
2548;4;244;0
2549;4;244;2
2550;3;245;1
2551;2;245;1
2552;3;245;0
2553;3;245;0
2554;2;245;0
2555;3;245;0
2556;3;246;0
2557;4;246;0
2558;3;247;1
2559;3;248;0
2560;3;248;0
2561;3;248;1
2562;3;248;0
2563;2;248;1
2564;2;248;1
2565;2;248;1
2566;2;248;0
2567;3;248;0
2568;2;248;1
2569;2;247;0
2570;2;246;0
2571;3;245;0
2572;4;245;0
2573;5;244;0
2574;6;244;0
2575;5;245;1
2576;6;244;1
2577;5;244;1
2578;5;244;0
2579;4;244;1
2580;3;244;0
2581;2;244;0
2582;3;244;0
2583;3;243;1
2584;2;243;0
2585;4;244;0
2586;3;245;1
2587;2;246;0
2588;2;245;1
2589;2;245;0
2590;2;244;1
2591;3;243;1
2592;3;243;0
2593;2;243;1
2594;1;244;0
2595;2;243;0
2596;1;243;1
2597;0;243;0
2598;1;243;1
2599;0;243;0
2600;0;243;2
2601;0;244;2
2602;0;244;1
2603;1;246;0
2604;0;247;1
2605;1;246;0
2606;1;246;0
2607;0;247;0
2608;0;247;2
2609;0;248;2
2610;0;248;3
2611;1;249;2
2612;2;249;2
2613;3;250;1
2614;2;251;0
2615;3;251;0
2616;2;251;1
2617;2;251;0
2618;1;251;1
2619;0;252;2
2620;0;253;1
2621;0;254;1
2622;0;255;1
2623;0;255;0
2624;0;255;0
2625;1;255;0
2626;0;256;1
2627;0;257;1
2628;0;258;1
2629;1;259;0
2630;2;259;0
2631;2;259;1
2632;2;259;1
2633;2;258;0
2634;1;258;0
2635;2;259;1
2636;2;259;1
2637;3;258;0
2638;3;258;0
2639;3;257;1
2640;4;257;1
2641;4;257;1
2642;3;258;0
2643;4;259;0
2644;4;258;0
2645;4;258;0
2646;4;258;1
2647;4;258;1
2648;4;258;0
2649;5;260;1
2650;5;260;0
2651;7;261;0
2652;7;261;0
2653;6;262;1
2654;6;261;1
2655;6;261;1
2656;6;260;1
2657;6;260;1
2658;7;260;0
2659;6;261;0
2660;5;261;0
2661;5;262;0
2662;4;263;1
2663;4;264;0
2664;3;265;0
2665;4;265;0
2666;3;265;1
2667;4;264;0
2668;5;263;0
2669;4;265;1
2670;3;265;0
2671;2;267;1
2672;2;266;0
2673;1;267;1
2674;0;267;1
2675;0;267;1
2676;0;266;0
2677;1;267;1
2678;0;268;0
2679;3;269;0
2680;2;269;0
2681;3;268;1
2682;3;268;0
2683;4;267;0
2684;4;266;2
2685;5;266;1
2686;4;267;1
2687;4;267;0
2688;5;266;0
2689;6;265;0
2690;6;265;0
2691;5;265;0
2692;5;264;1
2693;5;264;0
2694;4;265;1
2695;3;266;0
2696;3;266;0
2697;2;266;0
2698;3;266;1
2699;3;266;0
2700;2;267;0
2701;3;267;0
2702;3;267;1
2703;4;266;0
2704;5;266;0
2705;4;266;0
2706;3;266;0
2707;2;267;2
2708;2;266;1
2709;3;266;0
2710;3;266;1
2711;3;267;0
2712;2;268;0
2713;2;269;0
2714;1;269;1
2715;0;269;1
2716;0;268;1
2717;0;268;1
2718;0;269;1
2719;0;269;0
2720;0;268;1
2721;0;268;1
2722;1;269;0
2723;0;269;0
2724;1;269;0
2725;1;268;0
2726;2;268;1
2727;1;269;0
2728;2;269;0
2729;2;269;1
2730;2;269;0
2731;2;269;1
2732;3;269;0
2733;3;269;0
2734;2;269;1
2735;1;270;0
2736;1;271;1
2737;0;272;0
2738;1;272;1
2739;0;273;1
2740;2;274;0
2741;1;275;1
2742;0;276;0
2743;0;276;0
2744;0;277;0
2745;0;278;1
2746;1;278;0
2747;1;278;2
2748;0;279;1
2749;1;280;0
2750;2;280;0
2751;2;280;0
2752;1;281;0
2753;1;281;0
2754;0;282;1
2755;0;282;0
2756;0;283;1
2757;0;284;0
2758;2;285;0
2759;1;286;0
2760;1;286;0
2761;2;285;1
2762;2;285;1
2763;2;286;1
2764;3;286;0
2765;2;287;0
2766;2;288;1
2767;2;289;0
2768;2;289;2
2769;2;289;2
2770;1;290;2
2771;1;290;1
2772;1;290;1
2773;0;291;0
2774;0;291;2
2775;0;290;3
2776;0;291;2
2777;1;291;2
2778;1;292;2
2779;1;292;2
2780;1;292;1
2781;2;292;0
2782;2;291;1
2783;2;290;1
2784;2;289;0
2785;3;289;1
2786;4;288;0
2787;4;287;1
2788;4;287;1
2789;4;287;1
2790;4;286;0
2791;3;286;2
2792;4;286;1
2793;4;284;0
2794;6;284;0
2795;5;285;0
2796;5;285;1
2797;6;285;1
2798;5;286;0
2799;5;287;1
2800;5;287;1
2801;5;287;0
2802;6;287;0
2803;5;287;0
2804;5;286;1
2805;5;285;2
2806;4;285;2
2807;4;285;2
2808;4;286;2
2809;4;286;1
2810;5;286;0
2811;6;285;0
2812;6;284;0
2813;7;283;0
2814;8;283;0
2815;6;283;0
2816;6;282;0
2817;6;282;1
2818;5;283;0
2819;6;284;0
2820;6;284;0
2821;6;284;0
2822;6;284;2
2823;7;285;1
2824;8;286;1
2825;7;287;0
2826;7;287;2
2827;7;288;1
2828;7;288;0
2829;6;289;1
2830;5;289;0
2831;6;288;0
2832;5;289;0
2833;5;289;1
2834;4;289;1
2835;5;290;0
2836;4;290;0
2837;4;291;0
2838;4;291;0
2839;3;292;1
2840;3;293;1
2841;3;292;0
2842;4;292;0
2843;3;293;1
2844;3;293;0
2845;3;293;0
2846;3;294;0
2847;3;295;0
2848;3;293;2
2849;4;292;2
2850;5;292;1
2851;5;291;1
2852;5;292;1
2853;5;291;0
2854;6;291;0
2855;6;291;1
2856;5;291;0
2857;5;292;0
2858;5;292;2
2859;6;292;1
2860;6;291;1
2861;7;291;0
2862;7;291;1
2863;7;290;0
2864;6;291;0
2865;5;291;2
2866;4;291;1
2867;4;292;0
2868;5;292;0
2869;5;292;0
2870;5;291;1
2871;5;292;0
2872;5;291;0
2873;5;291;0
2874;4;292;2
2875;4;293;2
2876;5;293;1
2877;6;292;1
2878;6;293;0
2879;8;293;0
2880;8;294;0
2881;9;294;0
2882;9;293;0
2883;9;293;0
2884;9;293;0
2885;10;293;0
2886;10;293;1
2887;9;293;0
2888;11;292;0
2889;11;291;1
2890;11;291;0
2891;11;291;0
2892;11;290;1
2893;11;289;0
2894;11;289;0
2895;11;289;0
2896;10;290;1
2897;10;290;0
2898;9;290;0
2899;10;291;0
2900;9;292;1
2901;9;291;0
2902;8;291;1
2903;8;290;0
2904;7;290;0
2905;7;289;1
2906;7;289;0
2907;6;290;0
2908;7;289;0
2909;8;289;0
2910;8;290;0
2911;9;289;0
2912;8;290;0
2913;9;290;0
2914;9;291;0
2915;9;290;1
2916;8;290;1
2917;7;290;2
2918;6;291;3
2919;6;292;2
2920;6;292;1
2921;7;292;0
2922;7;293;0
2923;7;292;1
2924;7;291;2
2925;7;290;2
2926;7;291;2
2927;8;290;1
2928;8;290;0
2929;7;289;1
2930;7;289;0
2931;8;288;0
2932;7;288;2
2933;7;288;2
2934;8;287;1
2935;7;288;1
2936;8;288;0
2937;7;289;1
2938;7;288;1
2939;6;289;1
2940;5;289;1
2941;4;289;0
2942;4;289;1
2943;4;288;1
2944;4;287;0
2945;3;288;0
2946;3;288;1
2947;3;287;1
2948;4;287;0
2949;4;286;0
2950;5;286;0
2951;5;286;0
2952;5;287;2
2953;6;287;1
2954;7;286;0
2955;7;286;0
2956;8;286;0
2957;8;287;0
2958;8;287;2
2959;7;288;2
2960;6;289;1
2961;6;289;1
2962;5;290;1
2963;6;289;0
2964;5;290;0
2965;5;290;1
2966;6;290;0
2967;5;291;1
2968;5;292;0
2969;5;293;2
2970;4;293;2
2971;3;293;2
2972;3;292;1
2973;4;292;0
2974;3;292;1
2975;4;293;0
2976;4;293;0
2977;3;293;0
2978;2;293;1
2979;2;293;1
2980;2;292;0
2981;1;292;1
2982;3;291;0
2983;2;291;1
2984;2;292;0
2985;1;292;0
2986;1;291;1
2987;0;292;1
2988;0;293;1
2989;1;293;0
2990;1;293;0
2991;1;294;1
2992;1;295;1
2993;1;294;2
2994;0;295;1
2995;0;294;0
2996;0;295;1
2997;0;294;0
2998;0;294;1
2999;1;294;0
3000;1;293;1
3001;1;293;2
3002;1;294;1
3003;1;294;0
3004;1;294;1
3005;0;294;1
3006;0;293;2
3007;0;293;2
3008;1;293;1
3009;1;293;0
3010;1;293;0
3011;1;294;1
3012;1;295;0
3013;0;296;1
3014;1;295;0
3015;1;295;0
3016;1;296;0
3017;2;295;0
3018;2;295;0
3019;2;294;0
3020;3;295;0
3021;2;295;1
3022;1;296;0
3023;2;295;0
3024;2;294;1
3025;3;294;0
3026;2;295;1
3027;2;295;0
3028;1;295;0
3029;1;295;0
3030;0;295;0
3031;1;296;1
3032;0;296;0
3033;1;295;0
3034;2;295;0
3035;3;295;0
3036;2;295;0
3037;2;295;0
3038;1;296;1
3039;2;295;1
3040;3;294;0
3041;3;295;0
3042;2;295;1
3043;2;295;0
3044;1;295;1
3045;1;294;1
3046;1;294;0
3047;0;295;0
3048;0;294;1
3049;0;294;0
3050;0;293;0
3051;1;294;1
3052;0;295;1
3053;0;295;0
3054;0;295;1
3055;0;295;2
3056;1;294;1
3057;1;293;0
3058;2;293;1
3059;2;294;1
3060;1;294;0
3061;2;294;1
3062;1;294;1
3063;1;295;0
3064;0;295;0
3065;0;295;1
3066;0;296;0
3067;0;297;1
3068;0;297;0
3069;1;298;2
3070;1;297;1
3071;2;296;1
3072;2;296;0
3073;1;296;0
3074;2;295;1
3075;2;295;1
3076;1;296;0
3077;1;295;2
3078;0;295;1
3079;0;295;1
3080;1;295;1
3081;1;294;0
3082;1;294;2
3083;0;295;1
3084;1;296;0
3085;1;295;0
3086;0;296;0
3087;0;297;0
3088;0;298;1
3089;1;299;0
3090;1;300;0
3091;1;300;1
3092;1;299;1
3093;1;299;0
3094;0;300;0
3095;1;300;0
3096;1;299;0
3097;1;299;0
3098;0;300;0
3099;1;299;0
3100;1;298;1
3101;1;298;1
3102;1;297;1
3103;2;297;0
3104;2;296;0
3105;2;295;1
3106;2;295;2
3107;3;295;1
3108;3;294;1
3109;2;294;2
3110;1;295;1
3111;0;296;0
3112;0;296;1
3113;2;297;0
3114;1;297;0
3115;0;298;0
3116;0;299;1
3117;0;300;1
3118;0;300;0
3119;0;301;1
3120;1;302;0
3121;2;302;0
3122;4;302;0
3123;3;303;0
3124;3;302;1
3125;2;303;0
3126;3;303;0
3127;3;303;1
3128;2;303;1
3129;1;304;2
3130;0;304;2
3131;0;304;2
3132;1;304;1
3133;1;304;0
3134;2;304;0
3135;2;303;2
3136;2;303;1
3137;3;303;0
3138;3;303;1
3139;3;303;0
3140;4;304;0
3141;5;303;0
3142;6;302;0
3143;7;303;0
3144;7;303;1
3145;7;303;0
3146;8;302;1
3147;8;303;0
3148;9;304;0
3149;9;303;1
3150;9;303;0
3151;9;303;0
3152;9;302;1
3153;9;302;1
3154;8;303;1
3155;7;303;1
3156;6;303;0
3157;6;302;2
3158;5;302;1
3159;6;301;1
3160;6;302;0
3161;6;302;1
3162;6;303;0
3163;5;304;1
3164;4;305;2
3165;4;305;2
3166;4;305;1
3167;5;305;0
3168;5;305;1
3169;5;304;0
3170;5;306;1
3171;5;305;1
3172;6;305;0
3173;7;304;0
3174;7;303;0
3175;7;302;0
3176;6;303;0
3177;6;303;0
3178;5;303;1
3179;6;302;1
3180;6;302;1
3181;7;302;0
3182;7;303;1
3183;6;303;0
3184;6;303;0
3185;5;304;0
3186;5;303;1
3187;6;302;0
3188;6;303;1
3189;6;304;0
3190;6;304;0
3191;6;305;0
3192;6;305;1
3193;7;305;0
3194;7;305;0
3195;6;306;1
3196;5;307;2
3197;6;307;1
3198;6;307;0
3199;6;308;0
3200;5;308;1
3201;5;308;1
3202;5;309;0
3203;5;310;0
3204;5;311;0
3205;5;310;0
3206;5;310;2
3207;4;311;1
3208;4;312;0
3209;4;312;0
3210;5;312;0
3211;4;313;0
3212;5;312;1
3213;4;313;0
3214;4;314;1
3215;3;315;1
3216;2;316;2
3217;3;316;1
3218;3;316;0
3219;2;316;0
3220;3;316;0
3221;2;317;0
3222;3;317;0
3223;3;317;1
3224;3;316;1
3225;3;315;2
3226;3;315;1
3227;3;316;1
3228;3;316;1
3229;3;316;0
3230;3;316;1
3231;5;315;0
3232;5;316;0
3233;5;316;0
3234;5;317;0
3235;5;317;0
3236;4;318;1
3237;4;319;0
3238;5;320;1
3239;4;321;1
3240;4;320;2
3241;3;320;2
3242;3;320;1
3243;3;319;0
3244;4;318;1
3245;3;318;0
3246;3;318;0
3247;3;317;1
3248;3;317;1
3249;4;317;0
3250;4;318;0
3251;5;317;0
3252;5;317;0
3253;6;316;1
3254;6;316;0
3255;8;315;0
3256;8;315;1
3257;7;315;0
3258;7;316;1
3259;6;317;0
3260;5;318;0
3261;4;319;0
3262;3;320;0
3263;3;321;1
3264;2;321;0
3265;2;322;1
3266;1;323;1
3267;2;322;0
3268;2;321;0
3269;1;322;0
3270;0;322;2
3271;0;323;2
3272;0;324;2
3273;1;323;1
3274;1;323;1
3275;1;323;0
3276;0;323;2
3277;0;323;2
3278;0;323;2
3279;1;323;1
3280;1;323;1
3281;1;323;0
3282;2;323;0
3283;2;323;1
3284;1;324;0
3285;1;324;0
3286;1;325;0
3287;1;325;0
3288;0;326;1
3289;1;327;0
3290;0;328;0
3291;1;328;0
3292;1;328;0
3293;0;328;1
3294;0;329;1
3295;1;330;0
3296;1;331;1
3297;1;330;1
3298;2;330;0
3299;2;331;0
3300;2;331;1
3301;2;331;0
3302;2;332;0
3303;2;332;1
3304;1;333;0
3305;2;333;0
3306;1;333;0
3307;1;334;1
3308;1;334;1
3309;0;335;0
3310;0;336;1
3311;1;337;0
3312;0;337;1
3313;0;337;1
3314;1;338;0
3315;1;338;0
3316;2;337;0
3317;3;338;0
3318;2;339;0
3319;2;339;1
3320;2;339;2
3321;2;339;1
3322;2;338;0
3323;2;339;0
3324;1;340;0
3325;2;340;0
3326;1;341;0
3327;1;341;0
3328;0;342;1
3329;0;341;1
3330;1;341;0
3331;2;341;0
3332;2;341;1
3333;3;341;0
3334;3;341;0
3335;2;342;1
3336;2;342;0
3337;2;342;1
3338;1;343;1
3339;1;345;0
3340;2;345;1
3341;2;345;1
3342;1;346;0
3343;2;347;1
3344;3;346;0
3345;3;347;0
3346;3;348;1
3347;2;349;1
3348;2;349;1
3349;1;350;0
3350;1;349;0
3351;0;350;0
3352;0;350;0
3353;1;351;0
3354;1;352;0
3355;1;353;0
3356;1;354;0
3357;0;355;0
3358;0;355;0
3359;1;356;0
3360;0;357;0
3361;1;357;0
3362;0;357;0
3363;1;357;1
3364;1;357;0
3365;1;357;1
3366;1;357;0
3367;1;357;1
3368;0;358;2
3369;0;359;2
3370;1;357;1
3371;2;357;0
3372;2;356;1
3373;2;356;0
3374;2;357;0
3375;3;357;1
3376;3;357;0
3377;3;358;0
3378;3;358;0
3379;2;359;0
3380;2;360;0
3381;2;360;0
3382;2;361;0
3383;2;361;0
3384;1;361;1
3385;0;362;0
3386;2;362;0
3387;1;363;0
3388;2;362;0
3389;2;363;0
3390;2;363;0
3391;1;364;1
3392;1;364;0
3393;1;364;0
3394;1;364;0
3395;1;363;0
3396;0;364;1
3397;0;364;0
3398;0;364;0
3399;0;365;1
3400;1;366;0
3401;1;367;0
3402;1;368;0
3403;1;368;0
3404;1;369;0
3405;2;368;0
3406;2;368;0
3407;1;369;1
3408;1;369;0
3409;1;370;0
3410;2;370;0
3411;1;371;1
3412;1;372;0
3413;2;372;1
3414;3;372;0
3415;3;372;0
3416;3;373;0
3417;2;374;0
3418;3;373;1
3419;4;373;1
3420;3;373;1
3421;4;372;0
3422;3;373;0
3423;4;373;1
3424;3;374;0
3425;3;374;0
3426;3;373;0
3427;3;373;1
3428;2;373;0
3429;1;373;2
3430;1;374;1
3431;1;375;1
3432;0;375;0
3433;1;375;1
3434;1;376;0
3435;1;376;1
3436;0;377;1
3437;0;377;2
3438;0;377;1
3439;0;378;2
3440;0;378;2
3441;1;379;1
3442;0;380;0
3443;0;381;1
3444;0;381;1
3445;0;381;1
3446;0;382;1
3447;0;383;1
3448;1;384;0
3449;1;384;0
3450;2;385;0
3451;2;385;0
3452;2;385;1
3453;2;385;1
3454;2;385;1
3455;2;386;0
3456;2;385;0
3457;2;385;2
3458;2;385;1
3459;2;384;1
3460;2;385;2
3461;2;386;2
3462;1;387;1
3463;0;387;1
3464;0;387;0
3465;0;386;0
3466;0;387;1
3467;0;388;0
3468;1;389;0
3469;1;390;0
3470;3;390;0
3471;3;389;1
3472;3;388;0
3473;5;388;0
3474;5;388;1
3475;4;389;0
3476;4;389;1
3477;3;390;2
3478;4;391;1
3479;4;390;0
3480;6;390;0
3481;5;390;1
3482;6;389;0
3483;5;389;0
3484;6;389;1
3485;7;388;0
3486;6;389;0
3487;6;389;1
3488;6;390;0
3489;5;391;0
3490;4;392;1
3491;3;393;0
3492;3;393;1
3493;2;394;0
3494;2;394;0
3495;2;395;0
3496;1;396;0
3497;2;396;1
3498;2;396;1
3499;3;395;0
3500;3;394;1
3501;3;394;0
3502;4;394;0
3503;4;394;0
3504;4;393;0
3505;5;393;1
3506;5;392;0
3507;5;391;0
3508;5;391;1
3509;5;391;2
3510;5;392;2
3511;4;392;2
3512;4;392;1
3513;4;392;0
3514;5;392;1
3515;4;392;0
3516;4;392;2
3517;3;391;1
3518;3;392;1
3519;3;393;0
3520;3;392;0
3521;2;393;0
3522;1;393;1
3523;1;392;0
3524;1;391;0
3525;1;390;1
3526;1;389;1
3527;1;390;0
3528;1;389;1
3529;2;388;0
3530;1;388;0
3531;1;388;0
3532;1;386;1
3533;2;386;0
3534;2;387;0
3535;2;387;1
3536;1;387;1
3537;1;386;0
3538;3;386;0
3539;2;387;1
3540;1;388;0
3541;2;387;0
3542;3;387;0
3543;2;388;1
3544;3;388;0
3545;4;387;0
3546;4;387;0
3547;5;386;0
3548;4;387;1
3549;4;387;0
3550;3;388;1
3551;2;388;0
3552;3;388;0
3553;3;389;1
3554;3;389;1
3555;3;389;0
3556;3;389;1
3557;2;390;0
3558;1;391;1
3559;0;392;1
3560;0;392;1
3561;0;393;0
3562;0;394;1
3563;1;394;0
3564;0;395;2
3565;1;395;1
3566;1;395;1
3567;0;396;0
3568;1;396;1
3569;0;396;0
3570;0;396;1
3571;0;396;0
3572;0;395;1
3573;0;394;0
3574;1;393;1
3575;1;393;0
3576;0;393;0
3577;0;392;1
3578;1;393;0
3579;1;394;0
3580;1;395;0
3581;0;395;1
3582;1;395;0
3583;1;395;0
3584;0;396;2
3585;0;396;1
3586;0;396;1
3587;0;395;1
3588;0;395;0
3589;1;395;1
3590;1;394;1
3591;0;394;0
3592;0;395;0
3593;0;396;1
3594;1;397;0
3595;0;397;0
3596;1;396;0
3597;2;396;0
3598;3;396;0
3599;2;397;1
3600;3;396;1
3601;3;397;0
3602;3;396;1
3603;3;397;0
3604;3;396;1
3605;2;396;2
3606;3;397;1
3607;2;397;1
3608;2;398;0
3609;2;398;0
3610;3;397;0
3611;4;396;0
3612;5;395;0
3613;4;396;1
3614;4;396;0
3615;4;395;0
3616;3;396;1
3617;3;396;0
3618;2;396;0
3619;2;395;2
3620;2;395;1
3621;1;395;0
3622;1;395;0
3623;0;395;1
3624;0;395;1
3625;2;395;0
3626;2;395;0
3627;1;396;0
3628;0;396;1
3629;0;397;0
3630;1;398;1
3631;0;399;0
3632;0;400;1
3633;0;399;0
3634;0;400;0
3635;1;400;0
3636;0;400;0
3637;0;400;2
3638;1;400;1
3639;0;400;0
3640;0;399;1
3641;0;399;2
3642;0;398;1
3643;1;399;0
3644;0;399;0
3645;1;399;0
3646;1;399;0
3647;1;400;0
3648;1;401;0
3649;1;401;0
3650;1;400;1
3651;1;401;0
3652;1;402;1
3653;1;403;0
3654;2;402;0
3655;2;401;0
3656;1;402;1
3657;1;402;1
3658;1;401;1
3659;1;402;1
3660;1;402;1
3661;2;402;0
3662;1;402;1
3663;2;403;0
3664;1;404;0
3665;1;405;0
3666;1;406;0
3667;1;406;0
3668;1;406;1
3669;1;406;2
3670;0;407;3
3671;0;406;2
3672;1;407;2
3673;1;406;1
3674;0;406;1
3675;0;407;2
3676;0;407;2
3677;1;406;2
3678;1;406;1
3679;2;405;0
3680;2;404;1
3681;1;405;1
3682;1;405;1
3683;1;406;1
3684;0;407;1
3685;0;406;1
3686;1;406;0
3687;0;407;1
3688;0;408;0
3689;0;408;1
3690;0;408;0
3691;2;407;0
3692;2;406;0
3693;2;406;1
3694;2;406;0
3695;2;406;2
3696;3;406;1
3697;3;407;1
3698;3;407;1
3699;2;407;0
3700;2;408;0
3701;2;409;0
3702;2;410;0
3703;1;411;0
3704;2;411;0
3705;2;412;0
3706;1;413;1
3707;2;413;1
3708;1;414;1
3709;0;415;1
3710;0;416;1
3711;0;416;1
3712;0;416;1
3713;0;416;0
3714;1;415;1
3715;0;416;0
3716;0;417;0
3717;1;417;0
3718;2;417;0
3719;1;417;0
3720;2;417;1
3721;1;417;0
3722;1;416;1
3723;2;416;0
3724;2;415;0
3725;2;415;1
3726;1;416;1
3727;1;415;0
3728;1;414;1
3729;0;414;1
3730;0;414;2
3731;0;415;1
3732;1;415;1
3733;2;415;0
3734;2;415;0
3735;1;415;1
3736;0;415;1
3737;0;415;0
3738;0;416;0
3739;0;417;0
3740;0;417;1
3741;0;415;0
3742;2;416;0
3743;2;415;0
3744;1;415;0
3745;1;414;1
3746;0;415;1
3747;0;415;0
3748;1;416;0
3749;0;417;1
3750;0;416;1
3751;1;415;0
3752;1;414;0
3753;1;415;0
3754;1;414;1
3755;1;413;0
3756;1;414;2
3757;0;414;1
3758;0;415;0
3759;0;414;1
3760;1;414;1
3761;1;413;0
3762;2;413;1
3763;2;412;0
3764;4;412;0
3765;5;412;0
3766;5;412;1
3767;5;413;0
3768;5;414;1
3769;5;413;1
3770;5;413;1
3771;5;413;0
3772;4;413;1
3773;4;413;1
3774;3;413;1
3775;3;414;2
3776;3;414;1
3777;3;414;2
3778;2;415;2
3779;1;416;2
3780;1;417;1
3781;0;416;2
3782;1;416;1
3783;1;417;1
3784;1;418;1
3785;1;417;0
3786;2;416;0
3787;3;416;1
3788;2;417;1
3789;2;416;0
3790;2;416;1
3791;2;415;1
3792;2;414;0
3793;1;415;1
3794;0;415;0
3795;0;416;1
3796;0;416;0
3797;2;416;0
3798;1;416;0
3799;1;416;0
3800;2;416;1
3801;2;415;0
3802;3;414;1
3803;4;415;0
3804;5;414;0
3805;4;415;0
3806;4;416;0
3807;4;416;0
3808;4;416;2
3809;4;416;2
3810;3;416;2
3811;1;416;1
3812;1;416;1
3813;0;416;1
3814;0;415;0
3815;0;415;1
3816;1;414;0
3817;0;414;0
3818;2;415;0
3819;2;415;0
3820;2;414;2
3821;2;414;2
3822;2;413;1
3823;1;413;0
3824;0;413;0
3825;0;413;1
3826;0;413;1
3827;0;412;1
3828;0;412;1
3829;0;413;0
3830;1;413;0
3831;1;412;0
3832;1;413;0
3833;1;414;0
3834;1;414;1
3835;2;414;0
3836;1;415;1
3837;1;414;2
3838;0;415;1
3839;0;415;1
3840;1;414;0
3841;0;415;1
3842;0;415;0
3843;2;414;0
3844;2;413;1
3845;2;412;0
3846;2;412;1
3847;2;411;1
3848;2;411;1
3849;3;412;0
3850;4;412;0
3851;4;412;0
3852;4;412;0
3853;4;411;0
3854;3;411;0
3855;5;411;0
3856;4;411;1
3857;5;410;0
3858;4;410;0
3859;4;411;1
3860;5;411;0
3861;4;411;1
3862;3;411;1
3863;2;411;0
3864;1;412;0
3865;1;411;1
3866;0;412;1
3867;0;411;0
3868;0;412;0
3869;1;412;1
3870;0;412;1
3871;1;411;0
3872;1;410;1
3873;1;409;0
3874;2;408;0
3875;1;409;1
3876;1;409;1
3877;1;409;0
3878;1;409;1
3879;1;410;1
3880;1;411;0
3881;0;411;0
3882;0;410;0
3883;0;410;1
3884;1;410;0
3885;0;410;0
3886;1;410;1
3887;2;411;0
3888;2;410;0
3889;1;411;1
3890;0;412;0
3891;1;413;1
3892;0;413;1
3893;0;413;1
3894;0;414;0
3895;0;413;2
3896;0;413;2
3897;0;414;2
3898;0;415;1
3899;0;415;1
3900;0;414;2
3901;0;414;1
3902;1;415;1
3903;0;415;0
3904;1;414;1
3905;1;413;0
3906;2;412;0
3907;2;411;0
3908;2;412;0
3909;3;412;0
3910;4;412;0
3911;4;412;0
3912;4;412;0
3913;3;412;0
3914;3;411;0
3915;3;411;1
3916;3;410;0
3917;2;410;1
3918;3;409;0
3919;2;410;1
3920;3;410;0
3921;4;410;0
3922;4;409;0
3923;4;408;1
3924;6;407;0
3925;6;407;0
3926;8;407;0
3927;8;407;0
3928;8;407;0
3929;7;407;0
3930;8;406;0
3931;7;406;0
3932;7;407;1
3933;7;408;1
3934;6;408;0
3935;5;409;0
3936;6;408;0
3937;6;409;0
3938;5;409;0
3939;5;409;1
3940;5;409;0
3941;6;409;1
3942;6;409;0
3943;6;409;0
3944;6;409;0
3945;6;409;1
3946;6;409;0
3947;5;409;0
3948;5;410;0
3949;4;411;0
3950;6;411;0
3951;6;410;0
3952;7;410;0
3953;7;410;0
3954;8;410;0
3955;8;411;0
3956;8;411;1
3957;8;411;0
3958;8;411;0
3959;8;410;2
3960;7;410;2
3961;8;411;1
3962;7;411;0
3963;7;411;0
3964;7;411;0
3965;7;411;1
3966;8;410;0
3967;9;409;0
3968;9;410;1
3969;9;410;1
3970;10;410;0
3971;9;411;1
3972;8;412;0
3973;8;412;2
3974;8;413;1
3975;7;414;0
3976;7;415;0
3977;6;415;0
3978;8;414;1
3979;7;415;0
3980;7;416;1
3981;7;415;1
3982;8;414;0
3983;8;414;0
3984;8;416;0
3985;8;416;1
3986;7;417;2
3987;7;417;2
3988;7;418;1
3989;7;418;1
3990;6;419;0
3991;6;420;0
3992;6;419;1
3993;6;419;1
3994;5;419;0
3995;6;418;0
3996;8;418;0
3997;8;417;1
3998;8;417;0
3999;8;417;1
4000;8;416;0
4001;9;415;1
4002;10;414;0
4003;10;413;0
4004;10;413;1
4005;11;412;0
4006;11;413;0
4007;11;413;0
4008;12;413;1
4009;11;414;0
4010;13;415;0
4011;13;416;0
4012;14;416;0
4013;14;415;0
4014;15;416;1
4015;15;416;0
4016;15;416;1
4017;16;417;0
4018;16;417;0
4019;18;416;0
4020;18;416;0
4021;17;418;0
4022;17;418;1
4023;16;418;0
4024;16;418;1
4025;15;419;0
4026;16;419;0
4027;16;420;0
4028;16;420;2
4029;16;420;2
4030;16;421;2
4031;15;421;1
4032;16;422;0
4033;16;422;1
4034;15;423;0
4035;16;422;0
4036;16;423;0
4037;16;423;0
4038;15;424;0
4039;16;425;1
4040;16;425;0
4041;16;424;1
4042;15;425;0
4043;14;426;1
4044;14;425;1
4045;14;425;0
4046;13;427;2
4047;13;427;1
4048;13;427;1
4049;13;427;1
4050;12;427;1
4051;11;428;0
4052;12;428;0
4053;12;428;0
4054;13;428;0
4055;14;429;0
4056;14;430;0
4057;14;431;0
4058;14;431;1
4059;15;432;0
4060;14;433;1
4061;14;433;0
4062;14;434;0
4063;13;434;1
4064;13;433;1
4065;12;435;0
4066;12;435;1
4067;12;436;1
4068;12;437;0
4069;11;437;0
4070;12;438;0
4071;13;438;0
4072;13;438;0
4073;12;439;0
4074;12;439;1
4075;11;440;1
4076;11;441;1
4077;11;440;0
4078;10;441;1
4079;11;441;0
4080;11;442;1
4081;11;443;0
4082;11;443;1
4083;12;443;0
4084;13;443;0
4085;12;444;0
4086;12;445;2
4087;12;445;1
4088;14;446;0
4089;13;447;0
4090;13;448;0
4091;14;447;1
4092;13;448;0
4093;12;449;0
4094;11;449;1
4095;10;450;1
4096;10;450;0
4097;10;451;1
4098;10;451;0
4099;11;451;0
4100;10;452;1
4101;12;452;0
4102;11;452;1
4103;10;453;0
4104;11;453;0
4105;11;454;0
4106;12;453;1
4107;12;454;0
4108;11;455;0
4109;11;454;0
4110;10;454;0
4111;10;455;0
4112;9;456;2
4113;9;455;2
4114;8;456;1
4115;9;456;1
4116;10;457;0
4117;11;456;0
4118;12;456;0
4119;11;458;0
4120;11;459;0
4121;11;459;1
4122;10;459;0
4123;9;460;1
4124;10;460;0
4125;9;461;0
4126;9;461;0
4127;8;462;1
4128;7;463;1
4129;8;463;0
4130;8;464;0
4131;7;465;0
4132;7;465;0
4133;8;466;0
4134;8;466;0
4135;7;466;1
4136;6;467;1
4137;7;466;0
4138;6;467;0
4139;5;468;1
4140;5;468;2
4141;5;469;1
4142;4;470;2
4143;6;471;2
4144;4;472;1
4145;4;473;0
4146;4;474;1
4147;5;475;0
4148;6;475;0
4149;6;475;0
4150;6;476;0
4151;5;477;1
4152;5;478;0
4153;6;477;0
4154;7;477;1
4155;7;478;0
4156;8;478;0
4157;8;479;0
4158;7;480;1
4159;8;480;0
4160;8;481;0
4161;8;481;1
4162;8;482;0
4163;8;483;0
4164;7;484;0
4165;6;484;1
4166;6;485;0
4167;6;485;0
4168;6;486;1
4169;6;486;0
4170;6;486;1
4171;5;487;1
4172;4;488;1
4173;4;489;0
4174;4;489;1
4175;3;490;0
4176;3;490;0
4177;3;489;1
4178;4;489;0
4179;3;489;0
4180;5;489;0
4181;5;490;0
4182;4;491;1
4183;4;490;0
4184;3;491;0
4185;3;491;2
4186;3;491;1
4187;3;492;1
4188;3;492;1
4189;3;493;1
4190;2;494;0
4191;1;495;1
4192;2;495;0
4193;2;496;0
4194;2;496;1
4195;2;496;1
4196;2;496;0
4197;1;497;1
4198;1;498;0
4199;0;498;1
4200;1;499;0
4201;2;498;0
4202;2;498;1
4203;2;498;0
4204;2;499;0
4205;2;499;1
4206;2;500;0
4207;1;501;1
4208;2;501;0
4209;3;500;0
4210;2;501;0
4211;2;501;2
4212;1;502;1
4213;1;502;1
4214;0;503;0
4215;1;504;0
4216;1;505;1
4217;1;505;0
4218;2;506;0
4219;2;506;0
4220;3;506;0
4221;2;507;1
4222;1;508;1
4223;1;508;0
4224;0;509;2
4225;0;510;1
4226;1;511;0
4227;0;512;1
4228;0;512;1
4229;1;512;0
4230;1;512;0
4231;0;513;0
4232;0;513;0
4233;1;512;1
4234;1;513;1
4235;0;513;0
4236;1;512;0
4237;1;513;0
4238;2;514;0
4239;1;514;0
4240;1;514;1
4241;2;513;1
4242;2;513;0
4243;2;513;0
4244;3;512;0
4245;3;511;1
4246;4;512;0
4247;3;513;0
4248;2;514;2
4249;1;515;1
4250;1;515;2
4251;1;515;1
4252;0;516;1
4253;0;516;1
4254;0;515;0
4255;0;515;0
4256;1;514;1
4257;0;514;1
4258;0;514;1
4259;0;514;1
4260;0;513;1
4261;1;513;0
4262;1;513;0
4263;1;513;0
4264;1;512;0
4265;1;511;0
4266;1;512;2
4267;1;512;2
4268;1;512;2
4269;0;513;1
4270;0;513;1
4271;0;512;0
4272;1;513;0
4273;1;513;2
4274;0;514;1
4275;1;513;1
4276;1;513;0
4277;0;513;1
4278;0;513;2
4279;0;514;1
4280;0;514;0
4281;0;514;0
4282;0;515;1
4283;0;515;0
4284;1;515;0
4285;0;516;1
4286;1;516;0
4287;1;517;0
4288;0;518;0
4289;0;519;0
4290;0;520;1
4291;0;519;1
4292;1;519;0
4293;2;518;0
4294;2;517;1
4295;1;518;0
4296;1;518;0
4297;1;517;1
4298;1;517;0
4299;2;517;0
4300;2;518;0
4301;1;518;0
4302;2;517;1
4303;2;516;0
4304;2;517;1
4305;2;516;1
4306;1;517;0
4307;2;516;0
4308;2;516;0
4309;3;516;1
4310;3;516;1
4311;3;516;0
4312;2;517;1
4313;3;517;0
4314;4;516;0
4315;3;516;1
4316;3;516;1
4317;3;517;0
4318;2;518;0
4319;2;519;1
4320;2;519;0
4321;2;518;1
4322;2;519;0
4323;3;519;0
4324;2;520;1
4325;3;520;0
4326;3;520;0
4327;4;520;0
4328;4;520;1
4329;4;520;0
4330;4;520;1
4331;4;519;0
4332;4;518;2
4333;4;517;1
4334;3;517;2
4335;2;518;1
4336;2;518;0
4337;3;518;0
4338;3;518;0
4339;4;518;1
4340;5;519;0
4341;4;518;1
4342;4;518;0
4343;5;518;1
4344;5;518;0
4345;4;518;0
4346;4;517;1
4347;4;518;0
4348;4;517;0
4349;6;516;0
4350;6;516;0
4351;7;515;0
4352;6;516;1
4353;6;516;0
4354;5;516;1
4355;4;517;0
4356;3;517;0
4357;3;517;1
4358;2;517;1
4359;3;517;0
4360;2;518;0
4361;1;518;1
4362;2;517;0
4363;3;517;0
4364;2;517;1
4365;1;518;0
4366;1;518;0
4367;1;518;1
4368;3;517;0
4369;4;516;0
4370;4;516;0
4371;3;517;1
4372;3;517;0
4373;3;517;1
4374;4;518;1
4375;4;518;0
4376;5;518;0
4377;5;518;0
4378;5;519;0
4379;5;520;0
4380;6;519;0
4381;6;519;0
4382;5;520;1
4383;5;520;1
4384;4;521;0
4385;4;520;2
4386;4;520;2
4387;3;520;2
4388;3;521;2
4389;3;521;1
4390;4;520;1
4391;3;520;0
4392;3;520;1
4393;3;520;1
4394;2;520;1
4395;2;521;1
4396;2;520;2
4397;1;520;1
4398;1;519;0
4399;1;520;0
4400;0;520;1
4401;0;520;0
4402;2;520;0
4403;3;519;0
4404;3;520;0
4405;3;521;0
4406;3;521;1
4407;3;520;0
4408;3;520;1
4409;3;520;0
4410;2;521;1
4411;1;522;1
4412;0;523;1
4413;0;523;0
4414;1;523;1
4415;1;523;0
4416;1;524;1
4417;1;523;1
4418;1;524;0
4419;1;524;0
4420;1;526;0
4421;0;527;0
4422;1;528;0
4423;1;527;1
4424;0;528;1
4425;1;528;0
4426;0;529;0
4427;1;528;1
4428;0;529;1
4429;1;530;1
4430;0;531;1
4431;0;531;1
4432;1;531;0
4433;1;531;0
4434;1;530;2
4435;0;531;1
4436;0;530;0
4437;0;530;0
4438;0;530;1
4439;0;531;0
4440;0;531;2
4441;0;532;1
4442;1;533;0
4443;1;534;0
4444;1;535;1
4445;1;535;0
4446;1;535;0
4447;3;535;0
4448;3;536;0
4449;4;536;0
4450;4;536;1
4451;5;536;0
4452;5;536;0
4453;4;536;1
4454;3;537;0
4455;2;537;1
4456;3;537;0
4457;3;538;0
4458;3;538;0
4459;5;538;0
4460;4;539;0
4461;4;540;1
4462;3;541;1
4463;2;542;0
4464;1;543;1
4465;1;543;1
4466;1;543;0
4467;1;542;2
4468;1;542;2
4469;1;542;2
4470;2;541;1
4471;3;541;0
4472;3;542;0
4473;3;541;1
4474;4;540;0
4475;5;540;0
4476;6;541;0
4477;6;541;0
4478;6;542;1
4479;5;543;0
4480;6;544;0
4481;7;543;0
4482;7;542;1
4483;6;543;1
4484;5;544;1
4485;5;543;0
4486;4;544;2
4487;4;544;1
4488;4;543;0
4489;4;544;1
4490;3;545;0
4491;2;545;0
4492;3;546;0
4493;2;546;1
4494;1;546;1
4495;1;545;1
4496;0;546;0
4497;2;546;0
4498;1;547;0
4499;0;548;1
4500;0;548;0
4501;0;548;1
4502;1;549;0
4503;0;550;0
4504;1;549;1
4505;1;549;1
4506;1;548;0
4507;0;550;0
4508;1;551;0
4509;1;552;0
4510;2;552;0
4511;3;553;0
4512;3;552;0
4513;3;551;0
4514;3;551;0
4515;3;550;0
4516;5;551;0
4517;5;551;1
4518;5;550;0
4519;7;549;0
4520;6;549;1
4521;6;549;0
4522;5;550;1
4523;4;551;1
4524;5;550;0
4525;4;551;0
4526;4;552;1
4527;5;551;0
4528;5;551;0
4529;4;552;0
4530;5;551;0
4531;4;551;0
4532;6;550;1
4533;6;551;0
4534;8;550;0
4535;9;549;0
4536;9;550;0
4537;9;549;1
4538;9;549;0
4539;8;549;0
4540;9;548;1
4541;9;547;1
4542;8;547;0
4543;7;547;2
4544;7;547;1
4545;8;547;0
4546;8;547;1
4547;8;547;0
4548;9;546;0
4549;9;547;0
4550;8;548;1
4551;8;548;1
4552;8;548;0
4553;7;548;2
4554;7;549;1
4555;7;550;1
4556;8;549;0
4557;9;548;0
4558;9;549;0
4559;9;550;0
4560;8;550;0
4561;9;551;1
4562;10;551;0
4563;11;551;0
4564;11;552;0
4565;10;552;0
4566;9;553;1
4567;10;552;0
4568;9;553;0
4569;9;553;1
4570;10;553;0
4571;10;553;0
4572;10;553;0
4573;8;554;0
4574;8;555;0
4575;8;555;1
4576;7;556;1
4577;7;556;1
4578;7;556;0
4579;7;557;1
4580;7;556;0
4581;8;556;0
4582;8;555;1
4583;7;555;0
4584;7;554;0
4585;7;553;2
4586;7;553;1
4587;7;553;0
4588;8;552;0
4589;8;552;0
4590;9;551;0
4591;9;551;0
4592;9;552;1
4593;9;551;1
4594;9;552;0
4595;10;552;0
4596;10;551;0
4597;9;551;2
4598;8;551;2
4599;8;550;2
4600;8;551;2
4601;7;552;1
4602;8;552;0
4603;9;553;0
4604;10;552;0
4605;11;551;0
4606;10;552;0
4607;11;552;0
4608;10;553;0
4609;11;553;1
4610;10;553;1
4611;10;555;1
4612;11;555;0
4613;11;554;0
4614;11;554;0
4615;13;554;0
4616;12;555;0
4617;13;556;0
4618;12;557;0
4619;11;557;2
4620;11;557;2
4621;11;557;2
4622;10;558;1
4623;10;559;1
4624;10;560;0
4625;10;560;1
4626;10;560;1
4627;9;560;0
4628;8;561;0
4629;9;560;0
4630;9;560;0
4631;10;561;0
4632;10;561;1
4633;9;561;1
4634;10;561;0
4635;9;562;0
4636;8;563;1
4637;7;564;0
4638;6;565;2
4639;6;565;2
4640;6;566;1
4641;6;566;0
4642;5;567;1
4643;5;568;0
4644;6;568;0
4645;7;568;0
4646;8;568;0
4647;8;568;0
4648;8;568;1
4649;8;568;1
4650;7;569;0
4651;7;569;1
4652;6;569;0
4653;6;570;1
4654;7;570;0
4655;7;570;0
4656;7;570;1
4657;7;570;3
4658;7;571;2
4659;7;572;2
4660;7;571;0
4661;6;572;0
4662;6;573;0
4663;7;572;1
4664;6;572;0
4665;6;573;1
4666;6;574;1
4667;7;574;0
4668;7;574;0
4669;7;573;0
4670;7;573;0
4671;7;574;1
4672;6;574;0
4673;6;575;0
4674;7;575;1
4675;8;575;0
4676;8;576;0
4677;8;576;0
4678;8;577;1
4679;8;577;0
4680;9;577;0
4681;9;577;0
4682;9;578;1
4683;9;578;0
4684;9;578;2
4685;8;578;1
4686;8;578;1
4687;8;578;0
4688;8;579;0
4689;8;579;0
4690;8;579;0
4691;9;578;1
4692;9;578;1
4693;9;578;0
4694;9;577;1
4695;8;577;1
4696;9;577;0
4697;9;577;0
4698;9;577;0
4699;9;577;1
4700;9;578;0
4701;11;578;0
4702;11;579;0
4703;12;580;0
4704;11;581;1
4705;10;582;1
4706;10;581;1
4707;9;581;0
4708;9;582;0
4709;8;582;0
4710;8;583;1
4711;8;583;0
4712;7;584;0
4713;7;584;0
4714;6;584;0
4715;6;585;0
4716;8;585;0
4717;8;586;1
4718;7;587;0
4719;8;588;0
4720;7;588;1
4721;8;588;0
4722;7;588;0
4723;7;589;0
4724;7;589;1
4725;6;590;0
4726;6;590;1
4727;6;591;0
4728;6;592;1
4729;6;592;1
4730;7;591;0
4731;7;592;0
4732;7;592;0
4733;6;592;1
4734;6;591;1
4735;6;591;0
4736;6;590;1
4737;8;591;0
4738;9;590;0
4739;9;590;0
4740;9;591;1
4741;9;591;0
4742;8;591;0
4743;8;591;0
4744;7;591;0
4745;8;590;0
4746;8;589;0
4747;8;589;1
4748;9;587;0
4749;9;587;1
4750;9;587;0
4751;10;587;0
4752;10;587;1
4753;10;586;2
4754;10;587;2
4755;10;587;1
4756;9;587;1
4757;8;588;0
4758;10;588;0
4759;10;587;0
4760;12;586;0
4761;12;586;0
4762;13;585;0
4763;13;584;1
4764;14;583;0
4765;14;584;0
4766;16;584;0
4767;16;583;0
4768;15;584;0
4769;14;585;0
4770;16;585;0
4771;16;586;1
4772;15;587;0
4773;15;586;0
4774;16;586;0
4775;16;586;0
4776;15;587;0
4777;16;587;1
4778;15;587;1
4779;15;587;1
4780;15;587;1
4781;15;587;0
4782;15;587;1
4783;15;586;1
4784;15;586;2
4785;15;587;1
4786;16;587;0
4787;17;588;0
4788;17;587;1
4789;16;587;1
4790;15;588;1
4791;15;587;0
4792;15;587;1
4793;15;588;0
4794;15;588;1
4795;15;589;1
4796;15;590;0
4797;14;590;1
4798;15;590;0
4799;15;590;0
4800;15;590;1
4801;15;589;0
4802;15;589;1
4803;15;589;0
4804;15;589;0
4805;15;590;1
4806;15;590;1
4807;15;590;1
4808;15;590;2
4809;14;590;1
4810;14;590;0
4811;14;590;0
4812;15;590;1
4813;14;591;0
4814;15;592;0
4815;14;593;0
4816;15;593;0
4817;15;594;1
4818;15;594;1
4819;15;594;0
4820;15;594;0
4821;15;595;0
4822;14;595;1
4823;15;596;0
4824;14;597;0
4825;15;597;0
4826;15;596;0
4827;16;595;0
4828;16;596;0
4829;16;596;1
4830;16;596;0
4831;17;596;0
4832;16;596;0
4833;16;597;1
4834;16;597;0
4835;16;598;0
4836;15;598;0
4837;15;597;1
4838;15;598;1
4839;15;597;1
4840;14;597;0
4841;13;597;2
4842;13;598;1
4843;12;599;0
4844;11;599;2
4845;11;598;1
4846;12;598;1
4847;13;598;0
4848;12;598;1
4849;12;599;0
4850;11;599;2
4851;11;598;1
4852;13;597;0
4853;12;597;0
4854;13;596;0
4855;14;595;0
4856;14;595;1
4857;14;594;0
4858;14;595;1
4859;13;595;1
4860;14;595;0
4861;13;596;1
4862;15;595;0
4863;14;596;1
4864;15;596;0
4865;15;596;0
4866;14;597;2
4867;14;596;1
4868;14;596;2
4869;14;597;1
4870;14;597;0
4871;14;597;0
4872;14;597;1
4873;13;597;0
4874;13;595;1
4875;12;596;1
4876;12;596;0
4877;13;595;1
4878;12;595;0
4879;12;595;1
4880;12;596;0
4881;12;596;0
4882;13;596;0
4883;13;596;2
4884;14;595;1
4885;14;595;1
4886;13;595;0
4887;14;595;0
4888;14;595;0
4889;15;594;0
4890;14;594;0
4891;14;595;0
4892;14;596;0
4893;13;596;0
4894;12;597;0
4895;12;597;0
4896;11;598;1
4897;11;597;2
4898;11;598;1
4899;11;599;0
4900;12;598;0
4901;12;598;0
4902;14;597;0
4903;14;596;1
4904;14;597;1
4905;14;597;0
4906;13;598;0
4907;13;599;1
4908;12;600;1
4909;12;600;0
4910;14;600;1
4911;14;600;1
4912;13;600;1
4913;12;601;0
4914;12;602;0
4915;12;602;0
4916;11;602;1
4917;10;603;0
4918;11;603;0
4919;11;602;0
4920;10;603;1
4921;12;602;0
4922;12;602;1
4923;11;603;2
4924;11;603;1
4925;12;604;0
4926;13;603;1
4927;13;603;0
4928;14;603;0
4929;14;603;0
4930;14;603;0
4931;13;603;0
4932;13;602;1
4933;12;603;1
4934;12;602;0
4935;13;601;1
4936;13;602;0
4937;12;602;1
4938;11;602;0
4939;12;602;0
4940;12;602;1
4941;12;602;1
4942;12;602;1
4943;11;603;1
4944;11;604;1
4945;12;604;0
4946;12;605;0
4947;11;605;1
4948;12;606;0
4949;12;607;0
4950;12;607;0
4951;12;607;1
4952;11;608;1
4953;10;609;0
4954;9;610;1
4955;10;611;0
4956;10;612;0
4957;10;613;0
4958;11;612;0
4959;11;613;0
4960;11;612;0
4961;12;613;0
4962;11;613;0
4963;11;613;1
4964;11;614;1
4965;11;615;0
4966;10;615;0
4967;10;614;0
4968;12;613;0
4969;11;613;0
4970;10;613;0
4971;10;612;0
4972;9;613;0
4973;9;613;1
4974;9;614;0
4975;8;614;0
4976;8;614;0
4977;7;615;0
4978;8;616;0
4979;7;616;1
4980;8;617;0
4981;7;618;1
4982;7;618;0
4983;8;619;0
4984;8;619;1
4985;8;619;0
4986;8;620;1
4987;7;620;0
4988;8;619;0
4989;9;618;0
4990;9;619;0
4991;9;619;1
4992;9;619;1
4993;9;618;0
4994;10;618;1
4995;9;618;0
4996;8;618;0
4997;9;618;0
4998;8;618;1
4999;8;617;0
