step;d2;d3;d1
1;0;0;0
2;0;0;0
3;0;0;0
4;0;0;0
5;0;0;0
6;0;0;0
7;0;0;0
8;0;0;0
9;0;0;0
10;0;0;0
11;0;0;0
12;0;0;0
13;0;0;0
14;0;0;0
15;0;0;0
16;0;0;0
17;0;0;0
18;0;0;0
19;0;0;0
20;0;0;0
21;0;0;0
22;0;0;0
23;0;0;0
24;0;0;0
25;0;0;0
26;0;0;0
27;0;0;0
28;0;0;0
29;0;0;0
30;0;0;0
31;0;0;0
32;0;0;0
33;0;0;0
34;0;0;0
35;0;0;0
36;0;0;0
37;0;0;0
38;0;0;0
39;0;0;0
40;0;0;0
41;0;0;0
42;0;0;0
43;0;0;0
44;0;0;0
45;0;0;0
46;0;0;0
47;0;0;0
48;0;0;0
49;0;0;0
50;0;0;0
51;0;0;0
52;0;0;0
53;0;0;0
54;0;0;0
55;0;0;0
56;0;0;0
57;0;0;0
58;0;0;0
59;0;0;0
60;0;0;0
61;0;0;0
62;0;0;0
63;0;0;0
64;0;0;0
65;0;0;0
66;0;0;0
67;0;0;0
68;0;0;0
69;0;0;0
70;0;0;0
71;0;0;0
72;0;0;0
73;0;0;0
74;0;0;0
75;0;1;0
76;1;0;0
77;0;0;0
78;1;0;0
79;0;0;0
80;0;1;1
81;0;1;1
82;0;0;0
83;0;0;0
84;0;0;0
85;0;0;1
86;0;0;1
87;0;0;2
88;0;1;1
89;1;0;1
90;2;0;0
91;1;1;1
92;0;0;1
93;1;1;1
94;0;0;1
95;1;1;0
96;1;1;0
97;1;1;0
98;1;1;1
99;1;0;1
100;1;0;2
101;1;1;1
102;0;0;1
103;1;1;0
104;1;1;1
105;1;1;0
106;2;1;0
107;2;1;0
108;2;1;0
109;1;1;1
110;1;0;2
111;1;1;1
112;3;1;0
113;3;0;0
114;4;0;1
115;3;1;2
116;2;1;2
117;1;1;3
118;1;2;3
119;0;2;3
120;0;1;3
121;1;0;2
122;2;0;1
123;3;1;0
124;3;1;0
125;3;1;0
126;3;0;0
127;3;1;1
128;3;0;1
129;3;1;1
130;2;0;1
131;3;0;0
132;3;0;0
133;2;1;1
134;2;0;0
135;3;0;0
136;4;1;0
137;3;1;0
138;3;0;0
139;4;0;1
140;4;1;0
141;4;0;0
142;3;1;2
143;3;1;1
144;3;1;2
145;4;0;1
146;3;1;2
147;3;0;2
148;2;0;2
149;1;0;4
150;0;1;4
151;0;1;5
152;0;0;7
153;0;0;8
154;0;1;8
155;0;0;7
156;0;0;6
157;0;0;8
158;1;0;8
159;1;1;8
160;1;0;8
161;3;0;7
162;3;0;7
163;3;1;7
164;3;1;8
165;3;1;7
166;3;1;7
167;4;0;6
168;3;0;6
169;3;0;7
170;2;1;8
171;2;1;8
172;1;1;8
173;1;0;7
174;1;0;7
175;1;0;6
176;1;1;5
177;1;2;6
178;1;0;6
179;1;0;6
180;3;0;5
181;3;0;4
182;4;0;4
183;4;1;4
184;4;1;4
185;5;0;3
186;5;1;2
187;5;1;2
188;5;0;1
189;4;1;3
190;4;1;3
191;3;0;3
192;3;0;3
193;3;0;3
194;4;1;3
195;5;0;2
196;6;1;2
197;6;0;2
198;7;0;2
199;7;1;2
200;7;1;1
201;8;0;0
202;7;0;1
203;7;1;1
204;8;0;0
205;8;0;0
206;7;0;0
207;8;0;1
208;7;0;1
209;8;1;1
210;8;1;2
211;9;0;1
212;9;1;2
213;10;1;1
214;10;0;0
215;10;0;1
216;9;0;2
217;9;0;2
218;10;0;1
219;11;0;0
220;11;1;0
221;11;0;0
222;10;1;0
223;9;1;0
224;8;0;0
225;8;0;1
226;9;1;1
227;10;1;0
228;9;0;1
229;8;0;1
230;8;0;1
231;7;0;2
232;6;0;3
233;6;1;3
234;6;2;3
235;5;1;3
236;4;1;3
237;5;1;3
238;5;0;2
239;4;0;2
240;5;0;2
241;4;1;2
242;4;1;2
243;3;1;3
244;4;0;3
245;5;0;2
246;5;0;1
247;6;1;0
248;6;1;0
249;6;1;2
250;6;0;2
251;6;0;3
252;5;0;3
253;5;1;3
254;4;1;3
255;3;1;5
256;4;1;4
257;5;1;4
258;5;1;3
259;5;1;3
260;6;0;2
261;6;0;2
262;5;1;2
263;5;0;2
264;4;0;2
265;5;0;1
266;5;0;0
267;4;0;0
268;4;0;0
269;4;1;1
270;3;2;3
271;3;2;2
272;2;1;3
273;2;0;3
274;1;0;4
275;0;0;5
276;0;1;5
277;1;0;5
278;2;0;5
279;1;0;5
280;1;0;6
281;2;1;5
282;3;0;5
283;4;0;5
284;3;0;6
285;2;0;6
286;1;0;6
287;0;1;7
288;1;1;7
289;1;0;8
290;1;0;7
291;1;0;7
292;2;1;6
293;2;1;5
294;2;0;5
295;3;0;4
296;4;1;3
297;3;1;4
298;4;1;3
299;4;1;2
300;3;0;4
301;3;1;3
302;3;1;5
303;3;1;5
304;2;1;5
305;4;0;4
306;4;0;3
307;4;0;3
308;3;1;4
309;4;0;3
310;4;1;2
311;4;1;2
312;3;1;3
313;3;0;3
314;3;1;2
315;3;1;1
316;4;0;0
317;3;0;1
318;2;1;1
319;2;2;2
320;2;1;1
321;3;0;1
322;3;0;1
323;3;0;0
324;3;0;0
325;2;2;0
326;1;3;1
327;1;3;2
328;1;3;1
329;0;2;1
330;0;2;2
331;2;1;2
332;2;1;1
333;1;1;2
334;1;2;2
335;1;2;2
336;3;2;1
337;4;3;1
338;4;3;0
339;3;3;1
340;2;3;1
341;3;3;1
342;2;3;2
343;1;3;3
344;1;2;3
345;0;2;3
346;1;2;2
347;0;2;3
348;0;2;3
349;1;2;2
350;1;1;2
351;2;0;2
352;2;1;2
353;2;1;1
354;1;1;1
355;2;0;1
356;1;1;1
357;1;1;2
358;1;1;1
359;2;0;1
360;2;1;0
361;3;0;1
362;3;0;1
363;2;1;2
364;1;1;3
365;0;0;3
366;2;0;3
367;1;1;4
368;0;1;5
369;0;1;6
370;1;1;6
371;1;1;6
372;2;0;6
373;2;0;6
374;1;1;7
375;0;2;7
376;1;1;7
377;1;1;6
378;2;1;7
379;2;0;7
380;3;0;6
381;3;0;6
382;3;0;5
383;3;0;6
384;2;0;7
385;1;0;8
386;2;0;7
387;2;0;7
388;1;1;8
389;1;2;7
390;1;1;7
391;1;1;7
392;1;0;6
393;0;1;7
394;1;0;6
395;0;1;7
396;1;0;7
397;0;1;8
398;0;0;7
399;0;0;7
400;0;0;6
401;2;1;6
402;1;1;6
403;0;0;6
404;1;0;7
405;0;0;7
406;0;1;8
407;1;1;8
408;2;1;8
409;3;1;8
410;4;1;7
411;6;0;6
412;6;1;6
413;5;1;7
414;5;0;7
415;5;0;6
416;5;0;6
417;4;0;7
418;4;0;7
419;5;0;7
420;6;1;6
421;6;0;5
422;7;0;4
423;6;0;4
424;7;0;4
425;6;0;5
426;7;1;5
427;7;0;5
428;6;0;7
429;5;0;7
430;5;1;7
431;4;0;8
432;4;1;8
433;4;0;7
434;5;0;6
435;5;0;7
436;6;1;6
437;6;1;6
438;7;0;5
439;7;1;4
440;8;1;4
441;8;0;4
442;7;0;4
443;8;1;4
444;8;1;3
445;9;0;3
446;9;0;2
447;9;1;1
448;10;0;2
449;10;0;2
450;10;1;2
451;10;0;2
452;10;0;2
453;9;1;2
454;10;1;1
455;10;1;1
456;9;0;1
457;10;0;1
458;10;0;0
459;10;0;1
460;10;0;0
461;10;0;1
462;10;1;2
463;10;1;2
464;10;0;2
465;10;0;2
466;11;0;1
467;10;0;1
468;10;0;0
469;9;0;1
470;10;1;0
471;10;1;0
472;9;1;2
473;9;1;2
474;9;1;1
475;10;0;0
476;10;1;0
477;11;0;0
478;10;0;0
479;11;0;0
480;11;1;0
481;12;0;0
482;11;0;0
483;11;1;1
484;11;1;1
485;11;1;2
486;10;1;2
487;10;1;1
488;9;0;2
489;9;1;2
490;8;0;2
491;9;1;2
492;8;1;3
493;9;1;3
494;9;0;3
495;9;1;2
496;10;0;2
497;10;1;1
498;12;1;1
499;12;1;1
500;13;0;0
501;12;1;0
502;12;0;0
503;12;1;1
504;11;0;2
505;10;1;2
506;10;0;2
507;11;1;2
508;10;1;3
509;10;2;2
510;11;1;1
511;10;1;1
512;10;0;0
513;11;1;1
514;10;1;2
515;9;1;3
516;9;1;3
517;8;1;4
518;7;1;4
519;8;1;4
520;8;1;3
521;8;1;3
522;8;1;3
523;8;1;2
524;8;1;1
525;8;1;1
526;8;0;1
527;7;1;1
528;8;1;0
529;8;1;0
530;9;0;0
531;8;0;1
532;8;1;0
533;9;1;0
534;9;0;0
535;10;1;0
536;11;2;1
537;11;1;0
538;10;2;1
539;9;2;2
540;8;1;2
541;7;1;3
542;7;1;2
543;7;2;1
544;7;2;1
545;8;2;0
546;9;1;0
547;9;1;0
548;9;1;0
549;9;0;1
550;9;0;0
551;8;1;1
552;7;1;1
553;7;1;1
554;7;1;0
555;7;1;1
556;7;1;1
557;6;1;2
558;5;1;2
559;4;1;2
560;4;1;2
561;4;1;2
562;5;1;2
563;5;1;2
564;5;0;1
565;5;1;0
566;5;0;1
567;4;0;1
568;4;0;2
569;4;1;2
570;3;1;3
571;4;0;2
572;3;1;2
573;3;0;2
574;2;1;2
575;2;0;2
576;1;1;3
577;1;2;3
578;0;1;3
579;0;1;3
580;0;0;3
581;1;0;2
582;1;1;2
583;2;2;2
584;3;3;2
585;3;1;2
586;3;0;1
587;3;1;1
588;2;1;1
589;2;1;1
590;2;1;2
591;2;0;2
592;1;0;3
593;2;1;2
594;2;0;1
595;2;1;2
596;2;1;1
597;2;1;1
598;3;1;1
599;3;1;1
600;3;1;1
601;3;1;1
602;3;1;1
603;3;1;1
604;2;1;1
605;4;1;0
606;4;2;1
607;4;2;1
608;4;2;1
609;4;2;1
610;4;1;1
611;4;0;1
612;4;1;1
613;4;1;1
614;4;1;0
615;4;1;0
616;4;1;0
617;4;0;0
618;3;0;1
619;2;0;2
620;1;1;2
621;0;2;2
622;1;2;1
623;2;1;0
624;2;1;0
625;2;1;0
626;2;0;0
627;2;1;0
628;1;0;0
629;3;1;0
630;3;1;0
631;4;0;0
632;3;0;0
633;3;0;1
634;3;0;0
635;5;0;0
636;5;0;0
637;5;1;0
638;4;0;0
639;4;0;1
640;3;0;1
641;3;0;0
642;3;0;1
643;3;0;0
644;4;1;0
645;3;1;0
646;3;1;1
647;3;1;1
648;2;1;2
649;2;0;1
650;3;1;2
651;4;0;2
652;3;0;2
653;5;0;1
654;5;0;0
655;5;1;1
656;4;1;2
657;4;1;2
658;4;1;1
659;3;0;1
660;2;0;1
661;2;1;0
662;2;0;1
663;3;0;0
664;4;0;0
665;5;1;0
666;5;1;0
667;5;1;1
668;4;1;1
669;5;0;1
670;5;1;2
671;4;1;2
672;4;2;2
673;4;2;2
674;4;2;2
675;4;2;1
676;4;2;2
677;5;2;1
678;6;1;1
679;6;1;1
680;5;2;1
681;5;1;1
682;4;0;1
683;3;0;1
684;3;1;1
685;2;1;1
686;2;1;1
687;1;1;1
688;1;0;2
689;1;1;1
690;0;0;2
691;0;0;2
692;0;2;1
693;1;2;2
694;2;3;1
695;3;2;0
696;4;1;0
697;4;2;0
698;3;1;1
699;4;0;0
700;4;1;1
701;3;1;2
702;3;1;2
703;3;0;1
704;2;1;1
705;2;0;1
706;3;0;0
707;2;0;1
708;1;0;2
709;0;0;3
710;0;1;3
711;0;0;3
712;0;0;3
713;2;1;3
714;1;1;3
715;1;1;3
716;2;0;2
717;2;1;2
718;1;1;2
719;2;0;2
720;2;1;2
721;1;1;2
722;3;2;1
723;3;0;1
724;2;0;1
725;2;0;1
726;1;0;2
727;0;0;2
728;0;0;2
729;1;1;2
730;2;0;1
731;2;0;1
732;1;0;3
733;1;0;3
734;2;0;2
735;1;1;3
736;0;1;4
737;1;1;4
738;1;0;4
739;0;1;5
740;0;1;4
741;0;0;5
742;2;1;4
743;2;1;4
744;1;0;5
745;1;1;5
746;2;0;4
747;3;0;3
748;3;0;2
749;3;0;1
750;2;0;2
751;2;1;2
752;2;1;2
753;2;1;1
754;2;1;0
755;2;1;1
756;2;0;0
757;3;1;0
758;3;0;0
759;2;0;0
760;3;0;1
761;3;0;0
762;3;0;0
763;4;0;0
764;4;1;1
765;4;1;0
766;5;2;1
767;4;1;1
768;4;0;2
769;3;0;3
770;3;1;3
771;2;1;3
772;2;1;3
773;1;1;3
774;1;1;2
775;2;1;1
776;3;2;0
777;4;2;0
778;5;3;0
779;5;2;0
780;5;2;0
781;6;1;0
782;7;0;0
783;7;0;0
784;6;0;1
785;6;0;0
786;6;1;1
787;6;0;1
788;7;0;0
789;6;1;1
790;5;0;2
791;6;0;1
792;6;0;1
793;6;0;0
794;7;1;0
795;7;0;1
796;8;1;0
797;8;1;0
798;7;2;0
799;6;1;1
800;7;1;0
801;6;1;0
802;6;0;1
803;5;0;3
804;5;1;2
805;6;1;1
806;5;0;1
807;5;0;0
808;6;1;0
809;6;1;1
810;5;1;2
811;5;1;1
812;4;0;3
813;3;1;3
814;4;1;2
815;6;1;1
816;5;1;1
817;5;1;0
818;5;1;0
819;4;1;0
820;5;1;0
821;5;0;0
822;6;0;0
823;6;1;0
824;6;2;0
825;5;3;0
826;5;3;1
827;4;3;1
828;4;3;1
829;4;3;1
830;3;3;2
831;3;3;1
832;3;3;2
833;2;2;3
834;1;2;3
835;2;1;3
836;1;1;3
837;1;1;3
838;1;0;2
839;1;0;1
840;2;1;2
841;2;1;2
842;2;1;2
843;2;1;2
844;3;0;1
845;3;1;1
846;3;1;0
847;3;1;0
848;4;1;0
849;4;1;0
850;3;1;1
851;4;0;1
852;4;1;1
853;4;1;1
854;3;1;2
855;3;0;2
856;4;1;1
857;5;0;0
858;4;0;1
859;4;1;0
860;4;1;2
861;5;0;1
862;5;1;1
863;5;0;0
864;5;0;2
865;5;0;1
866;6;0;1
867;7;1;1
868;8;1;0
869;8;1;1
870;8;0;0
871;7;1;0
872;7;1;0
873;7;1;1
874;8;1;0
875;9;0;0
876;9;1;0
877;9;1;0
878;9;0;1
879;8;1;1
880;8;1;1
881;8;1;1
882;8;1;0
883;8;0;1
884;7;0;2
885;7;1;1
886;7;1;2
887;6;1;2
888;5;0;3
889;5;1;3
890;5;0;3
891;5;0;2
892;4;0;3
893;4;0;3
894;4;1;3
895;4;0;2
896;4;0;1
897;4;1;2
898;5;1;1
899;4;0;2
900;5;1;1
901;5;2;0
902;6;2;0
903;6;2;1
904;5;1;2
905;5;1;1
906;5;0;1
907;6;1;0
908;6;1;1
909;7;0;0
910;6;1;0
911;7;1;0
912;6;0;1
913;6;0;0
914;7;0;0
915;7;0;0
916;7;0;0
917;7;1;1
918;7;1;1
919;6;1;1
920;6;1;0
921;6;1;1
922;6;0;1
923;5;0;2
924;5;0;2
925;5;1;2
926;5;0;1
927;5;0;2
928;5;1;1
929;4;0;3
930;4;0;3
931;4;0;3
932;4;0;2
933;5;0;1
934;6;0;1
935;6;0;1
936;5;0;2
937;5;1;2
938;4;0;2
939;5;0;2
940;6;1;1
941;6;2;0
942;6;2;0
943;7;1;0
944;7;1;2
945;7;1;1
946;6;1;2
947;6;1;2
948;6;1;1
949;7;0;1
950;6;1;2
951;5;0;3
952;5;0;3
953;5;0;3
954;5;1;2
955;4;2;2
956;3;2;2
957;4;2;2
958;4;2;1
959;4;1;1
960;5;1;1
961;5;0;1
962;5;1;1
963;5;1;1
964;4;2;2
965;4;2;1
966;4;1;2
967;5;0;2
968;5;1;2
969;4;1;2
970;4;1;2
971;4;1;2
972;3;0;3
973;3;0;3
974;3;0;3
975;3;0;3
976;2;0;3
977;1;0;3
978;1;1;4
979;0;1;5
980;0;1;4
981;1;0;4
982;2;0;3
983;1;0;4
984;1;0;4
985;1;0;4
986;0;0;5
987;1;1;5
988;1;1;4
989;1;1;5
990;1;0;4
991;2;0;4
992;1;0;4
993;2;0;3
994;2;0;2
995;3;0;1
996;2;0;1
997;1;1;1
998;2;0;0
999;2;1;0
1000;3;1;0
1001;2;0;0
1002;2;0;0
1003;3;1;0
1004;3;1;1
1005;3;1;2
1006;2;1;2
1007;1;1;3
1008;3;1;3
1009;3;0;3
1010;3;0;3
1011;2;1;4
1012;2;1;3
1013;2;1;3
1014;1;0;4
1015;1;0;4
1016;1;0;3
1017;0;0;4
1018;2;0;4
1019;2;0;3
1020;1;0;4
1021;1;1;4
1022;1;0;5
1023;0;1;5
1024;0;0;4
1025;1;1;3
1026;2;0;2
1027;1;1;2
1028;1;0;2
1029;1;0;3
1030;2;1;2
1031;2;1;1
1032;2;1;2
1033;2;1;1
1034;2;1;1
1035;2;0;1
1036;1;1;1
1037;0;1;1
1038;0;1;1
1039;2;1;0
1040;2;1;0
1041;2;1;0
1042;3;0;0
1043;3;0;0
1044;2;1;2
1045;2;1;2
1046;2;0;2
1047;1;0;3
1048;1;1;2
1049;2;2;2
1050;1;1;3
1051;1;1;3
1052;1;0;3
1053;1;0;2
1054;2;0;2
1055;1;0;3
1056;2;0;2
1057;1;0;2
1058;2;1;1
1059;3;1;0
1060;3;1;0
1061;2;1;0
1062;2;0;0
1063;2;0;0
1064;3;0;0
1065;3;0;0
1066;3;1;0
1067;2;1;1
1068;2;1;1
1069;1;1;1
1070;2;1;1
1071;2;0;1
1072;2;0;1
1073;3;1;0
1074;3;0;0
1075;3;1;0
1076;2;1;1
1077;2;0;1
1078;2;1;1
1079;1;0;1
1080;0;1;2
1081;0;1;2
1082;2;0;1
1083;3;1;0
1084;2;0;0
1085;2;0;2
1086;3;0;1
1087;2;0;1
1088;1;0;2
1089;0;1;3
1090;0;0;3
1091;1;0;4
1092;2;0;3
1093;2;1;3
1094;1;1;3
1095;2;0;3
1096;3;0;2
1097;3;1;1
1098;2;1;3
1099;1;1;4
1100;0;0;4
1101;1;1;3
1102;0;0;4
1103;0;1;3
1104;0;1;2
1105;1;1;2
1106;1;1;3
1107;2;0;2
1108;2;1;2
1109;2;1;2
1110;1;1;2
1111;0;1;3
1112;0;1;4
1113;1;2;4
1114;1;1;5
1115;0;1;5
1116;0;1;6
1117;1;0;5
1118;1;1;4
1119;1;1;4
1120;1;1;5
1121;0;1;5
1122;1;1;5
1123;1;0;6
1124;1;0;6
1125;0;1;6
1126;1;1;6
1127;0;1;7
1128;1;1;7
1129;0;1;7
1130;2;0;7
1131;2;1;8
1132;1;1;9
1133;1;1;8
1134;1;0;8
1135;2;1;7
1136;1;0;7
1137;1;1;7
1138;1;1;7
1139;1;1;7
1140;1;1;7
1141;2;1;7
1142;1;0;8
1143;1;0;8
1144;1;1;7
1145;0;1;7
1146;2;1;7
1147;1;0;8
1148;1;1;8
1149;1;1;7
1150;1;0;7
1151;2;1;6
1152;2;1;6
1153;2;1;7
1154;3;1;6
1155;3;0;5
1156;4;0;4
1157;5;0;3
1158;4;1;4
1159;3;1;5
1160;3;1;5
1161;3;1;5
1162;4;1;5
1163;4;0;5
1164;4;1;5
1165;4;0;5
1166;4;1;4
1167;5;1;3
1168;5;1;3
1169;5;2;2
1170;4;3;3
1171;4;3;4
1172;4;3;4
1173;4;3;4
1174;4;4;3
1175;4;4;3
1176;3;2;3
1177;3;2;3
1178;3;1;2
1179;3;0;1
1180;2;2;1
1181;1;3;2
1182;1;3;1
1183;1;2;0
1184;2;1;0
1185;2;1;1
1186;2;1;0
1187;1;0;1
1188;1;1;0
1189;1;2;1
1190;0;2;1
1191;1;2;1
1192;1;2;1
1193;1;2;1
1194;0;3;2
1195;0;3;1
1196;0;3;3
1197;0;2;4
1198;1;1;3
1199;0;1;3
1200;1;0;2
1201;1;1;2
1202;1;1;1
1203;2;1;1
1204;2;1;1
1205;1;0;2
1206;0;1;2
1207;0;1;2
1208;0;1;2
1209;0;0;1
1210;0;1;2
1211;0;0;3
1212;1;1;3
1213;0;1;3
1214;1;1;3
1215;1;2;2
1216;1;2;1
1217;2;1;1
1218;2;1;1
1219;1;1;2
1220;1;1;2
1221;1;1;2
1222;0;0;2
1223;0;1;1
1224;1;1;1
1225;1;2;0
1226;0;2;2
1227;0;1;3
1228;0;1;4
1229;0;1;4
1230;1;1;4
1231;0;0;4
1232;1;1;5
1233;1;1;5
1234;1;1;4
1235;1;1;4
1236;1;1;2
1237;1;1;3
1238;2;1;2
1239;1;2;2
1240;2;2;1
1241;2;2;0
1242;4;2;0
1243;4;2;0
1244;4;2;0
1245;5;2;1
1246;5;2;1
1247;5;2;0
1248;5;2;0
1249;6;1;0
1250;5;0;0
1251;6;1;0
1252;5;0;1
1253;5;1;0
1254;5;1;0
1255;4;0;0
1256;4;1;0
1257;4;2;2
1258;4;1;1
1259;4;0;1
1260;3;0;2
1261;2;0;3
1262;2;1;2
1263;1;1;2
1264;0;1;2
1265;2;0;2
1266;1;1;3
1267;1;0;3
1268;0;1;3
1269;0;1;4
1270;0;1;4
1271;0;1;4
1272;1;1;4
1273;3;0;3
1274;3;1;3
1275;3;1;3
1276;2;2;3
1277;1;2;4
1278;1;3;4
1279;0;3;4
1280;0;2;4
1281;2;2;3
1282;3;2;2
1283;2;2;2
1284;1;2;2
1285;2;2;1
1286;2;2;0
1287;1;2;1
1288;1;2;1
1289;0;3;1
1290;1;3;2
1291;0;3;2
1292;0;3;3
1293;1;3;3
1294;2;3;3
1295;2;3;2
1296;3;3;2
1297;3;3;1
1298;3;3;2
1299;4;4;2
1300;4;3;2
1301;4;3;2
1302;4;2;2
1303;5;1;1
1304;5;1;0
1305;5;0;1
1306;4;0;1
1307;5;1;0
1308;6;0;0
1309;7;1;0
1310;7;0;1
1311;7;1;1
1312;6;3;1
1313;5;3;2
1314;5;3;2
1315;4;3;3
1316;4;3;3
1317;3;3;4
1318;3;2;3
1319;4;2;2
1320;5;2;1
1321;5;3;1
1322;5;2;1
1323;6;0;0
1324;5;0;0
1325;5;1;1
1326;4;0;1
1327;5;0;1
1328;6;0;0
1329;7;0;0
1330;6;0;1
1331;5;1;2
1332;4;2;2
1333;4;1;1
1334;3;1;1
1335;2;1;1
1336;2;1;0
1337;2;1;0
1338;3;1;0
1339;2;1;0
1340;3;1;1
1341;4;1;0
1342;4;1;1
1343;4;1;0
1344;4;1;2
1345;4;1;2
1346;4;1;2
1347;3;2;2
1348;3;3;2
1349;3;3;1
1350;3;4;1
1351;3;3;1
1352;2;3;1
1353;2;3;1
1354;1;3;2
1355;1;3;2
1356;1;2;3
1357;1;2;3
1358;1;1;3
1359;2;1;3
1360;3;1;2
1361;2;1;3
1362;2;1;3
1363;3;1;2
1364;3;1;3
1365;2;2;3
1366;4;2;2
1367;4;2;1
1368;4;2;2
1369;3;2;3
1370;2;2;3
1371;1;1;3
1372;1;1;3
1373;2;1;3
1374;2;1;3
1375;2;1;3
1376;2;0;3
1377;2;1;3
1378;2;1;2
1379;1;0;2
1380;0;0;4
1381;0;0;3
1382;0;0;5
1383;0;1;4
1384;0;0;5
1385;0;0;5
1386;0;0;6
1387;0;1;7
1388;0;1;7
1389;0;1;8
1390;1;1;7
1391;1;0;7
1392;0;0;8
1393;1;0;8
1394;1;0;8
1395;1;0;7
1396;0;0;7
1397;0;0;6
1398;1;1;6
1399;1;1;6
1400;0;1;6
1401;1;1;6
1402;1;0;7
1403;1;1;7
1404;1;1;7
1405;1;1;8
1406;0;0;9
1407;0;0;8
1408;0;0;8
1409;0;1;8
1410;0;1;8
1411;1;0;7
1412;1;1;7
1413;1;2;7
1414;3;0;7
1415;2;0;8
1416;2;0;8
1417;2;1;9
1418;1;0;10
1419;1;1;10
1420;1;1;10
1421;1;0;9
1422;0;1;9
1423;0;2;9
1424;1;2;10
1425;0;1;11
1426;0;1;11
1427;0;0;11
1428;2;0;10
1429;1;1;10
1430;1;0;11
1431;1;1;11
1432;1;1;11
1433;1;0;11
1434;1;0;11
1435;1;1;10
1436;1;0;9
1437;0;1;10
1438;0;1;10
1439;0;1;10
1440;1;1;10
1441;1;0;11
1442;0;1;11
1443;0;1;12
1444;1;0;11
1445;0;1;11
1446;1;1;11
1447;2;0;10
1448;2;1;10
1449;1;1;10
1450;0;1;11
1451;1;0;11
1452;1;1;12
1453;1;1;11
1454;1;1;11
1455;2;0;11
1456;2;1;10
1457;2;1;11
1458;1;1;11
1459;2;1;11
1460;1;1;12
1461;0;0;12
1462;1;1;11
1463;0;1;11
1464;1;1;10
1465;1;1;9
1466;2;1;8
1467;2;1;8
1468;3;0;7
1469;2;1;8
1470;2;0;7
1471;1;1;8
1472;2;1;7
1473;3;2;7
1474;3;3;7
1475;3;3;7
1476;2;3;7
1477;2;3;8
1478;1;2;8
1479;0;2;8
1480;0;2;9
1481;1;1;10
1482;0;1;10
1483;1;1;10
1484;1;1;10
1485;2;1;9
1486;2;2;9
1487;2;2;9
1488;2;2;9
1489;1;2;10
1490;1;1;10
1491;1;1;10
1492;1;1;9
1493;1;0;10
1494;0;0;10
1495;1;0;9
1496;2;0;8
1497;2;1;7
1498;2;1;8
1499;1;0;8
1500;1;0;7
1501;1;0;7
1502;1;0;8
1503;2;1;8
1504;2;0;8
1505;3;0;7
1506;4;0;6
1507;4;1;5
1508;4;1;6
1509;3;1;6
1510;4;1;6
1511;3;2;7
1512;4;1;6
1513;4;0;6
1514;3;1;7
1515;3;1;6
1516;2;1;8
1517;2;2;8
1518;2;2;7
1519;2;2;7
1520;2;3;7
1521;2;1;7
1522;2;0;7
1523;1;1;7
1524;1;2;7
1525;1;1;7
1526;1;1;6
1527;1;1;6
1528;1;0;7
1529;2;1;6
1530;3;0;5
1531;3;1;5
1532;2;1;5
1533;2;0;4
1534;1;1;5
1535;0;1;5
1536;0;1;5
1537;1;1;5
1538;1;0;5
1539;1;1;6
1540;1;2;5
1541;1;1;5
1542;1;1;6
1543;0;1;6
1544;1;0;7
1545;0;0;7
1546;1;1;7
1547;1;1;7
1548;1;1;6
1549;0;1;8
1550;0;1;8
1551;0;0;7
1552;1;1;8
1553;1;1;7
1554;1;0;6
1555;2;1;5
1556;4;1;4
1557;3;0;4
1558;3;1;3
1559;3;0;3
1560;2;0;4
1561;3;1;3
1562;4;0;2
1563;4;2;2
1564;4;2;1
1565;4;2;2
1566;5;1;1
1567;4;0;1
1568;5;0;0
1569;4;1;0
1570;3;1;1
1571;4;1;1
1572;4;1;0
1573;3;1;2
1574;4;0;1
1575;4;1;2
1576;4;0;1
1577;3;0;2
1578;3;1;2
1579;2;0;3
1580;2;1;2
1581;2;2;3
1582;2;2;4
1583;2;1;4
1584;2;1;3
1585;2;1;4
1586;1;0;5
1587;2;1;4
1588;1;2;5
1589;0;2;5
1590;2;1;4
1591;1;2;5
1592;0;2;5
1593;1;2;6
1594;0;2;6
1595;0;2;6
1596;2;1;6
1597;2;0;5
1598;2;1;6
1599;1;0;6
1600;1;0;6
1601;3;0;5
1602;3;1;5
1603;3;1;5
1604;3;1;4
1605;3;1;4
1606;3;1;5
1607;3;1;4
1608;3;1;4
1609;3;1;4
1610;3;1;5
1611;4;0;4
1612;5;1;4
1613;4;1;5
1614;4;1;5
1615;4;1;4
1616;5;0;3
1617;4;0;3
1618;3;1;3
1619;3;0;2
1620;3;0;2
1621;4;1;1
1622;3;1;1
1623;3;0;2
1624;4;0;3
1625;4;1;2
1626;4;0;3
1627;3;1;4
1628;3;1;3
1629;3;0;4
1630;3;0;3
1631;2;0;3
1632;2;0;3
1633;1;0;3
1634;2;1;2
1635;2;1;2
1636;2;1;2
1637;2;1;1
1638;3;1;1
1639;3;2;1
1640;2;2;2
1641;1;1;3
1642;1;0;3
1643;0;1;3
1644;1;1;4
1645;1;1;3
1646;1;1;3
1647;1;1;3
1648;2;1;2
1649;2;1;1
1650;1;0;2
1651;2;1;2
1652;3;0;2
1653;4;1;1
1654;4;0;1
1655;4;0;0
1656;5;1;0
1657;6;2;0
1658;6;2;0
1659;6;1;1
1660;6;1;0
1661;6;1;0
1662;5;2;0
1663;5;3;0
1664;5;3;1
1665;5;3;0
1666;6;2;0
1667;6;1;1
1668;7;1;0
1669;7;1;0
1670;7;0;1
1671;6;0;2
1672;6;0;2
1673;5;1;2
1674;5;1;2
1675;5;0;2
1676;6;1;1
1677;5;2;2
1678;4;2;2
1679;5;1;1
1680;5;0;1
1681;5;1;0
1682;6;1;0
1683;6;1;0
1684;5;1;1
1685;6;1;0
1686;6;0;0
1687;7;1;1
1688;7;0;1
1689;7;0;1
1690;6;0;1
1691;6;0;2
1692;7;0;2
1693;6;0;2
1694;6;0;1
1695;5;0;1
1696;5;0;1
1697;5;1;0
1698;5;1;1
1699;5;2;1
1700;5;2;1
1701;5;1;1
1702;5;0;0
1703;5;0;1
1704;4;0;3
1705;4;1;3
1706;3;1;3
1707;2;1;4
1708;3;0;3
1709;3;1;4
1710;3;0;5
1711;4;0;4
1712;4;0;3
1713;5;0;2
1714;4;1;2
1715;5;1;2
1716;5;0;2
1717;6;1;1
1718;7;0;0
1719;7;0;0
1720;7;1;0
1721;6;1;1
1722;6;1;1
1723;5;1;1
1724;4;1;1
1725;4;2;2
1726;3;1;3
1727;2;1;4
1728;2;1;4
1729;2;1;4
1730;2;2;3
1731;2;0;4
1732;2;0;4
1733;3;1;3
1734;2;0;3
1735;2;1;3
1736;1;1;4
1737;0;1;5
1738;0;0;5
1739;0;1;5
1740;0;1;7
1741;0;1;8
1742;0;1;9
1743;0;1;8
1744;0;0;9
1745;0;1;8
1746;1;0;7
1747;1;0;7
1748;2;0;7
1749;1;1;8
1750;0;2;9
1751;0;1;8
1752;1;1;8
1753;1;0;8
1754;1;0;9
1755;2;1;8
1756;2;1;8
1757;3;0;7
1758;2;1;7
1759;4;1;6
1760;4;1;7
1761;4;0;6
1762;3;0;7
1763;3;0;7
1764;4;0;6
1765;5;0;5
1766;4;1;7
1767;3;1;8
1768;2;0;8
1769;3;0;9
1770;3;1;8
1771;2;0;8
1772;3;1;8
1773;2;1;9
1774;1;0;10
1775;2;1;9
1776;3;0;8
1777;3;1;8
1778;3;0;8
1779;2;1;9
1780;2;1;10
1781;1;0;11
1782;0;1;11
1783;0;0;11
1784;0;2;12
1785;2;3;11
1786;2;2;10
1787;2;2;10
1788;2;2;10
1789;4;2;10
1790;3;1;10
1791;4;1;9
1792;4;0;9
1793;4;0;10
1794;3;0;10
1795;2;0;10
1796;2;1;10
1797;1;1;11
1798;2;0;11
1799;2;0;10
1800;3;1;9
1801;2;1;9
1802;1;1;10
1803;1;1;9
1804;2;1;9
1805;2;2;9
1806;2;1;9
1807;2;0;8
1808;2;1;8
1809;1;1;8
1810;2;2;9
1811;2;1;8
1812;3;2;8
1813;3;2;7
1814;4;1;7
1815;4;1;7
1816;3;0;8
1817;4;1;7
1818;5;1;6
1819;6;0;5
1820;6;1;4
1821;6;1;4
1822;5;1;5
1823;4;1;6
1824;3;1;7
1825;2;1;8
1826;2;1;7
1827;1;1;8
1828;2;1;8
1829;2;1;8
1830;1;1;8
1831;1;1;9
1832;0;2;9
1833;0;2;8
1834;0;1;9
1835;0;1;8
1836;1;0;8
1837;1;1;7
1838;1;0;6
1839;1;0;6
1840;2;1;5
1841;2;0;4
1842;2;1;4
1843;2;2;4
1844;2;2;4
1845;1;2;4
1846;2;2;3
1847;1;2;4
1848;2;2;4
1849;1;2;4
1850;1;2;4
1851;0;3;4
1852;0;2;4
1853;1;2;3
1854;0;1;3
1855;0;2;2
1856;0;1;2
1857;1;1;1
1858;2;1;0
1859;1;1;0
1860;1;2;1
1861;1;2;0
1862;2;2;1
1863;1;2;1
1864;2;1;0
1865;1;0;2
1866;1;1;1
1867;2;0;0
1868;2;1;0
1869;2;0;1
1870;2;0;1
1871;2;1;1
1872;3;0;0
1873;3;1;0
1874;2;1;1
1875;1;1;2
1876;0;0;3
1877;0;1;3
1878;1;0;3
1879;0;1;4
1880;0;1;5
1881;0;1;4
1882;1;0;4
1883;1;1;4
1884;0;1;5
1885;1;1;5
1886;1;1;5
1887;1;0;5
1888;1;0;4
1889;2;1;4
1890;2;1;3
1891;3;1;2
1892;4;1;2
1893;4;1;2
1894;3;0;2
1895;3;1;3
1896;2;1;3
1897;2;1;4
1898;2;0;4
1899;3;1;4
1900;4;1;3
1901;4;2;2
1902;4;2;3
1903;3;2;4
1904;2;1;4
1905;2;0;4
1906;2;1;4
1907;2;1;3
1908;1;1;3
1909;1;1;3
1910;2;1;2
1911;2;1;1
1912;3;1;1
1913;2;2;1
1914;2;2;1
1915;2;3;1
1916;1;2;2
1917;1;2;1
1918;0;3;2
1919;0;3;2
1920;0;3;1
1921;1;4;2
1922;0;3;3
1923;0;3;4
1924;0;2;4
1925;0;2;5
1926;1;2;5
1927;2;1;4
1928;1;1;5
1929;1;0;4
1930;1;1;3
1931;2;1;2
1932;2;1;2
1933;3;1;2
1934;3;0;2
1935;2;0;2
1936;3;1;1
1937;2;1;2
1938;2;0;2
1939;2;1;1
1940;1;0;2
1941;1;1;2
1942;1;0;3
1943;0;1;4
1944;0;2;4
1945;0;2;4
1946;2;1;4
1947;2;0;3
1948;4;1;2
1949;3;1;3
1950;3;1;3
1951;3;1;2
1952;3;0;2
1953;3;1;2
1954;3;1;1
1955;2;1;1
1956;3;0;0
1957;3;1;1
1958;2;1;1
1959;2;1;1
1960;1;0;1
1961;0;0;1
1962;1;1;2
1963;2;1;1
1964;2;0;0
1965;3;1;0
1966;3;1;1
1967;2;1;2
1968;1;0;2
1969;1;1;2
1970;1;2;2
1971;2;2;1
1972;2;2;0
1973;3;3;0
1974;3;3;1
1975;3;2;1
1976;2;2;1
1977;2;2;0
1978;3;2;1
1979;2;2;1
1980;3;2;0
1981;3;3;1
1982;4;3;0
1983;3;2;0
1984;4;2;0
1985;4;2;0
1986;4;2;0
1987;3;1;1
1988;4;2;0
1989;3;2;0
1990;2;2;1
1991;2;1;1
1992;3;0;0
1993;4;2;0
1994;4;2;0
1995;5;1;0
1996;5;1;0
1997;5;1;1
1998;4;0;1
1999;4;0;0
2000;4;0;0
2001;4;1;1
2002;4;0;0
2003;3;0;2
2004;2;0;3
2005;1;0;4
2006;1;0;4
2007;1;0;4
2008;1;1;3
2009;1;1;3
2010;2;0;2
2011;3;0;2
2012;3;0;2
2013;2;0;2
2014;2;1;2
2015;2;0;2
2016;1;1;3
2017;0;0;4
2018;0;0;5
2019;1;0;5
2020;1;1;4
2021;2;1;5
2022;1;1;5
2023;1;1;5
2024;1;1;4
2025;1;1;5
2026;1;2;5
2027;1;2;4
2028;0;2;4
2029;0;2;5
2030;1;0;5
2031;0;1;5
2032;1;1;5
2033;1;1;6
2034;0;1;6
2035;0;1;6
2036;1;1;5
2037;2;1;4
2038;2;2;3
2039;3;2;3
2040;3;1;2
2041;3;1;2
2042;3;1;1
2043;4;1;0
2044;4;1;0
2045;5;1;1
2046;6;1;0
2047;5;0;1
2048;5;1;0
2049;6;0;1
2050;5;0;1
2051;5;0;0
2052;6;0;0
2053;6;1;0
2054;5;0;1
2055;4;0;3
2056;4;0;3
2057;3;0;3
2058;2;0;3
2059;2;1;4
2060;2;1;3
2061;2;1;2
2062;2;1;3
2063;3;0;2
2064;2;1;2
2065;2;0;2
2066;2;0;3
2067;2;1;3
2068;2;2;3
2069;2;3;3
2070;1;2;4
2071;1;2;5
2072;0;2;6
2073;1;1;5
2074;1;0;4
2075;1;0;4
2076;1;0;4
2077;1;1;4
2078;0;1;4
2079;2;2;3
2080;2;3;3
2081;2;2;2
2082;2;1;3
2083;2;0;2
2084;3;0;1
2085;4;0;1
2086;4;0;1
2087;3;0;1
2088;2;0;2
2089;1;0;3
2090;2;1;2
2091;2;1;1
2092;4;0;0
2093;4;1;0
2094;5;1;1
2095;5;0;1
2096;5;1;0
2097;6;0;0
2098;7;0;0
2099;6;1;0
2100;7;0;1
2101;6;0;2
2102;6;0;1
2103;7;1;0
2104;8;1;0
2105;7;0;1
2106;8;0;0
2107;8;0;0
2108;8;1;1
2109;8;0;0
2110;7;1;0
2111;6;0;0
2112;6;0;2
2113;6;1;2
2114;5;0;2
2115;5;0;3
2116;4;0;3
2117;5;1;3
2118;5;1;3
2119;5;1;4
2120;5;1;3
2121;5;0;4
2122;5;1;3
2123;5;0;2
2124;6;1;1
2125;6;0;1
2126;6;0;0
2127;6;1;0
2128;5;0;0
2129;5;1;1
2130;5;0;0
2131;6;1;0
2132;5;1;0
2133;6;1;0
2134;5;1;0
2135;4;0;1
2136;4;0;1
2137;4;1;1
2138;3;0;2
2139;2;1;2
2140;3;1;1
2141;4;1;0
2142;3;1;0
2143;4;0;0
2144;3;1;0
2145;3;1;1
2146;4;1;1
2147;4;2;0
2148;4;0;0
2149;4;0;1
2150;4;0;0
2151;4;0;1
2152;4;1;0
2153;5;1;0
2154;6;1;0
2155;5;1;1
2156;6;0;0
2157;5;0;0
2158;6;0;0
2159;7;0;0
2160;8;0;0
2161;7;0;0
2162;8;0;0
2163;9;0;0
2164;8;1;0
2165;9;1;1
2166;10;0;0
2167;10;0;0
2168;11;0;0
2169;12;1;0
2170;12;1;0
2171;13;1;0
2172;12;2;0
2173;12;2;0
2174;13;2;0
2175;13;2;0
2176;13;2;0
2177;14;3;0
2178;14;1;2
2179;15;1;1
2180;15;2;0
2181;15;2;0
2182;15;2;1
2183;14;2;1
2184;14;1;1
2185;14;1;0
2186;14;1;0
2187;15;1;0
2188;16;0;0
2189;16;0;0
2190;16;1;0
2191;16;0;0
2192;15;0;0
2193;14;1;1
2194;13;2;1
2195;12;0;2
2196;13;0;3
2197;13;0;3
2198;13;0;2
2199;13;1;3
2200;13;1;3
2201;13;1;2
2202;14;1;2
2203;13;1;3
2204;13;1;3
2205;12;1;3
2206;12;1;3
2207;13;1;3
2208;13;1;2
2209;13;1;3
2210;12;1;3
2211;12;1;3
2212;13;0;3
2213;12;1;3
2214;13;1;3
2215;12;2;3
2216;13;2;3
2217;12;2;4
2218;12;2;3
2219;12;2;3
2220;11;2;3
2221;12;1;2
2222;12;1;1
2223;12;1;0
2224;13;1;1
2225;12;1;2
2226;12;1;2
2227;11;0;2
2228;10;0;3
2229;9;1;4
2230;8;1;4
2231;10;0;4
2232;9;1;5
2233;9;2;4
2234;9;2;3
2235;10;3;3
2236;11;1;2
2237;10;1;3
2238;9;1;3
2239;9;1;2
2240;9;1;3
2241;9;1;3
2242;8;1;3
2243;8;1;4
2244;9;1;3
2245;10;1;2
2246;10;1;1
2247;10;1;2
2248;10;1;3
2249;10;1;3
2250;10;1;3
2251;11;1;3
2252;11;1;3
2253;11;1;3
2254;11;1;2
2255;11;1;3
2256;10;1;4
2257;9;1;5
2258;10;1;4
2259;11;1;4
2260;11;1;4
2261;12;1;3
2262;12;0;3
2263;11;0;3
2264;11;0;4
2265;12;0;3
2266;11;0;3
2267;11;0;2
2268;11;0;1
2269;12;0;1
2270;13;0;1
2271;13;0;1
2272;12;0;1
2273;13;0;1
2274;12;1;1
2275;11;0;3
2276;11;1;4
2277;10;1;5
2278;11;1;4
2279;11;1;4
2280;11;1;4
2281;10;1;4
2282;10;1;4
2283;11;1;4
2284;11;1;3
2285;11;1;2
2286;11;1;2
2287;10;2;2
2288;9;1;3
2289;8;1;3
2290;9;2;2
2291;8;2;2
2292;7;2;3
2293;6;3;3
2294;5;3;4
2295;5;3;4
2296;5;3;5
2297;5;2;5
2298;4;1;6
2299;3;1;7
2300;3;0;7
2301;3;0;7
2302;3;0;7
2303;3;1;7
2304;3;0;6
2305;2;1;7
2306;3;1;7
2307;3;1;7
2308;3;2;7
2309;3;3;8
2310;2;2;8
2311;1;2;10
2312;2;3;9
2313;2;3;9
2314;2;3;9
2315;3;3;8
2316;4;2;8
2317;4;2;8
2318;3;2;9
2319;3;2;8
2320;4;2;7
2321;4;1;6
2322;4;1;6
2323;6;0;5
2324;5;0;5
2325;5;1;5
2326;4;0;5
2327;4;0;5
2328;4;0;5
2329;3;1;6
2330;4;2;5
2331;4;2;5
2332;4;2;5
2333;3;2;5
2334;4;3;4
2335;4;3;3
2336;4;3;4
2337;5;3;3
2338;5;3;2
2339;6;3;2
2340;5;3;2
2341;4;3;3
2342;4;3;2
2343;5;3;2
2344;5;2;2
2345;4;2;3
2346;4;2;3
2347;4;2;3
2348;4;1;2
2349;5;1;2
2350;5;1;1
2351;4;2;2
2352;5;1;1
2353;5;0;1
2354;6;1;0
2355;5;1;0
2356;5;1;1
2357;4;2;2
2358;5;1;1
2359;5;1;1
2360;5;0;0
2361;4;1;1
2362;4;0;1
2363;3;0;1
2364;3;1;0
2365;3;1;0
2366;4;0;0
2367;4;0;0
2368;4;0;0
2369;4;1;2
2370;4;1;1
2371;4;0;1
2372;3;1;0
2373;3;1;0
2374;3;1;1
2375;4;0;0
2376;4;0;1
2377;4;1;0
2378;4;1;1
2379;3;0;2
2380;2;0;2
2381;2;1;1
2382;2;1;1
2383;2;1;0
2384;3;0;1
2385;3;0;0
2386;5;1;0
2387;5;1;1
2388;5;0;1
2389;5;0;1
2390;5;0;0
2391;6;1;0
2392;5;1;0
2393;5;0;0
2394;5;1;1
2395;5;1;1
2396;6;0;0
2397;6;1;1
2398;7;2;0
2399;7;2;1
2400;8;2;0
2401;8;2;1
2402;8;2;0
2403;9;2;0
2404;9;1;1
2405;9;0;1
2406;9;0;1
2407;8;1;1
2408;8;1;1
2409;8;1;0
2410;7;2;0
2411;6;2;0
2412;6;2;0
2413;7;2;1
2414;7;2;0
2415;8;1;0
2416;7;0;0
2417;8;1;0
2418;8;1;0
2419;8;1;0
2420;8;1;1
2421;9;0;0
2422;10;1;0
2423;11;0;0
2424;11;0;1
2425;11;0;1
2426;10;0;1
2427;11;0;1
2428;12;1;0
2429;12;0;0
2430;13;1;0
2431;14;0;0
2432;15;1;0
2433;14;1;1
2434;14;1;1
2435;14;0;0
2436;14;0;0
2437;13;0;0
2438;15;1;0
2439;15;1;1
2440;14;0;2
2441;14;0;2
2442;13;1;2
2443;12;1;2
2444;14;0;1
2445;14;0;1
2446;13;0;1
2447;14;1;1
2448;13;1;2
2449;12;1;3
2450;11;0;3
2451;11;0;4
2452;10;0;4
2453;10;0;4
2454;9;1;4
2455;9;1;3
2456;9;0;3
2457;9;0;3
2458;9;1;2
2459;9;0;3
2460;9;1;4
2461;10;0;4
2462;10;0;3
2463;10;0;2
2464;11;0;2
2465;11;0;2
2466;10;1;2
2467;9;1;3
2468;9;0;2
2469;8;1;3
2470;7;1;3
2471;7;0;3
2472;7;0;2
2473;8;0;2
2474;8;1;1
2475;9;1;0
2476;9;0;1
2477;8;0;2
2478;7;1;2
2479;6;2;4
2480;6;2;4
2481;7;2;4
2482;7;1;4
2483;6;0;4
2484;6;0;5
2485;6;1;5
2486;6;1;5
2487;6;1;4
2488;6;2;4
2489;5;1;6
2490;5;0;6
2491;5;0;5
2492;7;1;4
2493;6;0;4
2494;5;2;6
2495;5;2;6
2496;5;2;6
2497;4;2;7
2498;5;1;6
2499;6;1;5
2500;5;1;5
2501;4;1;7
2502;4;1;7
2503;4;2;8
2504;4;1;7
2505;4;0;7
2506;5;0;6
2507;6;0;5
2508;5;0;6
2509;6;1;6
2510;5;1;6
2511;4;0;7
2512;4;1;6
2513;4;1;7
2514;3;1;8
2515;3;1;8
2516;2;1;8
2517;4;1;7
2518;3;1;7
2519;5;0;6
2520;5;0;5
2521;6;1;6
2522;6;1;5
2523;7;0;5
2524;6;0;6
2525;5;1;6
2526;5;0;7
2527;5;1;7
2528;5;1;7
2529;4;0;7
2530;4;0;8
2531;3;0;8
2532;2;0;10
2533;3;0;9
2534;2;1;9
2535;2;0;8
2536;3;0;8
2537;2;0;9
2538;2;0;9
2539;2;0;9
2540;2;0;9
2541;2;0;8
2542;4;1;7
2543;5;1;6
2544;5;1;6
2545;5;1;6
2546;6;0;5
2547;6;1;5
2548;5;0;5
2549;6;1;5
2550;6;0;4
2551;6;1;4
2552;5;1;5
2553;5;0;5
2554;4;0;5
2555;3;0;6
2556;2;1;7
2557;2;1;7
2558;2;1;7
2559;2;1;7
2560;2;1;6
2561;1;1;7
2562;0;1;7
2563;0;0;7
2564;0;1;7
2565;1;1;6
2566;1;1;5
2567;2;0;5
2568;2;0;5
2569;2;0;4
2570;2;0;3
2571;3;0;2
2572;3;0;2
2573;3;0;2
2574;3;1;2
2575;3;1;2
2576;3;1;3
2577;2;0;4
2578;2;0;3
2579;2;1;3
2580;2;1;2
2581;1;0;2
2582;1;0;3
2583;1;1;3
2584;1;0;2
2585;1;1;3
2586;1;1;3
2587;0;1;3
2588;0;0;4
2589;0;1;3
2590;0;0;4
2591;0;0;5
2592;0;1;4
2593;1;0;4
2594;0;1;4
2595;1;1;4
2596;1;1;4
2597;1;0;3
2598;1;1;4
2599;0;1;4
2600;1;0;4
2601;0;1;5
2602;0;1;5
2603;0;2;5
2604;0;2;5
2605;0;1;5
2606;1;0;5
2607;0;0;5
2608;1;0;5
2609;1;0;5
2610;2;0;5
2611;1;0;6
2612;1;0;7
2613;0;0;8
2614;0;0;8
2615;2;0;7
2616;3;1;6
2617;2;0;7
2618;1;1;8
2619;1;1;9
2620;0;0;9
2621;0;1;10
2622;1;1;10
2623;0;0;10
2624;0;0;9
2625;1;0;9
2626;1;0;9
2627;1;1;9
2628;1;0;9
2629;0;1;10
2630;1;1;10
2631;1;1;10
2632;1;0;11
2633;0;0;11
2634;0;1;11
2635;1;2;11
2636;1;2;11
2637;2;1;10
2638;1;1;10
2639;1;0;10
2640;2;1;10
2641;3;1;9
2642;2;1;9
2643;4;2;8
2644;3;2;8
2645;3;1;8
2646;3;1;8
2647;3;1;8
2648;2;1;8
2649;2;1;9
2650;2;1;8
2651;3;2;9
2652;3;2;8
2653;4;2;7
2654;3;1;8
2655;3;1;8
2656;3;0;8
2657;4;1;7
2658;3;1;8
2659;2;1;8
2660;2;0;7
2661;3;1;6
2662;2;0;7
2663;3;0;6
2664;3;1;5
2665;3;1;5
2666;3;0;5
2667;4;0;4
2668;4;0;4
2669;4;1;4
2670;4;0;3
2671;4;0;3
2672;4;1;2
2673;4;0;2
2674;5;0;1
2675;5;1;1
2676;5;0;0
2677;5;1;2
2678;5;1;1
2679;6;1;2
2680;5;0;2
2681;6;0;2
2682;6;0;2
2683;6;0;2
2684;6;1;3
2685;6;1;3
2686;6;1;3
2687;5;1;4
2688;5;1;5
2689;4;0;6
2690;5;0;5
2691;4;1;5
2692;4;1;5
2693;3;1;5
2694;3;1;5
2695;3;1;4
2696;3;0;4
2697;3;0;4
2698;4;1;5
2699;3;0;6
2700;3;1;5
2701;3;1;5
2702;3;1;5
2703;3;0;5
2704;3;2;5
2705;3;1;4
2706;3;0;3
2707;4;0;3
2708;4;1;2
2709;4;1;2
2710;3;1;3
2711;2;1;4
2712;1;1;4
2713;2;1;4
2714;2;0;4
2715;2;1;4
2716;2;0;4
2717;3;1;3
2718;3;1;3
2719;3;0;2
2720;3;0;2
2721;2;0;3
2722;3;1;2
2723;3;1;1
2724;2;0;2
2725;2;0;1
2726;3;1;1
2727;3;1;0
2728;3;1;0
2729;3;0;0
2730;2;1;0
2731;2;0;0
2732;1;1;1
2733;1;1;0
2734;0;1;1
2735;0;1;1
2736;2;1;1
2737;2;0;0
2738;3;1;1
2739;3;1;1
2740;3;2;2
2741;2;1;3
2742;1;1;3
2743;1;0;2
2744;1;0;1
2745;2;1;0
2746;2;1;1
2747;1;1;3
2748;0;1;3
2749;0;2;3
2750;1;1;2
2751;1;0;2
2752;1;0;1
2753;0;0;1
2754;0;0;1
2755;0;0;1
2756;1;0;0
2757;0;0;0
2758;1;1;1
2759;1;1;0
2760;1;1;0
2761;2;0;0
2762;1;1;1
2763;2;1;1
2764;2;0;1
2765;2;1;0
2766;3;1;1
2767;2;2;1
2768;2;2;2
2769;2;2;2
2770;3;2;1
2771;3;1;0
2772;3;1;0
2773;2;1;0
2774;3;0;1
2775;4;0;1
2776;3;1;1
2777;4;1;1
2778;4;1;2
2779;3;1;3
2780;3;1;2
2781;3;1;2
2782;3;0;2
2783;2;1;3
2784;2;0;2
2785;4;1;1
2786;3;1;2
2787;2;1;3
2788;2;1;3
2789;2;1;3
2790;2;1;2
2791;3;1;2
2792;3;2;2
2793;3;0;1
2794;3;1;2
2795;2;0;2
2796;2;0;2
2797;3;1;2
2798;3;1;1
2799;4;2;0
2800;4;2;1
2801;4;2;1
2802;3;2;2
2803;3;2;1
2804;3;1;1
2805;4;1;1
2806;4;0;1
2807;5;2;0
2808;5;2;1
2809;6;2;0
2810;5;3;1
2811;6;2;0
2812;6;2;0
2813;6;2;0
2814;6;3;0
2815;6;1;0
2816;6;0;0
2817;5;0;1
2818;4;0;1
2819;4;0;1
2820;4;0;0
2821;4;0;0
2822;5;0;0
2823;6;0;0
2824;7;0;1
2825;6;0;1
2826;7;0;1
2827;6;0;2
2828;5;0;2
2829;4;0;3
2830;3;0;3
2831;2;1;4
2832;1;1;4
2833;0;1;5
2834;1;1;4
2835;2;1;3
2836;1;1;3
2837;1;0;4
2838;1;0;3
2839;1;1;3
2840;1;1;4
2841;0;0;4
2842;0;0;4
2843;1;1;3
2844;2;1;2
2845;2;1;1
2846;3;1;1
2847;3;2;0
2848;4;1;0
2849;4;0;1
2850;5;0;0
2851;5;1;0
2852;5;2;1
2853;4;1;1
2854;5;1;0
2855;4;1;1
2856;4;1;0
2857;5;1;0
2858;7;1;0
2859;7;1;0
2860;7;1;1
2861;7;2;1
2862;7;2;1
2863;6;1;2
2864;6;1;1
2865;6;1;3
2866;5;0;3
2867;5;1;3
2868;4;1;4
2869;4;1;3
2870;5;1;2
2871;4;1;3
2872;4;1;2
2873;3;1;2
2874;5;1;2
2875;6;1;2
2876;6;1;2
2877;6;1;3
2878;5;2;3
2879;6;2;4
2880;5;1;5
2881;5;0;5
2882;5;0;4
2883;4;1;5
2884;4;1;4
2885;3;0;5
2886;3;0;5
2887;3;1;4
2888;3;1;5
2889;2;1;6
2890;1;1;7
2891;0;1;7
2892;0;1;8
2893;0;1;8
2894;1;0;8
2895;1;0;7
2896;0;1;8
2897;0;1;7
2898;0;0;6
2899;2;1;5
2900;2;0;5
2901;1;0;5
2902;1;1;5
2903;0;1;5
2904;0;0;4
2905;1;1;3
2906;0;0;4
2907;0;1;3
2908;1;1;2
2909;1;1;2
2910;1;1;3
2911;2;1;2
2912;2;1;1
2913;1;1;2
2914;1;1;3
2915;1;1;3
2916;2;1;2
2917;3;1;2
2918;4;1;2
2919;3;1;3
2920;3;1;3
2921;3;1;3
2922;3;1;3
2923;2;1;4
2924;2;1;5
2925;1;1;6
2926;1;2;6
2927;1;1;6
2928;1;2;5
2929;1;0;5
2930;1;1;4
2931;1;0;4
2932;2;1;5
2933;1;1;6
2934;1;2;6
2935;0;2;7
2936;0;2;8
2937;0;2;8
2938;0;1;9
2939;0;1;10
2940;1;1;9
2941;1;1;8
2942;2;0;8
2943;2;0;8
2944;2;0;7
2945;1;0;7
2946;2;1;8
2947;3;0;7
2948;3;1;7
2949;2;1;7
2950;1;0;8
2951;1;0;7
2952;1;0;9
2953;0;1;10
2954;1;0;9
2955;2;0;8
2956;3;1;7
2957;2;2;7
2958;2;3;8
2959;2;3;8
2960;2;3;7
2961;2;3;7
2962;1;3;8
2963;0;2;9
2964;0;1;8
2965;1;1;7
2966;1;1;7
2967;0;1;8
2968;0;1;8
2969;2;2;7
2970;2;1;7
2971;2;0;7
2972;1;0;7
2973;1;0;7
2974;1;0;7
2975;1;2;7
2976;1;2;6
2977;1;2;5
2978;2;1;4
2979;1;1;5
2980;1;0;4
2981;2;1;3
2982;3;1;3
2983;2;1;4
2984;3;1;3
2985;2;1;3
2986;2;0;3
2987;2;1;3
2988;2;1;3
2989;2;0;3
2990;2;0;3
2991;3;0;3
2992;3;1;3
2993;2;0;5
2994;1;1;5
2995;1;1;4
2996;2;0;4
2997;2;1;3
2998;2;0;4
2999;1;0;5
3000;1;0;5
3001;3;1;4
3002;3;1;4
3003;4;1;3
3004;5;0;2
3005;5;1;2
3006;6;0;2
3007;6;1;2
3008;7;0;1
3009;6;0;2
3010;5;0;2
3011;6;1;2
3012;6;1;2
3013;6;1;2
3014;6;0;2
3015;5;0;3
3016;6;1;2
3017;5;0;3
3018;5;1;2
3019;5;0;1
3020;5;1;1
3021;5;1;2
3022;5;1;1
3023;5;0;1
3024;5;0;2
3025;5;1;2
3026;6;0;1
3027;7;1;0
3028;7;1;0
3029;6;1;1
3030;6;0;0
3031;6;1;1
3032;5;0;1
3033;5;1;1
3034;6;1;0
3035;7;1;0
3036;7;1;0
3037;7;1;1
3038;7;1;1
3039;7;0;2
3040;7;1;2
3041;6;1;3
3042;6;0;3
3043;5;1;3
3044;4;0;4
3045;4;1;4
3046;4;1;4
3047;3;1;4
3048;2;1;5
3049;2;1;4
3050;1;1;4
3051;3;2;3
3052;2;2;4
3053;2;2;3
3054;2;2;3
3055;2;2;4
3056;2;2;4
3057;1;2;4
3058;2;2;4
3059;1;3;5
3060;0;4;5
3061;1;5;5
3062;1;4;5
3063;1;4;5
3064;1;3;4
3065;1;2;4
3066;0;1;4
3067;0;1;5
3068;0;1;4
3069;2;1;5
3070;2;0;4
3071;3;1;4
3072;4;1;3
3073;4;1;2
3074;5;1;2
3075;5;1;2
3076;5;1;1
3077;6;1;1
3078;5;1;1
3079;4;1;2
3080;5;1;2
3081;5;0;1
3082;5;1;2
3083;4;1;2
3084;4;1;2
3085;4;1;1
3086;4;1;0
3087;3;1;0
3088;4;1;0
3089;3;0;1
3090;3;1;0
3091;4;1;0
3092;4;0;0
3093;4;0;0
3094;4;1;0
3095;5;1;0
3096;5;1;0
3097;5;1;1
3098;4;0;1
3099;5;0;0
3100;4;1;1
3101;3;1;2
3102;4;1;1
3103;3;2;2
3104;2;2;2
3105;3;2;1
3106;3;3;2
3107;4;3;1
3108;4;3;1
3109;5;2;1
3110;5;2;0
3111;4;2;0
3112;5;2;0
3113;5;2;1
3114;5;1;1
3115;4;1;1
3116;4;1;2
3117;4;1;2
3118;4;1;1
3119;4;0;1
3120;3;0;2
3121;4;1;1
3122;4;1;2
3123;3;1;2
3124;3;0;2
3125;3;1;1
3126;2;1;2
3127;1;1;3
3128;2;1;2
3129;2;1;3
3130;1;1;4
3131;0;1;5
3132;1;1;5
3133;0;1;5
3134;0;1;6
3135;1;0;7
3136;1;1;6
3137;1;1;6
3138;0;3;7
3139;0;2;7
3140;2;2;7
3141;2;1;7
3142;2;0;7
3143;2;1;7
3144;1;1;8
3145;0;1;8
3146;0;0;10
3147;1;1;9
3148;2;2;8
3149;2;1;8
3150;2;0;8
3151;2;1;7
3152;1;1;8
3153;1;1;9
3154;0;1;10
3155;1;1;9
3156;1;0;8
3157;0;0;10
3158;0;0;9
3159;0;0;11
3160;1;1;10
3161;0;1;11
3162;1;1;10
3163;2;1;10
3164;2;0;11
3165;3;1;10
3166;4;0;9
3167;3;0;10
3168;2;0;11
3169;2;0;10
3170;3;2;10
3171;2;2;11
3172;2;2;11
3173;3;1;10
3174;3;2;9
3175;2;1;9
3176;1;0;9
3177;0;0;10
3178;0;0;11
3179;0;0;12
3180;1;1;11
3181;1;1;11
3182;1;2;11
3183;0;1;11
3184;1;0;10
3185;1;1;9
3186;0;0;10
3187;1;0;10
3188;3;1;9
3189;3;0;9
3190;2;0;9
3191;1;0;10
3192;0;1;11
3193;1;1;10
3194;1;0;11
3195;1;1;11
3196;1;1;12
3197;1;1;12
3198;0;1;12
3199;0;1;12
3200;1;0;11
3201;1;0;11
3202;1;1;11
3203;1;1;11
3204;1;1;11
3205;0;0;11
3206;2;0;10
3207;1;1;10
3208;1;0;10
3209;2;0;9
3210;3;0;8
3211;3;1;7
3212;3;0;8
3213;2;0;8
3214;1;1;9
3215;1;0;9
3216;2;0;9
3217;1;1;10
3218;0;0;11
3219;0;0;11
3220;1;1;11
3221;1;0;10
3222;1;0;10
3223;0;1;11
3224;0;0;11
3225;2;1;10
3226;1;2;10
3227;3;1;9
3228;3;1;9
3229;2;1;9
3230;3;2;8
3231;2;1;10
3232;1;1;11
3233;1;1;10
3234;1;0;10
3235;1;0;9
3236;0;0;10
3237;0;1;10
3238;1;1;11
3239;2;1;10
3240;3;0;10
3241;3;0;10
3242;3;1;10
3243;2;1;10
3244;1;0;12
3245;1;0;11
3246;0;1;12
3247;1;0;12
3248;0;1;14
3249;1;1;14
3250;2;0;14
3251;2;0;14
3252;1;1;14
3253;1;1;15
3254;1;1;14
3255;1;0;15
3256;2;1;14
3257;2;0;13
3258;3;1;12
3259;3;1;11
3260;2;0;11
3261;1;0;11
3262;1;1;10
3263;3;0;9
3264;3;0;8
3265;4;1;9
3266;4;0;9
3267;3;0;10
3268;3;0;9
3269;2;1;9
3270;3;0;9
3271;3;1;9
3272;2;1;10
3273;1;0;11
3274;1;1;11
3275;1;1;10
3276;3;0;10
3277;3;1;10
3278;2;0;11
3279;3;1;10
3280;3;0;10
3281;3;0;10
3282;4;0;9
3283;5;0;8
3284;5;0;7
3285;5;0;7
3286;4;0;8
3287;4;1;7
3288;4;1;7
3289;4;1;7
3290;4;0;6
3291;4;0;6
3292;3;0;6
3293;3;0;6
3294;4;1;5
3295;5;2;4
3296;4;3;5
3297;5;2;4
3298;5;2;4
3299;6;2;3
3300;7;2;2
3301;8;1;1
3302;7;1;2
3303;8;1;1
3304;7;1;1
3305;7;0;2
3306;7;0;1
3307;8;1;1
3308;8;1;1
3309;8;1;0
3310;9;1;0
3311;9;2;0
3312;8;1;1
3313;8;1;1
3314;8;1;1
3315;8;1;0
3316;9;1;0
3317;8;1;2
3318;7;1;2
3319;7;1;2
3320;7;1;3
3321;6;0;3
3322;6;0;2
3323;5;0;2
3324;5;1;1
3325;6;1;0
3326;6;1;0
3327;6;0;0
3328;6;1;0
3329;5;0;1
3330;5;1;1
3331;4;1;2
3332;5;1;2
3333;5;1;2
3334;4;0;3
3335;5;1;2
3336;5;1;1
3337;5;0;2
3338;6;1;1
3339;5;3;1
3340;6;3;1
3341;5;3;2
3342;5;3;1
3343;6;3;1
3344;6;2;1
3345;6;3;0
3346;8;3;0
3347;9;2;0
3348;9;2;0
3349;8;2;0
3350;7;1;0
3351;6;1;0
3352;5;1;0
3353;6;1;0
3354;5;2;0
3355;5;2;1
3356;5;2;1
3357;4;2;1
3358;4;2;0
3359;5;2;0
3360;4;1;0
3361;3;0;1
3362;2;0;1
3363;2;1;2
3364;1;1;2
3365;1;0;3
3366;0;1;3
3367;1;1;3
3368;1;1;4
3369;1;2;4
3370;2;0;3
3371;3;1;2
3372;3;1;2
3373;3;1;2
3374;3;2;1
3375;2;2;3
3376;2;2;2
3377;2;2;2
3378;2;1;1
3379;2;0;0
3380;2;1;1
3381;2;1;0
3382;3;1;0
3383;3;1;0
3384;3;0;0
3385;2;1;0
3386;4;0;0
3387;4;0;0
3388;4;0;1
3389;3;1;1
3390;2;1;1
3391;2;1;1
3392;2;0;1
3393;2;0;1
3394;1;1;2
3395;0;0;2
3396;1;0;2
3397;0;0;2
3398;0;0;2
3399;0;1;2
3400;0;1;3
3401;0;0;3
3402;0;1;2
3403;0;0;3
3404;0;1;4
3405;0;0;4
3406;0;1;4
3407;0;1;5
3408;0;1;4
3409;1;1;3
3410;2;1;3
3411;1;0;4
3412;0;1;5
3413;0;1;6
3414;0;1;7
3415;0;0;7
3416;1;1;7
3417;1;1;6
3418;0;1;8
3419;1;1;8
3420;0;1;9
3421;1;1;9
3422;1;1;8
3423;1;1;10
3424;0;1;10
3425;0;1;10
3426;0;0;9
3427;0;0;10
3428;0;0;10
3429;0;0;12
3430;1;1;11
3431;1;1;12
3432;1;1;11
3433;3;1;11
3434;3;1;11
3435;3;1;11
3436;2;1;12
3437;3;0;12
3438;3;1;11
3439;3;1;12
3440;3;1;12
3441;3;0;12
3442;3;0;11
3443;4;1;10
3444;4;0;10
3445;4;0;10
3446;4;1;10
3447;3;2;11
3448;3;1;11
3449;3;0;10
3450;4;0;9
3451;3;0;10
3452;3;0;10
3453;3;1;10
3454;3;0;10
3455;4;1;9
3456;4;0;9
3457;3;1;11
3458;4;1;10
3459;4;0;10
3460;5;1;11
3461;6;1;11
3462;5;1;11
3463;5;0;11
3464;4;1;11
3465;4;1;10
3466;3;1;11
3467;3;0;10
3468;2;1;11
3469;2;1;11
3470;2;1;12
3471;2;1;12
3472;1;0;12
3473;1;1;13
3474;1;1;13
3475;0;1;13
3476;0;1;13
3477;0;1;14
3478;1;2;13
3479;0;1;13
3480;2;0;13
3481;2;0;13
3482;3;0;12
3483;2;0;12
3484;2;0;13
3485;2;0;13
3486;2;1;12
3487;3;1;11
3488;3;1;11
3489;2;1;11
3490;2;1;11
3491;2;0;10
3492;3;0;9
3493;3;0;8
3494;3;0;7
3495;3;0;6
3496;3;0;5
3497;3;0;6
3498;2;1;7
3499;2;1;7
3500;2;0;7
3501;1;1;7
3502;2;1;6
3503;2;1;6
3504;2;0;5
3505;3;0;5
3506;3;0;4
3507;2;1;4
3508;3;1;3
3509;3;1;4
3510;3;0;5
3511;3;0;5
3512;3;0;4
3513;4;1;3
3514;5;2;3
3515;5;1;2
3516;4;2;4
3517;3;1;4
3518;4;1;4
3519;5;0;3
3520;4;1;3
3521;4;1;2
3522;5;0;1
3523;5;0;0
3524;5;0;0
3525;5;0;0
3526;5;0;0
3527;6;1;0
3528;7;1;0
3529;8;1;0
3530;7;0;0
3531;7;1;0
3532;8;0;0
3533;8;0;0
3534;8;1;0
3535;9;1;0
3536;8;0;1
3537;8;1;0
3538;8;0;1
3539;8;0;1
3540;7;1;1
3541;6;1;2
3542;6;1;2
3543;6;1;3
3544;5;1;4
3545;5;0;4
3546;4;1;4
3547;3;0;5
3548;3;1;5
3549;2;0;6
3550;1;1;7
3551;1;0;6
3552;0;1;7
3553;0;2;8
3554;0;2;9
3555;0;2;9
3556;1;2;9
3557;1;2;8
3558;0;2;9
3559;1;2;9
3560;0;2;10
3561;0;2;10
3562;0;3;11
3563;1;2;11
3564;3;1;10
3565;2;1;11
3566;2;1;11
3567;2;1;10
3568;1;1;12
3569;0;1;12
3570;0;1;13
3571;0;0;12
3572;0;1;13
3573;0;0;12
3574;1;1;13
3575;1;1;13
3576;0;1;13
3577;1;1;13
3578;1;1;13
3579;2;0;12
3580;1;1;12
3581;2;0;12
3582;1;0;13
3583;0;0;13
3584;0;0;15
3585;0;0;14
3586;1;0;13
3587;1;1;13
3588;0;0;13
3589;0;1;15
3590;0;1;15
3591;0;1;14
3592;0;1;13
3593;0;1;14
3594;0;1;15
3595;0;1;15
3596;1;0;14
3597;1;0;14
3598;0;1;15
3599;0;1;16
3600;1;0;16
3601;2;1;15
3602;2;1;15
3603;1;1;16
3604;1;0;16
3605;2;0;16
3606;3;1;15
3607;3;1;15
3608;4;1;14
3609;4;1;14
3610;4;0;14
3611;3;1;15
3612;3;0;15
3613;3;1;15
3614;3;1;14
3615;2;1;14
3616;2;1;14
3617;1;1;14
3618;1;1;13
3619;2;0;13
3620;1;0;13
3621;0;1;13
3622;0;1;13
3623;1;1;13
3624;1;1;13
3625;2;1;13
3626;2;2;12
3627;2;2;11
3628;1;1;12
3629;0;1;12
3630;1;1;13
3631;1;0;12
3632;2;1;11
3633;2;1;10
3634;1;1;10
3635;1;1;10
3636;1;1;9
3637;2;0;9
3638;1;0;10
3639;1;1;9
3640;0;1;10
3641;0;1;11
3642;0;0;10
3643;1;0;10
3644;0;0;10
3645;1;0;10
3646;1;0;10
3647;1;0;10
3648;0;2;10
3649;1;1;10
3650;1;1;10
3651;0;1;11
3652;1;1;12
3653;0;2;12
3654;1;0;13
3655;1;0;13
3656;2;1;12
3657;2;1;12
3658;3;1;11
3659;2;2;12
3660;1;1;13
3661;1;0;13
3662;0;0;14
3663;0;1;14
3664;0;1;14
3665;0;1;15
3666;1;1;15
3667;0;1;15
3668;1;1;14
3669;1;1;15
3670;2;1;15
3671;2;0;14
3672;2;0;15
3673;2;0;14
3674;3;1;13
3675;2;1;15
3676;1;0;16
3677;2;0;16
3678;2;1;15
3679;1;0;16
3680;0;1;17
3681;0;1;18
3682;1;1;18
3683;2;1;18
3684;2;0;18
3685;2;0;18
3686;2;0;18
3687;1;0;19
3688;0;1;19
3689;1;1;19
3690;0;1;19
3691;1;0;20
3692;1;0;20
3693;2;1;19
3694;2;1;18
3695;2;0;19
3696;1;0;20
3697;1;0;20
3698;2;0;19
3699;1;0;19
3700;2;1;18
3701;2;1;18
3702;3;0;17
3703;3;1;16
3704;5;0;15
3705;5;1;14
3706;4;1;15
3707;4;1;16
3708;4;1;16
3709;4;1;16
3710;3;2;17
3711;3;1;17
3712;4;1;16
3713;3;0;16
3714;4;0;16
3715;3;0;16
3716;2;1;16
3717;2;1;16
3718;2;1;16
3719;1;1;16
3720;3;1;15
3721;3;1;14
3722;3;0;15
3723;2;1;16
3724;1;0;16
3725;1;0;16
3726;2;1;15
3727;1;1;15
3728;2;1;14
3729;2;1;14
3730;3;1;14
3731;2;1;14
3732;2;1;15
3733;2;1;15
3734;2;1;14
3735;2;1;14
3736;2;0;14
3737;2;1;13
3738;1;1;13
3739;1;1;12
3740;1;2;12
3741;1;1;11
3742;0;1;13
3743;0;0;13
3744;0;0;12
3745;1;1;12
3746;1;2;12
3747;0;2;12
3748;1;2;11
3749;2;2;11
3750;1;1;12
3751;2;0;11
3752;1;0;11
3753;0;1;12
3754;1;1;12
3755;1;0;11
3756;2;1;11
3757;2;1;10
3758;2;1;9
3759;3;0;8
3760;3;1;9
3761;2;1;9
3762;3;2;9
3763;3;2;8
3764;2;2;10
3765;1;2;11
3766;2;2;10
3767;2;3;9
3768;2;2;10
3769;2;2;10
3770;1;2;11
3771;1;2;11
3772;2;2;10
3773;1;2;11
3774;1;1;11
3775;2;2;11
3776;2;2;10
3777;4;2;9
3778;4;2;9
3779;4;2;9
3780;3;3;9
3781;3;2;10
3782;3;2;10
3783;3;2;10
3784;2;2;11
3785;1;1;11
3786;1;0;11
3787;2;0;11
3788;2;0;11
3789;2;0;10
3790;1;1;11
3791;1;0;11
3792;0;0;11
3793;1;1;11
3794;0;0;11
3795;0;0;11
3796;0;1;10
3797;1;1;11
3798;1;0;10
3799;0;0;10
3800;1;0;11
3801;1;0;10
3802;1;1;11
3803;0;2;12
3804;1;2;12
3805;1;2;11
3806;2;2;11
3807;1;2;11
3808;2;2;11
3809;1;3;12
3810;2;2;11
3811;1;1;11
3812;3;1;10
3813;2;1;11
3814;2;1;10
3815;2;1;10
3816;2;1;10
3817;2;1;9
3818;3;2;9
3819;3;3;8
3820;3;2;9
3821;2;2;10
3822;1;2;10
3823;1;2;9
3824;1;2;8
3825;2;2;7
3826;3;2;6
3827;4;1;5
3828;3;0;6
3829;3;1;5
3830;2;1;6
3831;1;0;6
3832;0;1;7
3833;0;1;7
3834;1;1;6
3835;2;1;5
3836;2;1;5
3837;2;1;6
3838;2;1;5
3839;2;1;5
3840;2;1;5
3841;2;0;5
3842;1;0;5
3843;1;0;6
3844;2;1;5
3845;1;1;5
3846;1;1;5
3847;2;0;4
3848;2;1;4
3849;2;1;4
3850;2;1;4
3851;2;2;3
3852;1;1;4
3853;0;1;4
3854;0;0;3
3855;0;0;4
3856;1;1;3
3857;2;1;2
3858;2;0;1
3859;2;1;1
3860;3;1;0
3861;4;1;0
3862;3;0;1
3863;3;1;0
3864;3;0;0
3865;4;1;0
3866;4;0;0
3867;3;1;0
3868;2;0;0
3869;2;0;2
3870;3;0;1
3871;4;1;0
3872;3;0;1
3873;2;1;1
3874;1;0;2
3875;1;1;3
3876;0;1;4
3877;0;1;4
3878;1;1;4
3879;0;2;5
3880;1;2;5
3881;0;1;5
3882;0;0;5
3883;0;0;6
3884;0;0;7
3885;0;1;6
3886;2;1;5
3887;2;1;6
3888;1;0;6
3889;2;1;5
3890;1;1;5
3891;2;1;5
3892;1;1;6
3893;2;1;5
3894;2;1;4
3895;3;0;4
3896;2;1;5
3897;2;2;5
3898;1;2;5
3899;1;2;5
3900;3;2;4
3901;2;3;4
3902;2;4;5
3903;1;3;5
3904;3;2;5
3905;2;2;5
3906;3;1;4
3907;2;1;4
3908;2;1;4
3909;2;1;4
3910;2;1;4
3911;2;0;4
3912;2;1;4
3913;1;1;4
3914;1;1;3
3915;0;2;4
3916;0;0;4
3917;0;1;4
3918;1;1;3
3919;1;0;3
3920;3;0;2
3921;3;1;2
3922;3;0;1
3923;3;1;1
3924;4;1;1
3925;4;2;1
3926;5;3;2
3927;5;2;2
3928;6;2;1
3929;5;1;1
3930;5;0;1
3931;4;1;1
3932;4;0;2
3933;4;1;2
3934;3;0;2
3935;3;1;1
3936;3;0;1
3937;2;2;1
3938;2;1;0
3939;1;1;1
3940;1;1;0
3941;1;1;1
3942;0;1;1
3943;1;0;0
3944;1;0;1
3945;1;1;1
3946;1;0;1
3947;0;0;1
3948;0;1;1
3949;0;1;0
3950;2;1;0
3951;2;0;0
3952;3;1;0
3953;3;1;0
3954;3;1;0
3955;3;1;1
3956;4;0;1
3957;3;1;1
3958;2;1;1
3959;2;0;2
3960;2;0;2
3961;3;1;1
3962;2;0;1
3963;1;1;1
3964;1;0;1
3965;1;0;1
3966;0;0;2
3967;0;0;3
3968;1;1;2
3969;0;1;3
3970;0;1;4
3971;0;1;4
3972;0;1;3
3973;0;1;5
3974;1;1;4
3975;0;1;4
3976;0;1;4
3977;0;0;4
3978;1;0;6
3979;0;1;6
3980;0;1;7
3981;1;0;6
3982;1;0;6
3983;0;0;6
3984;0;2;6
3985;1;2;5
3986;3;2;4
3987;3;2;4
3988;2;3;4
3989;2;3;4
3990;2;3;3
3991;3;3;2
3992;2;2;3
3993;2;2;3
3994;1;1;3
3995;2;1;2
3996;2;2;3
3997;3;1;2
3998;2;2;2
3999;3;1;2
4000;2;0;2
4001;4;1;1
4002;4;1;1
4003;3;0;1
4004;4;1;1
4005;3;0;2
4006;2;1;3
4007;2;1;2
4008;3;1;2
4009;2;1;2
4010;3;2;2
4011;3;2;2
4012;3;2;2
4013;3;1;1
4014;3;1;2
4015;3;1;1
4016;3;1;1
4017;2;1;2
4018;2;0;1
4019;2;0;2
4020;1;1;2
4021;1;1;1
4022;2;0;1
4023;2;0;0
4024;1;1;1
4025;1;1;0
4026;2;1;0
4027;1;2;0
4028;3;2;0
4029;3;1;1
4030;3;2;1
4031;2;1;1
4032;2;1;1
4033;3;1;0
4034;2;1;0
4035;1;0;1
4036;1;1;0
4037;1;1;1
4038;0;0;1
4039;1;0;1
4040;0;0;2
4041;1;0;1
4042;1;1;0
4043;1;1;1
4044;0;0;2
4045;0;1;1
4046;0;0;2
4047;0;1;1
4048;0;1;1
4049;1;0;2
4050;1;0;2
4051;0;1;2
4052;0;1;2
4053;0;1;1
4054;0;1;2
4055;1;1;3
4056;0;1;4
4057;0;1;4
4058;0;1;4
4059;0;2;5
4060;1;2;4
4061;0;2;4
4062;1;2;3
4063;2;1;2
4064;2;0;2
4065;1;2;2
4066;2;1;1
4067;2;2;1
4068;1;3;1
4069;0;2;1
4070;0;3;2
4071;1;3;2
4072;1;3;1
4073;0;2;1
4074;0;2;2
4075;0;1;2
4076;0;2;2
4077;0;0;2
4078;1;1;1
4079;0;0;2
4080;1;1;3
4081;0;2;3
4082;1;1;4
4083;0;1;5
4084;0;0;5
4085;0;1;4
4086;0;2;5
4087;0;2;5
4088;1;2;5
4089;1;2;4
4090;1;2;4
4091;1;1;5
4092;1;1;4
4093;0;1;4
4094;1;0;4
4095;1;1;4
4096;1;1;3
4097;2;0;3
4098;2;0;2
4099;2;1;2
4100;3;0;1
4101;4;1;1
4102;5;0;0
4103;4;1;0
4104;4;1;0
4105;3;2;0
4106;2;0;2
4107;2;0;1
4108;2;0;0
4109;1;0;0
4110;1;0;0
4111;1;1;1
4112;2;1;1
4113;3;0;0
4114;3;1;0
4115;4;1;0
4116;4;2;1
4117;5;1;1
4118;4;1;2
4119;4;2;1
4120;3;2;2
4121;3;2;2
4122;3;1;1
4123;4;0;0
4124;5;0;0
4125;5;0;0
4126;6;0;0
4127;6;1;0
4128;6;1;0
4129;7;1;0
4130;7;0;1
4131;6;1;1
4132;7;0;0
4133;7;1;2
4134;7;1;1
4135;8;0;1
4136;8;1;1
4137;7;0;2
4138;7;1;1
4139;7;0;1
4140;8;0;1
4141;8;0;0
4142;9;1;0
4143;11;2;0
4144;11;0;0
4145;11;1;0
4146;10;2;1
4147;9;2;2
4148;8;1;3
4149;8;0;3
4150;8;1;3
4151;8;1;4
4152;9;1;3
4153;9;0;3
4154;9;1;4
4155;8;1;5
4156;8;0;5
4157;9;0;5
4158;9;1;5
4159;9;0;5
4160;9;1;5
4161;10;1;5
4162;10;0;5
4163;10;1;5
4164;9;0;5
4165;8;0;6
4166;7;0;7
4167;6;0;7
4168;6;0;8
4169;6;1;7
4170;6;0;7
4171;6;1;7
4172;6;1;7
4173;7;0;6
4174;8;0;6
4175;7;0;6
4176;6;0;6
4177;6;0;6
4178;6;1;6
4179;5;0;6
4180;6;1;7
4181;7;1;6
4182;8;1;6
4183;8;0;5
4184;7;1;5
4185;8;1;6
4186;7;1;6
4187;8;1;6
4188;8;0;7
4189;7;0;8
4190;6;0;8
4191;5;1;9
4192;5;0;10
4193;4;1;10
4194;4;0;10
4195;3;0;11
4196;3;0;11
4197;2;1;12
4198;1;1;13
4199;1;0;13
4200;2;1;12
4201;1;0;13
4202;1;0;13
4203;0;0;14
4204;0;1;14
4205;0;1;14
4206;0;1;14
4207;1;1;14
4208;0;1;15
4209;1;0;15
4210;0;1;15
4211;0;1;16
4212;0;1;16
4213;1;1;16
4214;0;1;16
4215;0;1;16
4216;1;1;16
4217;1;1;15
4218;1;2;15
4219;1;1;15
4220;1;0;16
4221;2;1;15
4222;3;1;14
4223;2;1;14
4224;2;1;15
4225;2;0;14
4226;2;1;14
4227;2;0;14
4228;2;0;14
4229;3;0;13
4230;3;0;13
4231;3;1;12
4232;3;1;11
4233;4;1;11
4234;4;1;12
4235;3;1;12
4236;2;1;13
4237;2;1;13
4238;1;1;15
4239;0;1;15
4240;1;2;15
4241;2;1;15
4242;1;1;15
4243;2;1;14
4244;1;0;15
4245;0;0;16
4246;0;1;16
4247;0;1;16
4248;1;0;17
4249;1;0;16
4250;3;0;15
4251;2;1;15
4252;3;1;14
4253;3;0;14
4254;3;1;13
4255;3;0;12
4256;4;1;12
4257;4;0;12
4258;4;0;12
4259;5;1;11
4260;5;0;11
4261;5;1;11
4262;5;1;11
4263;4;1;11
4264;4;0;10
4265;3;0;10
4266;2;1;12
4267;2;0;12
4268;2;0;12
4269;2;1;11
4270;2;1;11
4271;2;0;10
4272;2;1;10
4273;3;1;10
4274;3;0;9
4275;3;0;10
4276;2;0;11
4277;3;0;10
4278;3;1;11
4279;3;1;10
4280;2;0;10
4281;1;1;10
4282;0;1;11
4283;0;1;11
4284;0;1;11
4285;0;1;12
4286;1;1;11
4287;2;1;11
4288;2;1;10
4289;2;1;9
4290;2;1;9
4291;2;0;9
4292;1;1;10
4293;1;1;10
4294;1;1;10
4295;1;1;9
4296;1;0;9
4297;2;1;8
4298;3;0;7
4299;2;1;8
4300;2;1;8
4301;1;0;8
4302;1;0;9
4303;1;1;8
4304;2;1;8
4305;2;0;8
4306;2;1;7
4307;2;0;7
4308;2;1;6
4309;2;1;7
4310;1;1;8
4311;1;1;7
4312;1;1;7
4313;0;1;8
4314;1;0;7
4315;0;0;8
4316;1;0;7
4317;1;0;7
4318;1;0;7
4319;2;0;7
4320;1;1;7
4321;1;0;7
4322;0;1;7
4323;0;0;8
4324;1;0;7
4325;1;1;7
4326;0;1;7
4327;1;0;6
4328;1;0;6
4329;1;0;5
4330;2;0;5
4331;1;0;5
4332;2;0;5
4333;1;0;5
4334;2;1;5
4335;1;1;5
4336;0;1;6
4337;0;1;6
4338;0;2;6
4339;0;2;7
4340;0;3;7
4341;0;1;8
4342;0;1;8
4343;0;1;9
4344;0;1;9
4345;0;1;9
4346;1;0;9
4347;2;1;8
4348;2;0;7
4349;3;0;8
4350;4;1;7
4351;3;0;8
4352;3;1;8
4353;2;0;9
4354;3;0;8
4355;3;1;7
4356;2;0;7
4357;2;1;7
4358;3;0;6
4359;3;1;6
4360;3;1;5
4361;4;0;4
4362;3;0;5
4363;3;1;5
4364;4;0;4
4365;4;1;3
4366;4;1;2
4367;5;1;2
4368;4;0;4
4369;5;0;3
4370;5;1;3
4371;5;1;3
4372;4;1;3
4373;5;1;2
4374;5;2;3
4375;4;2;3
4376;5;2;2
4377;5;2;1
4378;6;2;0
4379;6;2;1
4380;7;1;0
4381;7;0;0
4382;6;1;1
4383;7;1;0
4384;6;1;0
4385;6;0;1
4386;6;1;1
4387;6;0;1
4388;7;1;1
4389;6;1;1
4390;5;1;3
4391;5;0;2
4392;7;0;1
4393;7;1;1
4394;7;1;1
4395;7;0;2
4396;8;0;2
4397;8;1;1
4398;8;1;0
4399;9;1;0
4400;9;1;1
4401;9;0;0
4402;10;1;0
4403;11;0;0
4404;11;1;1
4405;12;1;0
4406;11;1;1
4407;11;0;0
4408;11;1;0
4409;10;1;0
4410;11;1;0
4411;11;1;0
4412;11;1;0
4413;11;0;0
4414;10;1;2
4415;9;1;2
4416;9;2;2
4417;9;1;2
4418;9;1;2
4419;9;0;2
4420;10;2;1
4421;9;2;1
4422;9;3;1
4423;10;2;0
4424;9;2;1
4425;9;1;1
4426;8;1;1
4427;9;0;1
4428;8;1;2
4429;8;1;3
4430;7;1;4
4431;6;1;5
4432;5;1;6
4433;4;1;6
4434;3;0;8
4435;2;1;8
4436;1;0;8
4437;1;0;7
4438;1;0;8
4439;1;0;7
4440;2;0;7
4441;1;1;7
4442;1;0;7
4443;1;1;7
4444;1;1;8
4445;1;1;7
4446;2;0;6
4447;3;0;6
4448;4;1;5
4449;5;0;4
4450;6;0;3
4451;6;1;3
4452;7;1;2
4453;7;1;2
4454;6;0;2
4455;6;0;2
4456;6;0;2
4457;5;1;2
4458;5;0;1
4459;5;1;2
4460;4;1;2
4461;4;1;3
4462;4;1;3
4463;3;1;3
4464;3;1;3
4465;3;1;3
4466;3;2;2
4467;4;1;2
4468;4;1;2
4469;5;1;1
4470;5;1;1
4471;4;1;2
4472;3;2;2
4473;2;1;3
4474;2;0;3
4475;1;1;4
4476;0;2;5
4477;0;2;4
4478;1;2;5
4479;1;2;4
4480;0;2;6
4481;1;2;5
4482;0;1;6
4483;0;1;6
4484;0;1;7
4485;0;1;7
4486;2;1;7
4487;2;0;7
4488;1;1;7
4489;0;1;9
4490;0;1;8
4491;0;0;7
4492;1;1;7
4493;2;1;7
4494;2;0;7
4495;1;0;8
4496;1;1;7
4497;1;1;8
4498;0;0;8
4499;0;0;8
4500;0;0;8
4501;0;0;9
4502;1;1;8
4503;0;0;8
4504;2;0;8
4505;2;0;8
4506;1;0;8
4507;1;1;7
4508;2;2;6
4509;2;3;5
4510;2;3;6
4511;1;4;7
4512;1;4;7
4513;0;4;7
4514;0;3;6
4515;0;3;6
4516;1;4;7
4517;1;3;7
4518;1;3;6
4519;1;2;7
4520;1;1;7
4521;0;1;7
4522;0;0;7
4523;0;0;7
4524;1;0;7
4525;1;1;7
4526;1;1;9
4527;1;0;9
4528;1;0;8
4529;0;1;8
4530;0;1;9
4531;0;0;9
4532;2;1;9
4533;2;2;8
4534;3;2;8
4535;2;2;9
4536;1;2;10
4537;1;2;10
4538;2;2;9
4539;2;1;8
4540;3;0;8
4541;4;0;7
4542;4;0;6
4543;5;0;6
4544;4;0;6
4545;4;0;6
4546;5;0;5
4547;4;1;5
4548;5;0;4
4549;5;1;4
4550;6;0;3
4551;7;1;2
4552;7;1;1
4553;7;0;2
4554;6;0;2
4555;6;0;3
4556;6;0;3
4557;6;0;3
4558;6;1;3
4559;6;1;3
4560;6;0;2
4561;7;1;2
4562;6;1;3
4563;5;1;4
4564;5;1;4
4565;4;0;4
4566;5;1;3
4567;5;0;3
4568;5;1;2
4569;5;1;2
4570;5;1;2
4571;4;1;2
4572;4;0;2
4573;4;1;2
4574;5;1;1
4575;6;1;0
4576;5;1;1
4577;4;1;2
4578;3;1;2
4579;4;1;2
4580;3;1;2
4581;2;1;3
4582;1;1;4
4583;1;0;3
4584;0;1;3
4585;2;0;2
4586;1;1;2
4587;2;1;1
4588;2;1;1
4589;3;1;0
4590;4;1;0
4591;4;1;0
4592;5;1;1
4593;4;0;2
4594;4;1;2
4595;3;1;3
4596;3;0;2
4597;2;0;4
4598;1;0;5
4599;0;0;6
4600;0;1;6
4601;0;1;6
4602;1;1;5
4603;1;1;6
4604;1;1;6
4605;2;0;5
4606;1;1;5
4607;0;1;6
4608;0;1;5
4609;1;2;6
4610;1;1;6
4611;1;2;7
4612;1;2;7
4613;1;1;7
4614;1;1;7
4615;2;0;7
4616;1;1;7
4617;0;2;8
4618;0;2;8
4619;1;2;9
4620;2;2;8
4621;2;3;8
4622;2;3;7
4623;1;3;9
4624;0;3;10
4625;1;3;10
4626;2;2;10
4627;1;1;10
4628;1;1;9
4629;0;0;10
4630;0;1;9
4631;0;1;9
4632;0;1;9
4633;0;0;9
4634;1;1;8
4635;0;1;8
4636;0;1;8
4637;0;1;7
4638;0;1;9
4639;0;1;10
4640;0;2;9
4641;0;2;8
4642;1;2;8
4643;0;3;8
4644;0;3;8
4645;1;3;8
4646;0;3;9
4647;0;3;8
4648;1;3;8
4649;2;2;8
4650;2;2;7
4651;2;1;7
4652;2;0;6
4653;4;1;5
4654;5;1;4
4655;5;0;3
4656;4;0;4
4657;6;0;4
4658;5;1;5
4659;5;0;6
4660;4;0;5
4661;4;1;4
4662;4;1;4
4663;5;1;4
4664;4;0;4
4665;4;1;5
4666;4;2;5
4667;5;1;4
4668;5;1;4
4669;5;0;3
4670;5;1;2
4671;4;1;4
4672;3;0;4
4673;3;1;4
4674;4;1;4
4675;3;1;5
4676;2;2;5
4677;1;2;5
4678;1;2;6
4679;0;2;6
4680;0;2;7
4681;0;1;8
4682;0;2;9
4683;0;2;9
4684;1;2;10
4685;1;1;9
4686;2;1;8
4687;2;1;7
4688;3;1;6
4689;2;1;6
4690;1;1;6
4691;1;0;7
4692;0;1;8
4693;0;0;8
4694;0;0;8
4695;0;0;8
4696;0;0;8
4697;0;1;8
4698;0;0;9
4699;1;1;8
4700;0;1;8
4701;2;0;8
4702;2;0;7
4703;4;1;6
4704;5;0;5
4705;4;0;6
4706;5;0;5
4707;5;0;4
4708;5;1;4
4709;5;0;3
4710;4;1;5
4711;3;1;5
4712;3;1;4
4713;3;0;4
4714;3;0;3
4715;2;0;4
4716;1;1;6
4717;0;2;7
4718;0;2;7
4719;0;3;8
4720;1;2;7
4721;1;2;7
4722;1;1;7
4723;0;0;8
4724;0;0;9
4725;0;0;8
4726;1;0;8
4727;0;0;8
4728;0;1;9
4729;1;1;9
4730;1;0;9
4731;1;0;9
4732;1;1;8
4733;2;0;7
4734;1;0;8
4735;0;0;8
4736;1;1;8
4737;1;2;9
4738;1;1;9
4739;1;0;9
4740;2;1;8
4741;3;1;7
4742;3;0;7
4743;4;1;6
4744;4;0;5
4745;4;0;5
4746;4;1;4
4747;5;2;3
4748;5;1;3
4749;4;0;4
4750;3;1;4
4751;2;0;5
4752;2;0;6
4753;3;0;6
4754;3;1;6
4755;4;0;6
4756;4;0;6
4757;3;1;6
4758;4;1;6
4759;4;1;5
4760;4;0;6
4761;4;1;6
4762;3;0;7
4763;4;0;6
4764;4;0;6
4765;4;1;5
4766;5;1;5
4767;4;0;5
4768;3;2;5
4769;2;2;5
4770;3;1;6
4771;3;1;7
4772;4;1;6
4773;4;1;5
4774;5;1;4
4775;5;0;4
4776;4;0;4
4777;5;0;4
4778;4;0;5
4779;4;0;5
4780;4;0;5
4781;3;0;5
4782;3;0;6
4783;4;0;5
4784;4;1;6
4785;5;1;5
4786;5;1;5
4787;5;2;5
4788;4;1;6
4789;4;1;6
4790;4;1;6
4791;4;1;5
4792;4;1;5
4793;4;1;5
4794;4;1;5
4795;5;2;4
4796;4;3;4
4797;4;2;4
4798;5;2;3
4799;4;2;3
4800;4;2;3
4801;4;1;2
4802;5;1;1
4803;5;0;1
4804;4;1;1
4805;3;2;2
4806;3;2;2
4807;3;2;2
4808;3;2;3
4809;2;1;3
4810;2;1;2
4811;2;1;1
4812;2;1;2
4813;1;1;2
4814;3;1;1
4815;3;1;0
4816;3;1;1
4817;4;2;1
4818;3;2;2
4819;2;2;2
4820;2;2;1
4821;1;2;2
4822;1;1;2
4823;2;1;1
4824;2;0;1
4825;2;1;1
4826;1;0;1
4827;1;0;1
4828;0;1;2
4829;0;1;3
4830;0;1;3
4831;1;1;2
4832;1;0;1
4833;1;1;2
4834;1;1;1
4835;1;1;1
4836;1;0;0
4837;1;1;1
4838;1;1;2
4839;0;1;3
4840;0;0;2
4841;1;1;2
4842;1;2;1
4843;1;2;0
4844;2;2;1
4845;1;1;1
4846;2;1;1
4847;1;1;2
4848;1;1;2
4849;1;2;1
4850;2;1;1
4851;2;0;0
4852;4;1;0
4853;4;1;0
4854;4;0;1
4855;3;1;2
4856;3;2;2
4857;2;0;2
4858;1;1;3
4859;2;1;2
4860;2;1;2
4861;3;1;1
4862;5;0;0
4863;5;1;1
4864;5;1;1
4865;5;1;0
4866;6;1;1
4867;5;0;1
4868;4;1;3
4869;5;2;2
4870;5;1;2
4871;5;2;1
4872;5;2;2
4873;5;3;1
4874;5;1;1
4875;5;2;1
4876;4;2;1
4877;4;1;2
4878;3;1;2
4879;3;1;2
4880;4;1;1
4881;4;1;1
4882;4;1;2
4883;5;1;3
4884;6;0;2
4885;6;0;2
4886;6;0;1
4887;6;1;1
4888;5;0;2
4889;5;0;2
4890;4;0;2
4891;5;1;1
4892;6;1;0
4893;6;0;0
4894;5;1;0
4895;4;0;0
4896;4;0;0
4897;6;0;0
4898;5;1;1
4899;5;2;0
4900;5;1;1
4901;4;0;1
4902;5;0;1
4903;5;0;1
4904;5;0;2
4905;5;1;2
4906;4;1;2
4907;4;2;2
4908;5;2;1
4909;5;1;0
4910;5;1;3
4911;5;1;3
4912;4;1;4
4913;4;1;3
4914;3;1;4
4915;2;0;5
4916;3;0;5
4917;2;1;5
4918;3;1;4
4919;2;0;4
4920;2;1;4
4921;3;0;4
4922;3;1;4
4923;4;1;4
4924;4;1;3
4925;3;2;4
4926;3;1;5
4927;2;2;5
4928;2;1;6
4929;3;1;6
4930;3;2;6
4931;2;2;6
4932;2;1;6
4933;3;1;5
4934;3;1;4
4935;3;1;6
4936;4;1;5
4937;5;1;4
4938;4;1;4
4939;5;1;3
4940;5;1;3
4941;6;1;2
4942;6;1;2
4943;6;1;2
4944;7;1;2
4945;7;0;2
4946;6;0;2
4947;6;0;2
4948;8;0;1
4949;9;0;0
4950;8;0;0
4951;9;0;1
4952;10;1;0
4953;9;0;0
4954;9;1;1
4955;8;0;3
4956;8;1;4
4957;9;0;3
4958;9;0;3
4959;9;0;4
4960;9;0;3
4961;8;0;4
4962;8;0;3
4963;8;1;3
4964;9;0;3
4965;8;1;3
4966;8;0;2
4967;8;0;1
4968;8;0;3
4969;8;0;2
4970;8;0;1
4971;7;1;1
4972;7;1;1
4973;7;0;2
4974;8;1;1
4975;8;0;0
4976;7;0;0
4977;7;1;0
4978;8;1;0
4979;9;0;0
4980;9;0;0
4981;9;0;1
4982;8;0;1
4983;9;0;1
4984;10;0;0
4985;9;1;0
4986;10;1;1
4987;10;0;0
4988;9;0;1
4989;8;0;2
4990;7;1;2
4991;9;0;1
4992;10;0;1
4993;10;0;0
4994;9;1;2
4995;8;0;2
4996;7;0;2
4997;6;1;3
4998;6;0;3
4999;6;1;2
