1;RR;infinite;d2;2092;245.262;0.418484
1;RR;infinite;d3;2151;242.783;0.430286
1;RR;infinite;d1;2114;209.231;0.422885
1;MCF;infinite;d2;0;0;0
1;MCF;infinite;d3;4198;239.768;0.839768
1;MCF;infinite;d1;4248;211.012;0.84977
1;MMF;infinite;d2;2032;268.457;0.406481
1;MMF;infinite;d3;2068;241.106;0.413683
1;MMF;infinite;d1;2143;197.766;0.428686
2;RR;infinite;d2;1512;300.904;0.30246
2;RR;infinite;d3;2306;295.367;0.461292
2;RR;infinite;d1;1528;263.807;0.305661
2;MCF;infinite;d2;0;0;0
2;MCF;infinite;d3;3071;281.84;0.614323
2;MCF;infinite;d1;3079;254.757;0.615923
2;MMF;infinite;d2;1511;305.428;0.30226
2;MMF;infinite;d3;1684;267.414;0.336867
2;MMF;infinite;d1;1543;260.454;0.308662
3;RR;infinite;d2;3453;255.143;0.690738
3;RR;infinite;d3;3447;253.096;0.689538
3;RR;infinite;d1;1436;202.241;0.287257
3;MCF;infinite;d2;4141;238.697;0.828366
3;MCF;infinite;d3;0;0;0
3;MCF;infinite;d1;4272;213.033;0.854571
3;MMF;infinite;d2;2707;269.423;0.541508
3;MMF;infinite;d3;2757;234.733;0.55151
3;MMF;infinite;d1;2921;201.404;0.584317