1;RR;Poisson;d2;2086;246.636;0.417283
1;RR;Poisson;d3;2136;252.326;0.427285
1;RR;Poisson;d1;2131;200.012;0.426285
1;MCF;Poisson;d2;2027;300.366;0.405481
1;MCF;Poisson;d3;2097;233.995;0.419484
1;MCF;Poisson;d1;2127;222.557;0.425485
1;MMF;Poisson;d2;2042;254.615;0.408482
1;MMF;Poisson;d3;2083;276.597;0.416683
1;MMF;Poisson;d1;2160;200.387;0.4320861
1;MCF-RR;Poisson;d2;2070;281.581;0.414083
1;MCF-RR;Poisson;d3;2133;234.849;0.426685
1;MCF-RR;Poisson;d1;2124;201.954;0.424885
1;MMF-RR;Poisson;d2;2093;240.256;0.418684
1;MMF-RR;Poisson;d3;2104;244.999;0.420884
1;MMF-RR;Poisson;d1;2132;198.767;0.426485
2;RR;Poisson;d2;1509;241.909;0.30186
2;RR;Poisson;d3;2205;317.98;0.441088
2;RR;Poisson;d1;1518;199.712;0.303661
2;MCF;Poisson;d2;1341;283.277;0.268254
2;MCF;Poisson;d3;1868;281.838;0.373675
2;MCF;Poisson;d1;1581;210.273;0.316263
2;MMF;Poisson;d2;1508;246.076;0.30166
2;MMF;Poisson;d3;1677;281.021;0.335467
2;MMF;Poisson;d1;1533;199.133;0.306661
2;MCF-RR;Poisson;d2;1348;277.455;0.269654
2;MCF-RR;Poisson;d3;2229;284.246;0.445889
2;MCF-RR;Poisson;d1;1539;199.442;0.307862
2;MMF-RR;Poisson;d2;1531;232.572;0.306261
2;MMF-RR;Poisson;d3;1877;274.704;0.375475
2;MMF-RR;Poisson;d1;1554;199.97;0.310862
3;RR;Poisson;d2;2358;272.882;0.471694
3;RR;Poisson;d3;2358;249.31;0.471694
3;RR;Poisson;d1;2346;290.619;0.469294
3;MCF;Poisson;d2;2082;370.391;0.416483
3;MCF;Poisson;d3;2310;229.149;0.462092
3;MCF;Poisson;d1;2119;227.975;0.423885
3;MMF;Poisson;d2;2093;292.884;0.418684
3;MMF;Poisson;d3;2039;240.585;0.407882
3;MMF;Poisson;d1;2311;243.475;0.462292
3;MCF-RR;Poisson;d2;2075;367.293;0.415083
3;MCF-RR;Poisson;d3;2383;232.239;0.476695
3;MCF-RR;Poisson;d1;2112;210.288;0.422484
3;MMF-RR;Poisson;d2;2067;275.934;0.413483
3;MMF-RR;Poisson;d3;2074;238.447;0.414883
3;MMF-RR;Poisson;d1;2400;234.282;0.480096